﻿// EVENT 3345
Name "Black Dahlia"

PictureDisplay(7,"80_sanki_st02",0,0,0,0,100,100,0,0)
PictureDisplay(6,"80_sanki_st12",0,0,0,0,100,100,0,0)
PictureDisplay(5,"80_sanki_st22",0,0,0,0,100,100,0,0)
PictureMove(7,null,0,0,0,0,100,100,255,0,30,false)
PictureMove(6,null,0,0,0,0,100,100,255,0,30,false)
PictureMove(5,null,0,0,0,0,100,100,255,0,30,true)
241(bytes(0x04,0x08,0x6f,0x3a,0x0d,0x52,0x50,0x47,0x3a,0x3a,0x42,0x47,0x4d,0x08,0x3a,0x0a,0x40,0x6e,0x61,0x6d,0x65,0x49,0x22,0x09,0x65,0x72,0x6f,0x31,0x06,0x3a,0x06,0x45,0x54,0x3a,0x0c,0x40,0x76,0x6f,0x6c,0x75,0x6d,0x65,0x69,0x69,0x3a,0x0b,0x40,0x70,0x69,0x74,0x63,0x68,0x69,0x69))
ShowMessageFace("",0,0,2,1)
ShowMessage("\\n<Luka>")
ShowMessage("Auuu...")
ShowMessageFace("sanki0_fc1",1,0,2,2)
ShowMessage("\\n<Black Dahlia>")
ShowMessage("He's already given up.")
ShowMessage("I dealt the finishing blow, so he's my prey...")
ShowMessageFace("sanki1_fc1",1,0,2,3)
ShowMessage("\\n<Black Mamba>")
ShowMessage("Oh dear, Black Dahlia's prey.")
ShowMessage("Your fate has been decided, your sperm will be wrung out...")
ShowMessageFace("sanki2_fc1",1,0,2,4)
ShowMessage("\\n<Black Rose>")
ShowMessage("Oh, I pity the human... Ufufufu.")
PictureClear(6)
PictureClear(7)
PictureDisplay(5,"ev_sanki_ha01",0,0,0,0,100,100,0,0)
PictureMove(5,null,0,0,0,0,100,100,255,0,30,true)
ShowMessageFace("",0,0,2,5)
ShowMessage("All the of them flock to where I am and push me down.")
ShowMessage("And the succubus Black Dahlia mounts me.")
ShowMessageFace("sanki0_fc1",1,0,2,6)
ShowMessage("\\n<Black Dahlia>")
ShowMessage("Well then, I'm going to rape you.")
ShowMessage("I'll suck you up inside me...")
ShowMessageFace("",0,0,2,7)
ShowMessage("\\n<Luka>")
ShowMessage("S-stop...")
ShowMessageFace("sanki1_fc1",1,0,2,8)
ShowMessage("\\n<Black Mamba>")
ShowMessage("It's no use trying to resist now.")
ShowMessage("All your energy and semen will become Black Dahlia's food.")
ShowMessageFace("sanki2_fc1",1,0,2,9)
ShowMessage("\\n<Black Rose>")
ShowMessage("But you'll also taste the ultimate pleasure.")
ShowMessage("Isn't that the dream of every human man, to be sucked dry by a succubus?")
ShowMessageFace("",0,0,2,10)
ShowMessage("\\n<Luka>")
ShowMessage("I d-don't want that... Aaaaah...!")
245(bytes(0x04,0x08,0x6f,0x3a,0x0d,0x52,0x50,0x47,0x3a,0x3a,0x42,0x47,0x53,0x08,0x3a,0x0a,0x40,0x6e,0x61,0x6d,0x65,0x49,0x22,0x1e,0x6d,0x6f,0x6e,0x5f,0x68,0x73,0x65,0x61,0x6e,0x30,0x38,0x5f,0x69,0x6e,0x6e,0x65,0x72,0x77,0x6f,0x72,0x6b,0x73,0x5f,0x61,0x38,0x06,0x3a,0x06,0x45,0x54,0x3a,0x0c,0x40,0x76,0x6f,0x6c,0x75,0x6d,0x65,0x69,0x55,0x3a,0x0b,0x40,0x70,0x69,0x74,0x63,0x68,0x69,0x69))
ShowMessageFace("",0,0,2,11)
ShowMessage("Black Dahlia, hovering above me, lowers her waist...")
ShowMessage("And my thing gets trapped in her vagina!")
PictureDisplay(6,"ev_sanki_ct01",0,0,0,0,100,100,255,0)
ShowMessageFace("",0,0,2,12)
ShowMessage("\\n<Luka>")
ShowMessage("Ah... Auuuu!")
ShowMessageFace("",0,0,2,13)
ShowMessage("Her sweet, soft vaginal flesh envelops my penis.")
ShowMessage("I can feel the warmth of her body which makes it seem as if I'm going to melt inside her.")
ShowMessageFace("",0,0,2,14)
ShowMessage("On top of that, her soft meat gently squeezes my penis.")
ShowMessage("Even though she hasn't even moved yet, just being inside her feels heavenly...")
ShowMessageFace("",0,0,2,15)
ShowMessage("\\n<Luka>")
ShowMessage("Auu... Amazing...")
ShowMessageFace("sanki0_fc1",1,0,2,16)
ShowMessage("\\n<Black Dahlia>")
ShowMessage("Ufufu, I just put it in and you're already entranced?")
ShowMessage("But, I'm going to make it feel even better...♪")
ShowMessageFace("sanki0_fc1",1,0,2,17)
ShowMessage("\\n<Black Dahlia>")
ShowMessage("If I move my waist like this...")
ShowMessage("I can send any man to heaven in an instant. ♪")
ShowMessageFace("",0,0,2,18)
ShowMessage("\\n<Luka>")
ShowMessage("D-don't... Aaaaaau!")
PictureDisplay(5,"ev_sanki_ha02",0,0,0,0,100,100,255,0)
PictureDisplay(6,"ev_sanki_ct02",0,0,0,0,100,100,255,0)
ShowMessageFace("",0,0,2,19)
ShowMessage("Black Dahlia starts moving her waist up and down, relentlessly attacking me.")
ShowMessage("As the soft meat inside her vagina rubs against my penis, I taste heavenly pleasure.")
ShowMessageFace("",0,0,2,20)
ShowMessage("\\n<Luka>")
ShowMessage("St-stop... Aaau!")
ShowMessageFace("",0,0,2,21)
ShowMessage("Showing no mercy, she slams her waist against mine, moving up and down.")
ShowMessage("Along with her heavy piston movements, her meat pot also squeezes my penis.")
ShowMessageFace("sanki1_fc1",1,0,2,22)
ShowMessage("\\n<Black Mamba>")
ShowMessage("Oh my, she's not going to show any mercy...")
ShowMessage("You're going to be wrung dry all at once.")
ShowMessageFace("sanki2_fc1",1,0,2,23)
ShowMessage("\\n<Black Rose>")
ShowMessage("You should learn to devour your prey slower...")
ShowMessageFace("sanki0_fc1",1,0,2,24)
ShowMessage("\\n<Black Dahlia>")
ShowMessage("Ufufu, I'm in the mood to suck him dry in one go.")
ShowMessage("Well then, let's get it out of you...♪")
ShowMessageFace("",0,0,2,25)
ShowMessage("Black Dahlia forcefully moves her waist, driving me into a corner all too fast.")
ShowMessage("The inside of her vagina contracts and squeezes my meat rod tightly...")
ShowMessageFace("",0,0,2,26)
ShowMessage("\\n<Luka>")
ShowMessage("Ugh... Aaaau...!")
ShowMessageFace("",0,0,2,27)
ShowMessage("I can't endure this lewd monster's one sided rape at all.")
ShowMessage("The feeling of release instantly wells up inside me.")
ShowMessageFace("",0,0,2,28)
ShowMessage("\\n<Luka>")
ShowMessage("Aaah... I'm already coming...")
ShowMessageFace("sanki0_fc1",1,0,2,29)
ShowMessage("\\n<Black Dahlia>")
ShowMessage("Don't try to endure it.")
ShowMessage("Hora, go ahead and shoot it all out...♪")
ShowMessageFace("",0,0,2,30)
ShowMessage("Black Dahlia wiggles her hips even more lewdly than before.")
ShowMessage("The inside of her vagina contracts and my penis is tightly but gently squeezed.")
ShowMessageFace("",0,0,2,31)
ShowMessage("This sweet pleasure makes the inside of my head go pure white.")
ShowMessage("I immerse myself in this melting sensation and thrust my hips up...")
ShowMessageFace("",0,0,2,32)
ShowMessage("\\n<Luka>")
ShowMessage("Ah, aaaaaah...")
RunCommonEvent(104)
PictureDisplay(5,"ev_sanki_ha03",0,0,0,0,100,100,255,0)
PictureDisplay(6,"ev_sanki_ct03",0,0,0,0,100,100,255,0)
RunCommonEvent(105)
ShowMessageFace("",0,0,2,33)
ShowMessage("And, I miserably come.")
ShowMessage("My semen streams inside Black Dahlia's vagina...")
ShowMessageFace("",0,0,2,34)
ShowMessage("Immediately after I start ejaculating, her vagina starts undulating.")
ShowMessage("I feel my semen being sucked right out of my penis.")
PictureDisplay(5,"ev_sanki_ha04",0,0,0,0,100,100,255,0)
PictureDisplay(6,"ev_sanki_ct04",0,0,0,0,100,100,255,0)
ShowMessageFace("",0,0,2,35)
ShowMessage("\\n<Luka>")
ShowMessage("Ah... Auuuu...")
ShowMessageFace("sanki0_fc1",1,0,2,36)
ShowMessage("\\n<Black Dahlia>")
ShowMessage("Ufufu, you shot out so much.")
ShowMessage("This boy's semen is tasty...♪")
ShowMessageFace("sanki1_fc1",1,0,2,37)
ShowMessage("\\n<Black Mamba>")
ShowMessage("Ah, I envy you...")
ShowMessageFace("sanki2_fc1",1,0,2,38)
ShowMessage("\\n<Black Rose>")
ShowMessage("However, why didn't you finish him in one shot?")
ShowMessage("You said you were going to drain him dry all at once.")
ShowMessageFace("sanki0_fc1",1,0,2,39)
ShowMessage("\\n<Black Dahlia>")
ShowMessage("Of course, ufufu...")
ShowMessage("Come, shoot out everything inside me. ♪")
PictureDisplay(5,"ev_sanki_ha05",0,0,0,0,100,100,255,0)
PictureDisplay(6,"ev_sanki_ct05",0,0,0,0,100,100,255,0)
ShowMessageFace("",0,0,2,40)
ShowMessage("Black Dahlia once again starts swinging her hips violently.")
ShowMessage("Her soft vaginal meat rubs against my penis and stimulates my glans.")
ShowMessageFace("",0,0,2,41)
ShowMessage("Every time she contracts her vagina, the soft meat rubs against my member...")
ShowMessage("I writhe in agony, at the mercy of this lewd monster's sexual skills.")
ShowMessageFace("",0,0,2,42)
ShowMessage("\\n<Luka>")
ShowMessage("Ah, auuuu...!")
ShowMessageFace("sanki0_fc1",1,0,2,43)
ShowMessage("\\n<Black Dahlia>")
ShowMessage("Hora hora, hurry up and come...♪")
ShowMessageFace("sanki1_fc1",1,0,2,44)
ShowMessage("\\n<Black Mamba>")
ShowMessage("Oh my... So unforgiving.")
ShowMessage("Even though he's just a young boy.")
ShowMessageFace("sanki2_fc1",1,0,2,45)
ShowMessage("\\n<Black Rose>")
ShowMessage("Black Dahlia is so cruel...")
ShowMessage("At least in his last moments, why don't you comfort him?")
ShowMessageFace("sanki0_fc1",1,0,2,46)
ShowMessage("\\n<Black Dahlia>")
ShowMessage("All my prey feels good, why should I care?")
ShowMessage("It feels really good, doesn't it?")
ShowMessageFace("",0,0,2,47)
ShowMessage("\\n<Luka>")
ShowMessage("Ah, auuu...")
ShowMessageFace("sanki0_fc1",1,0,2,48)
ShowMessage("\\n<Black Dahlia>")
ShowMessage("Understood, come quickly then. ♪")
ShowMessageFace("",0,0,2,49)
ShowMessage("As if to show dominance, Black Dahlia slows down her waist movements.")
ShowMessage("Inside her vagina, my meat rod is pulled on and played with...")
ShowMessageFace("",0,0,2,50)
ShowMessage("\\n<Luka>")
ShowMessage("Ahiii... Aaaaaaah...!!")
RunCommonEvent(104)
PictureDisplay(5,"ev_sanki_ha06",0,0,0,0,100,100,255,0)
PictureDisplay(6,"ev_sanki_ct06",0,0,0,0,100,100,255,0)
RunCommonEvent(105)
ShowMessageFace("",0,0,2,51)
ShowMessage("I couldn't resist coming inside Black Dahlia's vagina.")
ShowMessage("Every time I ejaculate, I can feel my energy being drawn out...")
PictureDisplay(5,"ev_sanki_ha07",0,0,0,0,100,100,255,0)
PictureDisplay(6,"ev_sanki_ct07",0,0,0,0,100,100,255,0)
ShowMessageFace("",0,0,2,52)
ShowMessage("\\n<Luka>")
ShowMessage("Ah... Auuu...")
ShowMessageFace("sanki0_fc1",1,0,2,53)
ShowMessage("\\n<Black Dahlia>")
ShowMessage("This boy's energy is delicious.")
ShowMessage("With the next ejaculation, I'll drink all of it at once. ♪")
ShowMessageFace("sanki1_fc1",1,0,2,54)
ShowMessage("\\n<Black Mamba>")
ShowMessage("It feels really wasteful to drink it up in one gulp...")
ShowMessageFace("sanki2_fc1",1,0,2,55)
ShowMessage("\\n<Black Rose>")
ShowMessage("A bad habit of succubi...")
ShowMessage("They catch good food but they devour it in a flash.")
ShowMessageFace("sanki0_fc1",1,0,2,56)
ShowMessage("\\n<Black Dahlia>")
ShowMessage("It's my prey, I get to eat him as selfishly as I want.")
ShowMessage("Isn't that right boy...?")
PictureDisplay(5,"ev_sanki_ha08",0,0,0,0,100,100,255,0)
PictureDisplay(6,"ev_sanki_ct08",0,0,0,0,100,100,255,0)
ShowMessageFace("",0,0,2,57)
ShowMessage("As she says that, Black Dahlia violently moves her waist up and down.")
ShowMessage("My body spasms from the crazy pleasure of her undulating meat pot.")
ShowMessageFace("",0,0,2,58)
ShowMessage("\\n<Luka>")
ShowMessage("Auu... Ah, aaaaah...!")
ShowMessageFace("sanki1_fc1",1,0,2,59)
ShowMessage("\\n<Black Mamba>")
ShowMessage("The next time you ejaculate, all of your energy will be drained.")
ShowMessage("You have to do your best to endure it...")
ShowMessageFace("sanki2_fc1",1,0,2,60)
ShowMessage("\\n<Black Rose>")
ShowMessage("But it looks like you won't be able to endure it...")
ShowMessageFace("sanki0_fc1",1,0,2,61)
ShowMessage("\\n<Black Dahlia>")
ShowMessage("Yes, yes... Hora, come. ♪")
ShowMessage("I'll squeeze you inside and make you feel really good. ♪")
ShowMessageFace("",0,0,2,62)
ShowMessage("\\n<Luka>")
ShowMessage("Ah, auuuu...!!")
ShowMessageFace("",0,0,2,63)
ShowMessage("I'm mercilessly squeezed in her vagina as it crazily contracts.")
ShowMessage("Even though I know it will be the end of me, I give myself over to the sweet feeling of release...")
RunCommonEvent(104)
PictureDisplay(5,"ev_sanki_ha09",0,0,0,0,100,100,255,0)
PictureDisplay(6,"ev_sanki_ct09",0,0,0,0,100,100,255,0)
RunCommonEvent(105)
ShowMessageFace("",0,0,2,64)
ShowMessage("My semen floods her vagina.")
ShowMessage("At the same time, I feel a great amount of energy squeezed out of me.")
ShowMessageFace("",0,0,2,65)
ShowMessage("\\n<Luka>")
ShowMessage("Ah... Auuu...")
ShowMessageFace("",0,0,2,66)
ShowMessage("My ejaculation doesn't end and my semen keeps flowing out.")
ShowMessage("Her greedy vagina is sucking out my semen without mercy...")
PictureDisplay(5,"ev_sanki_ha10",0,0,0,0,100,100,255,0)
PictureDisplay(6,"ev_sanki_ct10",0,0,0,0,100,100,255,0)
ShowMessageFace("sanki1_fc1",1,0,2,67)
ShowMessage("\\n<Black Mamba>")
ShowMessage("He already came... I guess he couldn't endure it after all.")
ShowMessageFace("sanki2_fc1",1,0,2,68)
ShowMessage("\\n<Black Rose>")
ShowMessage("But, his face shows that he's feeling good...")
ShowMessage("It appears he's enjoying his final moments of pleasure.")
ShowMessageFace("sanki0_fc1",1,0,2,69)
ShowMessage("\\n<Black Dahlia>")
ShowMessage("Ufufu, are you even aware that your life itself is being taken away from you?")
ShowMessageFace("",0,0,2,70)
ShowMessage("\\n<Luka>")
ShowMessage("ah... aah...")
ShowMessageFace("",0,0,2,71)
ShowMessage("My penis keeps pulsing and streaming out my very life...")
ShowMessage("I feel my body get weaker and weaker and my consciousness slowly fading away...")
ShowMessageFace("sanki0_fc1",1,0,2,72)
ShowMessage("\\n<Black Dahlia>")
ShowMessage("Thanks for the meal...\nUfufu...♪")
ShowMessageFace("",0,0,2,73)
ShowMessage("\\n<Luka>")
ShowMessage("........")
221()
PictureClear(5)
PictureClear(6)
246(2)
ShowMessageFace("",0,0,2,74)
ShowMessage("And so my consciousness vanishes completely, and I cease to be.")
ShowMessage("I felt crazy pleasure until the very end.")
ShowMessageFace("",0,0,2,75)
ShowMessage("My meat rod pulsed, shooting out every last bit of life I had in me.")
ShowMessage("At the end of it all, only my wrung out body remained under Black Dahlia...")
ShowMessageFace("",0,0,2,76)
ShowMessage("......")
221()
242(1)
Wait(120)
355("memory_interruption")
ShowMessageFace("",0,0,2,77)
ShowMessage("You hear Ilias' voice calling out to you...")
ShowMessage("Receive her evaluation?")
ShowChoices(strings("Receive evaluation","Change difficulty","Reincarnate"),3)
IfPlayerPicksChoice(0,"Receive evaluation")
 241(bytes(0x04,0x08,0x6f,0x3a,0x0d,0x52,0x50,0x47,0x3a,0x3a,0x42,0x47,0x4d,0x08,0x3a,0x0a,0x40,0x6e,0x61,0x6d,0x65,0x49,0x22,0x0a,0x69,0x72,0x69,0x61,0x73,0x06,0x3a,0x06,0x45,0x54,0x3a,0x0c,0x40,0x76,0x6f,0x6c,0x75,0x6d,0x65,0x69,0x5f,0x3a,0x0b,0x40,0x70,0x69,0x74,0x63,0x68,0x69,0x6e))
 PictureDisplay(1,"bg001",0,0,0,0,100,100,255,0)
 222()
 PictureDisplay(5,"80_iriasu_st04",0,0,0,0,100,100,0,0)
 PictureMove(5,null,0,0,0,0,100,100,255,0,30,true)
 ShowMessageFace("iriasu_fc1",3,0,2,78)
 ShowMessage("\\n<Ilias>")
 ShowMessage("Why on earth are you even trying to fight the Three Nobles of Black...!?")
 ShowMessage("Weird stuff is happening...")
 PictureDisplay(5,"80_iriasu_st01",0,0,0,0,100,100,255,0)
 ShowMessageFace("iriasu_fc1",0,0,2,79)
 ShowMessage("\\n<Ilias>")
 ShowMessage("Black Dahlia is a very powerful succubus.")
 ShowMessage("She uses Pleasure and Wind attacks.")
 ShowMessageFace("iriasu_fc1",0,0,2,80)
 ShowMessage("\\n<Ilias>")
 ShowMessage("She's weak to Earth skills and Silence works well on her.")
 ShowMessage("She can also use recovery skills, so you should try to defeat her first.")
 PictureDisplay(5,"80_iriasu_st04",0,0,0,0,100,100,255,0)
 ShowMessageFace("iriasu_fc1",3,0,2,81)
 ShowMessage("\\n<Ilias>")
 ShowMessage("Now go, oh Brave Luka.")
 ShowMessage("How on earth are you traveling through space-time...")
 242(1)
 221()
 PictureClear(5)
 PictureClear(1)
 Wait(60)
 0()
IfPlayerPicksChoice(1,"Change difficulty")
 ShowMessageFace("",0,0,2,82)
 ShowMessage("Please choose a difficulty level.")
 RunCommonEvent(110)
 0()
IfPlayerPicksChoice(2,"Reincarnate")
 0()
404()
RunCommonEvent(3000)
0()
