﻿// EVENT 2013
Name "Seduction: Rat Girl"

If(0,25,1)
 EndEventProcessing()
 0()
EndIf()
355("$game_troop.lose_event_id = 3013")
ChangeVariable(26,26,0,3,3,1,4)
ChangeVariable(26,26,4,0,10)
ShowMessageFace("nezumi_fc1",0,0,2,1)
ShowMessage("\\n<Rat Girl>Looks like it's my loss...\nOkay, come fuck me!")
ShowMessageFace("",0,0,2,2)
ShowMessage("The Rat Girl lies down on the ground, spreading her legs!")
ShowMessageFace("nezumi_fc1",0,0,2,3)
ShowMessage("\\n<Rat Girl>The winner fucks the loser, right?\nIt's a law of nature.")
ShowMessageFace("nezumi_fc1",0,0,2,4)
ShowMessage("\\n<Rat Girl>My pussy might be dirty, but...\nIf you gotta put it in, do it!")
ShowMessageFace("",0,0,2,5)
ShowMessage("The Rat Girl resigns herself to her fate, entrusting her body to Luka...")
ChangeSwitch(98,98,0)
ChangeSwitch(96,96,0)
ShowChoices(strings("Ignore her","Put it in"),1)
IfPlayerPicksChoice(0,"Ignore her")
 ShowMessageFace("",0,0,2,6)
 ShowMessage("Luka resists her temptation!")
 RunCommonEvent(1999)
 EndEventProcessing()
 0()
IfPlayerPicksChoice(1,"挿れてみる")
 0()
404()
ChangeVariable(26,26,3,0,3)
250(bytes(0x04,0x08,0x6f,0x3a,0x0c,0x52,0x50,0x47,0x3a,0x3a,0x53,0x45,0x08,0x3a,0x0a,0x40,0x6e,0x61,0x6d,0x65,0x49,0x22,0x11,0x6d,0x6f,0x6e,0x5f,0x65,0x72,0x6f,0x5f,0x70,0x79,0x75,0x31,0x06,0x3a,0x06,0x45,0x54,0x3a,0x0b,0x40,0x70,0x69,0x74,0x63,0x68,0x69,0x69,0x3a,0x0c,0x40,0x76,0x6f,0x6c,0x75,0x6d,0x65,0x69,0x69))
311(0,1,1,1,28,true)
ShowMessageFace("",0,0,2,7)
ShowMessage("Luka aims his dick at her vagina, and moves his hips forward! His penis gets swallowed by her tight, fleshy hole!\\D")
ShowMessage("Luka takes \\V[26] damage!")
ChangeVariable(27,27,0,3,3,1,2)
If(1,27,0,0,0)
 JumpToLabel("射精1")
 0()
EndIf()
ShowMessageFace("",0,0,2,8)
ShowMessage("\\n<Luka>Ah! Aaahhh...!\nIt feels so good inside...")
ShowMessageFace("nezumi_fc1",1,0,2,9)
ShowMessage("\\n<Rat Girl>Ahaha! I caught you...\nDid you really think a man could withstand going into a monster's pussy?")
ShowMessageFace("nezumi_fc1",1,0,2,10)
ShowMessage("\\n<Rat Girl>The situation's turned around now.\nI'll quickly make you come inside me!")
250(bytes(0x04,0x08,0x6f,0x3a,0x0c,0x52,0x50,0x47,0x3a,0x3a,0x53,0x45,0x08,0x3a,0x0a,0x40,0x6e,0x61,0x6d,0x65,0x49,0x22,0x13,0x6d,0x6f,0x6e,0x5f,0x65,0x72,0x6f,0x5f,0x63,0x68,0x75,0x70,0x61,0x35,0x06,0x3a,0x06,0x45,0x54,0x3a,0x0b,0x40,0x70,0x69,0x74,0x63,0x68,0x69,0x69,0x3a,0x0c,0x40,0x76,0x6f,0x6c,0x75,0x6d,0x65,0x69,0x69))
311(0,1,1,1,26,true)
ShowMessageFace("",0,0,2,11)
ShowMessage("Luka's glans gets rubbed by her vagina's bumpy walls!\nThe soft sensation hits his sweetest spots!\\D")
ShowMessage("Luka takes \\V[26] damage!")
ChangeVariable(27,27,0,3,3,1,2)
If(1,27,0,0,0)
 JumpToLabel("射精2")
 0()
EndIf()
ShowChoices(strings("Struggle","Let her continue"),2)
IfPlayerPicksChoice(0,"Struggle")
 ShowMessageFace("",0,0,2,12)
 ShowMessage("Luka struggles wildly!\nHowever, he can't escape the Rat Girl's grip!")
 ShowMessageFace("nezumi_fc1",1,0,2,13)
 ShowMessage("\\n<Rat Girl>What happened to your strength?\nEven I can resist something that weak.")
 0()
IfPlayerPicksChoice(1,"なすがまま")
 ShowMessageFace("",0,0,2,14)
 ShowMessage("Luka lets himself get raped...")
 ShowMessageFace("nezumi_fc1",1,0,2,15)
 ShowMessage("\\n<Rat Girl>Aha! Done resisting?\nIn that case, I'll make you spurt in no time...")
 0()
404()
250(bytes(0x04,0x08,0x6f,0x3a,0x0c,0x52,0x50,0x47,0x3a,0x3a,0x53,0x45,0x08,0x3a,0x0a,0x40,0x6e,0x61,0x6d,0x65,0x49,0x22,0x13,0x6d,0x6f,0x6e,0x5f,0x65,0x72,0x6f,0x5f,0x63,0x68,0x75,0x70,0x61,0x35,0x06,0x3a,0x06,0x45,0x54,0x3a,0x0b,0x40,0x70,0x69,0x74,0x63,0x68,0x69,0x69,0x3a,0x0c,0x40,0x76,0x6f,0x6c,0x75,0x6d,0x65,0x69,0x69))
311(0,1,1,1,26,true)
ShowMessageFace("",0,0,2,16)
ShowMessage("The Rat Girl keeps rubbing her bumpy flesh on Luka's glans!\\D")
ShowMessage("Luka takes \\V[26] damage!")
ChangeVariable(27,27,0,3,3,1,2)
If(1,27,0,0,0)
 JumpToLabel("射精2")
 0()
EndIf()
ShowMessageFace("nezumi_fc1",1,0,2,17)
ShowMessage("\\n<Rat Girl>You're already worn out, huh?\nTime to finish you off...")
ShowChoices(strings("Struggle","Let her continue"),2)
IfPlayerPicksChoice(0,"Struggle")
 ShowMessageFace("",0,0,2,18)
 ShowMessage("Luka struggles wildly!\nHowever, he can't escape the Rat Girl's grip!")
 ShowMessageFace("nezumi_fc1",1,0,2,19)
 ShowMessage("\\n<Rat Girl>Was that it for your last stand...?\nIn that case, I'll deal you the finishing blow!")
 0()
IfPlayerPicksChoice(1,"なすがまま")
 ShowMessageFace("",0,0,2,20)
 ShowMessage("Luka is completely at her mercy...")
 ShowMessageFace("nezumi_fc1",1,0,2,21)
 ShowMessage("\\n<Rat Girl>Did you give up already?\nIn that case, I'll deal you the finishing blow!")
 0()
404()
250(bytes(0x04,0x08,0x6f,0x3a,0x0c,0x52,0x50,0x47,0x3a,0x3a,0x53,0x45,0x08,0x3a,0x0a,0x40,0x6e,0x61,0x6d,0x65,0x49,0x22,0x13,0x6d,0x6f,0x6e,0x5f,0x65,0x72,0x6f,0x5f,0x63,0x68,0x75,0x70,0x61,0x35,0x06,0x3a,0x06,0x45,0x54,0x3a,0x0b,0x40,0x70,0x69,0x74,0x63,0x68,0x69,0x69,0x3a,0x0c,0x40,0x76,0x6f,0x6c,0x75,0x6d,0x65,0x69,0x69))
311(0,1,1,1,26,true)
ShowMessageFace("",0,0,2,22)
ShowMessage("The Rat Girl twists her light hips and tightens her vagina! Luka's penis receives a sweet pressure from her fleshy walls!\\D")
ShowMessage("Luka takes \\V[26] damage!")
ChangeVariable(27,27,0,3,3,1,2)
JumpToLabel("射精2")
DefineLabel("射精1")
ShowMessageFace("",0,0,2,23)
ShowMessage("\\n<Luka>Ah...! No! I'm gonna...!")
RunCommonEvent(104)
RunCommonEvent(105)
ShowMessageFace("",0,0,2,24)
ShowMessage("The moment he put it in, Luka came right away...")
ShowMessageFace("nezumi_fc1",0,0,2,25)
ShowMessage("\\n<Rat Girl>Aaaah, ah... Pathetic.\nYou couldn't even last five seconds?")
RunCommonEvent(2000)
EndEventProcessing()
DefineLabel("射精2")
ShowMessageFace("",0,0,2,26)
ShowMessage("\\n<Luka>I can't...hold on...any longer...")
RunCommonEvent(104)
RunCommonEvent(105)
ShowMessageFace("",0,0,2,27)
ShowMessage("Luka can't stand the pleasure, and comes into the Rat Girl's vagina...")
ShowMessageFace("nezumi_fc1",1,0,2,28)
ShowMessage("\\n<Rat Girl>There, I made you come...\nThat means I won, right?")
RunCommonEvent(2000)
EndEventProcessing()
0()
