﻿// EVENT 3189
Name "Akaname"

PictureDisplay(5,"80_akaname_st02",0,0,0,0,100,100,0,0)
PictureMove(5,null,0,0,0,0,100,100,255,0,30,true)
241(bytes(0x04,0x08,0x6f,0x3a,0x0d,0x52,0x50,0x47,0x3a,0x3a,0x42,0x47,0x4d,0x08,0x3a,0x0a,0x40,0x6e,0x61,0x6d,0x65,0x49,0x22,0x09,0x65,0x72,0x6f,0x31,0x06,0x3a,0x06,0x45,0x54,0x3a,0x0c,0x40,0x76,0x6f,0x6c,0x75,0x6d,0x65,0x69,0x69,0x3a,0x0b,0x40,0x70,0x69,0x74,0x63,0x68,0x69,0x69))
ShowMessageFace("",0,0,2,1)
ShowMessage("\\n<Luka>Nngh...")
ShowMessageFace("",0,0,2,2)
ShowMessage("I fall to my knees in front of the Akaname Girls.\nWith that, I can't resist any longer...")
ShowMessageFace("akaname_fc1",1,0,2,3)
ShowMessage("\\n<Akaname A>Aha, already surrendering?\nThen we'll lick you lots and lots. ♪")
ShowMessageFace("",0,0,2,4)
ShowMessage("The three Akaname Girls push me down, and crowd around my groin. With that, all three of their tongues extend out closer to my penis.")
ShowMessageFace("",0,0,2,5)
ShowMessage("\\n<Luka>Ah.... Ahhh!")
ShowMessageFace("akaname_fc1",1,0,2,6)
ShowMessage("\\n<Akaname A>There's no point screaming.\nI'll block that loud mouth of yours with my tongue. ♪")
250(bytes(0x04,0x08,0x6f,0x3a,0x0c,0x52,0x50,0x47,0x3a,0x3a,0x53,0x45,0x08,0x3a,0x0a,0x40,0x6e,0x61,0x6d,0x65,0x49,0x22,0x16,0x6d,0x6f,0x6e,0x5f,0x65,0x72,0x6f,0x5f,0x6d,0x61,0x6b,0x69,0x74,0x75,0x6b,0x69,0x33,0x06,0x3a,0x06,0x45,0x54,0x3a,0x0b,0x40,0x70,0x69,0x74,0x63,0x68,0x69,0x69,0x3a,0x0c,0x40,0x76,0x6f,0x6c,0x75,0x6d,0x65,0x69,0x69))
245(bytes(0x04,0x08,0x6f,0x3a,0x0d,0x52,0x50,0x47,0x3a,0x3a,0x42,0x47,0x53,0x08,0x3a,0x0a,0x40,0x6e,0x61,0x6d,0x65,0x49,0x22,0x10,0x6d,0x6f,0x6e,0x5f,0x68,0x76,0x6f,0x69,0x63,0x65,0x33,0x06,0x3a,0x06,0x45,0x54,0x3a,0x0c,0x40,0x76,0x6f,0x6c,0x75,0x6d,0x65,0x69,0x55,0x3a,0x0b,0x40,0x70,0x69,0x74,0x63,0x68,0x69,0x69))
PictureDisplay(5,"ev_akaname_h1",0,0,0,0,100,100,255,0)
ShowMessageFace("",0,0,2,7)
ShowMessage("Akaname A's tongue reaches out, and forces itself into my mouth.")
ShowMessageFace("",0,0,2,8)
ShowMessage("As her tongue licks and moves around, it feels like she's raping my mouth itself.")
ShowMessageFace("akaname_fc1",4,0,2,9)
ShowMessage("\\n<Akaname B>An Akaname's kiss is amazing, isn't it?\nLet me get his ear...")
ShowMessageFace("akaname_fc1",4,0,2,10)
ShowMessage("\\n<Akaname B>Nnn... *Lick*")
ShowMessageFace("",0,0,2,11)
ShowMessage("Akaname B's tongue reaches out toward my ear.\nAs her long tongue eagerly licks me, all I can hear is the wet noises from the two tongues attacking me.")
ShowMessageFace("",0,0,2,12)
ShowMessage("The ticklish sensation from my ear is already making my body jump in response.")
ShowMessageFace("akaname_fc1",7,0,2,13)
ShowMessage("\\n<Akaname C>Then I'll lick his penis...")
ShowMessageFace("",0,0,2,14)
ShowMessage("The last Akaname moves her face right next to my exposed penis. With a smile, her tongue shoots out and coils around my penis!")
ShowMessageFace("akaname_fc1",7,0,2,15)
ShowMessage("\\n<Akaname C>*Lick*")
ShowMessageFace("",0,0,2,16)
ShowMessage("\\n<Luka>Nnnnn!!")
ShowMessageFace("",0,0,2,17)
ShowMessage("With her tongue running around my mouth, I can't even let out a word of protest. Looking down at me with a smile, Akaname A starts teasing me.")
ShowMessageFace("akaname_fc1",1,0,2,18)
ShowMessage("\\n<Akaname A>Ahaha, what a lewd face.\nDoes it feel good having your penis licked clean like this?")
ShowMessageFace("akaname_fc1",7,0,2,19)
ShowMessage("\\n<Akaname C>Nnn... *Lick*")
ShowMessageFace("",0,0,2,20)
ShowMessage("Her tongue, wrapped around my penis, starts to violently move up and down. As if trying to lick my penis raw, her sweet tongue's movements get faster and faster.")
ShowMessageFace("",0,0,2,21)
ShowMessage("In only moments, my penis is glistening wet with her warm saliva.")
ShowMessageFace("",0,0,2,22)
ShowMessage("The intense pleasure makes my head go numb as I'm left on the verge of an orgasm in moments.")
ShowMessageFace("",0,0,2,23)
ShowMessage("\\n<Luka>Nnnn...")
ShowMessageFace("akaname_fc1",1,0,2,24)
ShowMessage("\\n<Akaname A>Ahaha, his face is getting more and more loose!\nI'll get a good look at your face as you come everywhere. ♪")
ShowMessageFace("akaname_fc1",1,0,2,25)
ShowMessage("\\n<Akaname A>One of the best things in the world is watching a boy's face as he spurts everywhere. ♪")
ShowMessageFace("akaname_fc1",7,0,2,26)
ShowMessage("\\n<Akaname C>*Slurp* *Lick*")
ShowMessageFace("",0,0,2,27)
ShowMessage("The tip of her quick tongue runs around my glans, around my neck, and down the back...")
ShowMessageFace("",0,0,2,28)
ShowMessage("Feeling like my penis is just a piece of candy for her to savor, my lower body spasms as I feel the pleasure take me over.")
ShowMessageFace("",0,0,2,29)
ShowMessage("\\n<Luka>Nnn! Nnnnnggg!!")
RunCommonEvent(104)
PictureDisplay(5,"ev_akaname_h2",0,0,0,0,100,100,255,0)
RunCommonEvent(105)
ShowMessageFace("akaname_fc1",1,0,2,30)
ShowMessage("\\n<Akaname A>Nnnhahaha! He's spurting, he's spurting! ♪\nAnd look at his face... He's feeling so good! ♪")
ShowMessageFace("",0,0,2,31)
ShowMessage("While still forcing her tongue around in my mouth, Akaname A's eyes bore into mine as she smiles.")
ShowMessageFace("",0,0,2,32)
ShowMessage("The other two tongues eagerly work on my ear and penis, both licking me even during my orgasm.")
ShowMessageFace("",0,0,2,33)
ShowMessage("\\n<Luka>Nnn...nn...")
ShowMessageFace("",0,0,2,34)
ShowMessage("Finally, my ejaculation finishes as I sigh in a surge of relaxing ecstasy. But it doesn't look like the licking assault is over...")
ShowMessageFace("akaname_fc1",1,0,2,35)
ShowMessage("\\n<Akaname A>Well then, I believe the next one up for his penis is me. ♪")
ShowMessageFace("akaname_fc1",4,0,2,36)
ShowMessage("\\n<Akaname B>That's no fair! I was next...")
245(bytes(0x04,0x08,0x6f,0x3a,0x0d,0x52,0x50,0x47,0x3a,0x3a,0x42,0x47,0x53,0x08,0x3a,0x0a,0x40,0x6e,0x61,0x6d,0x65,0x49,0x22,0x10,0x6d,0x6f,0x6e,0x5f,0x68,0x76,0x6f,0x69,0x63,0x65,0x34,0x06,0x3a,0x06,0x45,0x54,0x3a,0x0c,0x40,0x76,0x6f,0x6c,0x75,0x6d,0x65,0x69,0x55,0x3a,0x0b,0x40,0x70,0x69,0x74,0x63,0x68,0x69,0x69))
PictureDisplay(5,"ev_akaname_h3",0,0,0,0,100,100,255,0)
ShowMessageFace("",0,0,2,37)
ShowMessage("Akaname A and B's tongues rub and press against each other as they both try to coil around my penis at the same time. At the same time, Akaname C jostles against them, unwilling to give up her already claimed position around my penis.")
ShowMessageFace("",0,0,2,38)
ShowMessage("The three long, warm tongues all squeeze on me as they find their places around my penis.")
ShowMessageFace("",0,0,2,39)
ShowMessage("\\n<Luka>Ah, auuu...\nTh-that feels good...")
ShowMessageFace("akaname_fc1",1,0,2,40)
ShowMessage("\\n<Akaname A>Ahaha... He's melting away.\nI'll be watching you very closely when you come again. ♪")
ShowMessageFace("",0,0,2,41)
ShowMessage("Even with her tongue coiled around my penis, Akaname A keeps looking straight into my eyes.")
ShowMessageFace("",0,0,2,42)
ShowMessage("The three tongues lick me from base to tip, each moving at different pressures and speeds.")
ShowMessageFace("",0,0,2,43)
ShowMessage("My whole body trembles in pleasure as it feels like I'm being enveloped by ecstasy.")
ShowMessageFace("",0,0,2,44)
ShowMessage("\\n<Luka>Ah... Huaaa...")
ShowMessageFace("akaname_fc1",1,0,2,45)
ShowMessage("\\n<Akaname A>Ahaha, what a pathetic look!\nHey, let's finish him off right away!")
ShowMessageFace("akaname_fc1",4,0,2,46)
ShowMessage("\\n<Akaname B>Yes, let's finish him off...\nI want to taste his semen now, hehe.")
ShowMessageFace("akaname_fc1",7,0,2,47)
ShowMessage("\\n<Akaname C>*Slurp* *Lick*")
ShowMessageFace("",0,0,2,48)
ShowMessage("\\n<Luka>Ah, aaaaaah!!")
RunCommonEvent(104)
PictureDisplay(5,"ev_akaname_h4",0,0,0,0,100,100,255,0)
RunCommonEvent(105)
ShowMessageFace("",0,0,2,49)
ShowMessage("As if on cue, I come, spraying my semen onto their eagerly licking tongues.")
PictureDisplay(5,"ev_akaname_h5",0,0,0,0,100,100,255,0)
ShowMessageFace("akaname_fc1",1,0,2,50)
ShowMessage("\\n<Akaname A>*Lick*")
ShowMessageFace("akaname_fc1",4,0,2,51)
ShowMessage("\\n<Akaname B>*Slurp*")
ShowMessageFace("akaname_fc1",7,0,2,52)
ShowMessage("\\n<Akaname C>Nnn... *Gulp*")
ShowMessageFace("",0,0,2,53)
ShowMessage("\\n<Luka>Stop! Don't lick my tip as I come!\nAaaahhh!!")
ShowMessageFace("",0,0,2,54)
ShowMessage("The intense pleasure as they lick my tip even during my orgasm is too much for me. Spasming in excessive ecstasy, I feel my vision going dark as they continue licking my penis clean.")
221()
PictureClear(5)
246(2)
ShowMessageFace("",0,0,2,55)
ShowMessage("......")
ShowMessageFace("",0,0,2,56)
ShowMessage("Ever since...")
245(bytes(0x04,0x08,0x6f,0x3a,0x0d,0x52,0x50,0x47,0x3a,0x3a,0x42,0x47,0x53,0x08,0x3a,0x0a,0x40,0x6e,0x61,0x6d,0x65,0x49,0x22,0x10,0x6d,0x6f,0x6e,0x5f,0x68,0x76,0x6f,0x69,0x63,0x65,0x31,0x06,0x3a,0x06,0x45,0x54,0x3a,0x0c,0x40,0x76,0x6f,0x6c,0x75,0x6d,0x65,0x69,0x55,0x3a,0x0b,0x40,0x70,0x69,0x74,0x63,0x68,0x69,0x69))
PictureDisplay(1,"bg088",0,0,0,0,100,100,0,0)
PictureDisplay(5,"ev_akaname_h7",0,0,0,0,100,100,255,0)
222()
ShowMessageFace("akaname_fc1",1,0,2,57)
ShowMessage("\\n<Akaname A>Nnn... *Lick*\nYour body tastes so delicious...")
ShowMessageFace("akaname_fc1",4,0,2,58)
ShowMessage("\\n<Akaname B>*Lick* *Slurp* ")
ShowMessageFace("akaname_fc1",7,0,2,59)
ShowMessage("\\n<Akaname C>Come on, spit out some more semen...\nThe three of their tongues crawl all over my body.")
ShowMessageFace("",0,0,2,60)
ShowMessage("One of them latches onto my penis, and starts to slowly stroke me.")
ShowMessageFace("",0,0,2,61)
ShowMessage("Powerless before her tongue, I sigh as her warm tongue brings me to a quick orgasm.")
ShowMessageFace("",0,0,2,62)
ShowMessage("\\n<Luka>Aaah...")
ShowMessageFace("",0,0,2,63)
ShowMessage("Covered in saliva from head to toe, I can only fearfully tremble as I'm licked to a climax. Ever since a few days ago, they haven't released me once.")
ShowMessageFace("",0,0,2,64)
ShowMessage("The only breaks I get are for the few moments when they feed me...")
ShowMessageFace("",0,0,2,65)
ShowMessage("\\n<Luka>Nnn... Ahhh!")
RunCommonEvent(104)
PictureDisplay(5,"ev_akaname_h8",0,0,0,0,100,100,255,0)
RunCommonEvent(105)
ShowMessageFace("",0,0,2,66)
ShowMessage("Licked over the edge, I explode on their tongues again.\nThe three of them eagerly lick up the semen, smiling as their tongues make quick work of me.")
PictureDisplay(5,"ev_akaname_h9",0,0,0,0,100,100,255,0)
ShowMessageFace("akaname_fc1",1,0,2,67)
ShowMessage("\\n<Akaname A>Aha, there's lots of licking still left. ♪\n*Slurp* *Lick* ♪")
ShowMessageFace("akaname_fc1",7,0,2,68)
ShowMessage("\\n<Akaname C>You can't escape now.\nFrom now and until forever, you're just going to be our group's licking slave. ♪")
ShowMessageFace("akaname_fc1",7,0,2,69)
ShowMessage("\\n<Akaname C>*Lick*")
ShowMessageFace("",0,0,2,70)
ShowMessage("\\n<Luka>Hyaaa...")
ShowMessageFace("",0,0,2,71)
ShowMessage("Thus, I was caught by the Akaname Girls and turned into their licking slave. Every day, my body is completely licked clean by their long tongues.")
ShowMessageFace("",0,0,2,72)
ShowMessage("Going mad with pleasure, I continue dedicating all of my semen to their lusting tongues.")
221()
PictureClear(1)
PictureClear(5)
PictureClear(6)
246(2)
ShowMessageFace("",0,0,2,73)
ShowMessage("......")
221()
242(1)
Wait(120)
355("memory_interruption")
ShowMessageFace("",0,0,2,74)
ShowMessage("You hear Ilias' voice calling out to you...\nReceive her evaluation?")
ShowChoices(strings("Receive Evaluation","Change Difficulty","Reincarnate"),3)
IfPlayerPicksChoice(0,"Receive Evaluation")
 241(bytes(0x04,0x08,0x6f,0x3a,0x0d,0x52,0x50,0x47,0x3a,0x3a,0x42,0x47,0x4d,0x08,0x3a,0x0a,0x40,0x6e,0x61,0x6d,0x65,0x49,0x22,0x0a,0x69,0x72,0x69,0x61,0x73,0x06,0x3a,0x06,0x45,0x54,0x3a,0x0c,0x40,0x76,0x6f,0x6c,0x75,0x6d,0x65,0x69,0x5f,0x3a,0x0b,0x40,0x70,0x69,0x74,0x63,0x68,0x69,0x6e))
 PictureDisplay(1,"bg001",0,0,0,0,100,100,255,0)
 222()
 PictureDisplay(5,"80_iriasu_st04",0,0,0,0,100,100,0,0)
 PictureMove(5,null,0,0,0,0,100,100,255,0,30,true)
 ShowMessageFace("iriasu_fc1",3,0,2,75)
 ShowMessage("\\n<Ilias>Oh, so you became the prey of a low class group of monsters... No matter where you go, you never change, do you?")
 PictureDisplay(5,"80_iriasu_st01",0,0,0,0,100,100,255,0)
 ShowMessageFace("iriasu_fc1",0,0,2,76)
 ShowMessage("\\n<Ilias>The Akaname Girls will relentlessly assault you with tongue skills. It's quite troublesome because their licking can cover you in slime.")
 ShowMessageFace("iriasu_fc1",0,0,2,77)
 ShowMessage("\\n<Ilias>You can attack with any element because their defense isn't that great. They have no weakness, but that shouldn't be a problem.")
 PictureDisplay(5,"80_iriasu_st02",0,0,0,0,100,100,255,0)
 ShowMessageFace("iriasu_fc1",1,0,2,78)
 ShowMessage("\\n<Ilias>Now go, oh brave Luka.\nOnce you get tired of being licked, please fight properly.")
 242(1)
 221()
 PictureClear(5)
 PictureClear(1)
 Wait(60)
 0()
IfPlayerPicksChoice(1,"Change Difficulty")
 ShowMessageFace("",0,0,2,79)
 ShowMessage("Please choose a difficulty level.")
 RunCommonEvent(110)
 0()
IfPlayerPicksChoice(2,"Reincarnate")
 0()
404()
RunCommonEvent(3000)
0()
