// EVENT 4357
Name "Lamia 2"

If(0,25,1)
 221()
 PictureClear(5)
 PictureClear(6)
 ShowMessageFace("",0,0,2,0)
 ShowMessage("......")
 242(2)
 Wait(120)
 241(bytes(0x04,0x08,0x6f,0x3a,0x0d,0x52,0x50,0x47,0x3a,0x3a,0x42,0x47,0x4d,0x08,0x3a,0x0a,0x40,0x6e,0x61,0x6d,0x65,0x49,0x22,0x0c,0x63,0x61,0x73,0x74,0x6c,0x65,0x36,0x06,0x3a,0x06,0x45,0x54,0x3a,0x0c,0x40,0x76,0x6f,0x6c,0x75,0x6d,0x65,0x69,0x69,0x3a,0x0b,0x40,0x70,0x69,0x74,0x63,0x68,0x69,0x69))
 EndEventProcessing()
 0()
EndIf()
PictureDisplay(5,"80_lamia_st02",0,0,0,0,100,100,255,0)
ShowMessageFace("lamia_fc1",1,0,2,1)
ShowMessage("\\n<Anastasia>What...?\nYou would like me to play with you using my mouth?")
ShowMessageFace("",0,0,2,2)
ShowMessage("\\n<Luka>Y-yeah...")
ShowMessageFace("lamia_fc1",1,0,2,3)
ShowMessage("\\n<Anastasia>Now... I want your delicious semen to fill up my stomach.")
241(bytes(0x04,0x08,0x6f,0x3a,0x0d,0x52,0x50,0x47,0x3a,0x3a,0x42,0x47,0x4d,0x08,0x3a,0x0a,0x40,0x6e,0x61,0x6d,0x65,0x49,0x22,0x09,0x65,0x72,0x6f,0x31,0x06,0x3a,0x06,0x45,0x54,0x3a,0x0c,0x40,0x76,0x6f,0x6c,0x75,0x6d,0x65,0x69,0x69,0x3a,0x0b,0x40,0x70,0x69,0x74,0x63,0x68,0x69,0x69))
250(bytes(0x04,0x08,0x6f,0x3a,0x0c,0x52,0x50,0x47,0x3a,0x3a,0x53,0x45,0x08,0x3a,0x0a,0x40,0x6e,0x61,0x6d,0x65,0x49,0x22,0x16,0x6d,0x6f,0x6e,0x5f,0x65,0x72,0x6f,0x5f,0x73,0x69,0x6d,0x65,0x74,0x75,0x6b,0x65,0x31,0x06,0x3a,0x06,0x45,0x54,0x3a,0x0b,0x40,0x70,0x69,0x74,0x63,0x68,0x69,0x69,0x3a,0x0c,0x40,0x76,0x6f,0x6c,0x75,0x6d,0x65,0x69,0x69))
PictureDisplay(5,"ev_lamia_ha1",0,0,0,0,100,100,255,0)
ShowMessageFace("",0,0,2,4)
ShowMessage("Suddenly, Anastasia bends over and buries her face in my groin!")
ShowMessageFace("",0,0,2,5)
ShowMessage("Still wrapped by her tail, she sucks my penis into her mouth!")
ShowMessageFace("",0,0,2,6)
ShowMessage("\\n<Luka>Ahh...")
ShowMessageFace("",0,0,2,7)
ShowMessage("I feel her saliva cover my penis, as she starts to lick me inside her warm mouth.")
ShowMessage("The stimulation from her mouth causes my body to twitch.")
245(bytes(0x04,0x08,0x6f,0x3a,0x0d,0x52,0x50,0x47,0x3a,0x3a,0x42,0x47,0x53,0x08,0x3a,0x0a,0x40,0x6e,0x61,0x6d,0x65,0x49,0x22,0x10,0x6d,0x6f,0x6e,0x5f,0x68,0x76,0x6f,0x69,0x63,0x65,0x31,0x06,0x3a,0x06,0x45,0x54,0x3a,0x0c,0x40,0x76,0x6f,0x6c,0x75,0x6d,0x65,0x69,0x55,0x3a,0x0b,0x40,0x70,0x69,0x74,0x63,0x68,0x69,0x69))
ShowMessageFace("lamia_fc1",1,0,2,8)
ShowMessage("\\n<Anastasia>I'll play with you inside my mouth...\nSucking on your penis, I'll make sure I get all of your semen...")
ShowMessageFace("lamia_fc1",1,0,2,9)
ShowMessage("\\n<Anastasia>*Lick* *Suck* ")
ShowMessageFace("",0,0,2,10)
ShowMessage("\\n<Luka>Ah, aaaaaah!!")
ShowMessageFace("",0,0,2,11)
ShowMessage("Her tongue starts to coil around my penis inside her mouth.")
ShowMessageFace("",0,0,2,12)
ShowMessage("Dripping saliva, her tongue tightens around my penis like a snake.")
ShowMessage("The tip of her tongue starts to flick the back of my penis.")
ShowMessageFace("",0,0,2,13)
ShowMessage("My body writhes helplessly as her tongue plays with me.")
ShowMessageFace("",0,0,2,14)
ShowMessage("\\n<Luka>Auu... Ahhh!")
ShowMessageFace("lamia_fc1",1,0,2,15)
ShowMessage("\\n<Anastasia>Fufu... It's amazing, right?\nI'll make it even better...")
ShowMessageFace("",0,0,2,16)
ShowMessage("\\n<Luka>Ahii!")
ShowMessageFace("",0,0,2,17)
ShowMessage("Trying to escape from the pleasure, I struggle with all my power.")
ShowMessage("But with her tail tightly coiled around me, there's no escape.")
ShowMessageFace("",0,0,2,18)
ShowMessage("My waist is kept completely still as she continues to play with me inside her mouth.")
ShowMessage("I feel despair at being forced pleasure against my will, with no chance to escape.")
ShowMessageFace("lamia_fc1",1,0,2,19)
ShowMessage("\\n<Anastasia>Nnn...*Slurp* *Suck* *Slurp* *Suck*")
ShowMessageFace("lamia_fc1",1,0,2,20)
ShowMessage("\\n<Anastasia>*Suck* *Slurp*")
ShowMessageFace("",0,0,2,21)
ShowMessage("\\n<Luka>Ahh! Don't lick the tip...!")
ShowMessageFace("",0,0,2,22)
ShowMessage("Her tongue starts to flick at my urethral opening.")
ShowMessage("Unable to move, the pleasure torments my body and mind.")
ShowMessageFace("lamia_fc1",1,0,2,23)
ShowMessage("\\n<Anastasia>*Suck* *Slurp*\nNnn... *Suck* *Slurp*")
ShowMessageFace("",0,0,2,24)
ShowMessage("\\n<Luka>Hauu... My tip feels so good...")
ShowMessageFace("",0,0,2,25)
ShowMessage("With her dexterous tongue tormenting me, tears start to fill my eyes.")
ShowMessageFace("",0,0,2,26)
ShowMessage("Sucked by her mouth, and massaged by her tongue, the pleasure is too much for me to endure.")
ShowMessageFace("",0,0,2,27)
ShowMessage("The forceful pleasure sends me to the edge, as the desire for release rises.")
ShowMessageFace("",0,0,2,28)
ShowMessage("\\n<Luka>Ah... I'm going to come!")
ShowMessageFace("lamia_fc1",1,0,2,29)
ShowMessage("\\n<Anastasia>Good... I'll lick your hole while you come.\nNow come.")
ShowMessageFace("lamia_fc1",1,0,2,30)
ShowMessage("\\n<Anastasia>Having your semen licked up as soon as it comes out will feel amazing.")
ShowMessageFace("lamia_fc1",1,0,2,31)
ShowMessage("\\n<Anastasia>*Lick* *Lick*")
ShowMessageFace("",0,0,2,32)
ShowMessage("\\n<Luka>Ah, aaaaaah!!")
RunCommonEvent(104)
PictureDisplay(5,"ev_lamia_ha2",0,0,0,0,100,100,255,0)
RunCommonEvent(105)
ShowMessageFace("",0,0,2,33)
ShowMessage("I explode inside her mouth as she continues to torture me with her tongue.")
ShowMessageFace("lamia_fc1",1,0,2,34)
ShowMessage("\\n<Anastasia>*Lick* *Lick*")
ShowMessageFace("",0,0,2,35)
ShowMessage("\\n<Luka>Hauu! Don't lick... While I come!")
ShowMessageFace("",0,0,2,36)
ShowMessage("Even while coming, she doesn't stop licking my urethra.")
ShowMessage("The agonizing pleasure continues throughout my orgasm.")
ShowMessageFace("",0,0,2,37)
ShowMessage("And even as I finish ejaculating, the licking doesn't stop.")
PictureDisplay(5,"ev_lamia_ha3",0,0,0,0,100,100,255,0)
ShowMessageFace("lamia_fc1",1,0,2,38)
ShowMessage("\\n<Anastasia>Mmmm. You came. *Slurp* *Suck*")
ShowMessageFace("",0,0,2,39)
ShowMessage("Anastasia starts to drink everything I released into her mouth.")
ShowMessageFace("",0,0,2,40)
ShowMessage("Every time she swallows more of my semen, her throat tightens.")
ShowMessage("Each swallow creates a strong suction on my penis, still in her mouth.")
ShowMessageFace("",0,0,2,41)
ShowMessage("\\n<Luka>Hauu... It feels good...")
ShowMessageFace("lamia_fc1",1,0,2,42)
ShowMessage("\\n<Anastasia>Put out as much as you can...\nI'll drink all of it...")
ShowMessageFace("lamia_fc1",1,0,2,43)
ShowMessage("\\n<Anastasia>This time, I'll suck you all the way into my throat...")
ShowMessageFace("",0,0,2,44)
ShowMessage("\\n<Luka>Ah, aaaah...!")
245(bytes(0x04,0x08,0x6f,0x3a,0x0d,0x52,0x50,0x47,0x3a,0x3a,0x42,0x47,0x53,0x08,0x3a,0x0a,0x40,0x6e,0x61,0x6d,0x65,0x49,0x22,0x10,0x6d,0x6f,0x6e,0x5f,0x68,0x76,0x6f,0x69,0x63,0x65,0x33,0x06,0x3a,0x06,0x45,0x54,0x3a,0x0c,0x40,0x76,0x6f,0x6c,0x75,0x6d,0x65,0x69,0x55,0x3a,0x0b,0x40,0x70,0x69,0x74,0x63,0x68,0x69,0x69))
ShowMessageFace("",0,0,2,45)
ShowMessage("Anastasia sucks me deeper into her, until my penis is inside her throat.")
ShowMessage("Deep in her mouth, I can feel the walls of her throat around my dick.")
ShowMessageFace("",0,0,2,46)
ShowMessage("\\n<Luka>Auu... That's amazing...")
ShowMessageFace("lamia_fc1",1,0,2,47)
ShowMessage("\\n<Anastasia>Fufu, does it feel good?")
ShowMessageFace("lamia_fc1",1,0,2,48)
ShowMessage("\\n<Anastasia>A Lamia can swallow prey bigger than themselves after all.\nHolding your penis in my throat is simple.")
ShowMessageFace("",0,0,2,49)
ShowMessage("\\n<Luka>Auuu!")
ShowMessageFace("",0,0,2,50)
ShowMessage("Every time Anastasia speaks, the vibrations run all over my penis.")
ShowMessageFace("",0,0,2,51)
ShowMessage("Licked, vibrated, massaged... The differing stimulations are too strong to endure.")
ShowMessageFace("",0,0,2,52)
ShowMessage("The ecstasy floods through my body, causing my mind to go blank.")
ShowMessageFace("lamia_fc1",1,0,2,53)
ShowMessage("\\n<Anastasia>Hahahaha... I'll suck everything out, just like this.")
ShowMessageFace("",0,0,2,54)
ShowMessage("\\n<Luka>Ahii!")
ShowMessageFace("",0,0,2,55)
ShowMessage("My penis, completely swallowed by Anastasia, rubs against the back of her throat with every movement.")
ShowMessageFace("",0,0,2,56)
ShowMessage("The unique stimulation brings me to the edge of another orgasm.")
ShowMessageFace("",0,0,2,57)
ShowMessage("\\n<Luka>Hauu...")
ShowMessageFace("lamia_fc1",1,0,2,58)
ShowMessage("\\n<Anastasia>Can you stand it? Being violated by my throat.\nNow, deep in my throat...")
ShowMessageFace("",0,0,2,59)
ShowMessage("Still licking me as my penis rubs against her throat's walls, the vibrations from her voice send me over the edge.")
ShowMessageFace("",0,0,2,60)
ShowMessage("At my limit again, I surrender to the desire to release.")
ShowMessageFace("",0,0,2,61)
ShowMessage("\\n<Luka>Ah, aaaah...!!")
ShowMessageFace("",0,0,2,62)
ShowMessage("Stuck in her mouth, I shoot my semen deep in her throat.")
RunCommonEvent(104)
PictureDisplay(5,"ev_lamia_ha4",0,0,0,0,100,100,255,0)
RunCommonEvent(105)
ShowMessageFace("lamia_fc1",1,0,2,63)
ShowMessage("\\n<Anastasia>Fufu... Your delicious semen.\n*Lick* *Suck* ")
ShowMessageFace("",0,0,2,64)
ShowMessage("\\n<Luka>Auuu...")
ShowMessageFace("",0,0,2,65)
ShowMessage("My body shakes as she continues to suck on me as I ejaculate.")
ShowMessage("The rhythm of her suction matches my spurts, as she milks all of my semen out.")
PictureDisplay(5,"ev_lamia_ha5",0,0,0,0,100,100,255,0)
ShowMessageFace("lamia_fc1",1,0,2,66)
ShowMessage("\\n<Anastasia>*Suck* *Suck*")
ShowMessageFace("",0,0,2,67)
ShowMessage("\\n<Luka>Ahiii!")
ShowMessageFace("",0,0,2,68)
ShowMessage("Anastasia's tongue starts to coil around my penis again.")
ShowMessageFace("",0,0,2,69)
ShowMessage("The unexpected stimulation causes my lower back to arch.")
ShowMessageFace("lamia_fc1",1,0,2,70)
ShowMessage("\\n<Anastasia>Fufu... Your face looks different now.")
ShowMessageFace("lamia_fc1",1,0,2,71)
ShowMessage("\\n<Anastasia>My sucking technique is amazing, isn't it?\nNo man can even last ten seconds...")
ShowMessageFace("",0,0,2,72)
ShowMessage("\\n<Luka>Ahhhhhh!")
245(bytes(0x04,0x08,0x6f,0x3a,0x0d,0x52,0x50,0x47,0x3a,0x3a,0x42,0x47,0x53,0x08,0x3a,0x0a,0x40,0x6e,0x61,0x6d,0x65,0x49,0x22,0x10,0x6d,0x6f,0x6e,0x5f,0x68,0x76,0x6f,0x69,0x63,0x65,0x32,0x06,0x3a,0x06,0x45,0x54,0x3a,0x0c,0x40,0x76,0x6f,0x6c,0x75,0x6d,0x65,0x69,0x55,0x3a,0x0b,0x40,0x70,0x69,0x74,0x63,0x68,0x69,0x69))
PictureDisplay(5,"ev_lamia_ha7",0,0,0,0,100,100,255,0)
ShowMessageFace("",0,0,2,73)
ShowMessage("Anastasia's tongue tightens around my penis, now completely coiled around it.")
ShowMessageFace("lamia_fc1",1,0,2,74)
ShowMessage("\\n<Anastasia>Hora...This is the best yet, isn't it?\nI'll force you to come in an instant again...")
ShowMessageFace("",0,0,2,75)
ShowMessage("\\n<Luka>Hau! Ahhhh!")
ShowMessageFace("",0,0,2,76)
ShowMessage("Her tongue, coiled around my penis, starts to move back and forth as it continues to tighten.")
ShowMessageFace("lamia_fc1",1,0,2,77)
ShowMessage("\\n<Anastasia>*Lick* *Suck*")
ShowMessageFace("",0,0,2,78)
ShowMessage("It moves around and tightens my penis,")
ShowMessage("Squeezed tightly...")
ShowMessageFace("",0,0,2,79)
ShowMessage("Her tongue winds around my penis like it was its prey!")
ShowMessageFace("",0,0,2,80)
ShowMessage("\\n<Luka>Ahiii!")
ShowMessageFace("",0,0,2,81)
ShowMessage("The unbearable pleasure causes my mind to go blank.")
ShowMessage("Unable to feel anything but the ecstasy, I explode in joy.")
RunCommonEvent(104)
PictureDisplay(5,"ev_lamia_ha8",0,0,0,0,100,100,255,0)
RunCommonEvent(105)
ShowMessageFace("",0,0,2,82)
ShowMessage("I'm forced to ejaculate yet again so quickly...")
ShowMessage("As Anastasia said, I wasn't even able to last ten seconds...")
ShowMessageFace("lamia_fc1",1,0,2,83)
ShowMessage("\\n<Anastasia>You let out a lot, huh?\n*Lick* *Suck*")
ShowMessageFace("",0,0,2,84)
ShowMessage("\\n<Luka>Ahi! Your tongue... Amazing...!")
ShowMessageFace("",0,0,2,85)
ShowMessage("Her tongue still coiled around me, she uses the tip to lick up all the semen I shoot out.")
ShowMessageFace("",0,0,2,86)
ShowMessage("Every time she swallows more of my semen, the stimulation seems to double.")
ShowMessageFace("lamia_fc1",1,0,2,87)
ShowMessage("\\n<Anastasia>*Lick* *Suck*")
ShowMessageFace("",0,0,2,88)
ShowMessage("\\n<Luka>Aaaahh!")
ShowMessageFace("",0,0,2,89)
ShowMessage("Anastasia gulps down my semen with a happy look on her face.")
ShowMessage("Still being toyed with by her tongue, I'm forced into another climax.")
ShowMessageFace("",0,0,2,90)
ShowMessage("\\n<Luka>Ahh! I'm coming again!")
RunCommonEvent(104)
RunCommonEvent(105)
ShowMessageFace("",0,0,2,91)
ShowMessage("With no time to rest, I explode in her again.")
ShowMessage("Her tongue licks up my seed as soon as it comes out of me, as she greedily swallows everything.")
ShowMessageFace("lamia_fc1",1,0,2,92)
ShowMessage("\\n<Anastasia>*Lick* *Suck*")
ShowMessageFace("",0,0,2,93)
ShowMessage("\\n<Luka>Ahii!")
ShowMessageFace("",0,0,2,94)
ShowMessage("Her merciless tongue forces me to ejaculate over and over again, with no end in sight.")
RunCommonEvent(104)
RunCommonEvent(105)
ShowMessageFace("",0,0,2,95)
ShowMessage("In a daze of ecstasy, I have no idea how many times I've climaxed.")
ShowMessage("Stuck in a world of pleasure, my vision starts to fade.")
ShowMessageFace("lamia_fc1",1,0,2,96)
ShowMessage("\\n<Anastasia>Your semen is delicious.\nBut I'll make you come quick...I'm sorry...")
ShowMessageFace("",0,0,2,97)
ShowMessage("\\n<Luka>Ah, unnngh...")
RunCommonEvent(104)
RunCommonEvent(105)
221()
PictureClear(5)
246(2)
ShowMessageFace("",0,0,2,98)
ShowMessage("Forced to come too many times to count, I finally faint.")
221()
PictureClear(5)
PictureClear(6)
246(2)
ShowMessageFace("",0,0,2,99)
ShowMessage("......")
242(2)
Wait(120)
241(bytes(0x04,0x08,0x6f,0x3a,0x0d,0x52,0x50,0x47,0x3a,0x3a,0x42,0x47,0x4d,0x08,0x3a,0x0a,0x40,0x6e,0x61,0x6d,0x65,0x49,0x22,0x0c,0x63,0x61,0x73,0x74,0x6c,0x65,0x36,0x06,0x3a,0x06,0x45,0x54,0x3a,0x0c,0x40,0x76,0x6f,0x6c,0x75,0x6d,0x65,0x69,0x69,0x3a,0x0b,0x40,0x70,0x69,0x74,0x63,0x68,0x69,0x69))
0()
