// EVENT 2017
Name "Seduction: Rabbit Girl"

If(0,25,1)
 EndEventProcessing()
 0()
EndIf()
355("$game_troop.lose_event_id = 3017")
ChangeVariable(26,26,0,3,3,1,4)
ChangeVariable(26,26,4,0,10)
ShowMessageFace("usagi_fc1",0,0,2,1)
ShowMessage("\\n<Rabbit Girl>I'm going to lose soon.\nShould I give a handjob if I get to escape?")
ShowMessageFace("usagi_fc1",0,0,2,2)
ShowMessage("\\n<Rabbit Girl>My handjob technique is perfect!\nAny man who gets one from me goes to heaven...♪")
ShowMessageFace("usagi_fc1",0,0,2,3)
ShowMessage("\\n<Rabbit Girl>Don't you want to try it too?\nCome on, get your dick out...")
ChangeSwitch(98,98,0)
ChangeSwitch(96,96,0)
ShowChoices(strings("Ignore her","Get a handjob"),1)
IfPlayerPicksChoice(0,"Ignore her")
 ShowMessageFace("",0,0,2,4)
 ShowMessage("Luka resists her temptation!")
 RunCommonEvent(1999)
 EndEventProcessing()
 0()
IfPlayerPicksChoice(1,"手コキしてもらう")
 0()
404()
ShowMessageFace("",0,0,2,5)
ShowMessage("Succumbing to temptation, Luka exposed his genitalia to the Rabbit Girl!")
ShowMessageFace("usagi_fc1",0,0,2,6)
ShowMessage("\\n<Rabbit Girl>Fufu! Good boy...\nI'll pamper your dick too.")
250(bytes(0x04,0x08,0x6f,0x3a,0x0c,0x52,0x50,0x47,0x3a,0x3a,0x53,0x45,0x08,0x3a,0x0a,0x40,0x6e,0x61,0x6d,0x65,0x49,0x22,0x12,0x6d,0x6f,0x6e,0x5f,0x65,0x72,0x6f,0x5f,0x6b,0x6f,0x6b,0x69,0x31,0x06,0x3a,0x06,0x45,0x54,0x3a,0x0b,0x40,0x70,0x69,0x74,0x63,0x68,0x69,0x69,0x3a,0x0c,0x40,0x76,0x6f,0x6c,0x75,0x6d,0x65,0x69,0x69))
311(0,1,1,1,26,true)
ShowMessageFace("",0,0,2,7)
ShowMessage("The Rabbit Girl gently caressed the head of Luka's penis!")
ShowMessage("Her smooth palm patted Luka's glans a few times!\\D")
ShowMessage("Luka takes \\V[26] damage!")
ChangeVariable(27,27,0,3,3,1,2)
If(1,27,0,0,0)
 JumpToLabel("射精1")
 0()
EndIf()
ShowMessageFace("usagi_fc1",0,0,2,8)
ShowMessage("\\n<Rabbit Girl>Fufu! You're so cute, twitching like that.\nI like to treat the cute ones well...")
250(bytes(0x04,0x08,0x6f,0x3a,0x0c,0x52,0x50,0x47,0x3a,0x3a,0x53,0x45,0x08,0x3a,0x0a,0x40,0x6e,0x61,0x6d,0x65,0x49,0x22,0x12,0x6d,0x6f,0x6e,0x5f,0x65,0x72,0x6f,0x5f,0x6b,0x6f,0x6b,0x69,0x31,0x06,0x3a,0x06,0x45,0x54,0x3a,0x0b,0x40,0x70,0x69,0x74,0x63,0x68,0x69,0x69,0x3a,0x0c,0x40,0x76,0x6f,0x6c,0x75,0x6d,0x65,0x69,0x69))
311(0,1,1,1,26,true)
ShowMessageFace("",0,0,2,9)
ShowMessage("The Rabbit Girl rubs Luka's glans with her two palms!")
ShowMessage("She caresses it like a small animal!\\D")
ShowMessage("Luka takes \\V[26] damage!")
ChangeVariable(27,27,0,3,3,1,2)
If(1,27,0,0,0)
 JumpToLabel("射精1")
 0()
EndIf()
ShowMessageFace("",0,0,2,10)
ShowMessage("\\n<Luka>A-aaaaah...")
ShowMessageFace("usagi_fc1",0,0,2,11)
ShowMessage("\\n<Rabbit Girl>My hand is warm, right?\nI'll make you feel even better, so stay still, okay...")
ShowChoices(strings("Resist the temptation","Give in"),1)
IfPlayerPicksChoice(0,"Resist the temptation")
 PictureClear(5)
 ChangeSwitch(96,96,1)
 ChangeSwitch(98,98,1)
 ShowMessageFace("",0,0,2,12)
 ShowMessage("Luka resists the temptation and got away from the Rabbit Girl!")
 EndEventProcessing()
 0()
IfPlayerPicksChoice(1,"Give in")
 ShowMessageFace("",0,0,2,13)
 ShowMessage("Luka surrenders to the pleasure...")
 0()
404()
ShowMessageFace("usagi_fc1",0,0,2,14)
ShowMessage("\\n<Rabbit Girl>Now, I'll tease your glans with my fingers for you...")
250(bytes(0x04,0x08,0x6f,0x3a,0x0c,0x52,0x50,0x47,0x3a,0x3a,0x53,0x45,0x08,0x3a,0x0a,0x40,0x6e,0x61,0x6d,0x65,0x49,0x22,0x12,0x6d,0x6f,0x6e,0x5f,0x65,0x72,0x6f,0x5f,0x6b,0x6f,0x6b,0x69,0x31,0x06,0x3a,0x06,0x45,0x54,0x3a,0x0b,0x40,0x70,0x69,0x74,0x63,0x68,0x69,0x69,0x3a,0x0c,0x40,0x76,0x6f,0x6c,0x75,0x6d,0x65,0x69,0x69))
311(0,1,1,1,26,true)
ShowMessageFace("",0,0,2,15)
ShowMessage("The Rabbit Girl's fingers caress Luka's glans!\\D")
ShowMessage("Luka takes \\V[26] damage!")
ChangeVariable(27,27,0,3,3,1,2)
If(1,27,0,0,0)
 JumpToLabel("射精1")
 0()
EndIf()
250(bytes(0x04,0x08,0x6f,0x3a,0x0c,0x52,0x50,0x47,0x3a,0x3a,0x53,0x45,0x08,0x3a,0x0a,0x40,0x6e,0x61,0x6d,0x65,0x49,0x22,0x12,0x6d,0x6f,0x6e,0x5f,0x65,0x72,0x6f,0x5f,0x6b,0x6f,0x6b,0x69,0x31,0x06,0x3a,0x06,0x45,0x54,0x3a,0x0b,0x40,0x70,0x69,0x74,0x63,0x68,0x69,0x69,0x3a,0x0c,0x40,0x76,0x6f,0x6c,0x75,0x6d,0x65,0x69,0x69))
311(0,1,1,1,26,true)
ShowMessageFace("",0,0,2,16)
ShowMessage("Luka's penis skin and glans are stimulated, giving him pleasure!\\D")
ShowMessage("Luka takes \\V[26] damage!")
ChangeVariable(27,27,0,3,3,1,2)
If(1,27,0,0,0)
 JumpToLabel("射精1")
 0()
EndIf()
ShowMessageFace("usagi_fc1",0,0,2,17)
ShowMessage("\\n<Rabbit Girl>Next, I'll jerk you off with my fingers.\nI know you want to be teased...")
ShowChoices(strings("Resist the temptation","Give in"),1)
IfPlayerPicksChoice(0,"Resist the temptation")
 ShowMessageFace("",0,0,2,18)
 ShowMessage("Luka resists the temptation and got away from the Rabbit Girl!")
 RunCommonEvent(1999)
 EndEventProcessing()
 0()
IfPlayerPicksChoice(1,"Give in")
 ShowMessageFace("",0,0,2,19)
 ShowMessage("Luka surrenders to the pleasure...")
 0()
404()
ShowMessageFace("usagi_fc1",0,0,2,20)
ShowMessage("\\n<Rabbit Girl>Fufu, I'll tease your glans...\nShlick, shlick...")
250(bytes(0x04,0x08,0x6f,0x3a,0x0c,0x52,0x50,0x47,0x3a,0x3a,0x53,0x45,0x08,0x3a,0x0a,0x40,0x6e,0x61,0x6d,0x65,0x49,0x22,0x12,0x6d,0x6f,0x6e,0x5f,0x65,0x72,0x6f,0x5f,0x6b,0x6f,0x6b,0x69,0x31,0x06,0x3a,0x06,0x45,0x54,0x3a,0x0b,0x40,0x70,0x69,0x74,0x63,0x68,0x69,0x69,0x3a,0x0c,0x40,0x76,0x6f,0x6c,0x75,0x6d,0x65,0x69,0x69))
311(0,1,1,1,26,true)
ShowMessageFace("",0,0,2,21)
ShowMessage("The Rabbit Girl's fingers go up and down from Luka's glans!")
ShowMessage("Pleasure flows into him due to the strong sensation!\\D")
ShowMessage("Luka takes \\V[26] damage!")
ChangeVariable(27,27,0,3,3,1,2)
If(1,27,0,0,0)
 JumpToLabel("射精1")
 0()
EndIf()
250(bytes(0x04,0x08,0x6f,0x3a,0x0c,0x52,0x50,0x47,0x3a,0x3a,0x53,0x45,0x08,0x3a,0x0a,0x40,0x6e,0x61,0x6d,0x65,0x49,0x22,0x12,0x6d,0x6f,0x6e,0x5f,0x65,0x72,0x6f,0x5f,0x6b,0x6f,0x6b,0x69,0x31,0x06,0x3a,0x06,0x45,0x54,0x3a,0x0b,0x40,0x70,0x69,0x74,0x63,0x68,0x69,0x69,0x3a,0x0c,0x40,0x76,0x6f,0x6c,0x75,0x6d,0x65,0x69,0x69))
311(0,1,1,1,26,true)
ShowMessageFace("",0,0,2,22)
ShowMessage("The fingers tighten Luka's glans in a ring manner, giving him great pleasure!")
ShowMessage("His glans is teased by the pressure!\\D")
ShowMessage("Luka takes \\V[26] damage!")
ChangeVariable(27,27,0,3,3,1,2)
If(1,27,0,0,0)
 JumpToLabel("射精1")
 0()
EndIf()
ShowMessageFace("",0,0,2,23)
ShowMessage("\\n<Luka>Hnnaaa...")
ShowMessageFace("usagi_fc1",0,0,2,24)
ShowMessage("\\n<Rabbit Girl>Ohohoh, already feeling like cumming?\nDo you want me to use my ears to finish you?")
ShowMessageFace("usagi_fc1",0,0,2,25)
ShowMessage("\\n<Rabbit Girl>If I wrap your dick with these ears...\nWe'll both feel the best pleasure and cum like crazies, you know?")
ShowChoices(strings("Resist the temptation","Give in"),1)
IfPlayerPicksChoice(0,"Resist the temptation")
 ShowMessageFace("",0,0,2,26)
 ShowMessage("Luka resists the temptation and got away from the Rabbit Girl!")
 RunCommonEvent(1999)
 EndEventProcessing()
 0()
IfPlayerPicksChoice(1,"Give in")
 ShowMessageFace("",0,0,2,27)
 ShowMessage("Luka surrenders to the pleasure...")
 0()
404()
ShowMessageFace("usagi_fc1",0,0,2,28)
ShowMessage("\\n<Rabbit Girl>Now, let out your white stuff on my ears, like the others.\nCover my rabbit ears with your semen...")
250(bytes(0x04,0x08,0x6f,0x3a,0x0c,0x52,0x50,0x47,0x3a,0x3a,0x53,0x45,0x08,0x3a,0x0a,0x40,0x6e,0x61,0x6d,0x65,0x49,0x22,0x12,0x6d,0x6f,0x6e,0x5f,0x65,0x72,0x6f,0x5f,0x6b,0x6f,0x6b,0x69,0x31,0x06,0x3a,0x06,0x45,0x54,0x3a,0x0b,0x40,0x70,0x69,0x74,0x63,0x68,0x69,0x69,0x3a,0x0c,0x40,0x76,0x6f,0x6c,0x75,0x6d,0x65,0x69,0x69))
ChangeVariable(26,26,3,0,2)
311(0,1,1,1,26,true)
ShowMessageFace("",0,0,2,29)
ShowMessage("The Rabbit Girl's ears envelop Luka's glans!")
ShowMessage("With a soft and warm sensation, Luka's penis is massaged!\\D")
ShowMessage("Luka takes \\V[26] damage!")
ChangeVariable(27,27,0,3,3,1,2)
If(1,27,0,0,0)
 JumpToLabel("射精2")
 0()
EndIf()
ShowMessageFace("usagi_fc1",0,0,2,30)
ShowMessage("\\n<Rabbit Girl>And now the finish...\nHoora... cum...")
250(bytes(0x04,0x08,0x6f,0x3a,0x0c,0x52,0x50,0x47,0x3a,0x3a,0x53,0x45,0x08,0x3a,0x0a,0x40,0x6e,0x61,0x6d,0x65,0x49,0x22,0x12,0x6d,0x6f,0x6e,0x5f,0x65,0x72,0x6f,0x5f,0x6b,0x6f,0x6b,0x69,0x31,0x06,0x3a,0x06,0x45,0x54,0x3a,0x0b,0x40,0x70,0x69,0x74,0x63,0x68,0x69,0x69,0x3a,0x0c,0x40,0x76,0x6f,0x6c,0x75,0x6d,0x65,0x69,0x69))
311(0,1,1,1,26,true)
ShowMessageFace("",0,0,2,31)
ShowMessage("The Rabbit Girl's long ears stroke Luka's penis!")
ShowMessage("The soft ears rub the tip of Luka's penis, extremely exciting him!\\D")
ShowMessage("Luka takes \\V[26] damage!")
ChangeVariable(27,27,0,3,3,1,2)
If(1,27,0,0,0)
 JumpToLabel("射精2")
 0()
EndIf()
DefineLabel("射精1")
ShowMessageFace("",0,0,2,32)
ShowMessage("\\n<Luka>Ah... I'm coming...\nAaaaah....")
RunCommonEvent(104)
RunCommonEvent(105)
ShowMessageFace("",0,0,2,33)
ShowMessage("While tasting the skillful handjob, Luka came in an instant...")
ShowMessageFace("usagi_fc1",0,0,2,34)
ShowMessage("\\n<Rabbit Girl>Fufu, Mr. Hero orgasmed in my little hand...\nWhat about his companions?")
RunCommonEvent(2000)
EndEventProcessing()
DefineLabel("射精2")
ShowMessageFace("",0,0,2,35)
ShowMessage("\\n<Luka>It's so... good...!\nA-aaaaaah...")
RunCommonEvent(104)
RunCommonEvent(105)
ShowMessageFace("",0,0,2,36)
ShowMessage("Luka tasted the first rate pleasure, and ascended to heaven in an instant.")
ShowMessage("The Rabbit Girl's ears got splattered with sperm...")
ShowMessageFace("usagi_fc1",0,0,2,37)
ShowMessage("\\n<Rabbit Girl>Fufu, Mr. Hero covered my ears with semen...\nWhat about his companions?")
RunCommonEvent(2000)
EndEventProcessing()
0()
