﻿// EVENT 1356
Name "Talk: Angel Soldier D"

If(1,20,0,1,0)
 JumpToLabel("情報")
 0()
EndIf()
If(1,20,0,2,0)
 JumpToLabel("質問")
 0()
EndIf()
If(1,20,0,3,0)
 JumpToLabel("要求")
 0()
EndIf()
If(1,20,0,4,0)
 JumpToLabel("贈与")
 0()
EndIf()
DefineLabel("情報")
ChangeVariable(13,13,0,2,1,100)
If(1,13,0,10,2)
 ShowMessageFace("angels_fc4",0,0,2,1)
 ShowMessage("\\n<Angel Soldier>Now, for Ilias' sake!")
 EndEventProcessing()
 0()
EndIf()
If(1,13,0,20,2)
 ShowMessageFace("angels_fc4",0,0,2,2)
 ShowMessage("\\n<Angel Soldier>Our hearts are always with Ilias!")
 EndEventProcessing()
 0()
EndIf()
If(1,13,0,30,2)
 ShowMessageFace("angels_fc4",2,0,2,3)
 ShowMessage("\\n<Angel Soldier>Why on earth...\nAre we like this...?")
 EndEventProcessing()
 0()
EndIf()
If(1,13,0,40,2)
 ShowMessageFace("angels_fc4",0,0,2,4)
 ShowMessage("\\n<Angel Soldier>Ilias...\nPlease save us...")
 EndEventProcessing()
 0()
EndIf()
If(1,13,0,50,2)
 ShowMessageFace("angels_fc4",0,0,2,5)
 ShowMessage("\\n<Angel Soldier>If we do not purify the surface...")
 EndEventProcessing()
 0()
EndIf()
If(1,13,0,60,2)
 ShowMessageFace("angels_fc4",2,0,2,6)
 ShowMessage("\\n<Angel Soldier>Brrr, it's so cold... Is this also a trial, Ilias?")
 EndEventProcessing()
 0()
EndIf()
If(1,13,0,70,2)
 ShowMessageFace("angels_fc4",0,0,2,7)
 ShowMessage("\\n<Angel Soldier>We won't let you through here!")
 EndEventProcessing()
 0()
EndIf()
If(1,13,0,80,2)
 ShowMessageFace("angels_fc4",0,0,2,8)
 ShowMessage("\\n<Angel Soldier>Blasphemers will be punished!")
 EndEventProcessing()
 0()
EndIf()
If(1,13,0,90,2)
 ShowMessageFace("angels_fc4",0,0,2,9)
 ShowMessage("\\n<Angel Soldier>We will judge you!")
 EndEventProcessing()
 0()
EndIf()
If(1,13,0,100,2)
 ShowMessageFace("angels_fc4",0,0,2,10)
 ShowMessage("\\n<Angel Soldier>We will not give up...!")
 EndEventProcessing()
 0()
EndIf()
DefineLabel("質問")
ChangeVariable(13,13,0,2,1,50)
If(1,13,0,10,2)
 ShowMessageFace("angels_fc4",0,0,2,11)
 ShowMessage("\\n<Angel Soldier>Are you properly adhering to the prohibition against monsters...?")
 ShowChoices(strings("I obey it","I broke it","Every day of my life is adultery"),0)
 IfPlayerPicksChoice(0,"守っている")
  ShowMessageFace("angels_fc4",1,0,2,12)
  ShowMessage("\\n<Angel Soldier>That's a very good attitude, but...is it true?")
  ShowMessageFace("angels_fc4",1,0,2,13)
  ShowMessage("\\n<Angel Soldier>...Really, is it true?")
  355("change_friend(10)")
  0()
 IfPlayerPicksChoice(1,"破ってしまった")
  ShowMessageFace("angels_fc4",2,0,2,14)
  ShowMessage("\\n<Angel Soldier>So you are a sinner... Prepare yourself!")
  355("change_friend(-5)")
  0()
 IfPlayerPicksChoice(2,"毎日姦淫生活")
  ShowMessageFace("angels_fc4",2,0,2,15)
  ShowMessage("\\n<Angel Soldier>What an outrageous person... I shall punish you here!")
  355("change_friend(-10)")
  0()
 404()
 EndEventProcessing()
 0()
EndIf()
If(1,13,0,20,2)
 ShowMessageFace("angels_fc4",0,0,2,16)
 ShowMessage("\\n<Angel Soldier>We naturally pray to Ilias three times a day.\nHow often have you been praying?")
 ShowChoices(strings("Three times a day","Ten-thousand times a day","I don't pray at all"),0)
 IfPlayerPicksChoice(0,"日に三度")
  ShowMessageFace("angels_fc4",1,0,2,17)
  ShowMessage("\\n<Angel Soldier>Hmm, I'm impressed...")
  355("change_friend(5)")
  0()
 IfPlayerPicksChoice(1,"日に一万回")
  ShowMessageFace("angels_fc4",2,0,2,18)
  ShowMessage("\\n<Angel Soldier>What, ten-thousand times?!\nWell, I lost...")
  355("change_friend(10)")
  0()
 IfPlayerPicksChoice(2,"全く祈っていない")
  ShowMessageFace("angels_fc4",2,0,2,19)
  ShowMessage("\\n<Angel Soldier>You are a blasphemer!")
  355("change_friend(-5)")
  0()
 404()
 EndEventProcessing()
 0()
EndIf()
If(1,13,0,30,2)
 ShowMessageFace("angels_fc4",0,0,2,20)
 ShowMessage("\\n<Angel Soldier>Blasphemers also exist even among angels...\nDo you know what we do with them?")
 ShowChoices(strings("Rehabilitate them","Purge them","Gangbang them"),0)
 IfPlayerPicksChoice(0,"反省会")
  ShowMessageFace("angels_fc4",1,0,2,21)
  ShowMessage("\\n<Angel Soldier>That's right, we make them repent their sins.\nThat way, they regain their faith.")
  355("change_friend(10)")
  0()
 IfPlayerPicksChoice(1,"粛正")
  ShowMessageFace("angels_fc4",0,0,2,22)
  ShowMessage("\\n<Angel Soldier>They're angels just like me, I would never go that far... Your ideas are barbaric.")
  355("change_friend(-5)")
  0()
 IfPlayerPicksChoice(2,"輪姦")
  ShowMessageFace("angels_fc4",2,0,2,23)
  ShowMessage("\\n<Angel Soldier>Th-that's...\nObscene...")
  0()
 404()
 EndEventProcessing()
 0()
EndIf()
If(1,13,0,40,2)
 ShowMessageFace("angels_fc4",0,0,2,24)
 ShowMessage("\\n<Angel Soldier>Who do you worship...?")
 ShowChoices(strings("Goddess Ilias","Dark Goddess Alipheese","Myself","I worship no one"),0)
 IfPlayerPicksChoice(0,"女神イリアス")
  ShowMessageFace("angels_fc4",1,0,2,25)
  ShowMessage("\\n<Angel Soldier>That is very admirable...\nDo not lose that faith.")
  355("change_friend(10)")
  0()
 IfPlayerPicksChoice(1,"邪神アリスフィーズ")
  ShowMessageFace("angels_fc4",2,0,2,26)
  ShowMessage("\\n<Angel Soldier>What, the minion of an evil god?! I'll end you!")
  355("change_friend(-5)")
  0()
 IfPlayerPicksChoice(2,"僕")
  ShowMessageFace("angels_fc4",2,0,2,27)
  ShowMessage("\\n<Angel Soldier>To worship oneself, how outrageous!\nI will end you here!")
  355("change_friend(-5)")
  0()
 IfPlayerPicksChoice(3,"誰も崇めていない")
  ShowMessageFace("angels_fc4",1,0,2,28)
  ShowMessage("\\n<Angel Soldier>Then you should worship the Goddess Ilias!\nGo on, preach her name!")
  0()
 404()
 EndEventProcessing()
 0()
EndIf()
If(1,13,0,50,2)
 ShowMessageFace("angels_fc4",0,0,2,29)
 ShowMessage("\\n<Angel Soldier>When your sword breaks and all hope seems lost... What will you do?")
 ShowChoices(strings("Fight to the end","Cry out to the Goddess","Give up"),0)
 IfPlayerPicksChoice(0,"それでも戦い抜く")
  ShowMessageFace("angels_fc4",2,0,2,30)
  ShowMessage("\\n<Angel Soldier>Even so, do you have to continue fighting...?")
  0()
 IfPlayerPicksChoice(1,"神の名を叫ぶ")
  ShowMessageFace("angels_fc4",1,0,2,31)
  ShowMessage("\\n<Angel Soldier>That's right, I agree...\nIf you truly believe in the Goddess, then perhaps...!")
  355("change_friend(10)")
  0()
 IfPlayerPicksChoice(2,"諦めろ")
  ShowMessageFace("angels_fc4",2,0,2,32)
  ShowMessage("\\n<Angel Soldier>You'd give up without a second thought?\nThen why are you leading?!")
  355("change_friend(-5)")
  0()
 404()
 EndEventProcessing()
 0()
EndIf()
DefineLabel("要求")
ChangeVariable(13,13,0,2,1,30)
If(1,13,0,10,2)
 If(8,316)
  ShowMessageFace("angels_fc4",0,0,2,33)
  ShowMessage("\\n<Angel Soldier>Let me have that onion...")
  ChangeVariable(24,24,0,3,0,316,0)
  ShowMessageFace("",0,0,2,34)
  ShowMessage("Do you want to give an \\ii[316]? (Have:\\V[24])")
  ShowChoices(strings("Yes","No"),2)
  IfPlayerPicksChoice(0,"Yes")
   ShowMessageFace("angels_fc4",1,0,2,35)
   ShowMessage("\\n<Angel Soldier>Yes, I'll certainly accept it.")
   ChangeInventory_Item(316,1,0,1)
   355("change_friend(20)")
   EndEventProcessing()
   0()
  IfPlayerPicksChoice(1,"No")
   ShowMessageFace("angels_fc4",2,0,2,36)
   ShowMessage("\\n<Angel Soldier>How sinful...")
   EndEventProcessing()
   0()
  404()
  0()
 Else()
  ChangeVariable(13,13,0,0,20)
  0()
 EndIf()
 0()
EndIf()
If(1,13,0,20,2)
 If(8,423)
  ShowMessageFace("angels_fc4",0,0,2,37)
  ShowMessage("\\n<Angel Soldier>Let me have that pudding...")
  ChangeVariable(24,24,0,3,0,423,0)
  ShowMessageFace("",0,0,2,38)
  ShowMessage("Do you want to give a \\ii[423]? (Have:\\V[24])")
  ShowChoices(strings("Yes","No"),2)
  IfPlayerPicksChoice(0,"Yes")
   ShowMessageFace("angels_fc4",1,0,2,39)
   ShowMessage("\\n<Angel Soldier>Yes, I'll certainly accept it.")
   ChangeInventory_Item(423,1,0,1)
   355("change_friend(30)")
   EndEventProcessing()
   0()
  IfPlayerPicksChoice(1,"No")
   ShowMessageFace("angels_fc4",2,0,2,40)
   ShowMessage("\\n<Angel Soldier>How sinful...")
   EndEventProcessing()
   0()
  404()
  0()
 Else()
  ChangeVariable(13,13,0,0,30)
  0()
 EndIf()
 0()
EndIf()
If(1,13,0,30,2)
 ShowMessageFace("angels_fc4",0,0,2,41)
 ShowMessage("\\n<Angel Soldier>I'll let you cover our activity fees...")
 If(7,963,0)
  ChangeVariable(24,24,0,3,7,2,0)
  ShowMessageFace("",0,0,2,42)
  ShowMessage("Do you want to give 963G? (Remaining:\\V[24])")
  ShowChoices(strings("Yes","No"),2)
  IfPlayerPicksChoice(0,"Yes")
   ShowMessageFace("angels_fc4",1,0,2,43)
   ShowMessage("\\n<Angel Soldier>Yes, I'll certainly accept it.")
   125(1,0,963)
   355("change_friend(25)")
   EndEventProcessing()
   0()
  IfPlayerPicksChoice(1,"No")
   ShowMessageFace("angels_fc4",2,0,2,44)
   ShowMessage("\\n<Angel Soldier>How sinful...")
   EndEventProcessing()
   0()
  404()
  0()
 Else()
  ShowMessageFace("angels_fc4",2,0,2,45)
  ShowMessage("\\n<Angel Soldier>...You've already run out of money?")
  EndEventProcessing()
  0()
 EndIf()
 0()
EndIf()
DefineLabel("贈与")
ChangeVariable(13,13,0,2,1,30)
If(1,25,0,1,0)
 ChangeVariable(13,13,0,0,30)
 ChangeVariable(25,25,0,0,0)
 0()
EndIf()
If(1,25,0,2,0)
 ChangeVariable(13,13,0,2,1,20)
 ChangeVariable(25,25,0,0,0)
 0()
EndIf()
If(1,13,0,10,2)
 ShowMessageFace("angels_fc4",0,0,2,46)
 ShowMessage("\\n<Angel Soldier>My feathers can make a good protection charm...")
 250(bytes(0x04,0x08,0x6f,0x3a,0x0c,0x52,0x50,0x47,0x3a,0x3a,0x53,0x45,0x08,0x3a,0x0a,0x40,0x6e,0x61,0x6d,0x65,0x49,0x22,0x0a,0x49,0x74,0x65,0x6d,0x31,0x06,0x3a,0x06,0x45,0x54,0x3a,0x0b,0x40,0x70,0x69,0x74,0x63,0x68,0x69,0x69,0x3a,0x0c,0x40,0x76,0x6f,0x6c,0x75,0x6d,0x65,0x69,0x55))
 ChangeInventory_Item(241,0,0,1)
 ShowMessageFace("",0,0,2,47)
 ShowMessage("The Angel Soldier gave you an \\ii[241]!")
 EndEventProcessing()
 0()
EndIf()
If(1,13,0,20,2)
 ShowMessageFace("angels_fc4",0,0,2,48)
 ShowMessage("\\n<Angel Soldier>You should take this miracle drug...")
 250(bytes(0x04,0x08,0x6f,0x3a,0x0c,0x52,0x50,0x47,0x3a,0x3a,0x53,0x45,0x08,0x3a,0x0a,0x40,0x6e,0x61,0x6d,0x65,0x49,0x22,0x0a,0x49,0x74,0x65,0x6d,0x31,0x06,0x3a,0x06,0x45,0x54,0x3a,0x0b,0x40,0x70,0x69,0x74,0x63,0x68,0x69,0x69,0x3a,0x0c,0x40,0x76,0x6f,0x6c,0x75,0x6d,0x65,0x69,0x55))
 ChangeInventory_Item(4,0,0,1)
 ShowMessageFace("",0,0,2,49)
 ShowMessage("The Angel Soldier gave you a \\ii[4]!")
 EndEventProcessing()
 0()
EndIf()
If(1,13,0,30,2)
 ShowMessageFace("angels_fc4",0,0,2,50)
 ShowMessage("\\n<Angel Soldier>Please make use of this money...")
 250(bytes(0x04,0x08,0x6f,0x3a,0x0c,0x52,0x50,0x47,0x3a,0x3a,0x53,0x45,0x08,0x3a,0x0a,0x40,0x6e,0x61,0x6d,0x65,0x49,0x22,0x0a,0x49,0x74,0x65,0x6d,0x31,0x06,0x3a,0x06,0x45,0x54,0x3a,0x0b,0x40,0x70,0x69,0x74,0x63,0x68,0x69,0x69,0x3a,0x0c,0x40,0x76,0x6f,0x6c,0x75,0x6d,0x65,0x69,0x55))
 125(0,0,1605)
 ShowMessageFace("",0,0,2,51)
 ShowMessage("The Angel Soldier gave you 1605G!")
 EndEventProcessing()
 0()
EndIf()
0()
