// EVENT 0107
Name "Papi's Smithy"

If(1,1007,0,0,0)
 ShowMessageFace("dragonp_fc1",0,0,2,1)
 ShowMessage("\\n<Papi>Rawr! Got a job for me?")
 JumpToLabel("鉄")
 0()
EndIf()
If(1,1007,0,1,0)
 ShowMessageFace("dragonp_fc1",0,0,2,2)
 ShowMessage("\\n<Papi>Rawr! Got a job for me?\nWhat materials would you like to craft with?")
 355("unlimited_choices(11, [\"Iron\",\"Gold\",\"Never mind\"])")
 If(1,11,0,0,0)
  JumpToLabel("鉄")
  0()
 EndIf()
 If(1,11,0,1,0)
  JumpToLabel("金")
  0()
 EndIf()
 If(1,11,0,2,0)
  JumpToLabel("後セリフ")
  0()
 EndIf()
 JumpToLabel("後セリフ")
 0()
EndIf()
If(1,1007,0,2,0)
 ShowMessageFace("dragonp_fc1",0,0,2,3)
 ShowMessage("\\n<Papi>Rawr! Got a job for me?\nWhat materials would you like to craft with?")
 355("unlimited_choices(11, [\"Iron\",\"Gold\",\"Mithril\",")
 655("\"Never mind\"])")
 If(1,11,0,0,0)
  JumpToLabel("鉄")
  0()
 EndIf()
 If(1,11,0,1,0)
  JumpToLabel("金")
  0()
 EndIf()
 If(1,11,0,2,0)
  JumpToLabel("ミスリル")
  0()
 EndIf()
 If(1,11,0,3,0)
  JumpToLabel("後セリフ")
  0()
 EndIf()
 JumpToLabel("後セリフ")
 0()
EndIf()
If(1,1007,0,3,0)
 ShowMessageFace("dragonp_fc1",0,0,2,4)
 ShowMessage("\\n<Papi>Rawr! Got a job for me?\nWhat materials would you like to craft with?")
 355("unlimited_choices(11, [\"Iron\",\"Gold\",\"Mithril\",")
 655("\"Crystal\",\"Never mind\"])")
 If(1,11,0,0,0)
  JumpToLabel("鉄")
  0()
 EndIf()
 If(1,11,0,1,0)
  JumpToLabel("金")
  0()
 EndIf()
 If(1,11,0,2,0)
  JumpToLabel("ミスリル")
  0()
 EndIf()
 If(1,11,0,3,0)
  JumpToLabel("クリスタル")
  0()
 EndIf()
 If(1,11,0,4,0)
  JumpToLabel("後セリフ")
  0()
 EndIf()
 JumpToLabel("後セリフ")
 0()
EndIf()
If(1,1007,0,4,0)
 ShowMessageFace("dragonp_fc1",0,0,2,5)
 ShowMessage("\\n<Papi>Rawr! Got a job for me?\nWhat materials would you like to craft with?")
 355("unlimited_choices(11, [\"Iron\",\"Gold\",\"Mithril\",")
 655("\"Crystal\",\"Dragon Scale\",\"Never mind\"])")
 If(1,11,0,0,0)
  JumpToLabel("鉄")
  0()
 EndIf()
 If(1,11,0,1,0)
  JumpToLabel("金")
  0()
 EndIf()
 If(1,11,0,2,0)
  JumpToLabel("ミスリル")
  0()
 EndIf()
 If(1,11,0,3,0)
  JumpToLabel("クリスタル")
  0()
 EndIf()
 If(1,11,0,4,0)
  JumpToLabel("竜鱗")
  0()
 EndIf()
 If(1,11,0,5,0)
  JumpToLabel("後セリフ")
  0()
 EndIf()
 JumpToLabel("後セリフ")
 0()
EndIf()
If(1,1007,0,5,0)
 ShowMessageFace("dragonp_fc1",0,0,2,6)
 ShowMessage("\\n<Papi>Rawr! Got a job for me?\nWhat materials would you like to craft with?")
 355("unlimited_choices(11, [\"Iron\",\"Gold\",\"Mithril\",")
 655("\"Crystal\",\"Dragon Scale\",\"Orichalcum\",\"Never mind\"])")
 If(1,11,0,0,0)
  JumpToLabel("鉄")
  0()
 EndIf()
 If(1,11,0,1,0)
  JumpToLabel("金")
  0()
 EndIf()
 If(1,11,0,2,0)
  JumpToLabel("ミスリル")
  0()
 EndIf()
 If(1,11,0,3,0)
  JumpToLabel("クリスタル")
  0()
 EndIf()
 If(1,11,0,4,0)
  JumpToLabel("竜鱗")
  0()
 EndIf()
 If(1,11,0,5,0)
  JumpToLabel("オリハルコン")
  0()
 EndIf()
 If(1,11,0,6,0)
  JumpToLabel("後セリフ")
  0()
 EndIf()
 JumpToLabel("後セリフ")
 0()
EndIf()
If(1,1007,0,6,0)
 ShowMessageFace("dragonp_fc1",0,0,2,7)
 ShowMessage("\\n<Papi>Rawr! Got a job for me?\nWhat materials would you like to craft with?")
 355("unlimited_choices(11, [\"Iron\",\"Gold\",\"Mithril\",")
 655("\"Crystal\",\"Dragon Scale\",\"Orichalcum\",\"Rainbow Crystal\",\"Never mind\"])")
 If(1,11,0,0,0)
  JumpToLabel("鉄")
  0()
 EndIf()
 If(1,11,0,1,0)
  JumpToLabel("金")
  0()
 EndIf()
 If(1,11,0,2,0)
  JumpToLabel("ミスリル")
  0()
 EndIf()
 If(1,11,0,3,0)
  JumpToLabel("クリスタル")
  0()
 EndIf()
 If(1,11,0,4,0)
  JumpToLabel("竜鱗")
  0()
 EndIf()
 If(1,11,0,5,0)
  JumpToLabel("オリハルコン")
  0()
 EndIf()
 If(1,11,0,6,0)
  JumpToLabel("虹")
  0()
 EndIf()
 If(1,11,0,7,0)
  JumpToLabel("後セリフ")
  0()
 EndIf()
 JumpToLabel("後セリフ")
 0()
EndIf()
DefineLabel("鉄")
Shop(1,3,0,0,false)
605(1,51,0,0)
605(1,145,0,0)
605(1,192,0,0)
605(1,292,0,0)
605(1,335,0,0)
605(1,364,0,0)
605(1,403,0,0)
605(1,443,0,0)
605(1,473,0,0)
605(1,511,0,0)
605(1,550,0,0)
605(1,591,0,0)
605(1,623,0,0)
605(1,660,0,0)
605(1,700,0,0)
605(1,726,0,0)
605(1,755,0,0)
605(1,775,0,0)
605(1,797,0,0)
605(1,822,0,0)
605(1,844,0,0)
605(2,31,0,0)
605(2,55,0,0)
605(2,105,0,0)
605(2,194,0,0)
605(2,235,0,0)
605(2,282,0,0)
JumpToLabel("後セリフ")
DefineLabel("金")
Shop(1,5,0,0,false)
605(1,87,0,0)
605(1,147,0,0)
605(1,208,0,0)
605(1,294,0,0)
605(1,337,0,0)
605(1,366,0,0)
605(1,405,0,0)
605(1,445,0,0)
605(1,477,0,0)
605(1,513,0,0)
605(1,552,0,0)
605(1,593,0,0)
605(1,625,0,0)
605(1,662,0,0)
605(1,702,0,0)
605(1,729,0,0)
605(1,756,0,0)
605(1,776,0,0)
605(1,798,0,0)
605(1,824,0,0)
605(1,846,0,0)
605(2,33,0,0)
605(2,69,0,0)
605(2,106,0,0)
605(2,203,0,0)
605(2,237,0,0)
605(2,294,0,0)
JumpToLabel("後セリフ")
DefineLabel("ミスリル")
Shop(1,12,0,0,false)
605(1,61,0,0)
605(1,151,0,0)
605(1,196,0,0)
605(1,302,0,0)
605(1,340,0,0)
605(1,371,0,0)
605(1,412,0,0)
605(1,448,0,0)
605(1,482,0,0)
605(1,520,0,0)
605(1,560,0,0)
605(1,597,0,0)
605(1,630,0,0)
605(1,669,0,0)
605(1,705,0,0)
605(1,733,0,0)
605(1,758,0,0)
605(1,779,0,0)
605(1,801,0,0)
605(1,827,0,0)
605(1,849,0,0)
605(2,37,0,0)
605(2,60,0,0)
605(2,108,0,0)
605(2,197,0,0)
605(2,241,0,0)
605(2,286,0,0)
JumpToLabel("後セリフ")
DefineLabel("クリスタル")
Shop(1,17,0,0,false)
605(1,95,0,0)
605(1,154,0,0)
605(1,218,0,0)
605(1,307,0,0)
605(1,343,0,0)
605(1,378,0,0)
605(1,416,0,0)
605(1,450,0,0)
605(1,487,0,0)
605(1,524,0,0)
605(1,565,0,0)
605(1,600,0,0)
605(1,635,0,0)
605(1,674,0,0)
605(1,708,0,0)
605(1,735,0,0)
605(1,760,0,0)
605(1,782,0,0)
605(1,804,0,0)
605(1,829,0,0)
605(1,851,0,0)
605(2,40,0,0)
605(2,78,0,0)
605(2,110,0,0)
605(2,208,0,0)
605(2,244,0,0)
605(2,304,0,0)
605(0,103,0,0)
JumpToLabel("後セリフ")
DefineLabel("竜鱗")
Shop(1,21,0,0,false)
605(1,99,0,0)
605(1,157,0,0)
605(1,220,0,0)
605(1,311,0,0)
605(1,346,0,0)
605(1,380,0,0)
605(1,420,0,0)
605(1,453,0,0)
605(1,489,0,0)
605(1,526,0,0)
605(1,567,0,0)
605(1,603,0,0)
605(1,638,0,0)
605(1,678,0,0)
605(1,711,0,0)
605(1,738,0,0)
605(1,762,0,0)
605(1,784,0,0)
605(1,807,0,0)
605(1,831,0,0)
605(1,853,0,0)
605(2,42,0,0)
605(2,81,0,0)
605(2,112,0,0)
605(2,211,0,0)
605(2,247,0,0)
605(2,307,0,0)
605(0,104,0,0)
JumpToLabel("後セリフ")
DefineLabel("オリハルコン")
Shop(1,24,0,0,false)
605(1,106,0,0)
605(1,160,0,0)
605(1,225,0,0)
605(1,273,0,0)
605(1,315,0,0)
605(1,349,0,0)
605(1,384,0,0)
605(1,423,0,0)
605(1,458,0,0)
605(1,492,0,0)
605(1,532,0,0)
605(1,572,0,0)
605(1,607,0,0)
605(1,642,0,0)
605(1,682,0,0)
605(1,714,0,0)
605(1,741,0,0)
605(1,765,0,0)
605(1,786,0,0)
605(1,809,0,0)
605(1,834,0,0)
605(1,857,0,0)
605(2,44,0,0)
605(2,86,0,0)
605(2,115,0,0)
605(2,217,0,0)
605(2,250,0,0)
605(2,312,0,0)
605(0,105,0,0)
JumpToLabel("後セリフ")
DefineLabel("虹")
Shop(1,26,0,0,false)
605(1,74,0,0)
605(1,161,0,0)
605(1,226,0,0)
605(1,252,0,0)
605(1,276,0,0)
605(1,316,0,0)
605(1,350,0,0)
605(1,386,0,0)
605(1,427,0,0)
605(1,459,0,0)
605(1,494,0,0)
605(1,534,0,0)
605(1,573,0,0)
605(1,609,0,0)
605(1,644,0,0)
605(1,685,0,0)
605(1,715,0,0)
605(1,743,0,0)
605(1,766,0,0)
605(1,787,0,0)
605(1,811,0,0)
605(1,835,0,0)
605(1,860,0,0)
605(2,46,0,0)
605(2,90,0,0)
605(2,117,0,0)
605(2,219,0,0)
605(2,251,0,0)
605(2,314,0,0)
605(0,106,0,0)
JumpToLabel("後セリフ")
DefineLabel("後セリフ")
If(1,1007,0,0,0)
 ShowMessageFace("dragonp_fc1",0,0,2,8)
 ShowMessage("\\n<Papi>I'd love to work with materials more advanced than iron! I heard that the northern village of Midas is famous for its production of golden equipment!")
 EndEventProcessing()
 0()
EndIf()
If(1,1007,0,1,0)
 If(8,153)
  ShowMessageFace("dragonp_fc1",0,0,2,9)
  ShowMessage("\\n<Papi>Rawr! I want to work with Mithril! I'd love to learn from the blacksmith at San Ilia!")
  0()
 Else()
  ShowMessageFace("dragonp_fc1",0,0,2,10)
  ShowMessage("\\n<Papi>I still have lots more to learn about smithing! There are so many more materials in the world to use!")
  0()
 EndIf()
 EndEventProcessing()
 0()
EndIf()
If(1,1007,0,2,0)
 If(8,154)
  ShowMessageFace("dragonp_fc1",0,0,2,11)
  ShowMessage("\\n<Papi>I'm dying to become a crystal blacksmith...\nI'd love to learn from the blacksmith in Saloon!")
  0()
 Else()
  ShowMessageFace("dragonp_fc1",0,0,2,12)
  ShowMessage("\\n<Papi>I'm almost good enough to be a first-rate smith, but I've still got more to learn!")
  0()
 EndIf()
 EndEventProcessing()
 0()
EndIf()
If(1,1007,0,3,0)
 If(8,155)
  ShowMessageFace("dragonp_fc1",0,0,2,13)
  ShowMessage("\\n<Papi>Rawr! Smiths who can work dragon scales are held in high honor! I need to go learn the technique from the smith in Grand Noah!")
  0()
 Else()
  ShowMessageFace("dragonp_fc1",0,0,2,14)
  ShowMessage("\\n<Papi>My skills have greatly improved, but I've got a long way to go before I'm the best smith in the world!")
  0()
 EndIf()
 EndEventProcessing()
 0()
EndIf()
If(1,1007,0,4,0)
 If(8,156)
  ShowMessageFace("dragonp_fc1",0,0,2,15)
  ShowMessage("\\n<Papi>Every blacksmith aspires to work with orichalcum! I want to go learn how from the dragon blacksmith in Gold Port!")
  0()
 Else()
  ShowMessageFace("dragonp_fc1",0,0,2,16)
  ShowMessage("\\n<Papi>I wonder if I'll surpass my master soon...?\n But there's no limit to hard work and discipline!")
  0()
 EndIf()
 EndEventProcessing()
 0()
EndIf()
If(1,1007,0,5,0)
 If(8,157)
  ShowMessageFace("dragonp_fc1",0,0,2,17)
  ShowMessage("\\n<Papi>Rainbow... Even among blacksmiths, the existence of this marvelous material has been uncertain. The elven blacksmith at Fairy's Island can teach me how to work with it!")
  0()
 Else()
  ShowMessageFace("dragonp_fc1",0,0,2,18)
  ShowMessage("\\n<Papi>To be able to work with orichalcum makes me top-class... But I've heard rumors about a stronger material called [Rainbow]!")
  0()
 EndIf()
 EndEventProcessing()
 0()
EndIf()
If(1,1007,0,6,0)
 If(8,158)
  ShowMessageFace("dragonp_fc1",0,0,2,19)
  ShowMessage("\\n<Papi>...")
  0()
 Else()
  ShowMessageFace("dragonp_fc1",0,0,2,20)
  ShowMessage("\\n<Papi>I've reached the summit at last now that I'm able to work with [Rainbow]... No, I can still go further... I just know it!")
  0()
 EndIf()
 EndEventProcessing()
 0()
EndIf()
0()
