// EVENT 4246
Name "Candle Girl 1"

If(0,25,1)
 221()
 PictureClear(5)
 PictureClear(6)
 ShowMessageFace("",0,0,2,1)
 ShowMessage("........")
 242(2)
 Wait(120)
 241(bytes(0x04,0x08,0x6f,0x3a,0x0d,0x52,0x50,0x47,0x3a,0x3a,0x42,0x47,0x4d,0x08,0x3a,0x0a,0x40,0x6e,0x61,0x6d,0x65,0x49,0x22,0x0c,0x63,0x61,0x73,0x74,0x6c,0x65,0x36,0x06,0x3a,0x06,0x45,0x54,0x3a,0x0c,0x40,0x76,0x6f,0x6c,0x75,0x6d,0x65,0x69,0x69,0x3a,0x0b,0x40,0x70,0x69,0x74,0x63,0x68,0x69,0x69))
 EndEventProcessing()
 0()
EndIf()
PictureDisplay(5,"80_candle_st01",0,0,0,0,100,100,255,0)
ShowMessageFace("candle_fc1",0,0,2,2)
ShowMessage("\\n<Chandra>")
ShowMessage("You want me to give you pleasure?")
ShowMessageFace("",0,0,2,3)
ShowMessage("\\n<Luka>")
ShowMessage("P-please...")
PictureDisplay(5,"80_candle_st02",0,0,0,0,100,100,255,0)
ShowMessageFace("candle_fc1",1,0,2,4)
ShowMessage("\\n<Chandra>")
ShowMessage("You're a naughty child for asking an ally something like that.")
ShowMessage("Naughty children like you should be punished...")
ShowMessageFace("",0,0,2,5)
ShowMessage("Chandra's lower body turns mushy.")
ShowMessage("Her body takes the consistency of some sort of thick mucus.")
241(bytes(0x04,0x08,0x6f,0x3a,0x0d,0x52,0x50,0x47,0x3a,0x3a,0x42,0x47,0x4d,0x08,0x3a,0x0a,0x40,0x6e,0x61,0x6d,0x65,0x49,0x22,0x09,0x65,0x72,0x6f,0x31,0x06,0x3a,0x06,0x45,0x54,0x3a,0x0c,0x40,0x76,0x6f,0x6c,0x75,0x6d,0x65,0x69,0x69,0x3a,0x0b,0x40,0x70,0x69,0x74,0x63,0x68,0x69,0x69))
245(bytes(0x04,0x08,0x6f,0x3a,0x0d,0x52,0x50,0x47,0x3a,0x3a,0x42,0x47,0x53,0x08,0x3a,0x0a,0x40,0x6e,0x61,0x6d,0x65,0x49,0x22,0x17,0x6d,0x6f,0x6e,0x5f,0x68,0x73,0x65,0x61,0x6e,0x31,0x38,0x5f,0x73,0x6c,0x69,0x6d,0x65,0x31,0x06,0x3a,0x06,0x45,0x54,0x3a,0x0c,0x40,0x76,0x6f,0x6c,0x75,0x6d,0x65,0x69,0x55,0x3a,0x0b,0x40,0x70,0x69,0x74,0x63,0x68,0x69,0x69))
PictureDisplay(5,"ev_candle_h1",0,0,0,0,100,100,0,0)
PictureMove(5,null,0,0,0,0,100,100,255,0,30,true)
ShowMessageFace("",0,0,2,6)
ShowMessage("\\n<Luka>")
ShowMessage("Ugh...S-stop it!")
ShowMessageFace("",0,0,2,7)
ShowMessage("It covers and swallows my lower half.")
ShowMessage("A strong feeling of oppression takes over me and I can't even struggle out of it.")
ShowMessageFace("",0,0,2,8)
ShowMessage("My exposed penis is swallowed by her wax.")
ShowMessage("The melted wax sticks to my penis and caresses it gently.")
ShowMessageFace("",0,0,2,9)
ShowMessage("\\n<Luka>")
ShowMessage("Nnngh... Aaah...!")
ShowMessageFace("",0,0,2,10)
ShowMessage("I feel a gentle and unique pleasure from her wax.")
ShowMessage("In response to her sweet stimulation, my penis grows bigger...")
ShowMessageFace("candle_fc1",1,0,2,11)
ShowMessage("\\n<Chandra>")
ShowMessage("You're this big already?")
ShowMessage("Even though you're being punished, this excites you. How pathetic...")
ShowMessageFace("",0,0,2,12)
ShowMessage("Her wax starts weighing heavier on me and hardens but at the same time is very soft to the touch.")
ShowMessage("The feeling of a flowing, viscous fluid envelops my penis.")
ShowMessageFace("candle_fc1",1,0,2,13)
ShowMessage("\\n<Chandra>")
ShowMessage("It's time to start your punishment.")
ShowMessage("I'm going to turn up the heat...")
ShowMessageFace("",0,0,2,14)
ShowMessage("\\n<Luka>")
ShowMessage("Unnngh...Ugh...")
PictureDisplay(5,"ev_candle_h2",0,0,0,0,100,100,255,0)
ShowMessageFace("",0,0,2,15)
ShowMessage("The wax winding around my penis starts getting hotter.")
ShowMessage("It feels very hot on my skin but not hot enough for it to be painful.")
ShowMessageFace("",0,0,2,16)
ShowMessage("Despite the danger, it feels rather pleasant.")
ShowMessage("The heat coming from her wax makes my penis throb in pleasure.")
ShowMessageFace("",0,0,2,17)
ShowMessage("\\n<Luka>")
ShowMessage("Nnngh...It's warm...")
ShowMessageFace("",0,0,2,18)
ShowMessage("I'm rapidly getting drunk on the sweet warmth of her wax.")
ShowMessage("My penis starts trembling inside her wax like a scared animal.")
ShowMessageFace("",0,0,2,19)
ShowMessage("It's a really gentle stimulation, without being too tight.")
ShowMessage("Similar to a very gentle fever, it takes over my lower half...")
ShowMessageFace("",0,0,2,20)
ShowMessage("\\n<Luka>")
ShowMessage("Aahh... Feels so good...")
ShowMessageFace("candle_fc1",1,0,2,21)
ShowMessage("\\n<Chandra>")
ShowMessage("Arara... Does it really feel good?")
ShowMessage("I wrapped up your penis and warmed it up a bit and you're already moaning like this?")
ShowMessageFace("candle_fc1",1,0,2,22)
ShowMessage("\\n<Chandra>")
ShowMessage("You're a reeally naughty child, aren't you...")
ShowMessage("Even though I'm punishing you, you're enjoying it...")
ShowMessageFace("",0,0,2,23)
ShowMessage("\\n<Luka>")
ShowMessage("Unnngh... Aaah...")
ShowMessageFace("",0,0,2,24)
ShowMessage("Feeling like I could melt from this gentle heat, I'm already driven near an orgasm.")
ShowMessage("My penis encased in her wax started pulsing, announcing my impending orgasm.")
ShowMessageFace("",0,0,2,25)
ShowMessage("A sweet feeling spreads through my body and my lower half becomes numb.")
ShowMessage("I can feel I already lost control and I'm about to ejaculate...")
ShowMessageFace("",0,0,2,26)
ShowMessage("\\n<Luka>")
ShowMessage("Auu, I'm coming!")
ShowMessageFace("candle_fc1",1,0,2,27)
ShowMessage("\\n<Chandra>")
ShowMessage("...already leaking because of just this much?")
ShowMessage("I guess there's no helping it...")
ShowMessageFace("",0,0,2,28)
ShowMessage("Chandra giggles dominantly.")
ShowMessage("With no escape in sight, I'm pushed over the edge.")
ShowMessageFace("",0,0,2,29)
ShowMessage("\\n<Luka>")
ShowMessage("Ah, aaaah...!!")
RunCommonEvent(104)
PictureDisplay(5,"ev_candle_h3",0,0,0,0,100,100,255,0)
RunCommonEvent(105)
ShowMessageFace("",0,0,2,30)
ShowMessage("I release a steady stream of semen inside her winding wax.")
ShowMessage("It feels as though I leaked my semen while my penis is melted.")
ShowMessageFace("",0,0,2,31)
ShowMessage("\\n<Luka>")
ShowMessage("Hnnaaa...")
ShowMessageFace("",0,0,2,32)
ShowMessage("The relaxing ejaculation makes my body go slack.")
ShowMessage("The pleasure I got from it was out of this world.")
ShowMessageFace("candle_fc1",1,0,2,33)
ShowMessage("\\n<Chandra>")
ShowMessage("You came. What a miserable child.")
ShowMessage("But for how long will this pleasure linger?")
ShowMessageFace("",0,0,2,34)
ShowMessage("\\n<Luka>")
ShowMessage("Huh...?")
ShowMessage("Ah, aaaah...!")
ShowMessageFace("",0,0,2,35)
ShowMessage("In the next moment, a yell escapes my mouth.")
ShowMessage("The temperature of the wax covering my body steadily increases.")
ShowMessageFace("",0,0,2,36)
ShowMessage("The wax encasing my penis also gets hotter and its movements slow down.")
ShowMessage("The temperature rises around my penis beyond the threshold where it feels pleasant.")
ShowMessageFace("",0,0,2,37)
ShowMessage("\\n<Luka>")
ShowMessage("Ah, it's hot!")
ShowMessageFace("candle_fc1",1,0,2,38)
ShowMessage("\\n<Chandra>")
ShowMessage("Fufu, I said I'm going to punish you.")
ShowMessage("Oh, this is nothing. I can make it a lot hotter...")
ShowMessageFace("",0,0,2,39)
ShowMessage("\\n<Luka>")
ShowMessage("Ah, h-hot... Ah, aaaah...!!")
ShowMessageFace("",0,0,2,40)
ShowMessage("The wax wrapped around my penis gives off more heat than pleasure.")
ShowMessage("I'm brought back to reality by the heat of the wax and I start struggling.")
ShowMessageFace("",0,0,2,41)
ShowMessage("But to no avail, my limbs are firmly held down by hardened wax.")
ShowMessage("No matter how hard I try, I can't seem to break free.")
ShowMessageFace("",0,0,2,42)
ShowMessage("\\n<Luka>")
ShowMessage("S...Stop... It's hooot!")
ShowMessageFace("candle_fc1",1,0,2,43)
ShowMessage("\\n<Chandra>")
ShowMessage("Rest assured, I won't burn you to ash.")
ShowMessage("You seem like such fine prey; it would be a shame to wound you.")
ShowMessageFace("candle_fc1",1,0,2,44)
ShowMessage("\\n<Chandra>")
ShowMessage("I will just heat up until right before the burning mark.")
ShowMessage("I'll have you writhing in agony before I'm done punishing you.")
ShowMessageFace("",0,0,2,45)
ShowMessage("\\n<Luka>")
ShowMessage("Hyaaaa!!")
ShowMessageFace("",0,0,2,46)
ShowMessage("Every part of my body that is covered by her wax feels unbearable heat.")
ShowMessage("The wax covering my lower half keeps flowing around my penis and fills it mercilessly with unbearable heat.")
ShowMessageFace("",0,0,2,47)
ShowMessage("It feels like she's torturing me with her heat.")
ShowMessage("Even if I cry out in a pathetic tone, she doesn't turn the heat down.")
ShowMessageFace("",0,0,2,48)
ShowMessage("\\n<Luka>")
ShowMessage("Aaaaaah!!")
ShowMessageFace("candle_fc1",1,0,2,49)
ShowMessage("\\n<Chandra>")
ShowMessage("Fufu, such a cute voice...")
ShowMessage("Let me hear more of your miserable cries...")
ShowMessageFace("",0,0,2,50)
ShowMessage("I writhe in the agony of the heat while the Chandra mocks me.")
ShowMessage("All of a sudden, my penis starts throbbing in the hot wax.")
ShowMessageFace("",0,0,2,51)
ShowMessage("\\n<Luka>")
ShowMessage("Ah, hot... Aaaah...!!")
RunCommonEvent(104)
PictureDisplay(5,"ev_candle_h4",0,0,0,0,100,100,255,0)
RunCommonEvent(105)
ShowMessageFace("",0,0,2,52)
ShowMessage("Without even realizing it, I start shooting off my semen.")
ShowMessage("A steady stream of semen flows out of me and all over the Chandra's hot wax.")
ShowMessageFace("",0,0,2,53)
ShowMessage("\\n<Luka>")
ShowMessage("Aaaaah...")
ShowMessageFace("",0,0,2,54)
ShowMessage("But my ejaculation brings no pleasure, it just feels like I leaked out.")
ShowMessage("The unbearable feverish feeling continues as the last few drops of my semen drip out.")
ShowMessageFace("candle_fc1",1,0,2,55)
ShowMessage("\\n<Chandra>")
ShowMessage("Arara, you leaked again...")
ShowMessage("It seems like your penis' tap broke.")
ShowMessageFace("candle_fc1",1,0,2,56)
ShowMessage("\\n<Chandra>")
ShowMessage("You have a very ill-mannered penis and I need to punish it.")
ShowMessage("I'll turn up the heat even more...")
ShowMessageFace("",0,0,2,57)
ShowMessage("\\n<Luka>")
ShowMessage("S-Stop...")
ShowMessage("Aaaaaah!!")
ShowMessageFace("",0,0,2,58)
ShowMessage("The temperature of the wax surrounding my penis rises even more.")
ShowMessage("The heat burns my glans and it feels like it's slowly eroding away.")
ShowMessageFace("",0,0,2,59)
ShowMessage("I struggle in the wax and cry in agony.")
ShowMessage("But my feeble struggling does nothing but pleases the Chandra.")
ShowMessageFace("",0,0,2,60)
ShowMessage("\\n<Luka>")
ShowMessage("Hyaaaa!!")
ShowMessage("Stop, stop iiiiiiiit!")
ShowMessageFace("candle_fc1",2,0,2,61)
ShowMessage("\\n<Chandra>")
ShowMessage("Fufufu, have you learned your lesson then?")
ShowMessage("Do you understand that you shouldn't challenge me?")
ShowMessageFace("",0,0,2,62)
ShowMessage("\\n<Luka>")
ShowMessage("I... I understand...")
ShowMessage("So please! Stop iiit!!")
ShowMessageFace("candle_fc1",2,0,2,63)
ShowMessage("\\n<Chandra>")
ShowMessage("...Fufufu.")
ShowMessageFace("",0,0,2,64)
ShowMessage("Even though I'm crying, she continues to torture me with her hot wax.")
ShowMessage("Over the course of the night, I suffered in agony within her wax torture.")
ShowMessageFace("",0,0,2,65)
ShowMessage("I was finally released in the morning...")
ShowMessage("I still regret asking her for pleasure.")
221()
PictureClear(5)
246(2)
ShowMessageFace("",0,0,2,66)
ShowMessage("........")
242(2)
Wait(120)
241(bytes(0x04,0x08,0x6f,0x3a,0x0d,0x52,0x50,0x47,0x3a,0x3a,0x42,0x47,0x4d,0x08,0x3a,0x0a,0x40,0x6e,0x61,0x6d,0x65,0x49,0x22,0x0c,0x63,0x61,0x73,0x74,0x6c,0x65,0x36,0x06,0x3a,0x06,0x45,0x54,0x3a,0x0c,0x40,0x76,0x6f,0x6c,0x75,0x6d,0x65,0x69,0x69,0x3a,0x0b,0x40,0x70,0x69,0x74,0x63,0x68,0x69,0x69))
0()
