// EVENT 7092
Name "Fuisz: Match"

ChangeSwitch(96,96,0)
ChangeSwitch(98,98,0)
ShowMessageFace("mob_gakusya1_fc1",1,0,2,1)
ShowMessage("\\n<Fizz>Erhg, I've got too much to do...\nLet's finish this quickly, shall we?")
250(bytes(0x04,0x08,0x6f,0x3a,0x0c,0x52,0x50,0x47,0x3a,0x3a,0x53,0x45,0x08,0x3a,0x0a,0x40,0x6e,0x61,0x6d,0x65,0x49,0x22,0x12,0x6d,0x6f,0x6e,0x5f,0x65,0x72,0x6f,0x5f,0x6b,0x6f,0x6b,0x69,0x31,0x06,0x3a,0x06,0x45,0x54,0x3a,0x0b,0x40,0x70,0x69,0x74,0x63,0x68,0x69,0x69,0x3a,0x0c,0x40,0x76,0x6f,0x6c,0x75,0x6d,0x65,0x69,0x69))
PictureDisplay(5,"80_mob_gakusya1_st02",0,0,-190,0,100,100,255,0)
PictureDisplay(6,"ev_mob_gakusya1_ct31",0,0,240,50,100,100,255,0)
ChangeVariable(11,11,0,2,29,31)
311(0,1,1,1,11,true)
ShowMessageFace("",0,0,2,2)
ShowMessage("With an exasperated sigh, Fizz reaches for Luka's penis!")
ShowMessage("She firmly grasps it!\\D")
ShowMessage("Luka takes \\V[11] damage!")
ChangeVariable(27,27,0,3,3,1,2)
If(1,27,0,0,0)
 RunCommonEvent(7095)
 EndEventProcessing()
 0()
EndIf()
ShowMessageFace("mob_gakusya1_fc1",1,0,2,3)
ShowMessage("\\n<Fizz>Did you be sure to clean your penis properly?\nI hate dirty things...")
250(bytes(0x04,0x08,0x6f,0x3a,0x0c,0x52,0x50,0x47,0x3a,0x3a,0x53,0x45,0x08,0x3a,0x0a,0x40,0x6e,0x61,0x6d,0x65,0x49,0x22,0x12,0x6d,0x6f,0x6e,0x5f,0x65,0x72,0x6f,0x5f,0x6b,0x6f,0x6b,0x69,0x31,0x06,0x3a,0x06,0x45,0x54,0x3a,0x0b,0x40,0x70,0x69,0x74,0x63,0x68,0x69,0x69,0x3a,0x0c,0x40,0x76,0x6f,0x6c,0x75,0x6d,0x65,0x69,0x69))
ChangeVariable(11,11,0,2,29,31)
311(0,1,1,1,11,true)
ShowMessageFace("",0,0,2,4)
ShowMessage("Fizz frowns as she strokes Luka's penis!")
ShowMessage("Her rhythmic strokes go up and down without stopping!\\D")
ShowMessage("Luka takes \\V[11] damage!")
ChangeVariable(27,27,0,3,3,1,2)
If(1,27,0,0,0)
 RunCommonEvent(7095)
 EndEventProcessing()
 0()
EndIf()
ShowMessageFace("mob_gakusya1_fc1",1,0,2,5)
ShowMessage("\\n<Fizz>Does it feel nice?\nIt's rather dirty, so please ensure your semen lands in a tissue paper.")
250(bytes(0x04,0x08,0x6f,0x3a,0x0c,0x52,0x50,0x47,0x3a,0x3a,0x53,0x45,0x08,0x3a,0x0a,0x40,0x6e,0x61,0x6d,0x65,0x49,0x22,0x12,0x6d,0x6f,0x6e,0x5f,0x65,0x72,0x6f,0x5f,0x6b,0x6f,0x6b,0x69,0x31,0x06,0x3a,0x06,0x45,0x54,0x3a,0x0b,0x40,0x70,0x69,0x74,0x63,0x68,0x69,0x69,0x3a,0x0c,0x40,0x76,0x6f,0x6c,0x75,0x6d,0x65,0x69,0x69))
ChangeVariable(11,11,0,2,29,31)
311(0,1,1,1,11,true)
ShowMessageFace("",0,0,2,6)
ShowMessage("Fizz strokes Luka in a business-like manner!")
ShowMessage("The disinterested stroking continues at a steady pace!\\D")
ShowMessage("Luka takes \\V[11] damage!")
ChangeVariable(27,27,0,3,3,1,2)
If(1,27,0,0,0)
 RunCommonEvent(7095)
 EndEventProcessing()
 0()
EndIf()
ShowMessageFace("mob_gakusya1_fc1",1,0,2,7)
ShowMessage("\\n<Fizz>You aren't coming yet?\nMust I stroke it even faster?")
250(bytes(0x04,0x08,0x6f,0x3a,0x0c,0x52,0x50,0x47,0x3a,0x3a,0x53,0x45,0x08,0x3a,0x0a,0x40,0x6e,0x61,0x6d,0x65,0x49,0x22,0x12,0x6d,0x6f,0x6e,0x5f,0x65,0x72,0x6f,0x5f,0x6b,0x6f,0x6b,0x69,0x31,0x06,0x3a,0x06,0x45,0x54,0x3a,0x0b,0x40,0x70,0x69,0x74,0x63,0x68,0x69,0x69,0x3a,0x0c,0x40,0x76,0x6f,0x6c,0x75,0x6d,0x65,0x69,0x69))
PictureDisplay(6,"ev_mob_gakusya1_ct04",0,0,240,50,100,100,255,0)
ChangeVariable(11,11,0,2,29,31)
311(0,1,1,1,11,true)
ShowMessageFace("",0,0,2,8)
ShowMessage("With a tired smile, Fizz sighs and starts stroking Luka faster!")
ShowMessage("The up and down movements of her hand get faster and faster!\\D")
ShowMessage("Luka takes \\V[11] damage!")
ChangeVariable(27,27,0,3,3,1,2)
If(1,27,0,0,0)
 RunCommonEvent(7096)
 EndEventProcessing()
 0()
EndIf()
ShowMessageFace("mob_gakusya1_fc1",1,0,2,9)
ShowMessage("\\n<Fizz>Ahh geez, hurry up and finish already.\nI'm busy and have more important things to do.")
250(bytes(0x04,0x08,0x6f,0x3a,0x0c,0x52,0x50,0x47,0x3a,0x3a,0x53,0x45,0x08,0x3a,0x0a,0x40,0x6e,0x61,0x6d,0x65,0x49,0x22,0x12,0x6d,0x6f,0x6e,0x5f,0x65,0x72,0x6f,0x5f,0x6b,0x6f,0x6b,0x69,0x31,0x06,0x3a,0x06,0x45,0x54,0x3a,0x0b,0x40,0x70,0x69,0x74,0x63,0x68,0x69,0x69,0x3a,0x0c,0x40,0x76,0x6f,0x6c,0x75,0x6d,0x65,0x69,0x69))
ChangeVariable(11,11,0,2,29,31)
311(0,1,1,1,11,true)
ShowMessageFace("",0,0,2,10)
ShowMessage("Fizz sighs as she strokes Luka!")
ShowMessage("Her soft hand stimulates Luka!\\D")
ShowMessage("Luka takes \\V[11] damage!")
ChangeVariable(27,27,0,3,3,1,2)
If(1,27,0,0,0)
 RunCommonEvent(7096)
 EndEventProcessing()
 0()
EndIf()
If(1,27,0,150,4)
 ShowMessageFace("ruka_fc1",0,0,2,11)
 ShowMessage("\\n<Luka>Ah, unnngh...")
 ShowMessageFace("mob_gakusya1_fc1",1,0,2,12)
 ShowMessage("\\n<Fizz>Are you almost done?\nLet's finish this distraction quickly, then.")
 0()
Else()
 ShowMessageFace("mob_gakusya1_fc1",1,0,2,13)
 ShowMessage("\\n<Fizz>Are you still trying to hold back?\nSheesh... Finish already.")
 0()
EndIf()
250(bytes(0x04,0x08,0x6f,0x3a,0x0c,0x52,0x50,0x47,0x3a,0x3a,0x53,0x45,0x08,0x3a,0x0a,0x40,0x6e,0x61,0x6d,0x65,0x49,0x22,0x12,0x6d,0x6f,0x6e,0x5f,0x65,0x72,0x6f,0x5f,0x6b,0x6f,0x6b,0x69,0x31,0x06,0x3a,0x06,0x45,0x54,0x3a,0x0b,0x40,0x70,0x69,0x74,0x63,0x68,0x69,0x69,0x3a,0x0c,0x40,0x76,0x6f,0x6c,0x75,0x6d,0x65,0x69,0x69))
PictureDisplay(5,"ev_mob_gakusya1_h1",0,0,0,0,100,100,255,0)
PictureClear(6)
ChangeVariable(11,11,0,2,29,31)
311(0,1,1,1,11,true)
ShowMessageFace("",0,0,2,14)
ShowMessage("Fizz puts Luka's penis on her skirt.")
ShowMessage("She grabs it tightly through her skirt!\\D")
ShowMessage("Luka takes \\V[11] damage!")
ChangeVariable(27,27,0,3,3,1,2)
If(1,27,0,0,0)
 RunCommonEvent(7097)
 EndEventProcessing()
 0()
EndIf()
ShowMessageFace("mob_gakusya1_fc1",1,0,2,15)
ShowMessage("\\n<Fizz>My skirt is silky and smooth, don't you agree?\nI'll use it, so hurry up and finish.")
250(bytes(0x04,0x08,0x6f,0x3a,0x0c,0x52,0x50,0x47,0x3a,0x3a,0x53,0x45,0x08,0x3a,0x0a,0x40,0x6e,0x61,0x6d,0x65,0x49,0x22,0x12,0x6d,0x6f,0x6e,0x5f,0x65,0x72,0x6f,0x5f,0x6b,0x6f,0x6b,0x69,0x31,0x06,0x3a,0x06,0x45,0x54,0x3a,0x0b,0x40,0x70,0x69,0x74,0x63,0x68,0x69,0x69,0x3a,0x0c,0x40,0x76,0x6f,0x6c,0x75,0x6d,0x65,0x69,0x69))
ChangeVariable(11,11,0,2,29,31)
311(0,1,1,1,11,true)
ShowMessageFace("",0,0,2,16)
ShowMessage("Fizz squeezes Luka's penis through her skirt!")
ShowMessage("Grasping it tightly, she strokes up and down!\\D")
ShowMessage("Luka takes \\V[11] damage!")
ChangeVariable(27,27,0,3,3,1,2)
If(1,27,0,0,0)
 RunCommonEvent(7097)
 EndEventProcessing()
 0()
EndIf()
ShowMessageFace("mob_gakusya1_fc1",1,0,2,17)
ShowMessage("\\n<Fizz>Hey, don't hold back.\nDon't cause any more trouble for me.")
250(bytes(0x04,0x08,0x6f,0x3a,0x0c,0x52,0x50,0x47,0x3a,0x3a,0x53,0x45,0x08,0x3a,0x0a,0x40,0x6e,0x61,0x6d,0x65,0x49,0x22,0x12,0x6d,0x6f,0x6e,0x5f,0x65,0x72,0x6f,0x5f,0x6b,0x6f,0x6b,0x69,0x31,0x06,0x3a,0x06,0x45,0x54,0x3a,0x0b,0x40,0x70,0x69,0x74,0x63,0x68,0x69,0x69,0x3a,0x0c,0x40,0x76,0x6f,0x6c,0x75,0x6d,0x65,0x69,0x69))
ChangeVariable(11,11,0,2,29,31)
311(0,1,1,1,11,true)
ShowMessageFace("",0,0,2,18)
ShowMessage("Fizz rubs Luka even faster through her skirt!")
ShowMessage("Her nimble fingers run over the tip of his penis!\\D")
ShowMessage("Luka takes \\V[11] damage!")
ChangeVariable(27,27,0,3,3,1,2)
If(1,27,0,0,0)
 RunCommonEvent(7097)
 EndEventProcessing()
 0()
EndIf()
ShowMessageFace("mob_gakusya1_fc1",1,0,2,19)
ShowMessage("\\n<Fizz>Are you still holding back?\nThen how about this...!?")
250(bytes(0x04,0x08,0x6f,0x3a,0x0c,0x52,0x50,0x47,0x3a,0x3a,0x53,0x45,0x08,0x3a,0x0a,0x40,0x6e,0x61,0x6d,0x65,0x49,0x22,0x12,0x6d,0x6f,0x6e,0x5f,0x65,0x72,0x6f,0x5f,0x6b,0x6f,0x6b,0x69,0x31,0x06,0x3a,0x06,0x45,0x54,0x3a,0x0b,0x40,0x70,0x69,0x74,0x63,0x68,0x69,0x69,0x3a,0x0c,0x40,0x76,0x6f,0x6c,0x75,0x6d,0x65,0x69,0x69))
ChangeVariable(11,11,0,2,29,31)
311(0,1,1,1,11,true)
ShowMessageFace("",0,0,2,20)
ShowMessage("Fizz sandwiches Luka's penis between her thighs!")
ShowMessage("Her soft flesh presses against him through her stockings!\\D")
ShowMessage("Luka takes \\V[11] damage!")
ChangeVariable(27,27,0,3,3,1,2)
If(1,27,0,0,0)
 RunCommonEvent(7097)
 EndEventProcessing()
 0()
EndIf()
ShowMessageFace("mob_gakusya1_fc1",1,0,2,21)
ShowMessage("\\n<Fizz>I'll finish with this.\nYou've caused me a lot of trouble, so come now!")
250(bytes(0x04,0x08,0x6f,0x3a,0x0c,0x52,0x50,0x47,0x3a,0x3a,0x53,0x45,0x08,0x3a,0x0a,0x40,0x6e,0x61,0x6d,0x65,0x49,0x22,0x12,0x6d,0x6f,0x6e,0x5f,0x65,0x72,0x6f,0x5f,0x6b,0x6f,0x6b,0x69,0x31,0x06,0x3a,0x06,0x45,0x54,0x3a,0x0b,0x40,0x70,0x69,0x74,0x63,0x68,0x69,0x69,0x3a,0x0c,0x40,0x76,0x6f,0x6c,0x75,0x6d,0x65,0x69,0x69))
ChangeVariable(11,11,0,2,29,31)
311(0,1,1,1,11,true)
ShowMessageFace("",0,0,2,22)
ShowMessage("Fizz sandwiches Luka's penis between her thighs!")
ShowMessage("Pleasure corners Luka between her soft thighs!\\D")
ShowMessage("Luka takes \\V[11] damage!")
ChangeVariable(27,27,0,3,3,1,2)
If(1,27,0,0,0)
 RunCommonEvent(7097)
 EndEventProcessing()
 0()
EndIf()
RunCommonEvent(7094)
EndEventProcessing()
0()
