﻿// EVENT 7301
Name "Alleria: Talk"

If(1,831,0,0,0)
 ChangeVariable(831,831,0,0,1)
 0()
EndIf()
241(bytes(0x04,0x08,0x6f,0x3a,0x0d,0x52,0x50,0x47,0x3a,0x3a,0x42,0x47,0x4d,0x08,0x3a,0x0a,0x40,0x6e,0x61,0x6d,0x65,0x49,0x22,0x09,0x65,0x72,0x6f,0x32,0x06,0x3a,0x06,0x45,0x54,0x3a,0x0c,0x40,0x76,0x6f,0x6c,0x75,0x6d,0x65,0x69,0x50,0x3a,0x0b,0x40,0x70,0x69,0x74,0x63,0x68,0x69,0x69))
PictureDisplay(5,"80_mob_ozyou_st01",0,0,0,0,100,100,0,0)
PictureMove(5,null,0,0,0,0,100,100,255,0,30,true)
If(0,2331,1)
 ShowMessageFace("mob_ozyou_fc1",0,0,2,1)
 ShowMessage("\\n<Alleria>I'm rather fond of battle fucking.\nYou are too, aren't you...?")
 0()
EndIf()
If(1,831,0,2,1)
 ShowMessageFace("mob_ozyou_fc1",0,0,2,2)
 ShowMessage("\\n<Alleria>The bet will be 1200G.\nYou should already have the prize I gave you, right...?")
 0()
Else()
 ShowMessageFace("mob_ozyou_fc1",0,0,2,3)
 ShowMessage("\\n<Alleria>The bet will be 1200G.\nIf you win, I'll give you a pendant that will increase your resistance to pleasure.")
 0()
EndIf()
ShowMessageFace("mob_ozyou_fc1",0,0,2,4)
ShowMessage("\\n<Alleria>Are you going to challenge me?\nThat is, if you are prepared to shamefully leak your semen...")
ShowChoices(strings("Battle Fuck Challenge","Reconsider"),2)
IfPlayerPicksChoice(0,"バトルファックを挑む")
 If(7,1200,0)
  If(0,2331,1)
   216(1)
   ShowMessageFace("",0,0,2,5)
   ShowMessage("Luka's companions left the building...")
   0()
  EndIf()
  RunCommonEvent(7302)
  EndEventProcessing()
  0()
 Else()
  ShowMessageFace("mob_ozyou_fc1",0,0,2,6)
  ShowMessage("\\n<Alleria>Pardon me, but you don't appear to have enough money. Those are the rules, so please be prepared in advance...")
  If(0,2331,1)
   PictureClear(5)
   241(bytes(0x04,0x08,0x6f,0x3a,0x0d,0x52,0x50,0x47,0x3a,0x3a,0x42,0x47,0x4d,0x08,0x3a,0x0a,0x40,0x6e,0x61,0x6d,0x65,0x49,0x22,0x0a,0x6d,0x75,0x72,0x61,0x32,0x06,0x3a,0x06,0x45,0x54,0x3a,0x0c,0x40,0x76,0x6f,0x6c,0x75,0x6d,0x65,0x69,0x69,0x3a,0x0b,0x40,0x70,0x69,0x74,0x63,0x68,0x69,0x69))
   0()
  EndIf()
  EndEventProcessing()
  0()
 EndIf()
 0()
IfPlayerPicksChoice(1,"やめておく")
 ShowMessageFace("mob_ozyou_fc1",0,0,2,7)
 ShowMessage("\\n<Alleria>Ara, that's a shame...\nI wanted to see your semen come out.")
 If(0,2331,1)
  PictureClear(5)
  241(bytes(0x04,0x08,0x6f,0x3a,0x0d,0x52,0x50,0x47,0x3a,0x3a,0x42,0x47,0x4d,0x08,0x3a,0x0a,0x40,0x6e,0x61,0x6d,0x65,0x49,0x22,0x0a,0x6d,0x75,0x72,0x61,0x32,0x06,0x3a,0x06,0x45,0x54,0x3a,0x0c,0x40,0x76,0x6f,0x6c,0x75,0x6d,0x65,0x69,0x69,0x3a,0x0b,0x40,0x70,0x69,0x74,0x63,0x68,0x69,0x69))
  0()
 EndIf()
 EndEventProcessing()
 0()
404()
0()
