// EVENT 5712
Name "Zenovia 2"

PictureDisplay(5,"80_cirqueb_st51",0,0,0,0,100,100,255,0)
ShowMessageFace("cirqueb_fc6",0,0,2,1)
ShowMessage("\\n<Zenovia>You want me to deal with you sexually...?")
ShowMessageFace("",0,0,2,2)
ShowMessage("\\n<Luka>Y-Yes... Please...")
ShowMessageFace("cirqueb_fc6",0,0,2,3)
ShowMessage("\\n<Zenovia>I don't mind...")
ShowMessage("Very well then, let's have a little fun.")
ShowMessageFace("",0,0,2,4)
ShowMessage("I follow her to their room...")
221()
PictureDisplay(1,"bg195",0,0,0,0,100,100,255,0)
PictureDisplay(5,"ev_cirque_hf02",0,0,0,0,100,100,255,0)
222()
241(bytes(0x04,0x08,0x6f,0x3a,0x0d,0x52,0x50,0x47,0x3a,0x3a,0x42,0x47,0x4d,0x08,0x3a,0x0a,0x40,0x6e,0x61,0x6d,0x65,0x49,0x22,0x09,0x65,0x72,0x6f,0x31,0x06,0x3a,0x06,0x45,0x54,0x3a,0x0c,0x40,0x76,0x6f,0x6c,0x75,0x6d,0x65,0x69,0x69,0x3a,0x0b,0x40,0x70,0x69,0x74,0x63,0x68,0x69,0x69))
ShowMessageFace("",0,0,2,5)
ShowMessage("As soon as I enter her room, Zenovia's tentacles coil around me.")
ShowMessage("Winding me up tight, I'm left unable to move.")
ShowMessageFace("",0,0,2,6)
ShowMessage("Their slimy touch all over my body feels good.")
ShowMessage("Reacting to it, my penis quickly gets erect.")
ShowMessageFace("cirqueb_fc6",0,0,2,7)
ShowMessage("\\n<Zenovia>You got so big...")
ShowMessage("Do you want to have sex?")
ShowMessageFace("",0,0,2,8)
ShowMessage("\\n<Luka>Hauuu...")
ShowMessageFace("cirqueb_fc6",0,0,2,9)
ShowMessage("\\n<Zenovia>Let's connect, then.")
ShowMessage("My taste is unmatched, so get a good feel...")
245(bytes(0x04,0x08,0x6f,0x3a,0x0d,0x52,0x50,0x47,0x3a,0x3a,0x42,0x47,0x53,0x08,0x3a,0x0a,0x40,0x6e,0x61,0x6d,0x65,0x49,0x22,0x1a,0x6d,0x6f,0x6e,0x5f,0x68,0x73,0x65,0x61,0x6e,0x32,0x30,0x5f,0x74,0x65,0x6e,0x74,0x61,0x63,0x6c,0x65,0x31,0x06,0x3a,0x06,0x45,0x54,0x3a,0x0c,0x40,0x76,0x6f,0x6c,0x75,0x6d,0x65,0x69,0x55,0x3a,0x0b,0x40,0x70,0x69,0x74,0x63,0x68,0x69,0x69))
PictureDisplay(5,"ev_cirque_hf03",0,0,0,0,100,100,255,0)
ShowMessageFace("",0,0,2,10)
ShowMessage("With a wet noise, my penis slips into her.")
ShowMessage("Her wet, slimy vagina easily swallows me deep.")
ShowMessageFace("",0,0,2,11)
ShowMessage("\\n<Luka>W-What the... Ahhh...")
ShowMessageFace("cirqueb_fc6",0,0,2,12)
ShowMessage("\\n<Zenovia>A Scylla Queen's vagina is like nothing else, isn't it?")
ShowMessage("You can pour all of your semen inside.")
ShowMessageFace("",0,0,2,13)
ShowMessage("\\n<Luka>Hauuu... Ah...")
ShowMessageFace("",0,0,2,14)
ShowMessage("Tiny tentacles inside her swarm my penis.")
ShowMessage("Wrapping around me, they start to stroke me.")
ShowMessageFace("",0,0,2,15)
ShowMessage("Writhing in pleasure, all sense of reason is blown away.")
ShowMessage("With her tentacles firmly coiled around me, I can't escape from this mind blowing embrace.")
ShowMessageFace("",0,0,2,16)
ShowMessage("\\n<Luka>Ah... Hauu...")
ShowMessageFace("cirqueb_fc6",0,0,2,17)
ShowMessage("\\n<Zenovia>Fufu, such a cute agonized face.")
ShowMessage("I can't hold myself back either...")
PictureDisplay(5,"ev_cirque_hf04",0,0,0,0,100,100,255,0)
ShowMessageFace("",0,0,2,18)
ShowMessage("Zenovia's tongue stretches out, invading my mouth.")
ShowMessage("Exchanging a sweet kiss, her vagina continues to caress me.")
ShowMessageFace("",0,0,2,19)
ShowMessage("\\n<Luka>Nnnn...")
ShowMessageFace("",0,0,2,20)
ShowMessage("The countless squirming tentacles rub me all over.")
ShowMessage("Around my body, around my penis...")
ShowMessageFace("",0,0,2,21)
ShowMessage("Mucus covers my body as she caresses me.")
ShowMessage("Broken by the pleasure, my lower half is completely in her control.")
ShowMessageFace("cirqueb_fc6",0,0,2,22)
ShowMessage("\\n<Zenovia>Does my vagina please you?")
ShowMessage("When it becomes too much for you, just come. I don't mind...")
ShowMessageFace("",0,0,2,23)
ShowMessage("\\n<Luka>Nnnn...")
ShowMessage("S-So good...")
ShowMessageFace("",0,0,2,24)
ShowMessage("I surrender myself to the feel of her tentacles.")
ShowMessage("As I relax, the desire to release fills every inch of me.")
ShowMessageFace("",0,0,2,25)
ShowMessage("\\n<Luka>Hauuu... C-coming...")
ShowMessageFace("cirqueb_fc6",0,0,2,26)
ShowMessage("\\n<Zenovia>Are your limit, then?")
ShowMessage("Then please let it all loose...")
ShowMessageFace("",0,0,2,27)
ShowMessage("\\n<Luka>Ah-Ahhh...")
ShowMessageFace("",0,0,2,28)
ShowMessage("Her vaginal flesh squirms and wriggles as the interior tentacles stroke me.")
ShowMessage("The sweet feeling spreads through me as I submit.")
RunCommonEvent(104)
PictureDisplay(5,"ev_cirque_hf05",0,0,0,0,100,100,255,0)
RunCommonEvent(105)
ShowMessageFace("",0,0,2,29)
ShowMessage("My penis pulses as I come inside her.")
ShowMessage("Each spurt of semen causes my hips to tremble in bliss.")
ShowMessageFace("",0,0,2,30)
ShowMessage("\\n<Luka>Hauu...")
ShowMessageFace("",0,0,2,31)
ShowMessage("All through my orgasm, her vagina continues to stroke me.")
ShowMessage("Until the last drop is out, the sweet milking continues.")
ShowMessageFace("",0,0,2,32)
ShowMessage("Totally weak, I completely submit to Zenovia...")
246(2)
ShowMessageFace("cirqueb_fc6",0,0,2,33)
ShowMessage("\\n<Zenovia>...You came.")
ShowMessage("Did you feel good?")
ShowMessageFace("",0,0,2,34)
ShowMessage("\\n<Luka>Y-Yes...")
ShowMessageFace("",0,0,2,35)
ShowMessage("Covered in her sweet mucus, I dreamily respond.")
ShowMessage("I'm drowning in the ecstasy of her tentacles...")
221()
PictureClear(5)
PictureClear(6)
ShowMessageFace("",0,0,2,36)
ShowMessage("......")
RunCommonEvent(3998)
0()
