// EVENT 2022
Name "Seduction: Nuruko"

If(0,25,1)
 EndEventProcessing()
 0()
EndIf()
355("$game_troop.lose_event_id = 3022")
ChangeVariable(26,26,0,3,3,1,4)
ChangeVariable(26,26,4,0,10)
ShowMessageFace("nuruko_fc1",2,0,2,1)
ShowMessage("\\n<？？？>......")
ShowMessageFace("",0,0,2,2)
ShowMessage("？？？'s spirit seems to dampen.")
ShowMessage("A tentacle with its mouth open moves toward Luka.")
ShowMessageFace("",0,0,2,3)
ShowMessage("\\n<Luka>......")
ShowMessageFace("",0,0,2,4)
ShowMessage("Its opening is filled with mucus.")
ShowMessage("Little ripples and walls fill its mouth.")
ShowMessageFace("",0,0,2,5)
ShowMessage("It looks like it would feel incredible inside...")
ChangeSwitch(98,98,0)
ChangeSwitch(96,96,0)
ShowChoices(strings("Ignore her","Insert into tentacle"),1)
IfPlayerPicksChoice(0,"Ignore her")
 ShowMessageFace("",0,0,2,6)
 ShowMessage("Luka resists her temptation!")
 RunCommonEvent(1999)
 EndEventProcessing()
 0()
IfPlayerPicksChoice(1,"触手口に挿入してみる")
 0()
404()
ShowMessageFace("nuruko_fc1",2,0,2,7)
ShowMessage("\\n<？？？>......")
ShowMessageFace("",0,0,2,8)
ShowMessage("\\n<Luka>It will be okay for a bit...")
ChangeVariable(26,26,3,0,4)
250(bytes(0x04,0x08,0x6f,0x3a,0x0c,0x52,0x50,0x47,0x3a,0x3a,0x53,0x45,0x08,0x3a,0x0a,0x40,0x6e,0x61,0x6d,0x65,0x49,0x22,0x13,0x6d,0x6f,0x6e,0x5f,0x65,0x72,0x6f,0x5f,0x63,0x68,0x75,0x70,0x61,0x36,0x06,0x3a,0x06,0x45,0x54,0x3a,0x0b,0x40,0x70,0x69,0x74,0x63,0x68,0x69,0x69,0x3a,0x0c,0x40,0x76,0x6f,0x6c,0x75,0x6d,0x65,0x69,0x69))
355("battler_graphic_hide")
PictureDisplay(5,"ev_nuruko_ha2",0,0,0,0,100,100,255,0)
311(0,1,1,1,26,true)
ShowMessageFace("",0,0,2,9)
ShowMessage("Luka sticks his penis into the tentacle!")
ShowMessage("It sucks him in greedily!\\D")
ShowMessage("Luka takes \\V[26] damage!")
ChangeVariable(27,27,0,3,3,1,2)
If(1,27,0,0,0)
 JumpToLabel("射精1")
 0()
EndIf()
ShowMessageFace("",0,0,2,10)
ShowMessage("\\n<Luka>Nnngh...What is this...\nIt feels so good...")
ShowMessageFace("nuruko_fc1",0,0,2,11)
ShowMessage("\\n<？？？>Kyukyukyuu!")
250(bytes(0x04,0x08,0x6f,0x3a,0x0c,0x52,0x50,0x47,0x3a,0x3a,0x53,0x45,0x08,0x3a,0x0a,0x40,0x6e,0x61,0x6d,0x65,0x49,0x22,0x13,0x6d,0x6f,0x6e,0x5f,0x65,0x72,0x6f,0x5f,0x63,0x68,0x75,0x70,0x61,0x36,0x06,0x3a,0x06,0x45,0x54,0x3a,0x0b,0x40,0x70,0x69,0x74,0x63,0x68,0x69,0x69,0x3a,0x0c,0x40,0x76,0x6f,0x6c,0x75,0x6d,0x65,0x69,0x69))
311(0,1,1,1,26,true)
ShowMessageFace("",0,0,2,12)
ShowMessage("Several folds inside rub against him!")
ShowMessage("The sticky mucus clings to his penis as it rubs him!\\D")
ShowMessage("Luka takes \\V[26] damage!")
ChangeVariable(27,27,0,3,3,1,2)
If(1,27,0,0,0)
 JumpToLabel("射精1")
 0()
EndIf()
ShowMessageFace("",0,0,2,13)
ShowMessage("\\n<Luka>No...no...\nI'm going to come...")
ShowMessageFace("nuruko_fc1",0,0,2,14)
ShowMessage("\\n<？？？>Kyu! Kyukyukyuu!")
250(bytes(0x04,0x08,0x6f,0x3a,0x0c,0x52,0x50,0x47,0x3a,0x3a,0x53,0x45,0x08,0x3a,0x0a,0x40,0x6e,0x61,0x6d,0x65,0x49,0x22,0x13,0x6d,0x6f,0x6e,0x5f,0x65,0x72,0x6f,0x5f,0x63,0x68,0x75,0x70,0x61,0x36,0x06,0x3a,0x06,0x45,0x54,0x3a,0x0b,0x40,0x70,0x69,0x74,0x63,0x68,0x69,0x69,0x3a,0x0c,0x40,0x76,0x6f,0x6c,0x75,0x6d,0x65,0x69,0x69))
311(0,1,1,1,26,true)
ShowMessageFace("",0,0,2,15)
ShowMessage("The tentacle suddenly sucks even harder!")
ShowMessage("Its slimy walls cling seductively to Luka's penis!\\D")
ShowMessage("Luka takes \\V[26] damage!")
ChangeVariable(27,27,0,3,3,1,2)
If(1,27,0,0,0)
 JumpToLabel("射精1")
 0()
EndIf()
DefineLabel("射精1")
ShowMessageFace("",0,0,2,16)
ShowMessage("\\n<Luka>Nnngh... Aaaah...!")
RunCommonEvent(104)
PictureDisplay(5,"ev_nuruko_ha3",0,0,0,0,100,100,255,0)
RunCommonEvent(105)
ShowMessageFace("",0,0,2,17)
ShowMessage("？？？'s tentacle milked me dry...")
ShowMessage("I only wanted to try it for a bit, but to think this would happen...")
ShowMessageFace("nuruko_fc1",0,0,2,18)
ShowMessage("\\n<？？？>Kyuyku, kyuu!")
RunCommonEvent(2000)
EndEventProcessing()
0()
