﻿// EVENT 2250
Name "Seduction: Black Golem"

355("$game_troop.lose_event_id = 3250")
ChangeVariable(26,26,0,3,3,1,4)
ChangeVariable(26,26,4,0,10)
ShowMessageFace("bgolem_fc1",2,0,2,1)
ShowMessage("\\n<Black Golem>I'm in big trouble!\nHey hey, let me resupply my power!")
PictureDisplay(6,"ev_bgolem_ct01",0,0,0,0,100,100,255,0)
ShowMessageFace("",0,0,2,2)
ShowMessage("The Black Golem's abdomen swells!")
ShowMessageFace("bgolem_fc1",1,0,2,3)
ShowMessage("\\n<Black Golem>I take living things into my body and suck up their energy. Hey, do you want to feel good...?")
PictureDisplay(6,"ev_bgolem_ct02",0,0,0,0,100,100,255,0)
ShowMessageFace("",0,0,2,4)
ShowMessage("The Black Golem's abdomen gapes open!")
PictureDisplay(6,"ev_bgolem_ct03",0,0,0,0,100,100,255,0)
ShowMessageFace("",0,0,2,5)
ShowMessage("Her opening is revealed before Luka!")
ShowMessageFace("bgolem_fc1",1,0,2,6)
ShowMessage("\\n<Black Golem>I'll swallow your body whole with this opening.\nIt will feel really good to have your semen sucked inside. ♪")
ShowMessageFace("",0,0,2,7)
ShowMessage("Luka's body is caught by the Black Golem's tentacles!\nHer squeezing hole draws closer before his eyes!")
ChangeSwitch(98,98,0)
ChangeSwitch(96,96,0)
ShowChoices(strings("Struggle","Let her continue"),1)
IfPlayerPicksChoice(0,null)
 ShowMessageFace("",0,0,2,8)
 ShowMessage("Luka struggles violently, and escapes from the Black Golem's restraint!")
 RunCommonEvent(1999)
 EndEventProcessing()
 0()
IfPlayerPicksChoice(1,null)
 0()
404()
ShowMessageFace("bgolem_fc1",1,0,2,9)
ShowMessage("\\n<Black Golem>Ahaha, you won't escape! ♪\nNow I'll eat you! ♪")
ChangeVariable(26,26,3,0,4)
250(bytes(0x04,0x08,0x6f,0x3a,0x0c,0x52,0x50,0x47,0x3a,0x3a,0x53,0x45,0x08,0x3a,0x0a,0x40,0x6e,0x61,0x6d,0x65,0x49,0x22,0x16,0x6d,0x6f,0x6e,0x5f,0x65,0x72,0x6f,0x5f,0x6d,0x61,0x6b,0x69,0x74,0x75,0x6b,0x69,0x33,0x06,0x3a,0x06,0x45,0x54,0x3a,0x0b,0x40,0x70,0x69,0x74,0x63,0x68,0x69,0x69,0x3a,0x0c,0x40,0x76,0x6f,0x6c,0x75,0x6d,0x65,0x69,0x69))
PictureDisplay(6,"ev_bgolem_ct04",0,0,0,0,100,100,255,0)
311(0,1,1,1,26,true)
ShowMessageFace("",0,0,2,10)
ShowMessage("Luka's body is drawn towards the Black Golem's squeezing hole! His body sinks into her black sludge!\\D")
ShowMessage("Luka takes \\V[26] damage!")
ChangeVariable(27,27,0,3,3,1,2)
250(bytes(0x04,0x08,0x6f,0x3a,0x0c,0x52,0x50,0x47,0x3a,0x3a,0x53,0x45,0x08,0x3a,0x0a,0x40,0x6e,0x61,0x6d,0x65,0x49,0x22,0x16,0x6d,0x6f,0x6e,0x5f,0x65,0x72,0x6f,0x5f,0x6d,0x61,0x6b,0x69,0x74,0x75,0x6b,0x69,0x33,0x06,0x3a,0x06,0x45,0x54,0x3a,0x0b,0x40,0x70,0x69,0x74,0x63,0x68,0x69,0x69,0x3a,0x0c,0x40,0x76,0x6f,0x6c,0x75,0x6d,0x65,0x69,0x69))
PictureDisplay(6,"ev_bgolem_ct05",0,0,0,0,100,100,255,0)
311(0,1,1,1,26,true)
ShowMessageFace("",0,0,2,11)
ShowMessage("Luka's body is swallowed by a black swell!\nHe is squeezed as his entire body is wrapped in her flesh!\\D")
ShowMessage("Luka takes \\V[26] damage!")
ChangeVariable(27,27,0,3,3,1,2)
250(bytes(0x04,0x08,0x6f,0x3a,0x0c,0x52,0x50,0x47,0x3a,0x3a,0x53,0x45,0x08,0x3a,0x0a,0x40,0x6e,0x61,0x6d,0x65,0x49,0x22,0x16,0x6d,0x6f,0x6e,0x5f,0x65,0x72,0x6f,0x5f,0x6d,0x61,0x6b,0x69,0x74,0x75,0x6b,0x69,0x33,0x06,0x3a,0x06,0x45,0x54,0x3a,0x0b,0x40,0x70,0x69,0x74,0x63,0x68,0x69,0x69,0x3a,0x0c,0x40,0x76,0x6f,0x6c,0x75,0x6d,0x65,0x69,0x69))
PictureDisplay(6,"ev_bgolem_ct06",0,0,0,0,100,100,255,0)
311(0,1,1,1,26,true)
ShowMessageFace("",0,0,2,12)
ShowMessage("Luka's body is completely swallowed!\nHis semen is squeezed while engulfed in her viscous black flesh!\\D")
ShowMessage("Luka takes \\V[26] damage!")
ChangeVariable(27,27,0,3,3,1,2)
If(1,27,0,0,0)
 JumpToLabel("射精1")
 0()
EndIf()
DefineLabel("射精1")
ShowMessageFace("",0,0,2,13)
ShowMessage("\\n<Luka>No, I'm coming... Aaaah...")
RunCommonEvent(104)
RunCommonEvent(105)
ShowMessageFace("",0,0,2,14)
ShowMessage("I climax while being squeezed inside the Black Golem.\nMy scattered semen was absorbed as a power source.")
ShowMessageFace("bgolem_fc1",1,0,2,15)
ShowMessage("\\n<Black Golem>Aha, you've treated me to your semen...\nIt's your loss, even if you're feeling more pleasure. ♪")
RunCommonEvent(2000)
EndEventProcessing()
0()
