// EVENT 0333
Name "Snake Shrine"

241(bytes(0x04,0x08,0x6f,0x3a,0x0d,0x52,0x50,0x47,0x3a,0x3a,0x42,0x47,0x4d,0x08,0x3a,0x0a,0x40,0x6e,0x61,0x6d,0x65,0x49,0x22,0x0a,0x6b,0x69,0x6b,0x69,0x32,0x06,0x3a,0x06,0x45,0x54,0x3a,0x0c,0x40,0x76,0x6f,0x6c,0x75,0x6d,0x65,0x69,0x69,0x3a,0x0b,0x40,0x70,0x69,0x74,0x63,0x68,0x69,0x69))
If(0,4,0)
 ShowMessageFace("alice_fc6",0,0,2,1)
 ShowMessage("\\n<Alice>What the hell...?")
 0()
EndIf()
If(0,5,0)
 ShowMessageFace("iriasu_fc4",5,0,2,2)
 ShowMessage("\\n<Ilias>Wh-what the...!?")
 0()
EndIf()
ShowMessageFace("ruka_fc1",0,0,2,3)
ShowMessage("\\n<Luka>Did someone attack!?\nBut who could have taken down so many...")
ShowMessageFace("durahan_fc1",2,0,2,4)
ShowMessage("\\n<Arthur>As best as I can tell, it was a rather one-sided raid. The assailant must be one hell of a monster...")
EndEventProcessing()
0()
