// EVENT 1081
Name "Talk: Zombie Girl"

If(1,20,0,1,0)
 JumpToLabel("情報")
 0()
EndIf()
If(1,20,0,2,0)
 JumpToLabel("質問")
 0()
EndIf()
If(1,20,0,3,0)
 JumpToLabel("要求")
 0()
EndIf()
If(1,20,0,4,0)
 JumpToLabel("贈与")
 0()
EndIf()
DefineLabel("情報")
ChangeVariable(13,13,0,2,1,100)
If(1,13,0,10,2)
 ShowMessageFace("zonbe_fc1",0,0,2,1)
 ShowMessage("\\n<Zombie Girl>Oh... Uhhh...")
 EndEventProcessing()
 0()
EndIf()
If(1,13,0,20,2)
 ShowMessageFace("zonbe_fc1",0,0,2,2)
 ShowMessage("\\n<Zombie Girl>Man... Intercourse...")
 EndEventProcessing()
 0()
EndIf()
If(1,13,0,30,2)
 ShowMessageFace("zonbe_fc1",0,0,2,3)
 ShowMessage("\\n<Zombie Girl>Outside... I want to go...")
 EndEventProcessing()
 0()
EndIf()
If(1,13,0,40,2)
 ShowMessageFace("zonbe_fc1",0,0,2,4)
 ShowMessage("\\n<Zombie Girl>Chrooome... I'm hungry...")
 EndEventProcessing()
 0()
EndIf()
If(1,13,0,50,2)
 ShowMessageFace("zonbe_fc1",0,0,2,5)
 ShowMessage("\\n<Zombie Girl>Lost... Ohhh...")
 EndEventProcessing()
 0()
EndIf()
If(1,13,0,60,2)
 ShowMessageFace("zonbe_fc1",0,0,2,6)
 ShowMessage("\\n<Zombie Girl>Chi... Pa Pa...")
 EndEventProcessing()
 0()
EndIf()
If(1,13,0,70,2)
 ShowMessageFace("zonbe_fc1",0,0,2,7)
 ShowMessage("\\n<Zombie Girl>Where is... Chrome...?")
 EndEventProcessing()
 0()
EndIf()
If(1,13,0,80,2)
 ShowMessageFace("zonbe_fc1",0,0,2,8)
 ShowMessage("\\n<Zombie Girl>Ohh... Hungry... Want to eat... Meat...")
 EndEventProcessing()
 0()
EndIf()
If(1,13,0,90,2)
 ShowMessageFace("zonbe_fc1",0,0,2,9)
 ShowMessage("\\n<Zombie Girl>Warmth of... the living... Uh, ahh...")
 EndEventProcessing()
 0()
EndIf()
If(1,13,0,100,2)
 ShowMessageFace("zonbe_fc1",0,0,2,10)
 ShowMessage("\\n<Zombie Girl>Tired... Ohh...")
 EndEventProcessing()
 0()
EndIf()
DefineLabel("質問")
ChangeVariable(13,13,0,2,1,50)
If(1,13,0,10,2)
 ShowMessageFace("zonbe_fc1",0,0,2,11)
 ShowMessage("\\n<Zombie Girl>Uhh... Ah, ohhh...")
 ShowChoices(strings("Ignore her","Are you okay?","Aw... Ohhh..."),0)
 IfPlayerPicksChoice(0,"Ignore her")
  ShowMessageFace("zonbe_fc1",0,0,2,12)
  ShowMessage("\\n<Zombie Girl>......")
  ShowMessageFace("",0,0,2,13)
  ShowMessage("Nothing happened.")
  0()
 IfPlayerPicksChoice(1,"大丈夫ですか？")
  ShowMessageFace("zonbe_fc1",0,0,2,14)
  ShowMessage("\\n<Zombie Girl>Ohhh...")
  ShowMessageFace("",0,0,2,15)
  ShowMessage("Looks like you can't communicate with words.")
  0()
 IfPlayerPicksChoice(2,"Unnngh...Ohh...")
  ShowMessageFace("zonbe_fc1",0,0,2,16)
  ShowMessage("\\n<Zombie Girl>Ohh... Awwww... Ah, oh... Oww...")
  ShowMessageFace("",0,0,2,17)
  ShowMessage("You were... able to communicate?")
  355("change_friend(10)")
  0()
 404()
 EndEventProcessing()
 0()
EndIf()
If(1,13,0,20,2)
 ShowMessageFace("zonbe_fc1",0,0,2,18)
 ShowMessage("\\n<Zombie Girl>Ah...? Uhhh...?")
 ShowMessageFace("",0,0,2,19)
 ShowMessage("Flies are buzzing around the Zombie Girl. It's probably annoying.")
 ShowChoices(strings("Leave her be","Drive the flies away","Buzz around with the flies"),0)
 IfPlayerPicksChoice(0,"放置する")
  ShowMessageFace("zonbe_fc1",0,0,2,20)
  ShowMessage("\\n<Zombie Girl>Aww... Ah...")
  ShowMessageFace("",0,0,2,21)
  ShowMessage("It's probably very annoying.")
  0()
 IfPlayerPicksChoice(1,"追い払ってあげる")
  ShowMessageFace("zonbe_fc1",0,0,2,22)
  ShowMessage("\\n<Zombie Girl>Oh, ohhh...")
  ShowMessageFace("",0,0,2,23)
  ShowMessage("She seems grateful.")
  355("change_friend(10)")
  0()
 IfPlayerPicksChoice(2,"ハエと一緒に飛び回る")
  ShowMessageFace("zonbe_fc1",0,0,2,24)
  ShowMessage("\\n<Zombie Girl>Uh... Ahh!")
  250(bytes(0x04,0x08,0x6f,0x3a,0x0c,0x52,0x50,0x47,0x3a,0x3a,0x53,0x45,0x08,0x3a,0x0a,0x40,0x6e,0x61,0x6d,0x65,0x49,0x22,0x0e,0x6d,0x6f,0x6e,0x5f,0x73,0x70,0x61,0x6e,0x6b,0x06,0x3a,0x06,0x45,0x54,0x3a,0x0b,0x40,0x70,0x69,0x74,0x63,0x68,0x69,0x69,0x3a,0x0c,0x40,0x76,0x6f,0x6c,0x75,0x6d,0x65,0x69,0x69))
  ShowMessageFace("",0,0,2,25)
  ShowMessage("She gave you a smack with her palm!")
  355("change_friend(-5)")
  0()
 404()
 EndEventProcessing()
 0()
EndIf()
If(1,13,0,30,2)
 ShowMessageFace("zonbe_fc1",0,0,2,26)
 ShowMessage("\\n<Zombie Girl>Aww... Name... Want...")
 ShowMessageFace("",0,0,2,27)
 ShowMessage("She seems to want a name.")
 ShowMessage("What name should you give her?")
 ShowChoices(strings("Jill","Patches","Sonya"),0)
 IfPlayerPicksChoice(0,"ジル")
  ShowMessageFace("zonbe_fc1",0,0,2,28)
  ShowMessage("\\n<Zombie Girl>Uh, ahh...")
  ShowMessageFace("",0,0,2,29)
  ShowMessage("She seems to like it!")
  355("change_friend(10)")
  0()
 IfPlayerPicksChoice(1,"とんぬら")
  ShowMessageFace("zonbe_fc1",0,0,2,30)
  ShowMessage("\\n<Zombie Girl>Ohhh...!")
  ShowMessageFace("",0,0,2,31)
  ShowMessage("It seems she doesn't like it!")
  355("change_friend(-5)")
  0()
 IfPlayerPicksChoice(2,"ソニア")
  ShowMessageFace("zonbe_fc1",0,0,2,32)
  ShowMessage("\\n<Zombie Girl>Uh, ahh...")
  ShowMessageFace("",0,0,2,33)
  ShowMessage("She seems to like it!")
  355("change_friend(10)")
  If(0,6,0)
   ShowMessageFace("sonia_fc1",5,0,2,34)
   ShowMessage("\\n<Sonya>...Wait, did you say that just to screw with me?")
   ShowMessageFace("",0,0,2,35)
   ShowMessage("Sonya became angry!")
   0()
  EndIf()
  0()
 404()
 EndEventProcessing()
 0()
EndIf()
If(1,13,0,40,2)
 ShowMessageFace("zonbe_fc1",0,0,2,36)
 ShowMessage("\\n<Zombie Girl>Uhh... Ahh...")
 ShowMessageFace("",0,0,2,37)
 ShowMessage("A piece of paper is stuck in the zombie girl's pocket.")
 ShowMessage("It seems something is written on it, but...")
 ShowChoices(strings("Leave her be","Try reading it"),0)
 IfPlayerPicksChoice(0,"放置する")
  ShowMessageFace("zonbe_fc1",0,0,2,38)
  ShowMessage("\\n<Zombie Girl>Uhh...")
  ShowMessageFace("",0,0,2,39)
  ShowMessage("You let her be.")
  0()
 IfPlayerPicksChoice(1,"読んでみる")
  ShowMessageFace("ruka_fc1",0,0,2,40)
  ShowMessage("\\n<Luka>Just a small peek...")
  ShowMessageFace("",0,0,2,41)
  ShowMessage("\"More and more material.\" seems to be written on it in messy handwriting.")
  ShowMessage("I wonder what it means?")
  0()
 404()
 EndEventProcessing()
 0()
EndIf()
If(1,13,0,50,2)
 ShowMessageFace("zonbe_fc1",0,0,2,42)
 ShowMessage("\\n<Zombie Girl>Ahh... Uh...")
 ShowMessageFace("",0,0,2,43)
 ShowMessage("The Zombie Girl begins to gnaw on a pillar.")
 ShowChoices(strings("Ignore her","Stop her","Gnaw the pillar together","Gnaw on the Zombie Girl's arm"),0)
 IfPlayerPicksChoice(0,"Ignore her")
  ShowMessageFace("zonbe_fc1",0,0,2,44)
  ShowMessage("\\n<Zombie Girl>Uhh... Ow...")
  ShowMessageFace("",0,0,2,45)
  ShowMessage("The Zombie Girl gnaws on the pillar.")
  0()
 IfPlayerPicksChoice(1,"やめさせる")
  ShowMessageFace("ruka_fc1",0,0,2,46)
  ShowMessage("\\n<Luka>You shouldn't gnaw on that.")
  ShowMessageFace("zonbe_fc1",0,0,2,47)
  ShowMessage("\\n<Zombie Girl>......")
  ShowMessageFace("",0,0,2,48)
  ShowMessage("The Zombie Girl stopped gnawing on the pillar!")
  ShowMessage("She seems grateful for Luka's kindness.")
  355("change_friend(10)")
  0()
 IfPlayerPicksChoice(2,"一緒に柱をかじる")
  ShowMessageFace("zonbe_fc1",0,0,2,49)
  ShowMessage("\\n<Zombie Girl>......???")
  ShowMessageFace("",0,0,2,50)
  ShowMessage("The Zombie Girl looks at Luka curiously.")
  355("change_friend(10)")
  0()
 IfPlayerPicksChoice(3,"ゾンビ娘の腕をかじる")
  ShowMessageFace("ruka_fc1",0,0,2,51)
  ShowMessage("\\n<Luka>*Nom* Whoa! Nasty!")
  313(0,1,0,7)
  ShowMessageFace("",0,0,2,52)
  ShowMessage("Luka was poisoned!")
  0()
 404()
 EndEventProcessing()
 0()
EndIf()
DefineLabel("要求")
ChangeVariable(13,13,0,2,1,30)
If(1,13,0,10,2)
 If(8,13)
  ShowMessageFace("zonbe_fc1",0,0,2,53)
  ShowMessage("\\n<Zombie Girl>Gush... Gush...")
  ShowMessageFace("",0,0,2,54)
  ShowMessage("Seems like she wants some antidote grass.")
  ChangeVariable(24,24,0,3,0,13,0)
  ShowMessageFace("",0,0,2,55)
  ShowMessage("Do you want to give some \\ii[13]? (Have:\\V[24])")
  ShowChoices(strings("Yes","No"),2)
  IfPlayerPicksChoice(0,"Yes")
   ShowMessageFace("zonbe_fc1",0,0,2,56)
   ShowMessage("\\n<Zombie Girl>Ahhhh...")
   ShowMessageFace("",0,0,2,57)
   ShowMessage("She seems grateful.")
   ChangeInventory_Item(13,1,0,1)
   355("change_friend(20)")
   EndEventProcessing()
   0()
  IfPlayerPicksChoice(1,"No")
   ShowMessageFace("zonbe_fc1",0,0,2,58)
   ShowMessage("\\n<Zombie Girl>Ohh...")
   ShowMessageFace("",0,0,2,59)
   ShowMessage("She seems disappointed.")
   EndEventProcessing()
   0()
  404()
  0()
 Else()
  ChangeVariable(13,13,0,0,20)
  0()
 EndIf()
 0()
EndIf()
If(1,13,0,20,2)
 If(8,329)
  ShowMessageFace("zonbe_fc1",0,0,2,60)
  ShowMessage("\\n<Zombie Girl>Feed me... Meat...")
  ShowMessageFace("",0,0,2,61)
  ShowMessage("It seems she wants meat.")
  ChangeVariable(24,24,0,3,0,329,0)
  ShowMessageFace("",0,0,2,62)
  ShowMessage("Do you want to give some \\ii[329]? (Have:\\V[24])")
  ShowChoices(strings("Yes","No"),2)
  IfPlayerPicksChoice(0,"Yes")
   ShowMessageFace("zonbe_fc1",0,0,2,63)
   ShowMessage("\\n<Zombie Girl>Ahhhh...")
   ShowMessageFace("",0,0,2,64)
   ShowMessage("She seems grateful.")
   ChangeInventory_Item(329,1,0,1)
   355("change_friend(30)")
   EndEventProcessing()
   0()
  IfPlayerPicksChoice(1,"No")
   ShowMessageFace("zonbe_fc1",0,0,2,65)
   ShowMessage("\\n<Zombie Girl>Ohh...")
   ShowMessageFace("",0,0,2,66)
   ShowMessage("She seems disappointed.")
   EndEventProcessing()
   0()
  404()
  0()
 Else()
  ChangeVariable(13,13,0,0,30)
  0()
 EndIf()
 0()
EndIf()
If(1,13,0,30,2)
 ShowMessageFace("zonbe_fc1",0,0,2,67)
 ShowMessage("\\n<Zombie Girl>Want... Money...")
 ShowMessageFace("",0,0,2,68)
 ShowMessage("It seems like she wants money.")
 If(7,54,0)
  ChangeVariable(24,24,0,3,7,2,0)
  ShowMessageFace("",0,0,2,69)
  ShowMessage("Do you want to give 54G? (Remaining: \\V[24])")
  ShowChoices(strings("Yes","No"),2)
  IfPlayerPicksChoice(0,"Yes")
   ShowMessageFace("zonbe_fc1",0,0,2,70)
   ShowMessage("\\n<Zombie Girl>Ahhhh...")
   ShowMessageFace("",0,0,2,71)
   ShowMessage("She seems grateful.")
   125(1,0,54)
   355("change_friend(25)")
   EndEventProcessing()
   0()
  IfPlayerPicksChoice(1,"No")
   ShowMessageFace("zonbe_fc1",0,0,2,72)
   ShowMessage("\\n<Zombie Girl>Ohh...")
   ShowMessageFace("",0,0,2,73)
   ShowMessage("She seems disappointed.")
   EndEventProcessing()
   0()
  404()
  0()
 Else()
  ShowMessageFace("zonbe_fc1",0,0,2,74)
  ShowMessage("\\n<Zombie Girl>......")
  ShowMessageFace("",0,0,2,75)
  ShowMessage("However, she understands that you have no money and gives up.")
  EndEventProcessing()
  0()
 EndIf()
 0()
EndIf()
DefineLabel("贈与")
ChangeVariable(13,13,0,2,1,30)
If(1,25,0,1,0)
 ChangeVariable(13,13,0,0,30)
 ChangeVariable(25,25,0,0,0)
 0()
EndIf()
If(1,25,0,2,0)
 ChangeVariable(13,13,0,2,1,20)
 ChangeVariable(25,25,0,0,0)
 0()
EndIf()
If(1,13,0,10,2)
 ShowMessageFace("zonbe_fc1",0,0,2,76)
 ShowMessage("\\n<Zombie Girl>Oww... Ah...")
 ShowMessageFace("",0,0,2,77)
 ShowMessage("The Zombie Girl offers you an item.")
 250(bytes(0x04,0x08,0x6f,0x3a,0x0c,0x52,0x50,0x47,0x3a,0x3a,0x53,0x45,0x08,0x3a,0x0a,0x40,0x6e,0x61,0x6d,0x65,0x49,0x22,0x0a,0x49,0x74,0x65,0x6d,0x31,0x06,0x3a,0x06,0x45,0x54,0x3a,0x0b,0x40,0x70,0x69,0x74,0x63,0x68,0x69,0x69,0x3a,0x0c,0x40,0x76,0x6f,0x6c,0x75,0x6d,0x65,0x69,0x55))
 ChangeInventory_Item(432,0,0,1)
 ShowMessageFace("",0,0,2,78)
 ShowMessage("The Zombie Girl gave you some \\ii[432]!")
 EndEventProcessing()
 0()
EndIf()
If(1,13,0,20,2)
 ShowMessageFace("zonbe_fc1",0,0,2,79)
 ShowMessage("\\n<Zombie Girl>Oww... Ah...")
 ShowMessageFace("",0,0,2,80)
 ShowMessage("The Zombie Girl offers you an item.")
 250(bytes(0x04,0x08,0x6f,0x3a,0x0c,0x52,0x50,0x47,0x3a,0x3a,0x53,0x45,0x08,0x3a,0x0a,0x40,0x6e,0x61,0x6d,0x65,0x49,0x22,0x0a,0x49,0x74,0x65,0x6d,0x31,0x06,0x3a,0x06,0x45,0x54,0x3a,0x0b,0x40,0x70,0x69,0x74,0x63,0x68,0x69,0x69,0x3a,0x0c,0x40,0x76,0x6f,0x6c,0x75,0x6d,0x65,0x69,0x55))
 ChangeInventory_Item(186,0,0,1)
 ShowMessageFace("",0,0,2,81)
 ShowMessage("The Zombie Girl gave you some \\ii[186]!")
 EndEventProcessing()
 0()
EndIf()
If(1,13,0,30,2)
 ShowMessageFace("zonbe_fc1",0,0,2,82)
 ShowMessage("\\n<Zombie Girl>Oww... Ah...")
 ShowMessageFace("",0,0,2,83)
 ShowMessage("The Zombie Girl offers you some money.")
 250(bytes(0x04,0x08,0x6f,0x3a,0x0c,0x52,0x50,0x47,0x3a,0x3a,0x53,0x45,0x08,0x3a,0x0a,0x40,0x6e,0x61,0x6d,0x65,0x49,0x22,0x0a,0x49,0x74,0x65,0x6d,0x31,0x06,0x3a,0x06,0x45,0x54,0x3a,0x0b,0x40,0x70,0x69,0x74,0x63,0x68,0x69,0x69,0x3a,0x0c,0x40,0x76,0x6f,0x6c,0x75,0x6d,0x65,0x69,0x55))
 125(0,0,90)
 ShowMessageFace("",0,0,2,84)
 ShowMessage("The Zombie Girl gave you 90G!")
 EndEventProcessing()
 0()
EndIf()
0()
