﻿// EVENT 3591
Name "・"

PictureDisplay(5,"",0,0,0,0,100,100,0,0)
PictureMove(5,null,0,0,0,0,100,100,255,0,30,true)
241(bytes(0x04,0x08,0x6f,0x3a,0x0d,0x52,0x50,0x47,0x3a,0x3a,0x42,0x47,0x4d,0x08,0x3a,0x0a,0x40,0x6e,0x61,0x6d,0x65,0x49,0x22,0x09,0x65,0x72,0x6f,0x31,0x06,0x3a,0x06,0x45,0x54,0x3a,0x0c,0x40,0x76,0x6f,0x6c,0x75,0x6d,0x65,0x69,0x69,0x3a,0x0b,0x40,0x70,0x69,0x74,0x63,0x68,0x69,0x69))
ShowMessageFace("",0,0,2,1)
ShowMessage("【ルカ】")
ShowMessage("あぅぅぅ……")
ShowMessageFace("",0,0,2,2)
ShowMessage("【】")
ShowMessage("……………………")
245(bytes(0x04,0x08,0x6f,0x3a,0x0d,0x52,0x50,0x47,0x3a,0x3a,0x42,0x47,0x53,0x08,0x3a,0x0a,0x40,0x6e,0x61,0x6d,0x65,0x49,0x22,0x17,0x6d,0x6f,0x6e,0x5f,0x68,0x73,0x65,0x61,0x6e,0x31,0x37,0x5f,0x73,0x69,0x67,0x6f,0x6b,0x69,0x06,0x3a,0x06,0x45,0x54,0x3a,0x0c,0x40,0x76,0x6f,0x6c,0x75,0x6d,0x65,0x69,0x55,0x3a,0x0b,0x40,0x70,0x69,0x74,0x63,0x68,0x69,0x69))
PictureDisplay(5,"",0,0,0,0,100,100,255,0)
ShowMessageFace("",0,0,2,3)
ShowMessage("【】")
ShowMessage("……………………")
RunCommonEvent(104)
PictureDisplay(5,"",0,0,0,0,100,100,255,0)
RunCommonEvent(105)
ShowMessageFace("",0,0,2,4)
ShowMessage("【】")
ShowMessage("……………………")
221()
PictureClear(5)
PictureClear(6)
246(2)
ShowMessageFace("",0,0,2,5)
ShowMessage("・・・・・・・・")
221()
242(1)
Wait(120)
355("memory_interruption")
ShowMessageFace("",0,0,2,6)
ShowMessage("女神イリアスの声が聞こえる……")
ShowMessage("反省会に出ますか？")
ShowChoices(strings("反省会に出る","難易度を変更する","輪廻に戻る"),3)
IfPlayerPicksChoice(0,"反省会に出る")
 241(bytes(0x04,0x08,0x6f,0x3a,0x0d,0x52,0x50,0x47,0x3a,0x3a,0x42,0x47,0x4d,0x08,0x3a,0x0a,0x40,0x6e,0x61,0x6d,0x65,0x49,0x22,0x0a,0x69,0x72,0x69,0x61,0x73,0x06,0x3a,0x06,0x45,0x54,0x3a,0x0c,0x40,0x76,0x6f,0x6c,0x75,0x6d,0x65,0x69,0x5f,0x3a,0x0b,0x40,0x70,0x69,0x74,0x63,0x68,0x69,0x6e))
 PictureDisplay(1,"bg001",0,0,0,0,100,100,255,0)
 222()
 PictureDisplay(5,"80_iriasu_st04",0,0,0,0,100,100,0,0)
 PictureMove(5,null,0,0,0,0,100,100,255,0,30,true)
 ShowMessageFace("iriasu_fc1",3,0,2,7)
 ShowMessage("【イリアス】")
 ShowMessage("キメラタイプの魔獣ですか……")
 ShowMessage("あなたが交尾した結果、さらなるキメラが生まれそうですね。")
 PictureDisplay(5,"80_iriasu_st01",0,0,0,0,100,100,255,0)
 ShowMessageFace("iriasu_fc1",0,0,2,8)
 ShowMessage("【イリアス】")
 ShowMessage("キメラビーストは、獣系のキメラ。")
 ShowMessage("強力な物理攻撃が最大の武器となっています。")
 PictureDisplay(5,"80_iriasu_st02",0,0,0,0,100,100,255,0)
 ShowMessageFace("iriasu_fc1",1,0,2,9)
 ShowMessage("【イリアス】")
 ShowMessage("では行きなさい、勇者ルカ。")
 ShowMessage("実際のところ、生物はみんなキメラのようなものです。")
 242(1)
 221()
 PictureClear(5)
 PictureClear(1)
 Wait(60)
 0()
IfPlayerPicksChoice(1,"難易度を変更する")
 ShowMessageFace("",0,0,2,10)
 ShowMessage("難易度を選択して下さい。")
 RunCommonEvent(110)
 0()
IfPlayerPicksChoice(2,"輪廻に戻る")
 0()
404()
RunCommonEvent(3000)
0()
