// EVENT 2084
Name "Seduction: Elf"

If(0,25,1)
 EndEventProcessing()
 0()
EndIf()
355("$game_troop.lose_event_id = 3084")
ChangeVariable(26,26,0,3,3,1,4)
ChangeVariable(26,26,4,0,10)
ShowMessageFace("elf_fc1",2,0,2,1)
ShowMessage("\\n<Elf>This isn't good... I'll be raped at this rate.\nIf it's come to this, I'll just have to rape him first!")
355("battler_graphic_hide")
PictureDisplay(5,"ev_elf_h1",0,0,0,0,100,100,255,0)
ShowMessageFace("",0,0,2,2)
ShowMessage("The Elf jumps at Luka, and gets on top of him!")
ShowMessageFace("elf_fc1",1,0,2,3)
ShowMessage("\\n<Elf>I'll violate you, so behave alright?\nDon't you want to taste the famed pussy of an Elf?")
ShowMessageFace("elf_fc1",1,0,2,4)
ShowMessage("\\n<Elf>I'll let you enjoy something no man can endure...\nI wonder how many seconds you can last?")
ChangeSwitch(98,98,0)
ChangeSwitch(96,96,0)
ShowChoices(strings("Struggle","Let her continue"),1)
IfPlayerPicksChoice(0,"もがく")
 ShowMessageFace("",0,0,2,5)
 ShowMessage("Luka struggles and breaks free!")
 RunCommonEvent(1999)
 EndEventProcessing()
 0()
IfPlayerPicksChoice(1,"なすがまま")
 0()
404()
ShowMessageFace("elf_fc1",1,0,2,6)
ShowMessage("\\n<Elf>Fufu... I'll put it in.\nTry to last as long as you can...")
ChangeVariable(26,26,3,0,4)
250(bytes(0x04,0x08,0x6f,0x3a,0x0c,0x52,0x50,0x47,0x3a,0x3a,0x53,0x45,0x08,0x3a,0x0a,0x40,0x6e,0x61,0x6d,0x65,0x49,0x22,0x11,0x6d,0x6f,0x6e,0x5f,0x65,0x72,0x6f,0x5f,0x70,0x79,0x75,0x35,0x06,0x3a,0x06,0x45,0x54,0x3a,0x0b,0x40,0x70,0x69,0x74,0x63,0x68,0x69,0x69,0x3a,0x0c,0x40,0x76,0x6f,0x6c,0x75,0x6d,0x65,0x69,0x69))
PictureDisplay(5,"ev_elf_h2",0,0,0,0,100,100,255,0)
311(0,1,1,1,26,true)
ShowMessageFace("",0,0,2,7)
ShowMessage("The Elf drops her waist, taking Luka inside her!")
ShowMessage("Luka is being raped by the Elf!\\D")
ShowMessage("Luka takes \\V[26] damage!")
ChangeVariable(27,27,0,3,3,1,2)
If(1,27,0,0,0)
 JumpToLabel("射精1")
 0()
EndIf()
ShowMessageFace("",0,0,2,8)
ShowMessage("\\n<Luka>Aaaah...!")
ShowMessageFace("",0,0,2,9)
ShowMessage("Her elastic vagina tightens around my penis.")
ShowMessage("The wet flesh surrounds me, as if molding to my penis.")
ShowMessageFace("elf_fc1",1,0,2,10)
ShowMessage("\\n<Elf>No matter how rough the man, they always quiet down when they're raped.\nYou can't withstand my movements, can you!?")
250(bytes(0x04,0x08,0x6f,0x3a,0x0c,0x52,0x50,0x47,0x3a,0x3a,0x53,0x45,0x08,0x3a,0x0a,0x40,0x6e,0x61,0x6d,0x65,0x49,0x22,0x13,0x6d,0x6f,0x6e,0x5f,0x65,0x72,0x6f,0x5f,0x63,0x68,0x75,0x70,0x61,0x33,0x06,0x3a,0x06,0x45,0x54,0x3a,0x0b,0x40,0x70,0x69,0x74,0x63,0x68,0x69,0x69,0x3a,0x0c,0x40,0x76,0x6f,0x6c,0x75,0x6d,0x65,0x69,0x69))
311(0,1,1,1,26,true)
ShowMessageFace("",0,0,2,11)
ShowMessage("The Elf shakes her waist and violates Luka!\\D")
ShowMessage("Luka takes \\V[26] damage!")
ChangeVariable(27,27,0,3,3,1,2)
If(1,27,0,0,0)
 JumpToLabel("射精2")
 0()
EndIf()
ShowMessageFace("elf_fc1",1,0,2,12)
ShowMessage("\\n<Elf>I'll tighten inside...\nJust come inside me.")
250(bytes(0x04,0x08,0x6f,0x3a,0x0c,0x52,0x50,0x47,0x3a,0x3a,0x53,0x45,0x08,0x3a,0x0a,0x40,0x6e,0x61,0x6d,0x65,0x49,0x22,0x13,0x6d,0x6f,0x6e,0x5f,0x65,0x72,0x6f,0x5f,0x63,0x68,0x75,0x70,0x61,0x35,0x06,0x3a,0x06,0x45,0x54,0x3a,0x0b,0x40,0x70,0x69,0x74,0x63,0x68,0x69,0x69,0x3a,0x0c,0x40,0x76,0x6f,0x6c,0x75,0x6d,0x65,0x69,0x69))
311(0,1,1,1,26,true)
ShowMessageFace("",0,0,2,13)
ShowMessage("The Elf's vagina squeezes down around Luka's penis!\\D")
ShowMessage("Luka takes \\V[26] damage!")
ChangeVariable(27,27,0,3,3,1,2)
If(1,27,0,0,0)
 JumpToLabel("射精2")
 0()
EndIf()
DefineLabel("射精1")
ShowMessageFace("",0,0,2,14)
ShowMessage("\\n<Luka>Ah...Don't...!")
RunCommonEvent(104)
PictureDisplay(5,"ev_elf_h3",0,0,0,0,100,100,255,0)
RunCommonEvent(105)
ShowMessageFace("",0,0,2,15)
ShowMessage("The moment I'm brought into the Elf, I come.")
ShowMessage("I couldn't endure for more than a second inside her...")
ShowMessageFace("elf_fc1",1,0,2,16)
ShowMessage("\\n<Elf>Coming just from insertion? Have you no shame?\nYou disturbed the peace of this forest, so I can't let you go just yet...")
RunCommonEvent(2000)
EndEventProcessing()
DefineLabel("射精2")
ShowMessageFace("",0,0,2,17)
ShowMessage("\\n<Luka>Don't...I'm coming...")
RunCommonEvent(104)
PictureDisplay(5,"ev_elf_h3",0,0,0,0,100,100,255,0)
RunCommonEvent(105)
ShowMessageFace("",0,0,2,18)
ShowMessage("Raped by the Elf, I finally come.")
ShowMessage("My semen pours into her tight vagina.")
ShowMessageFace("elf_fc1",1,0,2,19)
ShowMessage("\\n<Elf>Fufu... You came inside me.\nYou disturbed the peace of this forest, so I can't let you go just yet...")
RunCommonEvent(2000)
EndEventProcessing()
0()
