// EVENT 7112
Name "Teresa: Match"

ChangeSwitch(96,96,0)
ChangeSwitch(98,98,0)
ShowMessageFace("mob_murabito2_fc1",0,0,2,1)
ShowMessage("\\n<Teresa>So you'll do it.\nI'll start then.")
ShowMessageFace("mob_murabito2_fc1",0,0,2,2)
ShowMessage("\\n<Teresa>I can't use difficult techniques.\nSo I'll just use various places.")
250(bytes(0x04,0x08,0x6f,0x3a,0x0c,0x52,0x50,0x47,0x3a,0x3a,0x53,0x45,0x08,0x3a,0x0a,0x40,0x6e,0x61,0x6d,0x65,0x49,0x22,0x12,0x6d,0x6f,0x6e,0x5f,0x65,0x72,0x6f,0x5f,0x6b,0x6f,0x6b,0x69,0x31,0x06,0x3a,0x06,0x45,0x54,0x3a,0x0b,0x40,0x70,0x69,0x74,0x63,0x68,0x69,0x69,0x3a,0x0c,0x40,0x76,0x6f,0x6c,0x75,0x6d,0x65,0x69,0x69))
PictureDisplay(5,"80_mob_murabito2_st01",0,0,-190,0,100,100,255,0)
PictureDisplay(6,"ev_mob_murabito2_ct31",0,0,240,50,100,100,255,0)
ChangeVariable(11,11,0,2,33,37)
311(0,1,1,1,11,true)
ShowMessageFace("",0,0,2,3)
ShowMessage("Teresa moves her legs next to Luka's groin!")
ShowMessage("Her thighs rub his penis over her stockings!\\D")
ShowMessage("Luka takes \\V[11] damage!")
ChangeVariable(27,27,0,3,3,1,2)
If(1,27,0,0,0)
 RunCommonEvent(7115)
 EndEventProcessing()
 0()
EndIf()
ShowMessageFace("mob_murabito2_fc1",0,0,2,4)
ShowMessage("\\n<Teresa>There, there...\n...Feels good?")
250(bytes(0x04,0x08,0x6f,0x3a,0x0c,0x52,0x50,0x47,0x3a,0x3a,0x53,0x45,0x08,0x3a,0x0a,0x40,0x6e,0x61,0x6d,0x65,0x49,0x22,0x12,0x6d,0x6f,0x6e,0x5f,0x65,0x72,0x6f,0x5f,0x6b,0x6f,0x6b,0x69,0x31,0x06,0x3a,0x06,0x45,0x54,0x3a,0x0b,0x40,0x70,0x69,0x74,0x63,0x68,0x69,0x69,0x3a,0x0c,0x40,0x76,0x6f,0x6c,0x75,0x6d,0x65,0x69,0x69))
ChangeVariable(11,11,0,2,33,37)
311(0,1,1,1,11,true)
ShowMessageFace("",0,0,2,5)
ShowMessage("Teresa moves her legs and stimulates Luka's penis!")
ShowMessage("Her silky stockings rub Luka's penis along with her thighs!\\D")
ShowMessage("Luka takes \\V[11] damage!")
ChangeVariable(27,27,0,3,3,1,2)
If(1,27,0,0,0)
 RunCommonEvent(7115)
 EndEventProcessing()
 0()
EndIf()
ShowMessageFace("mob_murabito2_fc1",0,0,2,6)
ShowMessage("\\n<Teresa>Next, my skirt...\nIt's fluffy and feels good.")
250(bytes(0x04,0x08,0x6f,0x3a,0x0c,0x52,0x50,0x47,0x3a,0x3a,0x53,0x45,0x08,0x3a,0x0a,0x40,0x6e,0x61,0x6d,0x65,0x49,0x22,0x12,0x6d,0x6f,0x6e,0x5f,0x65,0x72,0x6f,0x5f,0x6b,0x6f,0x6b,0x69,0x31,0x06,0x3a,0x06,0x45,0x54,0x3a,0x0b,0x40,0x70,0x69,0x74,0x63,0x68,0x69,0x69,0x3a,0x0c,0x40,0x76,0x6f,0x6c,0x75,0x6d,0x65,0x69,0x69))
PictureDisplay(6,"ev_mob_murabito2_ct21",0,0,240,50,100,100,255,0)
ChangeVariable(11,11,0,2,33,37)
311(0,1,1,1,11,true)
ShowMessageFace("",0,0,2,7)
ShowMessage("Teresa grabs Luka's penis, and rubs it against her skirt!")
ShowMessage("The delicate touch stimulates Luka!\\D")
ShowMessage("Luka takes \\V[11] damage!")
ChangeVariable(27,27,0,3,3,1,2)
If(1,27,0,0,0)
 RunCommonEvent(7116)
 EndEventProcessing()
 0()
EndIf()
ShowMessageFace("mob_murabito2_fc1",0,0,2,8)
ShowMessage("\\n<Teresa>Rub, rub...")
250(bytes(0x04,0x08,0x6f,0x3a,0x0c,0x52,0x50,0x47,0x3a,0x3a,0x53,0x45,0x08,0x3a,0x0a,0x40,0x6e,0x61,0x6d,0x65,0x49,0x22,0x12,0x6d,0x6f,0x6e,0x5f,0x65,0x72,0x6f,0x5f,0x6b,0x6f,0x6b,0x69,0x31,0x06,0x3a,0x06,0x45,0x54,0x3a,0x0b,0x40,0x70,0x69,0x74,0x63,0x68,0x69,0x69,0x3a,0x0c,0x40,0x76,0x6f,0x6c,0x75,0x6d,0x65,0x69,0x69))
ChangeVariable(11,11,0,2,33,37)
311(0,1,1,1,11,true)
ShowMessageFace("",0,0,2,9)
ShowMessage("Teresa carefully rubs Luka's penis against her skirt!")
ShowMessage("Every corner of his penis is assaulted by a ticklish sensation!\\D")
ShowMessage("Luka takes \\V[11] damage!")
ChangeVariable(27,27,0,3,3,1,2)
If(1,27,0,0,0)
 RunCommonEvent(7116)
 EndEventProcessing()
 0()
EndIf()
ShowMessageFace("mob_murabito2_fc1",0,0,2,10)
ShowMessage("\\n<Teresa>Wrap it up in my skirt...")
250(bytes(0x04,0x08,0x6f,0x3a,0x0c,0x52,0x50,0x47,0x3a,0x3a,0x53,0x45,0x08,0x3a,0x0a,0x40,0x6e,0x61,0x6d,0x65,0x49,0x22,0x12,0x6d,0x6f,0x6e,0x5f,0x65,0x72,0x6f,0x5f,0x6b,0x6f,0x6b,0x69,0x31,0x06,0x3a,0x06,0x45,0x54,0x3a,0x0b,0x40,0x70,0x69,0x74,0x63,0x68,0x69,0x69,0x3a,0x0c,0x40,0x76,0x6f,0x6c,0x75,0x6d,0x65,0x69,0x69))
ChangeVariable(11,11,0,2,33,37)
311(0,1,1,1,11,true)
ShowMessageFace("",0,0,2,11)
ShowMessage("Teresa winds Luka's penis up in her skirt!")
ShowMessage("Like that, she grabs and rubs it!\\D")
ShowMessage("Luka takes \\V[11] damage!")
ChangeVariable(27,27,0,3,3,1,2)
If(1,27,0,0,0)
 RunCommonEvent(7116)
 EndEventProcessing()
 0()
EndIf()
If(1,27,0,175,4)
 ShowMessageFace("ruka_fc1",0,0,2,12)
 ShowMessage("\\n<Luka>Ah, unnngh...")
 ShowMessageFace("mob_murabito2_fc1",0,0,2,13)
 ShowMessage("\\n<Teresa>Feeling good...?\nThen I'll do more...")
 0()
Else()
 ShowMessageFace("mob_murabito2_fc1",0,0,2,14)
 ShowMessage("\\n<Teresa>You're holding back?\nThen I'll do more...")
 0()
EndIf()
250(bytes(0x04,0x08,0x6f,0x3a,0x0c,0x52,0x50,0x47,0x3a,0x3a,0x53,0x45,0x08,0x3a,0x0a,0x40,0x6e,0x61,0x6d,0x65,0x49,0x22,0x12,0x6d,0x6f,0x6e,0x5f,0x65,0x72,0x6f,0x5f,0x6b,0x6f,0x6b,0x69,0x31,0x06,0x3a,0x06,0x45,0x54,0x3a,0x0b,0x40,0x70,0x69,0x74,0x63,0x68,0x69,0x69,0x3a,0x0c,0x40,0x76,0x6f,0x6c,0x75,0x6d,0x65,0x69,0x69))
ChangeVariable(11,11,0,2,33,37)
311(0,1,1,1,11,true)
ShowMessageFace("",0,0,2,15)
ShowMessage("Teresa rubs Luka's penis through her skirt!")
ShowMessage("Her soft, cloth skirt stimulates Luka's penis!\\D")
ShowMessage("Luka takes \\V[11] damage!")
ChangeVariable(27,27,0,3,3,1,2)
If(1,27,0,0,0)
 RunCommonEvent(7116)
 EndEventProcessing()
 0()
EndIf()
ShowMessageFace("mob_murabito2_fc1",0,0,2,16)
ShowMessage("\\n<Teresa>Next up is my boobs.\n*Squeeze*")
250(bytes(0x04,0x08,0x6f,0x3a,0x0c,0x52,0x50,0x47,0x3a,0x3a,0x53,0x45,0x08,0x3a,0x0a,0x40,0x6e,0x61,0x6d,0x65,0x49,0x22,0x12,0x6d,0x6f,0x6e,0x5f,0x65,0x72,0x6f,0x5f,0x6b,0x6f,0x6b,0x69,0x31,0x06,0x3a,0x06,0x45,0x54,0x3a,0x0b,0x40,0x70,0x69,0x74,0x63,0x68,0x69,0x69,0x3a,0x0c,0x40,0x76,0x6f,0x6c,0x75,0x6d,0x65,0x69,0x69))
PictureDisplay(5,"ev_mob_murabito2_h1",0,0,0,0,100,100,255,0)
PictureClear(6)
ChangeVariable(11,11,0,2,33,37)
311(0,1,1,1,11,true)
ShowMessageFace("",0,0,2,17)
ShowMessage("Teresa brings Luka's penis to her chest!")
ShowMessage("She presses his penis against her soft breasts!\\D")
ShowMessage("Luka takes \\V[11] damage!")
ChangeVariable(27,27,0,3,3,1,2)
If(1,27,0,0,0)
 RunCommonEvent(7117)
 EndEventProcessing()
 0()
EndIf()
ShowMessageFace("mob_murabito2_fc1",0,0,2,18)
ShowMessage("\\n<Teresa>*Squeeze* *Press*")
250(bytes(0x04,0x08,0x6f,0x3a,0x0c,0x52,0x50,0x47,0x3a,0x3a,0x53,0x45,0x08,0x3a,0x0a,0x40,0x6e,0x61,0x6d,0x65,0x49,0x22,0x12,0x6d,0x6f,0x6e,0x5f,0x65,0x72,0x6f,0x5f,0x6b,0x6f,0x6b,0x69,0x31,0x06,0x3a,0x06,0x45,0x54,0x3a,0x0b,0x40,0x70,0x69,0x74,0x63,0x68,0x69,0x69,0x3a,0x0c,0x40,0x76,0x6f,0x6c,0x75,0x6d,0x65,0x69,0x69))
ChangeVariable(11,11,0,2,33,37)
311(0,1,1,1,11,true)
ShowMessageFace("",0,0,2,19)
ShowMessage("She presses his penis against her bouncy boobs!")
ShowMessage("He can feel the soft elasticity of them through her clothes!\\D")
ShowMessage("Luka takes \\V[11] damage!")
ChangeVariable(27,27,0,3,3,1,2)
If(1,27,0,0,0)
 RunCommonEvent(7117)
 EndEventProcessing()
 0()
EndIf()
ShowMessageFace("mob_murabito2_fc1",0,0,2,20)
ShowMessage("\\n<Teresa>Lastly is my cheeks...\nNnnn... *Grind* *Grind*")
250(bytes(0x04,0x08,0x6f,0x3a,0x0c,0x52,0x50,0x47,0x3a,0x3a,0x53,0x45,0x08,0x3a,0x0a,0x40,0x6e,0x61,0x6d,0x65,0x49,0x22,0x12,0x6d,0x6f,0x6e,0x5f,0x65,0x72,0x6f,0x5f,0x6b,0x6f,0x6b,0x69,0x31,0x06,0x3a,0x06,0x45,0x54,0x3a,0x0b,0x40,0x70,0x69,0x74,0x63,0x68,0x69,0x69,0x3a,0x0c,0x40,0x76,0x6f,0x6c,0x75,0x6d,0x65,0x69,0x69))
ChangeVariable(11,11,0,2,33,37)
311(0,1,1,1,11,true)
ShowMessageFace("",0,0,2,21)
ShowMessage("Teresa brings Luka's penis to her face, and rubs her cheek against it!")
ShowMessage("She grinds his penis against her cheeks, back and forth!\\D")
ShowMessage("Luka takes \\V[11] damage!")
ChangeVariable(27,27,0,3,3,1,2)
If(1,27,0,0,0)
 RunCommonEvent(7117)
 EndEventProcessing()
 0()
EndIf()
ShowMessageFace("mob_murabito2_fc1",0,0,2,22)
ShowMessage("\\n<Teresa>*Grind* *Grind*\nCome on my cheeks...")
250(bytes(0x04,0x08,0x6f,0x3a,0x0c,0x52,0x50,0x47,0x3a,0x3a,0x53,0x45,0x08,0x3a,0x0a,0x40,0x6e,0x61,0x6d,0x65,0x49,0x22,0x12,0x6d,0x6f,0x6e,0x5f,0x65,0x72,0x6f,0x5f,0x6b,0x6f,0x6b,0x69,0x31,0x06,0x3a,0x06,0x45,0x54,0x3a,0x0b,0x40,0x70,0x69,0x74,0x63,0x68,0x69,0x69,0x3a,0x0c,0x40,0x76,0x6f,0x6c,0x75,0x6d,0x65,0x69,0x69))
ChangeVariable(11,11,0,2,33,37)
311(0,1,1,1,11,true)
ShowMessageFace("",0,0,2,23)
ShowMessage("Her soft cheeks rub hard against Luka's penis!")
ShowMessage("The strange stimulation overwhelms Luka with a sweet stimulation!\\D")
ShowMessage("Luka takes \\V[11] damage!")
ChangeVariable(27,27,0,3,3,1,2)
If(1,27,0,0,0)
 RunCommonEvent(7117)
 EndEventProcessing()
 0()
EndIf()
RunCommonEvent(7114)
EndEventProcessing()
0()
