// EVENT 4121
Name "Goblin Girl"

If(0,25,1)
 221()
 PictureClear(5)
 PictureClear(6)
 ShowMessageFace("",0,0,2,0)
 ShowMessage("......")
 242(2)
 Wait(120)
 241(bytes(0x04,0x08,0x6f,0x3a,0x0d,0x52,0x50,0x47,0x3a,0x3a,0x42,0x47,0x4d,0x08,0x3a,0x0a,0x40,0x6e,0x61,0x6d,0x65,0x49,0x22,0x0c,0x63,0x61,0x73,0x74,0x6c,0x65,0x36,0x06,0x3a,0x06,0x45,0x54,0x3a,0x0c,0x40,0x76,0x6f,0x6c,0x75,0x6d,0x65,0x69,0x69,0x3a,0x0b,0x40,0x70,0x69,0x74,0x63,0x68,0x69,0x69))
 EndEventProcessing()
 0()
EndIf()
PictureDisplay(5,"80_gob_st01",0,0,0,0,100,100,255,0)
ShowMessageFace("gob_fc1",0,0,2,1)
ShowMessage("\\n<Gob>Hey, let's arm wrestle! ♪")
ShowMessageFace("",0,0,2,2)
ShowMessage("\\n<Luka>Uhh, all right?")
ShowMessageFace("gob_fc1",2,0,2,3)
ShowMessage("\\n<Gob>Great! Let's go back to my room...")
ShowMessageFace("",0,0,2,4)
ShowMessage("\\n<Luka>Why your room?\nWhatever, that's fine...")
ShowMessageFace("",0,0,2,5)
ShowMessage("I have a niggling suspicion at the back of my mind, but I follow Gob to her room anyway--")
221()
PictureDisplay(1,"bg195",0,0,0,0,100,100,255,0)
PictureDisplay(5,"ev_gob_h1",0,0,0,0,100,100,255,0)
222()
241(bytes(0x04,0x08,0x6f,0x3a,0x0d,0x52,0x50,0x47,0x3a,0x3a,0x42,0x47,0x4d,0x08,0x3a,0x0a,0x40,0x6e,0x61,0x6d,0x65,0x49,0x22,0x09,0x65,0x72,0x6f,0x31,0x06,0x3a,0x06,0x45,0x54,0x3a,0x0c,0x40,0x76,0x6f,0x6c,0x75,0x6d,0x65,0x69,0x69,0x3a,0x0b,0x40,0x70,0x69,0x74,0x63,0x68,0x69,0x69))
ShowMessageFace("",0,0,2,6)
ShowMessage("\\n<Luka>Whoa, what are you doing!?")
ShowMessageFace("",0,0,2,7)
ShowMessage("As soon as we enter her room, Gob shoves me to the ground and gets on top of me!")
ShowMessageFace("gob_fc1",2,0,2,8)
ShowMessage("\\n<Gob>All's fair in love and war! ♪\nI'll violate you until you go crazy.")
ShowMessageFace("",0,0,2,9)
ShowMessage("Gob quickly drops her waist on my dick!")
ShowMessage("My dick screws into her narrow hole!")
245(bytes(0x04,0x08,0x6f,0x3a,0x0d,0x52,0x50,0x47,0x3a,0x3a,0x42,0x47,0x53,0x08,0x3a,0x0a,0x40,0x6e,0x61,0x6d,0x65,0x49,0x22,0x1e,0x6d,0x6f,0x6e,0x5f,0x68,0x73,0x65,0x61,0x6e,0x30,0x31,0x5f,0x69,0x6e,0x6e,0x65,0x72,0x77,0x6f,0x72,0x6b,0x73,0x5f,0x61,0x31,0x06,0x3a,0x06,0x45,0x54,0x3a,0x0c,0x40,0x76,0x6f,0x6c,0x75,0x6d,0x65,0x69,0x55,0x3a,0x0b,0x40,0x70,0x69,0x74,0x63,0x68,0x69,0x69))
ShowMessageFace("",0,0,2,10)
ShowMessage("\\n<Luka>Aaaauuu!")
ShowMessageFace("",0,0,2,11)
ShowMessage("A warm feeling attacks my dick.")
ShowMessage("As I reach all the way into her, she starts to tighten her pussy.")
ShowMessageFace("gob_fc1",2,0,2,12)
ShowMessage("\\n<Gob>Hahaha, I bet I stole your virginity!\nHow pathetic!")
ShowMessageFace("",0,0,2,13)
ShowMessage("\\n<Luka>Aahhhh!")
ShowMessageFace("",0,0,2,14)
ShowMessage("My penis is inserted in her all the way to the root.")
ShowMessage("As if strangling me, she tightens her pussy.")
245(bytes(0x04,0x08,0x6f,0x3a,0x0d,0x52,0x50,0x47,0x3a,0x3a,0x42,0x47,0x53,0x08,0x3a,0x0a,0x40,0x6e,0x61,0x6d,0x65,0x49,0x22,0x1e,0x6d,0x6f,0x6e,0x5f,0x68,0x73,0x65,0x61,0x6e,0x30,0x37,0x5f,0x69,0x6e,0x6e,0x65,0x72,0x77,0x6f,0x72,0x6b,0x73,0x5f,0x61,0x37,0x06,0x3a,0x06,0x45,0x54,0x3a,0x0c,0x40,0x76,0x6f,0x6c,0x75,0x6d,0x65,0x69,0x55,0x3a,0x0b,0x40,0x70,0x69,0x74,0x63,0x68,0x69,0x69))
ShowMessageFace("",0,0,2,15)
ShowMessage("Gob starts to violently shake her waist!")
ShowMessageFace("",0,0,2,16)
ShowMessage("\\n<Luka>Aauuu! Ahhhh!")
ShowMessageFace("",0,0,2,17)
ShowMessage("Stuck in her tiny opening, her walls start to massage my dick.")
ShowMessageFace("",0,0,2,18)
ShowMessage("She continually varies her tightness.")
ShowMessage("The constantly changing stimulation sends pleasure shooting through me.")
ShowMessageFace("",0,0,2,19)
ShowMessage("With the goblin violently forcing the pleasure, my body starts to writhe on the ground.")
ShowMessageFace("gob_fc1",2,0,2,20)
ShowMessage("\\n<Gob>Hahaha.\nIt looks like you can't stand it when I move my waist.")
ShowMessageFace("",0,0,2,21)
ShowMessage("Sneering at me, the goblin starts to move her waist up and down.")
ShowMessageFace("",0,0,2,22)
ShowMessage("Moving up and down in a rhythmic motion, she torments me with her honey pot.")
ShowMessageFace("",0,0,2,23)
ShowMessage("\\n<Luka>Aaaaaahhhh!")
ShowMessageFace("",0,0,2,24)
ShowMessage("Twisting my body, I can't endure the pleasure attacking me.")
ShowMessage("I must look pathetic...")
ShowMessageFace("gob_fc1",2,0,2,25)
ShowMessage("\\n<Gob>Hahahaha!\nJust come, writhing pathetically like that!")
ShowMessageFace("",0,0,2,26)
ShowMessage("\\n<Luka>Aaahh! Coming!")
ShowMessageFace("",0,0,2,27)
ShowMessage("With her unrelenting pumping, she brings me to a climax.")
RunCommonEvent(104)
PictureDisplay(5,"ev_gob_h2",0,0,0,0,100,100,255,0)
RunCommonEvent(105)
ShowMessageFace("",0,0,2,28)
ShowMessage("Squeezed by her tight pussy, I explode inside of her.")
ShowMessageFace("gob_fc1",2,0,2,29)
ShowMessage("\\n<Gob>Hahaha! You came! You came!\nMore, more, more!")
ShowMessageFace("",0,0,2,30)
ShowMessage("\\n<Luka>Ahiiii!")
ShowMessageFace("",0,0,2,31)
ShowMessage("She starts to move even faster, forcing me back to the edge.")
ShowMessage("The semen from before causes a lewd noise to sound out every time our hips slap together.")
ShowMessageFace("",0,0,2,32)
ShowMessage("\\n<Luka>Haaa.. stop it...")
ShowMessageFace("gob_fc1",2,0,2,33)
ShowMessage("\\n<Gob>Ehh..? What are you saying?\nI can't hear you! Hahaha!")
ShowMessageFace("",0,0,2,34)
ShowMessage("I look down at my cock, stuck all the way in her.")
ShowMessage("Suddenly, she tightens around me, forcing me over the edge!")
RunCommonEvent(104)
PictureDisplay(5,"ev_gob_h3",0,0,0,0,100,100,255,0)
RunCommonEvent(105)
ShowMessageFace("",0,0,2,35)
ShowMessage("I came in her a second time...")
ShowMessageFace("",0,0,2,36)
ShowMessage("\\n<Luka>Aaaahhh n..o...")
ShowMessageFace("gob_fc1",2,0,2,37)
ShowMessage("\\n<Gob>I won't stop! I said I'd violate you until you went crazy!\nUntil nothing's left, I'll make myself even tighter, and squeeze everything out!")
ShowMessageFace("",0,0,2,38)
ShowMessage("\\n<Luka>Haaaaa!")
ShowMessageFace("",0,0,2,39)
ShowMessage("Gob starts to shake her waist again.")
ShowMessage("The intense friction caused by her narrow pussy starts to send me over the edge yet again.")
ShowMessageFace("",0,0,2,40)
ShowMessage("Panting, I ejaculate yet again.")
RunCommonEvent(104)
RunCommonEvent(105)
ShowMessageFace("",0,0,2,41)
ShowMessage("Thus I'm violated five times... ten times...")
ShowMessageFace("gob_fc1",2,0,2,42)
ShowMessage("\\n<Gob>Ahh! Even though you just orgasmed, nothing came out...")
ShowMessageFace("",0,0,2,43)
ShowMessage("\\n<Luka>A...aa....")
ShowMessageFace("",0,0,2,44)
ShowMessage("Coming so many times, my penis is twitching.")
ShowMessageFace("",0,0,2,45)
ShowMessage("Completely sucked dry, I'm panting on the ground, out of breath.")
ShowMessageFace("",0,0,2,46)
ShowMessage("Being squeezed by such a tight vagina, my consciousness starts to slowly fade...")
221()
PictureClear(5)
246(2)
ShowMessageFace("",0,0,2,47)
ShowMessage("I finally lose my grip on reality, passing out after such a violent assault--")
242(2)
Wait(120)
241(bytes(0x04,0x08,0x6f,0x3a,0x0d,0x52,0x50,0x47,0x3a,0x3a,0x42,0x47,0x4d,0x08,0x3a,0x0a,0x40,0x6e,0x61,0x6d,0x65,0x49,0x22,0x0c,0x63,0x61,0x73,0x74,0x6c,0x65,0x36,0x06,0x3a,0x06,0x45,0x54,0x3a,0x0c,0x40,0x76,0x6f,0x6c,0x75,0x6d,0x65,0x69,0x69,0x3a,0x0b,0x40,0x70,0x69,0x74,0x63,0x68,0x69,0x69))
0()
