// EVENT 7046
Name "Buny: Victory"

PictureClear(6)
ShowMessageFace("mob_bunny1_fc1",0,0,2,1)
ShowMessage("\\n<Bunny-chan>Argh, my time's up...\nI lost.")
250(bytes(0x04,0x08,0x6f,0x3a,0x0c,0x52,0x50,0x47,0x3a,0x3a,0x53,0x45,0x08,0x3a,0x0a,0x40,0x6e,0x61,0x6d,0x65,0x49,0x22,0x0d,0x6d,0x6f,0x6e,0x5f,0x6c,0x76,0x75,0x70,0x06,0x3a,0x06,0x45,0x54,0x3a,0x0b,0x40,0x70,0x69,0x74,0x63,0x68,0x69,0x69,0x3a,0x0c,0x40,0x76,0x6f,0x6c,0x75,0x6d,0x65,0x69,0x69))
ChangeSwitch(98,98,1)
ChangeSwitch(96,96,1)
ShowMessageFace("",0,0,2,2)
ShowMessage("Luka emerged from the battle fuck victorious!")
If(1,805,0,2,1)
 ShowMessageFace("mob_bunny1_fc1",0,0,2,3)
 ShowMessage("\\n<Bunny-chan>You already earned your prize, right?\nI can't give you another present, sorry.")
 0()
Else()
 ShowMessageFace("mob_bunny1_fc1",0,0,2,4)
 ShowMessage("\\n<Bunny-chan>Here's your reward accessory. Use it well. ♪")
 250(bytes(0x04,0x08,0x6f,0x3a,0x0c,0x52,0x50,0x47,0x3a,0x3a,0x53,0x45,0x08,0x3a,0x0a,0x40,0x6e,0x61,0x6d,0x65,0x49,0x22,0x0a,0x49,0x74,0x65,0x6d,0x31,0x06,0x3a,0x06,0x45,0x54,0x3a,0x0b,0x40,0x70,0x69,0x74,0x63,0x68,0x69,0x69,0x3a,0x0c,0x40,0x76,0x6f,0x6c,0x75,0x6d,0x65,0x69,0x55))
 ChangeInventoryArmor(1042,0,0,1,false)
 ChangeVariable(805,805,0,0,2)
 RunCommonEvent(6999)
 0()
EndIf()
ShowMessageFace("mob_bunny1_fc1",0,0,2,5)
ShowMessage("\\n<Bunny-chan>Come back and challenge me whenever! I won't lose next time! ♪")
If(0,2331,1)
 PictureClear(5)
 281(1)
 TeleportPlayer(0,52,39,52,2,0)
 216(0)
 0()
EndIf()
EndEventProcessing()
0()
