// EVENT 4156
Name "Leech Girl"

If(0,25,1)
 221()
 PictureClear(5)
 PictureClear(6)
 ShowMessageFace("",0,0,2,0)
 ShowMessage("......")
 242(2)
 Wait(120)
 241(bytes(0x04,0x08,0x6f,0x3a,0x0d,0x52,0x50,0x47,0x3a,0x3a,0x42,0x47,0x4d,0x08,0x3a,0x0a,0x40,0x6e,0x61,0x6d,0x65,0x49,0x22,0x0c,0x63,0x61,0x73,0x74,0x6c,0x65,0x36,0x06,0x3a,0x06,0x45,0x54,0x3a,0x0c,0x40,0x76,0x6f,0x6c,0x75,0x6d,0x65,0x69,0x69,0x3a,0x0b,0x40,0x70,0x69,0x74,0x63,0x68,0x69,0x69))
 EndEventProcessing()
 0()
EndIf()
PictureDisplay(5,"80_hiru_st02",0,0,0,0,100,100,255,0)
ShowMessageFace("hiru_fc1",1,0,2,1)
ShowMessage("\\n<Hiru>You want me to suck out your semen...?")
ShowMessageFace("",0,0,2,2)
ShowMessage("\\n<Luka>Y-yes... Please...")
ShowMessageFace("",0,0,2,3)
ShowMessage("Hiru approaches as I nervously try to stand my ground without flinching. I stare at the huge mouth on her lower body, gaping open.")
ShowMessageFace("hiru_fc1",1,0,2,4)
ShowMessage("\\n<Hiru>Okay, I'll suck it out for you.\nI'll hold you inside this mouth and chew you up...")
ShowMessageFace("",0,0,2,5)
ShowMessage("Hiru grabs me with her tail and forces me into her mouth!")
241(bytes(0x04,0x08,0x6f,0x3a,0x0d,0x52,0x50,0x47,0x3a,0x3a,0x42,0x47,0x4d,0x08,0x3a,0x0a,0x40,0x6e,0x61,0x6d,0x65,0x49,0x22,0x09,0x65,0x72,0x6f,0x31,0x06,0x3a,0x06,0x45,0x54,0x3a,0x0c,0x40,0x76,0x6f,0x6c,0x75,0x6d,0x65,0x69,0x69,0x3a,0x0b,0x40,0x70,0x69,0x74,0x63,0x68,0x69,0x69))
245(bytes(0x04,0x08,0x6f,0x3a,0x0d,0x52,0x50,0x47,0x3a,0x3a,0x42,0x47,0x53,0x08,0x3a,0x0a,0x40,0x6e,0x61,0x6d,0x65,0x49,0x22,0x1a,0x6d,0x6f,0x6e,0x5f,0x68,0x73,0x65,0x61,0x6e,0x32,0x31,0x5f,0x74,0x65,0x6e,0x74,0x61,0x63,0x6c,0x65,0x32,0x06,0x3a,0x06,0x45,0x54,0x3a,0x0c,0x40,0x76,0x6f,0x6c,0x75,0x6d,0x65,0x69,0x55,0x3a,0x0b,0x40,0x70,0x69,0x74,0x63,0x68,0x69,0x69))
PictureDisplay(5,"ev_hiru_h1",0,0,0,0,100,100,0,0)
PictureMove(5,null,0,0,0,0,100,100,255,0,30,true)
ShowMessageFace("",0,0,2,6)
ShowMessage("I'm stuck inside of her!")
ShowMessageFace("",0,0,2,7)
ShowMessage("\\n<Luka>Aaaaaa!")
ShowMessageFace("",0,0,2,8)
ShowMessage("The tentacles inside of her mouth cover me, rubbing me all over.")
ShowMessage("The mucus that covers me starts to dissolve my clothes.")
ShowMessageFace("",0,0,2,9)
ShowMessage("\\n<Luka>Faaaa!")
ShowMessageFace("",0,0,2,10)
ShowMessage("The slimy tentacles rub my body in waves.")
ShowMessageFace("",0,0,2,11)
ShowMessage("The mucus and saliva covering me makes it feel like I'm being licked by hundreds of tongues all over my body.")
ShowMessageFace("",0,0,2,12)
ShowMessage("Stuck in Hiru's mouth, it's as if my whole body is melting.")
ShowMessageFace("hiru_fc1",1,0,2,13)
ShowMessage("\\n<Hiru>You're sweating a lot...\nDon't worry, I'll suck everything that you release...")
ShowMessageFace("",0,0,2,14)
ShowMessage("\\n<Luka>Aaaah!")
ShowMessageFace("",0,0,2,15)
ShowMessage("The slimy tentacles absorb all of my sweat.")
ShowMessage("As she said, it looks like she's going to suck everything out of me...")
ShowMessageFace("",0,0,2,16)
ShowMessage("\\n<Luka>It feels good... Faaaa!")
ShowMessageFace("",0,0,2,17)
ShowMessage("Slowly sucking the sweat from my skin, my body writhes in pleasure.")
ShowMessageFace("",0,0,2,18)
ShowMessage("The tentacles around my penis are slowly moving and massaging me, too.")
ShowMessageFace("",0,0,2,19)
ShowMessage("They rub me from my base to my tip, covering me with their mucus.")
ShowMessageFace("",0,0,2,20)
ShowMessage("The overpowering stimulation all over my body brings me quickly to the edge.")
ShowMessageFace("",0,0,2,21)
ShowMessage("\\n<Luka>Amazing! Faaa!")
ShowMessageFace("",0,0,2,22)
ShowMessage("Tentacles all around me, rubbing, sucking, and massaging me in every direction.")
ShowMessage("The tortuous pleasure is too much for me to endure.")
ShowMessageFace("",0,0,2,23)
ShowMessage("The desire to orgasm rises through me, as I shake my waist miserably.")
ShowMessageFace("",0,0,2,24)
ShowMessage("\\n<Luka>Auu! Like this, I'll come...!")
ShowMessageFace("hiru_fc1",1,0,2,25)
ShowMessage("\\n<Hiru>Fufu... Let out your male extract.\nI'll suck all of your delicious fluids up...")
ShowMessageFace("",0,0,2,26)
ShowMessage("\\n<Luka>Faaa!")
ShowMessageFace("",0,0,2,27)
ShowMessage("With the relentless tentacles rubbing me all over, I'm unable to resist the overpowering pleasure any longer.")
ShowMessageFace("",0,0,2,28)
ShowMessage("\\n<Luka>Ahii! Ahhhh!")
RunCommonEvent(104)
PictureDisplay(5,"ev_hiru_h2",0,0,0,0,100,100,255,0)
RunCommonEvent(105)
ShowMessageFace("",0,0,2,29)
ShowMessage("My entire body stuck inside Hiru, I explode inside her mouth.")
ShowMessage("The tentacles quickly absorb all of my semen as I shoot it out.")
ShowMessageFace("hiru_fc1",1,0,2,30)
ShowMessage("\\n<Hiru>You let out your male extract...\nShoot out more...")
ShowMessageFace("hiru_fc1",1,0,2,31)
ShowMessage("\\n<Hiru>Until nothing's left, I'll suck out everything...")
ShowMessageFace("",0,0,2,32)
ShowMessage("\\n<Luka>Ahiii!")
245(bytes(0x04,0x08,0x6f,0x3a,0x0d,0x52,0x50,0x47,0x3a,0x3a,0x42,0x47,0x53,0x08,0x3a,0x0a,0x40,0x6e,0x61,0x6d,0x65,0x49,0x22,0x1a,0x6d,0x6f,0x6e,0x5f,0x68,0x73,0x65,0x61,0x6e,0x32,0x32,0x5f,0x74,0x65,0x6e,0x74,0x61,0x63,0x6c,0x65,0x33,0x06,0x3a,0x06,0x45,0x54,0x3a,0x0c,0x40,0x76,0x6f,0x6c,0x75,0x6d,0x65,0x69,0x55,0x3a,0x0b,0x40,0x70,0x69,0x74,0x63,0x68,0x69,0x69))
ShowMessageFace("",0,0,2,33)
ShowMessage("The tentacles continue to stimulate me in every corner of my body in addition to my dick, forcing pleasure into my entire being.")
ShowMessageFace("",0,0,2,34)
ShowMessage("\\n<Luka>Auuuu! St...Stop...")
ShowMessageFace("hiru_fc1",1,0,2,35)
ShowMessage("\\n<Hiru>Living just to have everything be sucked up will feel amazing...\nSweat, urine, semen... I'll take it all.")
ShowMessageFace("",0,0,2,36)
ShowMessage("\\n<Luka>Haauu! Ahhhh!")
ShowMessageFace("",0,0,2,37)
ShowMessage("Hiru shrinks her mouth, tightening the pressure all around me.")
ShowMessageFace("",0,0,2,38)
ShowMessage("The intense suction not only on my penis, but on my entire body causes me to squirm helplessly.")
ShowMessageFace("",0,0,2,40)
ShowMessage("\\n<Luka>Good... Too good!")
ShowMessageFace("",0,0,2,41)
ShowMessage("The membrane covering my penis shrinks as the tentacles continue to furiously rub it.")
RunCommonEvent(104)
PictureDisplay(5,"ev_hiru_h3",0,0,0,0,100,100,255,0)
RunCommonEvent(105)
ShowMessageFace("",0,0,2,42)
ShowMessage("The overpowering stimulation forces me to ejaculate.")
ShowMessageFace("",0,0,2,43)
ShowMessage("\\n<Luka>Faaa....")
ShowMessageFace("hiru_fc1",1,0,2,44)
ShowMessage("\\n<Hiru>I'll suck more...\nMore... More...")
ShowMessageFace("",0,0,2,45)
ShowMessage("\\n<Luka>Aaa! Haaa!")
ShowMessageFace("",0,0,2,46)
ShowMessage("The membrane wrapped around my penis starts to slowly move back and forth while the tentacles continue to rub me.")
ShowMessageFace("",0,0,2,47)
ShowMessage("The combined pleasure leads to a new, strange pleasure.")
ShowMessageFace("",0,0,2,48)
ShowMessage("\\n<Luka>What is this... Faaa!")
ShowMessageFace("",0,0,2,49)
ShowMessage("Unable to hold it any longer, I start to urinate inside Hiru.")
ShowMessageFace("",0,0,2,50)
ShowMessage("Leaking out inside of her mouth gives me an odd pleasure in the immorality.")
ShowMessage("In addition, it feels like my soul itself is leaking out...")
ShowMessageFace("",0,0,2,51)
ShowMessage("The disgrace and pleasure mixes, giving me a happy feeling of exhaustion.")
ShowMessageFace("hiru_fc1",1,0,2,52)
ShowMessage("\\n<Hiru>Peeing in my mouth... Did it feel good?")
ShowMessageFace("hiru_fc1",1,0,2,53)
ShowMessage("\\n<Hiru>My mouth has a method to dispose of my prey's waste fluids.")
ShowMessageFace("hiru_fc1",1,0,2,54)
ShowMessage("\\n<Hiru>Stimulation to make them ejaculate... Stimulation to make them urinate...\nEverything is taken from my prey. I'll suck everything out...")
ShowMessageFace("",0,0,2,55)
ShowMessage("\\n<Luka>Auuu... Such a thing...\nPlease... Stop...")
ShowMessageFace("hiru_fc1",1,0,2,56)
ShowMessage("\\n<Hiru>No. I said I'd suck everything out.")
ShowMessageFace("",0,0,2,57)
ShowMessage("\\n<Luka>Ahii! Haaaa!")
ShowMessageFace("",0,0,2,58)
ShowMessage("As she denies my protest, the tentacles start to massage me even quicker than before.")
ShowMessageFace("",0,0,2,59)
ShowMessage("The mouth that's designed to squeeze everything out of men is torturing me with pleasure...")
ShowMessageFace("",0,0,2,60)
ShowMessage("Ejaculating... Urinating... Everything is being taken from me.")
RunCommonEvent(104)
RunCommonEvent(105)
ShowMessageFace("",0,0,2,61)
ShowMessage("\\n<Luka>Aaaaa!")
ShowMessageFace("",0,0,2,62)
ShowMessage("I'm just her pitiful prey.")
ShowMessage("Struggling in futility, the mouth stimulates me without mercy.")
ShowMessageFace("hiru_fc1",1,0,2,63)
ShowMessage("\\n<Hiru>More... More... I'll squeeze more...")
ShowMessageFace("",0,0,2,64)
ShowMessage("\\n<Luka>Aaaa....")
RunCommonEvent(104)
RunCommonEvent(105)
PictureDisplay(5,"ev_hiru_h4",0,0,0,0,100,100,255,0)
ShowMessageFace("",0,0,2,65)
ShowMessage("Every ejaculation makes me feel like I'm melting more and more.")
ShowMessage("Like that, I start to lose consciousness...")
ShowMessageFace("",0,0,2,66)
ShowMessage("Wrapped in her mouth, it seems as if my soul itself is being sucked out.")
ShowMessageFace("",0,0,2,67)
ShowMessage("All of my fluids sucked out by a monster, I'm immersed in ecstasy.")
ShowMessageFace("",0,0,2,68)
ShowMessage("Even the disgusting act of urinating in her fills me with euphoria.")
ShowMessageFace("",0,0,2,69)
ShowMessage("\\n<Luka>....A...aa....")
ShowMessageFace("",0,0,2,70)
ShowMessage("As my consciousness fades, my mind goes blank.")
221()
PictureClear(5)
PictureClear(6)
246(2)
ShowMessageFace("hiru_fc1",1,0,2,71)
ShowMessage("\\n<Hiru>Thanks for the meal... Fufu...")
ShowMessageFace("",0,0,2,72)
ShowMessage("I thought I heard Hiru's happy voice...")
ShowMessage("Later, I wake up alive in a pool of slime, barely able to move.")
ShowMessageFace("",0,0,2,73)
ShowMessage("............")
242(2)
Wait(120)
241(bytes(0x04,0x08,0x6f,0x3a,0x0d,0x52,0x50,0x47,0x3a,0x3a,0x42,0x47,0x4d,0x08,0x3a,0x0a,0x40,0x6e,0x61,0x6d,0x65,0x49,0x22,0x0c,0x63,0x61,0x73,0x74,0x6c,0x65,0x36,0x06,0x3a,0x06,0x45,0x54,0x3a,0x0c,0x40,0x76,0x6f,0x6c,0x75,0x6d,0x65,0x69,0x69,0x3a,0x0b,0x40,0x70,0x69,0x74,0x63,0x68,0x69,0x69))
0()
