// EVENT 4513
Name "Eva 3"

If(0,25,1)
 221()
 PictureClear(5)
 PictureClear(6)
 ShowMessageFace("",0,0,2,0)
 ShowMessage("......")
 242(2)
 Wait(120)
 241(bytes(0x04,0x08,0x6f,0x3a,0x0d,0x52,0x50,0x47,0x3a,0x3a,0x42,0x47,0x4d,0x08,0x3a,0x0a,0x40,0x6e,0x61,0x6d,0x65,0x49,0x22,0x0c,0x63,0x61,0x73,0x74,0x6c,0x65,0x36,0x06,0x3a,0x06,0x45,0x54,0x3a,0x0c,0x40,0x76,0x6f,0x6c,0x75,0x6d,0x65,0x69,0x69,0x3a,0x0b,0x40,0x70,0x69,0x74,0x63,0x68,0x69,0x69))
 EndEventProcessing()
 0()
EndIf()
PictureDisplay(5,"80_eva_st01",0,0,0,0,100,100,255,0)
ShowMessageFace("eva_fc1",0,0,2,1)
ShowMessage("\\n<Eva>Whaaat? You want to do things to my mouth...?")
ShowMessageFace("",0,0,2,2)
ShowMessage("\\n<Luka>P-please...")
PictureDisplay(5,"80_eva_st02",0,0,0,0,100,100,255,0)
ShowMessageFace("eva_fc1",1,0,2,3)
ShowMessage("\\n<Eva>Fufu, look at you, asking your ally for something like that.\nAll right, I'll make you feel amazing...")
ShowMessageFace("",0,0,2,4)
ShowMessage("I follow Eva to her room...")
PictureDisplay(1,"bg195",0,0,0,0,100,100,255,0)
PictureDisplay(5,"80_eva_st02",0,0,0,0,100,100,255,0)
222()
241(bytes(0x04,0x08,0x6f,0x3a,0x0d,0x52,0x50,0x47,0x3a,0x3a,0x42,0x47,0x4d,0x08,0x3a,0x0a,0x40,0x6e,0x61,0x6d,0x65,0x49,0x22,0x09,0x65,0x72,0x6f,0x31,0x06,0x3a,0x06,0x45,0x54,0x3a,0x0c,0x40,0x76,0x6f,0x6c,0x75,0x6d,0x65,0x69,0x69,0x3a,0x0b,0x40,0x70,0x69,0x74,0x63,0x68,0x69,0x69))
ShowMessageFace("eva_fc1",1,0,2,5)
ShowMessage("\\n<Eva>All right, I'll give you pleasure...")
245(bytes(0x04,0x08,0x6f,0x3a,0x0d,0x52,0x50,0x47,0x3a,0x3a,0x42,0x47,0x53,0x08,0x3a,0x0a,0x40,0x6e,0x61,0x6d,0x65,0x49,0x22,0x10,0x6d,0x6f,0x6e,0x5f,0x68,0x76,0x6f,0x69,0x63,0x65,0x33,0x06,0x3a,0x06,0x45,0x54,0x3a,0x0c,0x40,0x76,0x6f,0x6c,0x75,0x6d,0x65,0x69,0x55,0x3a,0x0b,0x40,0x70,0x69,0x74,0x63,0x68,0x69,0x69))
PictureDisplay(5,"ev_eva_ct11",0,0,0,0,100,100,0,0)
PictureMove(5,null,0,0,0,0,100,100,255,0,30,true)
ShowMessageFace("",0,0,2,6)
ShowMessage("Eva crouches and puts my penis in her mouth.")
ShowMessage("A warm slimy feeling wraps around my member.")
ShowMessageFace("",0,0,2,7)
ShowMessage("\\n<Luka>Auuu...")
ShowMessageFace("eva_fc1",1,0,2,8)
ShowMessage("\\n<Eva>Fufu, my mouth feels good.\nYou can try to endure it... but it will be impossible.")
ShowMessageFace("",0,0,2,9)
ShowMessage("While giggling, Eva rolls her tongue over my penis inside her mouth.")
ShowMessage("Sometimes she licks my glans, sometimes the back muscle...")
ShowMessageFace("",0,0,2,10)
ShowMessage("\\n<Luka>Ah, aaah...!")
ShowMessageFace("",0,0,2,11)
ShowMessage("Eva's grainy tongue spreads her slimy saliva all over my penis.")
ShowMessage("She's relentlessly teasing my weak points.")
ShowMessageFace("",0,0,2,12)
ShowMessage("Eva starts sucking hard as her tongue crawls over my member.")
ShowMessage("The suction makes my penis touch the inside of her mouth.")
ShowMessageFace("",0,0,2,13)
ShowMessage("\\n<Luka>D-don't... Hnnngh...!")
ShowMessageFace("eva_fc1",1,0,2,14)
ShowMessage("\\n<Eva>What, moaning already...?\nThen I'll make you come.")
ShowMessageFace("",0,0,2,15)
ShowMessage("Suddenly, Eva starts sucking really hard on my penis.")
ShowMessage("The inside of her mouth tightens around my penis and she sucks hard on my glans.")
ShowMessageFace("",0,0,2,16)
ShowMessage("\\n<Luka>Ah, aaaaaah!!")
ShowMessageFace("",0,0,2,17)
ShowMessage("I let out a moan of surprise from the intense stimulation.")
ShowMessage("Eva is trying to force me to come...")
ShowMessageFace("eva_fc1",1,0,2,18)
ShowMessage("\\n<Eva>Hoo~ra go, ahead...\nGive my mouth plenty of your semen...*Shhhhlurp*")
ShowMessageFace("",0,0,2,19)
ShowMessage("\\n<Luka>No... Coming...\nAh, aaaaaah!!")
RunCommonEvent(104)
PictureDisplay(5,"ev_eva_ct12",0,0,0,0,100,100,255,0)
RunCommonEvent(105)
ShowMessageFace("",0,0,2,20)
ShowMessage("With her intense stimulation, I come disappointingly fast.")
ShowMessage("My penis pulsates in her warm mouth and my semen gushes out...")
ShowMessageFace("",0,0,2,21)
ShowMessage("\\n<Luka>Nnngh...")
ShowMessageFace("",0,0,2,22)
ShowMessage("I bathe in the sweet feeling of release as she squeezes out my semen down till the last drop.")
ShowMessage("The inside of Eva's mouth gets coated in my semen...")
ShowMessageFace("eva_fc1",1,0,2,23)
ShowMessage("\\n<Eva>Haha, an instant kill.\nBut I'm not done yet, I'll show you much more pleasure than this...")
ShowMessageFace("",0,0,2,24)
ShowMessage("\\n<Luka>N...no way... Aaaaaah!!")
ShowMessageFace("",0,0,2,25)
ShowMessage("She resumes her merciless sucking right after I'm done ejaculating.")
ShowMessage("Eva resumes her torture and sucks on my glans intensely.")
ShowMessageFace("",0,0,2,26)
ShowMessage("She violently sucks my penis while licking my glans...")
ShowMessage("With no time to rest, she relentlessly assaults me right after I came.")
ShowMessageFace("",0,0,2,27)
ShowMessage("\\n<Luka>Hyaaa...! Th...that...!!\nIntense... Aaaaaah!!")
ShowMessageFace("eva_fc1",1,0,2,28)
ShowMessage("\\n<Eva>Fufu, I won't hold back any longer.\nShoot out your miserable sperm...!")
ShowMessageFace("",0,0,2,29)
ShowMessage("\\n<Luka>Ah, ah, aaaaaah!!")
ShowMessageFace("",0,0,2,30)
ShowMessage("An unforgiving and merciless stimulation.")
ShowMessage("A succubus' serious blowjob, I could never withstand it...")
RunCommonEvent(104)
PictureDisplay(5,"ev_eva_ct13",0,0,0,0,100,100,255,0)
RunCommonEvent(105)
ShowMessageFace("",0,0,2,31)
ShowMessage("\\n<Luka>Aaaaah...")
ShowMessageFace("",0,0,2,32)
ShowMessage("I came easily in Eva's mouth for a second time.")
ShowMessage("However, I have no time to feel defeat and humiliation...")
ShowMessageFace("eva_fc1",1,0,2,33)
ShowMessage("\\n<Eva>I want more...\nCry out in your pathetic voice and shoot out your semen...")
ShowMessageFace("",0,0,2,34)
ShowMessage("\\n<Luka>Ahii, Aaaaaah!!")
ShowMessageFace("",0,0,2,35)
ShowMessage("Another cry escapes my mouth as Eva violently dominates me with her mouth.")
ShowMessage("She keep sucking my penis with her semen stained mouth...")
RunCommonEvent(104)
PictureDisplay(5,"ev_eva_ct14",0,0,0,0,100,100,255,0)
RunCommonEvent(105)
ShowMessageFace("",0,0,2,36)
ShowMessage("Forced to ejaculate yet again, my semen shoots everywhere.")
ShowMessage("Eva's mouth is filled with my cloudy semen...")
246(2)
ShowMessageFace("",0,0,2,37)
ShowMessage("\\n<Luka>Ah, aaah...")
ShowMessageFace("",0,0,2,38)
ShowMessage("Feeling my consciousness fading, I have no energy left to move.")
ShowMessage("Three consecutive ejaculations took a toll on my body.")
ShowMessageFace("eva_fc1",1,0,2,39)
ShowMessage("\\n<Eva>You got weak so fast...\nThat's because you're a premature ejaculator.")
ShowMessageFace("eva_fc1",1,0,2,40)
ShowMessage("\\n<Eva>Your life will be in danger if I went any further.\nI'll stop here for today.")
ShowMessageFace("",0,0,2,41)
ShowMessage("Eva looks down at me with a glint in her eyes.")
ShowMessage("I was completely dominated by a Succubus...")
221()
PictureClear(5)
PictureClear(6)
246(2)
ShowMessageFace("",0,0,2,42)
ShowMessage("......")
242(2)
Wait(120)
241(bytes(0x04,0x08,0x6f,0x3a,0x0d,0x52,0x50,0x47,0x3a,0x3a,0x42,0x47,0x4d,0x08,0x3a,0x0a,0x40,0x6e,0x61,0x6d,0x65,0x49,0x22,0x0c,0x63,0x61,0x73,0x74,0x6c,0x65,0x36,0x06,0x3a,0x06,0x45,0x54,0x3a,0x0c,0x40,0x76,0x6f,0x6c,0x75,0x6d,0x65,0x69,0x69,0x3a,0x0b,0x40,0x70,0x69,0x74,0x63,0x68,0x69,0x69))
0()
