// EVENT 0301
Name "Camp 1"

ChangeVariable(1001,1001,0,0,8)
ChangeSwitch(100,100,0)
ChangeVariable(53,53,0,3,5,-1,0)
ChangeVariable(54,54,0,3,5,-1,1)
223(bytes(0x04,0x08,0x75,0x3a,0x09,0x54,0x6f,0x6e,0x65,0x25,0x00,0x00,0x00,0x00,0x00,0x00,0x51,0x40,0x00,0x00,0x00,0x00,0x00,0x00,0x41,0xc0,0x00,0x00,0x00,0x00,0x00,0x00,0x41,0xc0,0x00,0x00,0x00,0x00,0x00,0x00,0x00,0x00),60,true)
ShowMessageFace("ruka_fc1",0,0,2,1)
ShowMessage("\\n<Luka>It's starting to get dark, perhaps we'd better\nstop and make camp.")
If(0,6,0)
 ShowMessageFace("sonia_fc1",0,0,2,2)
 ShowMessage("\\n<Sonya>Okay, I'll put up the tent.\nLuka, please handle the cooking.")
 0()
EndIf()
If(0,4,0)
 ShowMessageFace("alice_fc5",1,0,2,3)
 ShowMessage("\\n<Alice>I'll be in charge of eating then.\nHehehe, I'm looking forward to dinner.")
 0()
EndIf()
If(0,5,0)
 ShowMessageFace("iriasu_fc4",0,0,2,4)
 ShowMessage("\\n<Ilias>All right everyone, snap to it.\nWhat's for dinner, by the way?")
 0()
EndIf()
ShowMessageFace("ruka_fc1",0,0,2,5)
ShowMessage("\\n<Luka>She's not going to help, I see...")
221()
216(1)
TeleportPlayer(0,406,8,7,8,2)
223(bytes(0x04,0x08,0x75,0x3a,0x09,0x54,0x6f,0x6e,0x65,0x25,0x00,0x00,0x00,0x00,0x00,0x00,0x51,0xc0,0x00,0x00,0x00,0x00,0x00,0x00,0x51,0xc0,0x00,0x00,0x00,0x00,0x00,0x00,0x00,0x00,0x00,0x00,0x00,0x00,0x00,0x00,0x51,0x40),1,true)
Wait(120)
222()
ShowMessageFace("ruka_fc1",0,0,2,6)
ShowMessage("\\n<Luka>Whew, I'm stuffed!")
If(0,4,0)
 ShowMessageFace("alice_fc5",1,0,2,7)
 ShowMessage("\\n<Alice>As expected from the son of an innkeeper, your\ncooking is delicious. It appears I made the right\ndecision to take you along.")
 0()
EndIf()
If(0,5,0)
 ShowMessageFace("iriasu_fc4",0,0,2,8)
 ShowMessage("\\n<Ilias>Just as good as I'd expect from someone who\nlearned to cook from Lucifina. That really hit\nthe spot.")
 0()
EndIf()
ShowMessageFace("ruka_fc1",0,0,2,9)
ShowMessage("\\n<Luka>Stop, you're making me blush...")
ShowMessageFace("",0,0,2,10)
ShowMessage("Hmm, it's still a bit early to go to bed.")
ShowMessage("Perhaps I should kill time before retiring...")
EndEventProcessing()
0()
