﻿// EVENT 0822
Name "秘石"

ChangeVariable(13,13,0,2,1,5)
If(1,13,0,1,0)
 JumpToLabel("基礎能力")
 0()
EndIf()
If(1,13,0,2,0)
 JumpToLabel("特殊能力")
 0()
EndIf()
If(1,13,0,3,0)
 JumpToLabel("通常攻撃")
 0()
EndIf()
If(1,13,0,4,0)
 JumpToLabel("状態異常付加")
 0()
EndIf()
If(1,13,0,5,0)
 JumpToLabel("耐性")
 0()
EndIf()
DefineLabel("基礎能力")
ChangeVariable(11,11,0,2,1,9)
If(1,11,0,1,0)
 ChangeInventory_Item(2101,0,0,1)
 EndEventProcessing()
 0()
EndIf()
If(1,11,0,2,0)
 ChangeInventory_Item(2833,0,0,1)
 EndEventProcessing()
 0()
EndIf()
If(1,11,0,3,0)
 ChangeInventory_Item(2489,0,0,1)
 EndEventProcessing()
 0()
EndIf()
If(1,11,0,4,0)
 ChangeInventory_Item(2111,0,0,1)
 EndEventProcessing()
 0()
EndIf()
If(1,11,0,5,0)
 ChangeInventory_Item(2499,0,0,1)
 EndEventProcessing()
 0()
EndIf()
If(1,11,0,6,0)
 ChangeInventory_Item(2843,0,0,1)
 EndEventProcessing()
 0()
EndIf()
If(1,11,0,7,0)
 ChangeInventory_Item(3057,0,0,1)
 EndEventProcessing()
 0()
EndIf()
If(1,11,0,8,0)
 ChangeInventory_Item(3067,0,0,1)
 EndEventProcessing()
 0()
EndIf()
If(1,11,0,9,0)
 ChangeInventory_Item(2509,0,0,1)
 EndEventProcessing()
 0()
EndIf()
DefineLabel("特殊能力")
ChangeVariable(11,11,0,2,1,28)
If(1,11,0,1,0)
 ChangeInventory_Item(2121,0,0,1)
 EndEventProcessing()
 0()
EndIf()
If(1,11,0,2,0)
 ChangeInventory_Item(2126,0,0,1)
 EndEventProcessing()
 0()
EndIf()
If(1,11,0,3,0)
 ChangeInventory_Item(2131,0,0,1)
 EndEventProcessing()
 0()
EndIf()
If(1,11,0,4,0)
 ChangeInventory_Item(2136,0,0,1)
 EndEventProcessing()
 0()
EndIf()
If(1,11,0,5,0)
 ChangeInventory_Item(2141,0,0,1)
 EndEventProcessing()
 0()
EndIf()
If(1,11,0,6,0)
 ChangeInventory_Item(2147,0,0,1)
 EndEventProcessing()
 0()
EndIf()
If(1,11,0,7,0)
 ChangeInventory_Item(2151,0,0,1)
 EndEventProcessing()
 0()
EndIf()
If(1,11,0,8,0)
 ChangeInventory_Item(2155,0,0,1)
 EndEventProcessing()
 0()
EndIf()
If(1,11,0,9,0)
 ChangeInventory_Item(3077,0,0,1)
 EndEventProcessing()
 0()
EndIf()
If(1,11,0,10,0)
 ChangeInventory_Item(3083,0,0,1)
 EndEventProcessing()
 0()
EndIf()
If(1,11,0,11,0)
 ChangeInventory_Item(3095,0,0,1)
 EndEventProcessing()
 0()
EndIf()
If(1,11,0,12,0)
 ChangeInventory_Item(3098,0,0,1)
 EndEventProcessing()
 0()
EndIf()
If(1,11,0,13,0)
 ChangeInventory_Item(3104,0,0,1)
 EndEventProcessing()
 0()
EndIf()
If(1,11,0,14,0)
 ChangeInventory_Item(3106,0,0,1)
 EndEventProcessing()
 0()
EndIf()
If(1,11,0,15,0)
 ChangeInventory_Item(3111,0,0,1)
 EndEventProcessing()
 0()
EndIf()
If(1,11,0,16,0)
 ChangeInventory_Item(3112,0,0,1)
 EndEventProcessing()
 0()
EndIf()
If(1,11,0,17,0)
 ChangeInventory_Item(3115,0,0,1)
 EndEventProcessing()
 0()
EndIf()
If(1,11,0,18,0)
 ChangeInventory_Item(3125,0,0,1)
 EndEventProcessing()
 0()
EndIf()
If(1,11,0,19,0)
 ChangeInventory_Item(3349,0,0,1)
 EndEventProcessing()
 0()
EndIf()
If(1,11,0,20,0)
 ChangeInventory_Item(3355,0,0,1)
 EndEventProcessing()
 0()
EndIf()
If(1,11,0,21,0)
 ChangeInventory_Item(3360,0,0,1)
 EndEventProcessing()
 0()
EndIf()
If(1,11,0,22,0)
 ChangeInventory_Item(3363,0,0,1)
 EndEventProcessing()
 0()
EndIf()
If(1,11,0,23,0)
 ChangeInventory_Item(3373,0,0,1)
 EndEventProcessing()
 0()
EndIf()
If(1,11,0,24,0)
 ChangeInventory_Item(3374,0,0,1)
 EndEventProcessing()
 0()
EndIf()
If(1,11,0,25,0)
 ChangeInventory_Item(3442,0,0,1)
 EndEventProcessing()
 0()
EndIf()
If(1,11,0,26,0)
 ChangeInventory_Item(2524,0,0,1)
 EndEventProcessing()
 0()
EndIf()
If(1,11,0,27,0)
 ChangeInventory_Item(2525,0,0,1)
 EndEventProcessing()
 0()
EndIf()
If(1,11,0,28,0)
 ChangeInventory_Item(2526,0,0,1)
 EndEventProcessing()
 0()
EndIf()
DefineLabel("通常攻撃")
ChangeVariable(11,11,0,2,1,46)
If(1,11,0,1,0)
 ChangeInventory_Item(2189,0,0,1)
 EndEventProcessing()
 0()
EndIf()
If(1,11,0,2,0)
 ChangeInventory_Item(2193,0,0,1)
 EndEventProcessing()
 0()
EndIf()
If(1,11,0,3,0)
 ChangeInventory_Item(2197,0,0,1)
 EndEventProcessing()
 0()
EndIf()
If(1,11,0,4,0)
 ChangeInventory_Item(2201,0,0,1)
 EndEventProcessing()
 0()
EndIf()
If(1,11,0,5,0)
 ChangeInventory_Item(2205,0,0,1)
 EndEventProcessing()
 0()
EndIf()
If(1,11,0,6,0)
 ChangeInventory_Item(2209,0,0,1)
 EndEventProcessing()
 0()
EndIf()
If(1,11,0,7,0)
 ChangeInventory_Item(2213,0,0,1)
 EndEventProcessing()
 0()
EndIf()
If(1,11,0,8,0)
 ChangeInventory_Item(2217,0,0,1)
 EndEventProcessing()
 0()
EndIf()
If(1,11,0,9,0)
 ChangeInventory_Item(2221,0,0,1)
 EndEventProcessing()
 0()
EndIf()
If(1,11,0,10,0)
 ChangeInventory_Item(2225,0,0,1)
 EndEventProcessing()
 0()
EndIf()
If(1,11,0,11,0)
 ChangeInventory_Item(2229,0,0,1)
 EndEventProcessing()
 0()
EndIf()
If(1,11,0,12,0)
 ChangeInventory_Item(2233,0,0,1)
 EndEventProcessing()
 0()
EndIf()
If(1,11,0,13,0)
 ChangeInventory_Item(2237,0,0,1)
 EndEventProcessing()
 0()
EndIf()
If(1,11,0,14,0)
 ChangeInventory_Item(2241,0,0,1)
 EndEventProcessing()
 0()
EndIf()
If(1,11,0,15,0)
 ChangeInventory_Item(2245,0,0,1)
 EndEventProcessing()
 0()
EndIf()
If(1,11,0,16,0)
 ChangeInventory_Item(2249,0,0,1)
 EndEventProcessing()
 0()
EndIf()
If(1,11,0,17,0)
 ChangeInventory_Item(2253,0,0,1)
 EndEventProcessing()
 0()
EndIf()
If(1,11,0,18,0)
 ChangeInventory_Item(2257,0,0,1)
 EndEventProcessing()
 0()
EndIf()
If(1,11,0,19,0)
 ChangeInventory_Item(2261,0,0,1)
 EndEventProcessing()
 0()
EndIf()
If(1,11,0,20,0)
 ChangeInventory_Item(2265,0,0,1)
 EndEventProcessing()
 0()
EndIf()
If(1,11,0,21,0)
 ChangeInventory_Item(2269,0,0,1)
 EndEventProcessing()
 0()
EndIf()
If(1,11,0,22,0)
 ChangeInventory_Item(2273,0,0,1)
 EndEventProcessing()
 0()
EndIf()
If(1,11,0,23,0)
 ChangeInventory_Item(2277,0,0,1)
 EndEventProcessing()
 0()
EndIf()
If(1,11,0,24,0)
 ChangeInventory_Item(2281,0,0,1)
 EndEventProcessing()
 0()
EndIf()
If(1,11,0,25,0)
 ChangeInventory_Item(2285,0,0,1)
 EndEventProcessing()
 0()
EndIf()
If(1,11,0,26,0)
 ChangeInventory_Item(2289,0,0,1)
 EndEventProcessing()
 0()
EndIf()
If(1,11,0,27,0)
 ChangeInventory_Item(2290,0,0,1)
 EndEventProcessing()
 0()
EndIf()
If(1,11,0,28,0)
 ChangeInventory_Item(2291,0,0,1)
 EndEventProcessing()
 0()
EndIf()
If(1,11,0,29,0)
 ChangeInventory_Item(2292,0,0,1)
 EndEventProcessing()
 0()
EndIf()
If(1,11,0,30,0)
 ChangeInventory_Item(2293,0,0,1)
 EndEventProcessing()
 0()
EndIf()
If(1,11,0,31,0)
 ChangeInventory_Item(2294,0,0,1)
 EndEventProcessing()
 0()
EndIf()
If(1,11,0,32,0)
 ChangeInventory_Item(2295,0,0,1)
 EndEventProcessing()
 0()
EndIf()
If(1,11,0,33,0)
 ChangeInventory_Item(2296,0,0,1)
 EndEventProcessing()
 0()
EndIf()
If(1,11,0,34,0)
 ChangeInventory_Item(2297,0,0,1)
 EndEventProcessing()
 0()
EndIf()
If(1,11,0,35,0)
 ChangeInventory_Item(2298,0,0,1)
 EndEventProcessing()
 0()
EndIf()
If(1,11,0,36,0)
 ChangeInventory_Item(2299,0,0,1)
 EndEventProcessing()
 0()
EndIf()
If(1,11,0,37,0)
 ChangeInventory_Item(2159,0,0,1)
 EndEventProcessing()
 0()
EndIf()
If(1,11,0,38,0)
 ChangeInventory_Item(2168,0,0,1)
 EndEventProcessing()
 0()
EndIf()
If(1,11,0,39,0)
 ChangeInventory_Item(2169,0,0,1)
 EndEventProcessing()
 0()
EndIf()
If(1,11,0,40,0)
 ChangeInventory_Item(2170,0,0,1)
 EndEventProcessing()
 0()
EndIf()
If(1,11,0,41,0)
 ChangeInventory_Item(2171,0,0,1)
 EndEventProcessing()
 0()
EndIf()
If(1,11,0,42,0)
 ChangeInventory_Item(2172,0,0,1)
 EndEventProcessing()
 0()
EndIf()
If(1,11,0,43,0)
 ChangeInventory_Item(2173,0,0,1)
 EndEventProcessing()
 0()
EndIf()
If(1,11,0,44,0)
 ChangeInventory_Item(2174,0,0,1)
 EndEventProcessing()
 0()
EndIf()
If(1,11,0,45,0)
 ChangeInventory_Item(2175,0,0,1)
 EndEventProcessing()
 0()
EndIf()
If(1,11,0,46,0)
 ChangeInventory_Item(2523,0,0,1)
 EndEventProcessing()
 0()
EndIf()
DefineLabel("状態異常付加")
ChangeVariable(11,11,0,2,1,24)
If(1,11,0,1,0)
 ChangeInventory_Item(2527,0,0,1)
 EndEventProcessing()
 0()
EndIf()
If(1,11,0,2,0)
 ChangeInventory_Item(2532,0,0,1)
 EndEventProcessing()
 0()
EndIf()
If(1,11,0,3,0)
 ChangeInventory_Item(2537,0,0,1)
 EndEventProcessing()
 0()
EndIf()
If(1,11,0,4,0)
 ChangeInventory_Item(2542,0,0,1)
 EndEventProcessing()
 0()
EndIf()
If(1,11,0,5,0)
 ChangeInventory_Item(2547,0,0,1)
 EndEventProcessing()
 0()
EndIf()
If(1,11,0,6,0)
 ChangeInventory_Item(2552,0,0,1)
 EndEventProcessing()
 0()
EndIf()
If(1,11,0,7,0)
 ChangeInventory_Item(2557,0,0,1)
 EndEventProcessing()
 0()
EndIf()
If(1,11,0,8,0)
 ChangeInventory_Item(2562,0,0,1)
 EndEventProcessing()
 0()
EndIf()
If(1,11,0,9,0)
 ChangeInventory_Item(2567,0,0,1)
 EndEventProcessing()
 0()
EndIf()
If(1,11,0,10,0)
 ChangeInventory_Item(2572,0,0,1)
 EndEventProcessing()
 0()
EndIf()
If(1,11,0,11,0)
 ChangeInventory_Item(2577,0,0,1)
 EndEventProcessing()
 0()
EndIf()
If(1,11,0,12,0)
 ChangeInventory_Item(2582,0,0,1)
 EndEventProcessing()
 0()
EndIf()
If(1,11,0,13,0)
 ChangeInventory_Item(2587,0,0,1)
 EndEventProcessing()
 0()
EndIf()
If(1,11,0,14,0)
 ChangeInventory_Item(2592,0,0,1)
 EndEventProcessing()
 0()
EndIf()
If(1,11,0,15,0)
 ChangeInventory_Item(2597,0,0,1)
 EndEventProcessing()
 0()
EndIf()
If(1,11,0,16,0)
 ChangeInventory_Item(2602,0,0,1)
 EndEventProcessing()
 0()
EndIf()
If(1,11,0,17,0)
 ChangeInventory_Item(2607,0,0,1)
 EndEventProcessing()
 0()
EndIf()
If(1,11,0,18,0)
 ChangeInventory_Item(2612,0,0,1)
 EndEventProcessing()
 0()
EndIf()
If(1,11,0,19,0)
 ChangeInventory_Item(2617,0,0,1)
 EndEventProcessing()
 0()
EndIf()
If(1,11,0,20,0)
 ChangeInventory_Item(2622,0,0,1)
 EndEventProcessing()
 0()
EndIf()
If(1,11,0,21,0)
 ChangeInventory_Item(2627,0,0,1)
 EndEventProcessing()
 0()
EndIf()
If(1,11,0,22,0)
 ChangeInventory_Item(2632,0,0,1)
 EndEventProcessing()
 0()
EndIf()
If(1,11,0,23,0)
 ChangeInventory_Item(2637,0,0,1)
 EndEventProcessing()
 0()
EndIf()
If(1,11,0,24,0)
 ChangeInventory_Item(2642,0,0,1)
 EndEventProcessing()
 0()
EndIf()
DefineLabel("耐性")
ChangeVariable(11,11,0,2,1,34)
If(1,11,0,1,0)
 ChangeInventory_Item(3141,0,0,1)
 EndEventProcessing()
 0()
EndIf()
If(1,11,0,2,0)
 ChangeInventory_Item(3147,0,0,1)
 EndEventProcessing()
 0()
EndIf()
If(1,11,0,3,0)
 ChangeInventory_Item(3153,0,0,1)
 EndEventProcessing()
 0()
EndIf()
If(1,11,0,4,0)
 ChangeInventory_Item(3159,0,0,1)
 EndEventProcessing()
 0()
EndIf()
If(1,11,0,5,0)
 ChangeInventory_Item(3165,0,0,1)
 EndEventProcessing()
 0()
EndIf()
If(1,11,0,6,0)
 ChangeInventory_Item(3171,0,0,1)
 EndEventProcessing()
 0()
EndIf()
If(1,11,0,7,0)
 ChangeInventory_Item(3189,0,0,1)
 EndEventProcessing()
 0()
EndIf()
If(1,11,0,8,0)
 ChangeInventory_Item(3195,0,0,1)
 EndEventProcessing()
 0()
EndIf()
If(1,11,0,9,0)
 ChangeInventory_Item(3219,0,0,1)
 EndEventProcessing()
 0()
EndIf()
If(1,11,0,10,0)
 ChangeInventory_Item(3221,0,0,1)
 EndEventProcessing()
 0()
EndIf()
If(1,11,0,11,0)
 ChangeInventory_Item(3223,0,0,1)
 EndEventProcessing()
 0()
EndIf()
If(1,11,0,12,0)
 ChangeInventory_Item(3225,0,0,1)
 EndEventProcessing()
 0()
EndIf()
If(1,11,0,13,0)
 ChangeInventory_Item(3228,0,0,1)
 EndEventProcessing()
 0()
EndIf()
If(1,11,0,14,0)
 ChangeInventory_Item(3230,0,0,1)
 EndEventProcessing()
 0()
EndIf()
If(1,11,0,15,0)
 ChangeInventory_Item(3232,0,0,1)
 EndEventProcessing()
 0()
EndIf()
If(1,11,0,16,0)
 ChangeInventory_Item(3234,0,0,1)
 EndEventProcessing()
 0()
EndIf()
If(1,11,0,17,0)
 ChangeInventory_Item(3236,0,0,1)
 EndEventProcessing()
 0()
EndIf()
If(1,11,0,18,0)
 ChangeInventory_Item(3238,0,0,1)
 EndEventProcessing()
 0()
EndIf()
If(1,11,0,19,0)
 ChangeInventory_Item(3240,0,0,1)
 EndEventProcessing()
 0()
EndIf()
If(1,11,0,20,0)
 ChangeInventory_Item(3242,0,0,1)
 EndEventProcessing()
 0()
EndIf()
If(1,11,0,21,0)
 ChangeInventory_Item(3244,0,0,1)
 EndEventProcessing()
 0()
EndIf()
If(1,11,0,22,0)
 ChangeInventory_Item(3246,0,0,1)
 EndEventProcessing()
 0()
EndIf()
If(1,11,0,23,0)
 ChangeInventory_Item(3248,0,0,1)
 EndEventProcessing()
 0()
EndIf()
If(1,11,0,24,0)
 ChangeInventory_Item(3250,0,0,1)
 EndEventProcessing()
 0()
EndIf()
If(1,11,0,25,0)
 ChangeInventory_Item(3252,0,0,1)
 EndEventProcessing()
 0()
EndIf()
If(1,11,0,26,0)
 ChangeInventory_Item(3254,0,0,1)
 EndEventProcessing()
 0()
EndIf()
If(1,11,0,27,0)
 ChangeInventory_Item(3256,0,0,1)
 EndEventProcessing()
 0()
EndIf()
If(1,11,0,28,0)
 ChangeInventory_Item(3258,0,0,1)
 EndEventProcessing()
 0()
EndIf()
If(1,11,0,29,0)
 ChangeInventory_Item(3260,0,0,1)
 EndEventProcessing()
 0()
EndIf()
If(1,11,0,30,0)
 ChangeInventory_Item(3262,0,0,1)
 EndEventProcessing()
 0()
EndIf()
If(1,11,0,31,0)
 ChangeInventory_Item(3264,0,0,1)
 EndEventProcessing()
 0()
EndIf()
If(1,11,0,32,0)
 ChangeInventory_Item(3266,0,0,1)
 EndEventProcessing()
 0()
EndIf()
If(1,11,0,33,0)
 ChangeInventory_Item(3268,0,0,1)
 EndEventProcessing()
 0()
EndIf()
If(1,11,0,34,0)
 ChangeInventory_Item(3270,0,0,1)
 EndEventProcessing()
 0()
EndIf()
0()
