// EVENT 2001
Name "Seduction: Slime Girl"

If(0,25,1)
 EndEventProcessing()
 0()
EndIf()
355("$game_troop.lose_event_id = 3001")
ChangeVariable(26,26,0,3,3,1,4)
ChangeVariable(26,26,4,0,10)
ShowMessageFace("slime_fc1",2,0,2,1)
ShowMessage("\\n<Slime Girl>Wawawa, I'm losing...")
ShowMessageFace("slime_fc1",1,0,2,2)
ShowMessage("\\n<Slime Girl>Hey, I'll squish my slime all over your penis if you'll spare me...")
ChangeSwitch(98,98,0)
ChangeSwitch(96,96,0)
ShowChoices(strings("Ignore her","Slime me up"),1)
IfPlayerPicksChoice(0,"Ignore her")
 ShowMessageFace("",0,0,2,3)
 ShowMessage("Luka resists her temptation!")
 RunCommonEvent(1999)
 EndEventProcessing()
 0()
IfPlayerPicksChoice(1,"Slime me up")
 0()
404()
ShowMessageFace("slime_fc1",1,0,2,4)
ShowMessage("\\n<Slime Girl>Hehe...\nYou want my slime on your penis?")
ShowMessageFace("slime_fc1",1,0,2,5)
ShowMessage("\\n<Slime Girl>OK... Have a good taste of it. ♪")
355("display_skill_name(\"Slime Draw\")")
250(bytes(0x04,0x08,0x6f,0x3a,0x0c,0x52,0x50,0x47,0x3a,0x3a,0x53,0x45,0x08,0x3a,0x0a,0x40,0x6e,0x61,0x6d,0x65,0x49,0x22,0x13,0x6d,0x6f,0x6e,0x5f,0x65,0x72,0x6f,0x5f,0x73,0x6c,0x69,0x6d,0x65,0x31,0x06,0x3a,0x06,0x45,0x54,0x3a,0x0b,0x40,0x70,0x69,0x74,0x63,0x68,0x69,0x69,0x3a,0x0c,0x40,0x76,0x6f,0x6c,0x75,0x6d,0x65,0x69,0x69))
311(0,1,1,1,26,true)
ShowMessageFace("",0,0,2,6)
ShowMessage("The slime coils around Luka's nether region!")
ShowMessage("It wriggles and squeezes his penis sloppily!\\D")
ShowMessage("Luka takes \\V[26] damage!")
ChangeVariable(27,27,0,3,3,1,2)
If(1,27,0,0,0)
 JumpToLabel("射精1")
 0()
EndIf()
355("clear_skill_name")
ShowMessageFace("slime_fc1",1,0,2,7)
ShowMessage("\\n<Slime Girl>I'll squish you like this...\nPew pew whenever you want, okay? ♪")
355("display_skill_name(\"Slime Draw\")")
250(bytes(0x04,0x08,0x6f,0x3a,0x0c,0x52,0x50,0x47,0x3a,0x3a,0x53,0x45,0x08,0x3a,0x0a,0x40,0x6e,0x61,0x6d,0x65,0x49,0x22,0x13,0x6d,0x6f,0x6e,0x5f,0x65,0x72,0x6f,0x5f,0x73,0x6c,0x69,0x6d,0x65,0x31,0x06,0x3a,0x06,0x45,0x54,0x3a,0x0b,0x40,0x70,0x69,0x74,0x63,0x68,0x69,0x69,0x3a,0x0c,0x40,0x76,0x6f,0x6c,0x75,0x6d,0x65,0x69,0x69))
311(0,1,1,1,26,true)
ShowMessageFace("",0,0,2,8)
ShowMessage("The slime crawls over his penis while entwined!\\D")
ShowMessage("Luka takes \\V[26] damage!")
ChangeVariable(27,27,0,3,3,1,2)
If(1,27,0,0,0)
 JumpToLabel("射精1")
 0()
EndIf()
355("clear_skill_name")
ShowMessageFace("slime_fc1",1,0,2,9)
ShowMessage("\\n<Slime Girl>Ahaha, does your penis feel good?")
355("display_skill_name(\"Slime Draw\")")
250(bytes(0x04,0x08,0x6f,0x3a,0x0c,0x52,0x50,0x47,0x3a,0x3a,0x53,0x45,0x08,0x3a,0x0a,0x40,0x6e,0x61,0x6d,0x65,0x49,0x22,0x13,0x6d,0x6f,0x6e,0x5f,0x65,0x72,0x6f,0x5f,0x73,0x6c,0x69,0x6d,0x65,0x31,0x06,0x3a,0x06,0x45,0x54,0x3a,0x0b,0x40,0x70,0x69,0x74,0x63,0x68,0x69,0x69,0x3a,0x0c,0x40,0x76,0x6f,0x6c,0x75,0x6d,0x65,0x69,0x69))
311(0,1,1,1,26,true)
ShowMessageFace("",0,0,2,10)
ShowMessage("His springy member is pressed from every direction!\\D")
ShowMessage("Luka takes \\V[26] damage!")
ChangeVariable(27,27,0,3,3,1,2)
If(1,27,0,0,0)
 JumpToLabel("射精1")
 0()
EndIf()
355("clear_skill_name")
ShowMessageFace("slime_fc1",1,0,2,11)
ShowMessage("\\n<Slime Girl>Hey, do you want something even better?\nIf I do this, you'll come for sure. ♪")
ShowChoices(strings("Resist the temptation","Surrender"),1)
IfPlayerPicksChoice(0,"Resist the temptation")
 ShowMessageFace("",0,0,2,12)
 ShowMessage("Luka resists her temptation!")
 RunCommonEvent(1999)
 EndEventProcessing()
 0()
IfPlayerPicksChoice(1,"Surrender")
 ShowMessageFace("",0,0,2,13)
 ShowMessage("Luka surrenders to his opponent...")
 0()
404()
ChangeVariable(26,26,3,0,2)
ShowMessageFace("slime_fc1",1,0,2,14)
ShowMessage("\\n<Slime Girl>Ehehe... Are you excited?\nIt's really good, so prepare yourself...♪")
250(bytes(0x04,0x08,0x6f,0x3a,0x0c,0x52,0x50,0x47,0x3a,0x3a,0x53,0x45,0x08,0x3a,0x0a,0x40,0x6e,0x61,0x6d,0x65,0x49,0x22,0x13,0x6d,0x6f,0x6e,0x5f,0x65,0x72,0x6f,0x5f,0x73,0x6c,0x69,0x6d,0x65,0x33,0x06,0x3a,0x06,0x45,0x54,0x3a,0x0b,0x40,0x70,0x69,0x74,0x63,0x68,0x69,0x69,0x3a,0x0c,0x40,0x76,0x6f,0x6c,0x75,0x6d,0x65,0x69,0x69))
355("battler_graphic_hide")
PictureDisplay(5,"ev_slime_h1",0,0,0,0,100,100,255,0)
ShowMessageFace("",0,0,2,15)
ShowMessage("The Slime Girl envelops Luka in one fluid motion!")
ShowMessage("Luka's entire body is wrapped up inside the Slime Girl!")
ShowMessage("Luka is bound by the Slime Girl!")
ShowMessageFace("slime_fc1",1,0,2,16)
ShowMessage("\\n<Slime Girl>Ehehe... How is it?\nYou can't resist anymore. ♪")
ShowMessageFace("slime_fc1",1,0,2,17)
ShowMessage("\\n<Slime Girl>I'll slime your whole body and collect all your semen...♪")
355("display_skill_name(\"Slime Heaven\")")
250(bytes(0x04,0x08,0x6f,0x3a,0x0c,0x52,0x50,0x47,0x3a,0x3a,0x53,0x45,0x08,0x3a,0x0a,0x40,0x6e,0x61,0x6d,0x65,0x49,0x22,0x13,0x6d,0x6f,0x6e,0x5f,0x65,0x72,0x6f,0x5f,0x73,0x6c,0x69,0x6d,0x65,0x33,0x06,0x3a,0x06,0x45,0x54,0x3a,0x0b,0x40,0x70,0x69,0x74,0x63,0x68,0x69,0x69,0x3a,0x0c,0x40,0x76,0x6f,0x6c,0x75,0x6d,0x65,0x69,0x69))
311(0,1,1,1,26,true)
ShowMessageFace("",0,0,2,18)
ShowMessage("The slime flows and sucks on Luka's whole body!")
ShowMessage("His penis is gently stimulated with slime!\\D")
ShowMessage("Luka takes \\V[26] damage!")
ChangeVariable(27,27,0,3,3,1,2)
If(1,27,0,0,0)
 JumpToLabel("射精2")
 0()
EndIf()
355("clear_skill_name")
ShowMessageFace("slime_fc1",1,0,2,19)
ShowMessage("\\n<Slime Girl>Ehehe... So? You're in heaven, right?\nYou're so lucky to experience such a nice feeling...♪")
355("display_skill_name(\"Slime Heaven\")")
250(bytes(0x04,0x08,0x6f,0x3a,0x0c,0x52,0x50,0x47,0x3a,0x3a,0x53,0x45,0x08,0x3a,0x0a,0x40,0x6e,0x61,0x6d,0x65,0x49,0x22,0x13,0x6d,0x6f,0x6e,0x5f,0x65,0x72,0x6f,0x5f,0x73,0x6c,0x69,0x6d,0x65,0x33,0x06,0x3a,0x06,0x45,0x54,0x3a,0x0b,0x40,0x70,0x69,0x74,0x63,0x68,0x69,0x69,0x3a,0x0c,0x40,0x76,0x6f,0x6c,0x75,0x6d,0x65,0x69,0x69))
311(0,1,1,1,26,true)
ShowMessageFace("",0,0,2,20)
ShowMessage("The slime caresses Luka's body!")
ShowMessage("The slime wriggles and tightens around his penis!\\D")
ShowMessage("Luka takes \\V[26] damage!")
ChangeVariable(27,27,0,3,3,1,2)
If(1,27,0,0,0)
 JumpToLabel("射精2")
 0()
EndIf()
355("clear_skill_name")
ShowMessageFace("slime_fc1",1,0,2,21)
ShowMessage("\\n<Slime Girl>How does it feel to slowly lose your strength while being unable to resist me? Are you frustrated? Or delighted?")
355("display_skill_name(\"Slime Heaven\")")
250(bytes(0x04,0x08,0x6f,0x3a,0x0c,0x52,0x50,0x47,0x3a,0x3a,0x53,0x45,0x08,0x3a,0x0a,0x40,0x6e,0x61,0x6d,0x65,0x49,0x22,0x13,0x6d,0x6f,0x6e,0x5f,0x65,0x72,0x6f,0x5f,0x73,0x6c,0x69,0x6d,0x65,0x33,0x06,0x3a,0x06,0x45,0x54,0x3a,0x0b,0x40,0x70,0x69,0x74,0x63,0x68,0x69,0x69,0x3a,0x0c,0x40,0x76,0x6f,0x6c,0x75,0x6d,0x65,0x69,0x69))
311(0,1,1,1,26,true)
ShowMessageFace("",0,0,2,22)
ShowMessage("The sticky slime crawls over Luka's body!")
ShowMessage("It grants his penis a comfortable squirming!\\D")
ShowMessage("Luka takes \\V[26] damage!")
ChangeVariable(27,27,0,3,3,1,2)
If(1,27,0,0,0)
 JumpToLabel("射精2")
 0()
EndIf()
355("clear_skill_name")
ShowMessageFace("slime_fc1",1,0,2,23)
ShowMessage("\\n<Slime Girl>Hehe... at your limit already? You're so sensitive. If I stimulate you once more, you'll come...")
ShowMessageFace("slime_fc1",1,0,2,24)
ShowMessage("\\n<Slime Girl>Are you ready? Then, I'll finish you.\nFeel goooood, and coooome♪")
355("display_skill_name(\"Slime Heaven\")")
250(bytes(0x04,0x08,0x6f,0x3a,0x0c,0x52,0x50,0x47,0x3a,0x3a,0x53,0x45,0x08,0x3a,0x0a,0x40,0x6e,0x61,0x6d,0x65,0x49,0x22,0x13,0x6d,0x6f,0x6e,0x5f,0x65,0x72,0x6f,0x5f,0x73,0x6c,0x69,0x6d,0x65,0x33,0x06,0x3a,0x06,0x45,0x54,0x3a,0x0b,0x40,0x70,0x69,0x74,0x63,0x68,0x69,0x69,0x3a,0x0c,0x40,0x76,0x6f,0x6c,0x75,0x6d,0x65,0x69,0x69))
311(0,1,1,1,26,true)
ShowMessageFace("",0,0,2,25)
ShowMessage("The slime plays with Luka's penis, not giving him a second of rest!")
ShowMessage("While slurping and crawling, it presses and gradually tightens!\\D")
ShowMessage("Luka takes \\V[26] damage!")
ChangeVariable(27,27,0,3,3,1,2)
If(1,27,0,0,0)
 JumpToLabel("射精2")
 0()
EndIf()
DefineLabel("射精1")
355("clear_skill_name")
ShowMessageFace("",0,0,2,26)
ShowMessage("\\n<Luka>Ahhh... I'm coming...")
RunCommonEvent(104)
RunCommonEvent(105)
ShowMessageFace("",0,0,2,27)
ShowMessage("Luka's thick semen gushed out in the slime!")
ShowMessageFace("slime_fc1",1,0,2,28)
ShowMessage("\\n<Slime Girl>You didn't last very long.\nWas it that good?")
RunCommonEvent(2000)
EndEventProcessing()
DefineLabel("射精2")
355("clear_skill_name")
ShowMessageFace("",0,0,2,29)
ShowMessage("\\n<Luka>Ahhh... I'm coming...")
RunCommonEvent(104)
PictureDisplay(5,"ev_slime_h2",0,0,0,0,100,100,255,0)
RunCommonEvent(105)
ShowMessageFace("",0,0,2,30)
ShowMessage("Luka's thick semen gushed out in the slime!")
ShowMessageFace("slime_fc1",1,0,2,31)
ShowMessage("\\n<Slime Girl>Ahaha, you came so much.\nDid it feel like Heaven?")
RunCommonEvent(2000)
EndEventProcessing()
0()
