﻿// EVENT 3107
Name "Nefertiti Lamias"

If(0,25,1)
 JumpToLabel("反省会")
 0()
EndIf()
PictureDisplay(5,"80_lamias_st03",0,0,0,0,100,100,0,0)
PictureMove(5,null,0,0,0,0,100,100,255,0,30,true)
241(bytes(0x04,0x08,0x6f,0x3a,0x0d,0x52,0x50,0x47,0x3a,0x3a,0x42,0x47,0x4d,0x08,0x3a,0x0a,0x40,0x6e,0x61,0x6d,0x65,0x49,0x22,0x09,0x65,0x72,0x6f,0x31,0x06,0x3a,0x06,0x45,0x54,0x3a,0x0c,0x40,0x76,0x6f,0x6c,0x75,0x6d,0x65,0x69,0x69,0x3a,0x0b,0x40,0x70,0x69,0x74,0x63,0x68,0x69,0x69))
ShowMessageFace("",0,0,2,1)
ShowMessage("\\n<Luka>Unnngh...")
ShowMessageFace("lamias_fc1",4,0,2,2)
ShowMessage("\\n<Oldest Lamia>It looks like you can't beat us.\nWell then, right away...")
250(bytes(0x04,0x08,0x6f,0x3a,0x0c,0x52,0x50,0x47,0x3a,0x3a,0x53,0x45,0x08,0x3a,0x0a,0x40,0x6e,0x61,0x6d,0x65,0x49,0x22,0x16,0x6d,0x6f,0x6e,0x5f,0x65,0x72,0x6f,0x5f,0x73,0x69,0x6d,0x65,0x74,0x75,0x6b,0x65,0x31,0x06,0x3a,0x06,0x45,0x54,0x3a,0x0b,0x40,0x70,0x69,0x74,0x63,0x68,0x69,0x69,0x3a,0x0c,0x40,0x76,0x6f,0x6c,0x75,0x6d,0x65,0x69,0x69))
PictureDisplay(5,"ev_lamias_ha1",0,0,0,0,100,100,255,0)
ShowMessageFace("",0,0,2,3)
ShowMessage("All four of them tangle their bodies around mine.\nWrapped in their tails, I can't move at all.")
ShowMessageFace("",0,0,2,4)
ShowMessage("\\n<Luka>Aaaaah...")
ShowMessageFace("",0,0,2,5)
ShowMessage("The four sisters wrap their soft, warm bodies around me.")
ShowMessageFace("",0,0,2,6)
ShowMessage("With their heavy serpentine weight on me, the feeling of being wound up only intensifies the excitement of being their prey.")
ShowMessageFace("",0,0,2,7)
ShowMessage("One of the lamias presses my penis against her lower body.\nShe presses my tip against her wet entrance.")
ShowMessageFace("lamias_fc1",4,0,2,8)
ShowMessage("\\n<Oldest Lamia>Fufu... I'll violate you first.\nI'll let my little sisters watch your humiliation...")
245(bytes(0x04,0x08,0x6f,0x3a,0x0d,0x52,0x50,0x47,0x3a,0x3a,0x42,0x47,0x53,0x08,0x3a,0x0a,0x40,0x6e,0x61,0x6d,0x65,0x49,0x22,0x1e,0x6d,0x6f,0x6e,0x5f,0x68,0x73,0x65,0x61,0x6e,0x30,0x32,0x5f,0x69,0x6e,0x6e,0x65,0x72,0x77,0x6f,0x72,0x6b,0x73,0x5f,0x61,0x32,0x06,0x3a,0x06,0x45,0x54,0x3a,0x0c,0x40,0x76,0x6f,0x6c,0x75,0x6d,0x65,0x69,0x55,0x3a,0x0b,0x40,0x70,0x69,0x74,0x63,0x68,0x69,0x69))
PictureDisplay(5,"ev_lamias_ha2",0,0,0,0,100,100,255,0)
ShowMessageFace("",0,0,2,9)
ShowMessage("In the next moment, she takes me inside.\nMy penis sinks into her wet vagina.")
ShowMessageFace("",0,0,2,10)
ShowMessage("\\n<Luka>Ah, aaaaaah!!")
ShowMessageFace("",0,0,2,11)
ShowMessage("I feel the wavy walls of her hot, wet vagina around my penis. As my glans pushes into her wavy flesh, I feel everything.")
ShowMessageFace("",0,0,2,12)
ShowMessage("The deeper I go, the more it attacks me.\nI'm caught completely by surprise as I'm brought deep into her.")
ShowMessageFace("",0,0,2,13)
ShowMessage("\\n<Luka>....Ah, coming...! Aaaaah!!")
RunCommonEvent(104)
PictureDisplay(5,"ev_lamias_ha3",0,0,0,0,100,100,255,0)
RunCommonEvent(105)
246(1)
ShowMessageFace("lamias_fc1",4,0,2,14)
ShowMessage("\\n<Oldest Lamia>Ara...?")
ShowMessageFace("",0,0,2,15)
ShowMessage("A humiliating premature ejaculation...\nThe lamia looks stunned as I come inside her.")
ShowMessageFace("",0,0,2,16)
ShowMessage("Then...the lamia smirks at me.")
ShowMessageFace("lamias_fc1",4,0,2,17)
ShowMessage("\\n<Oldest Lamia>...Did you already come?\nHow miserable...")
ShowMessageFace("lamias_fc1",5,0,2,18)
ShowMessage("\\n<Second Oldest Lamia>Ahaha, did our big sister's pussy finish him off in an instant? It must have felt way too good for him... Ahahaha.")
ShowMessageFace("lamias_fc1",6,0,2,19)
ShowMessage("\\n<Third Oldest Lamia>How pathetic. ♪\nHey, you, that was way too fast. ♪")
ShowMessageFace("lamias_fc1",7,0,2,20)
ShowMessage("\\n<Youngest Lamia>He already leaked...?\nTeehee...")
ShowMessageFace("",0,0,2,21)
ShowMessage("The lamias around me all start to laugh.\nI can't do anything but tremble in misery as they humiliate me.")
ShowMessageFace("lamias_fc1",4,0,2,22)
ShowMessage("\\n<Oldest Lamia>I'm sorry for finishing you off so fast...\nI mean, I didn't think you would be so weak...\nFufufu.")
ShowMessageFace("",0,0,2,23)
ShowMessage("With a triumphant look on her face, the oldest lamia laughs. All the while, my cock is still stuck inside of her.")
ShowMessageFace("lamias_fc1",4,0,2,24)
ShowMessage("\\n<Oldest Lamia>There's no helping it I guess... Let's try again... Horahorahora...")
245(bytes(0x04,0x08,0x6f,0x3a,0x0d,0x52,0x50,0x47,0x3a,0x3a,0x42,0x47,0x53,0x08,0x3a,0x0a,0x40,0x6e,0x61,0x6d,0x65,0x49,0x22,0x1e,0x6d,0x6f,0x6e,0x5f,0x68,0x73,0x65,0x61,0x6e,0x30,0x32,0x5f,0x69,0x6e,0x6e,0x65,0x72,0x77,0x6f,0x72,0x6b,0x73,0x5f,0x61,0x32,0x06,0x3a,0x06,0x45,0x54,0x3a,0x0c,0x40,0x76,0x6f,0x6c,0x75,0x6d,0x65,0x69,0x55,0x3a,0x0b,0x40,0x70,0x69,0x74,0x63,0x68,0x69,0x69))
ShowMessageFace("",0,0,2,25)
ShowMessage("\\n<Luka>Unnngh... It's moving inside...!")
ShowMessageFace("",0,0,2,26)
ShowMessage("Her narrow vagina squeezes down on me again.\nGetting even hotter in her, the lamia's wet vagina feels like heaven.")
ShowMessageFace("",0,0,2,27)
ShowMessage("At the same time, the lamia starts to move her waist.\nThe movements overwhelm my body as her whole body pleasures me.")
ShowMessageFace("",0,0,2,28)
ShowMessage("\\n<Luka>Aiyee...! Aaaah...!!")
ShowMessageFace("",0,0,2,29)
ShowMessage("Her wavy walls catch on my glans with every movement.\nHer incredible vagina, that just made me come in seconds, feels too good...")
ShowMessageFace("",0,0,2,30)
ShowMessage("The wet noise of our mating fills the surrounding area with every movement. But I'm too enraptured by her movements to care.")
ShowMessageFace("",0,0,2,31)
ShowMessage("\\n<Luka>Huaaa... That feels good...")
ShowMessageFace("lamias_fc1",4,0,2,32)
ShowMessage("\\n<Oldest Lamia>Fufu... Are you already a prisoner of my pussy?\nA truly pathetic hero, aren't you...")
ShowMessageFace("lamias_fc1",5,0,2,33)
ShowMessage("\\n<Second Oldest Lamia>Does our big sister's pussy really feel that good...?")
ShowMessageFace("lamias_fc1",6,0,2,34)
ShowMessage("\\n<Third Oldest Lamia>Aren't you happy she's raping you? ♪\nAhaha...♪")
ShowMessageFace("",0,0,2,35)
ShowMessage("The lamias ridicule me as they press their soft bodies against me. Trembling under them, I have no choice but to accept this rape.")
ShowMessageFace("",0,0,2,36)
ShowMessage("\\n<Luka>Unnngh...")
ShowMessageFace("lamias_fc1",4,0,2,37)
ShowMessage("\\n<Oldest Lamia>It's about time for me to make you come.")
ShowMessageFace("",0,0,2,38)
ShowMessage("\\n<Luka>Ah... Aieee!!")
ShowMessageFace("",0,0,2,39)
ShowMessage("The oldest lamia's vagina suddenly contracts.\nStill moving her hips, the stimulation from the ridges inside of her dig into me as the stimulation becomes too much to endure.")
ShowMessageFace("",0,0,2,40)
ShowMessage("\\n<Luka>Ah, aaah...")
ShowMessageFace("lamias_fc1",4,0,2,41)
ShowMessage("\\n<Oldest Lamia>You can't take it when I do this, right?\nNow, shoot out even more inside me!")
ShowMessageFace("",0,0,2,42)
ShowMessage("Forced in and out of her, I'm quickly brought to the edge.\nThe texture of her vagina rubs me with every movement.")
ShowMessageFace("",0,0,2,43)
ShowMessage("Listening to the lewd sound of our mating, I feel my climax approaching. A sense of numbness fills my waist.")
ShowMessageFace("",0,0,2,44)
ShowMessage("\\n<Luka>Ah...! S-so good...\nFaaaaa!!")
RunCommonEvent(104)
PictureDisplay(5,"ev_lamias_ha4",0,0,0,0,100,100,255,0)
RunCommonEvent(105)
ShowMessageFace("",0,0,2,45)
ShowMessage("My semen spurts into her.\nAs my white stuff flows into the lamia, she smiles.")
246(1)
ShowMessageFace("lamias_fc1",4,0,2,46)
ShowMessage("\\n<Oldest Lamia>Fufu, I had fun.\nNow, who's next...?")
ShowMessageFace("lamias_fc1",5,0,2,47)
ShowMessage("\\n<Second Oldest Lamia>I'm next!")
PictureDisplay(5,"ev_lamias_hb1",0,0,0,0,100,100,255,0)
ShowMessageFace("",0,0,2,48)
ShowMessage("The moment the oldest lamia parts from me, the second oldest jumps on me. Her serpentine body rolls me up in seconds.")
ShowMessageFace("",0,0,2,49)
ShowMessage("\\n<Luka>Ah, ahhg...!")
ShowMessageFace("",0,0,2,50)
ShowMessage("The terrible tightness forces me to groan.\nWith her snake body coiled around me, she's squeezing me incredibly tight.")
ShowMessageFace("",0,0,2,51)
ShowMessage("The tight binding makes me feel just like prey.\nIt makes me realize that's what they consider me...")
ShowMessageFace("lamias_fc1",5,0,2,52)
ShowMessage("\\n<Second Oldest Lamia>Let's mate...\nI think I'll violate you as I strangle you...")
ShowMessageFace("",0,0,2,53)
ShowMessage("\\n<Luka>Ah, aaaah...!!")
245(bytes(0x04,0x08,0x6f,0x3a,0x0d,0x52,0x50,0x47,0x3a,0x3a,0x42,0x47,0x53,0x08,0x3a,0x0a,0x40,0x6e,0x61,0x6d,0x65,0x49,0x22,0x1e,0x6d,0x6f,0x6e,0x5f,0x68,0x73,0x65,0x61,0x6e,0x30,0x34,0x5f,0x69,0x6e,0x6e,0x65,0x72,0x77,0x6f,0x72,0x6b,0x73,0x5f,0x61,0x34,0x06,0x3a,0x06,0x45,0x54,0x3a,0x0c,0x40,0x76,0x6f,0x6c,0x75,0x6d,0x65,0x69,0x55,0x3a,0x0b,0x40,0x70,0x69,0x74,0x63,0x68,0x69,0x69))
PictureDisplay(5,"ev_lamias_hb2",0,0,0,0,100,100,255,0)
ShowMessageFace("",0,0,2,54)
ShowMessage("My penis slips inside her as her snake body squeezes me.\nHer vagina is surprisingly soft, but incredibly tight.")
ShowMessageFace("",0,0,2,55)
ShowMessage("Her narrow walls press on me from every direction.")
ShowMessageFace("",0,0,2,56)
ShowMessage("\\n<Luka>Unnngh...! You're so tight inside...!!")
ShowMessageFace("lamias_fc1",5,0,2,57)
ShowMessage("\\n<Second Oldest Lamia>Ahahaha, it's not just inside...")
ShowMessageFace("",0,0,2,58)
ShowMessage("\\n<Luka>Ah, aaaah...!!")
ShowMessageFace("",0,0,2,59)
ShowMessage("Her tail squeezes down on my body even tighter.\nCaught in her coils, I'm tightly wound up in her tail.")
ShowMessageFace("",0,0,2,60)
ShowMessage("At the same time, she tightens around my penis in her vagina. I moan from the simultaneous tightening.")
ShowMessageFace("lamias_fc1",5,0,2,61)
ShowMessage("\\n<Second Oldest Lamia>Aha... I'll violate your mouth, too...")
PictureDisplay(5,"ev_lamias_hb3",0,0,0,0,100,100,255,0)
ShowMessageFace("",0,0,2,62)
ShowMessage("Saying that, she forces her tongue inside my mouth.\nHer wet tongue coils around my own, licking me inside my mouth.")
ShowMessageFace("lamias_fc1",5,0,2,63)
ShowMessage("\\n<Second Oldest Lamia>Well...? This is what mating with a lamia is like.\nIt's tight everywhere... It's irresistible, isn't it?")
ShowMessageFace("",0,0,2,64)
ShowMessage("\\n<Luka>Ahhggg...! Ah, aaaah...!!")
ShowMessageFace("",0,0,2,65)
ShowMessage("A feeling of restriction on my entire body.\nAnd the incredible pressure on my penis.")
ShowMessageFace("",0,0,2,66)
ShowMessage("But it's not just my physical body itself.\nEven in my mind, I'm being tortured.")
ShowMessageFace("",0,0,2,67)
ShowMessage("The feeling of being violated without being able to do anything. The feeling of hopelessness inside a lamia's tight embrace...")
ShowMessageFace("",0,0,2,68)
ShowMessage("Tightened in her coils, I let my body relax.\nSuccumbing to the physical and mental reality of my situation, I submit to this insult.")
ShowMessageFace("lamias_fc1",5,0,2,69)
ShowMessage("\\n<Second Oldest Lamia>Ahaha... Have you already given up?\nThe moment a man surrenders and goes slack is simply irresistible...")
ShowMessageFace("lamias_fc1",5,0,2,70)
ShowMessage("\\n<Second Oldest Lamia>I'll finish you quickly for now...\nBut it will get even tighter...")
ShowMessageFace("",0,0,2,71)
ShowMessage("With a tight squeeze, the lamia's vagina gets even tighter. Her vagina is far tighter than before.")
ShowMessageFace("",0,0,2,72)
ShowMessage("\\n<Luka>Aiyee...!")
ShowMessageFace("lamias_fc1",5,0,2,73)
ShowMessage("\\n<Second Oldest Lamia>It's getting tighter...\nSo you better come now.")
ShowMessageFace("",0,0,2,74)
ShowMessage("The muscles in the lamia's vagina mercilessly squeeze my penis. Her soft, hot flesh presses down hard on my penis.")
ShowMessageFace("",0,0,2,75)
ShowMessage("Before that intense tightness, I have no choice but to submit.")
ShowMessageFace("",0,0,2,76)
ShowMessage("\\n<Luka>Unnngh...")
RunCommonEvent(104)
PictureDisplay(5,"ev_lamias_hb4",0,0,0,0,100,100,255,0)
RunCommonEvent(105)
ShowMessageFace("",0,0,2,77)
ShowMessage("Going limp, my semen shoots into her tight body.\nA unique sensation of weakness fills me, as if I was squeezed by force.")
246(1)
ShowMessageFace("",0,0,2,78)
ShowMessage("But I'm not allowed to bask in the ecstasy of my climax. Another lamia's tail is already winding around me.")
ShowMessageFace("",0,0,2,79)
ShowMessage("\\n<Luka>S-Stop it already... Anymore and...")
ShowMessageFace("lamias_fc1",6,0,2,80)
ShowMessage("\\n<Third Oldest Lamia>What are you talking about?\nRelax, we're all getting our turn. ♪")
PictureDisplay(5,"ev_lamias_hc1",0,0,0,0,100,100,255,0)
ShowMessageFace("",0,0,2,81)
ShowMessage("The lamia pushes her ass against me.\nHer soft butt presses against my penis.")
ShowMessageFace("",0,0,2,82)
ShowMessage("Restrained by her tail, I can't pull away.\nDragged to her, my penis is pressed up against her ass.")
ShowMessageFace("lamias_fc1",6,0,2,83)
ShowMessage("\\n<Third Oldest Lamia>I'll violate you with my ass.\nPlease shoot your semen out into where I shit from. ♪")
ShowMessageFace("",0,0,2,84)
ShowMessage("\\n<Luka>Ah, aaaah...!!")
ShowMessageFace("",0,0,2,85)
ShowMessage("Using her tail, she skillfully manipulates my body.")
245(bytes(0x04,0x08,0x6f,0x3a,0x0d,0x52,0x50,0x47,0x3a,0x3a,0x42,0x47,0x53,0x08,0x3a,0x0a,0x40,0x6e,0x61,0x6d,0x65,0x49,0x22,0x1e,0x6d,0x6f,0x6e,0x5f,0x68,0x73,0x65,0x61,0x6e,0x30,0x35,0x5f,0x69,0x6e,0x6e,0x65,0x72,0x77,0x6f,0x72,0x6b,0x73,0x5f,0x61,0x35,0x06,0x3a,0x06,0x45,0x54,0x3a,0x0c,0x40,0x76,0x6f,0x6c,0x75,0x6d,0x65,0x69,0x55,0x3a,0x0b,0x40,0x70,0x69,0x74,0x63,0x68,0x69,0x69))
ShowMessageFace("",0,0,2,86)
ShowMessage("My penis is forcibly pushed into her ass.")
ShowMessageFace("",0,0,2,87)
ShowMessage("\\n<Luka>Ooooh...!")
ShowMessageFace("",0,0,2,88)
ShowMessage("Her ass is tight, and seems to almost bend.\nIt's a unique feel, different from a vagina.")
ShowMessageFace("lamias_fc1",6,0,2,89)
ShowMessage("\\n<Third Oldest Lamia>How is my ass...?\nAren't you just loving it? ♪")
ShowMessageFace("",0,0,2,90)
ShowMessage("The lamia starts to wriggle her body.\nAt the same time, she clenches down on her anus, squeezing me.")
ShowMessageFace("",0,0,2,91)
ShowMessage("\\n<Luka>Aiyeee...!")
ShowMessageFace("lamias_fc1",6,0,2,92)
ShowMessage("\\n<Third Oldest Lamia>Ahaha, listen to that indecent moan.\nYour penis is deep in my ass, you know?")
ShowMessageFace("lamias_fc1",6,0,2,93)
ShowMessage("\\n<Third Oldest Lamia>I want you to come where I shit from.\nThat's quite an embarrassing thing to do, don't you think? ♪")
ShowMessageFace("",0,0,2,94)
ShowMessage("While giggling, the Lamia tightens her ass to crush my penis. Deep inside her, the incredible tightness feels too good to endure.")
ShowMessageFace("",0,0,2,95)
ShowMessage("Her anus twitches as she squeezes.\nThe desire to ejaculate suddenly rises in me.")
ShowMessageFace("",0,0,2,96)
ShowMessage("But I use the last of my energy to hold back, enduring it.")
ShowMessageFace("",0,0,2,97)
ShowMessage("\\n<Luka>Auu... Guh...")
ShowMessageFace("lamias_fc1",6,0,2,98)
ShowMessage("\\n<Third Oldest Lamia>Ahaha, you're holding back?\nYou're trying so hard... But it's useless you know...♪")
ShowMessageFace("",0,0,2,99)
ShowMessage("\\n<Luka>Eh...? Aaah!!")
ShowMessageFace("",0,0,2,100)
ShowMessage("Her tail, coiled around me, forces my waist to push into her. Controlled by her tail, I'm forced to thrust in and out of her ass.")
ShowMessageFace("",0,0,2,101)
ShowMessage("\\n<Luka>S-stoooop...! D-don't do...")
ShowMessageFace("lamias_fc1",6,0,2,102)
ShowMessage("\\n<Third Oldest Lamia>Ahaha... If you move like that...\nYou'll come in an instant.")
ShowMessageFace("lamias_fc1",6,0,2,103)
ShowMessage("\\n<Third Oldest Lamia>Now go ahead and come in my ass. ♪")
ShowMessageFace("",0,0,2,104)
ShowMessage("\\n<Luka>Nnngh... Aaaaaah!!")
ShowMessageFace("",0,0,2,105)
ShowMessage("I thrust in and out of her against my will.\nMy penis goes in and out of her tight ass.")
ShowMessageFace("",0,0,2,106)
ShowMessage("Each thrust in, my glans rubs against her tight flesh.\nAnd on the way out, the neck of my penis is pulled back by her squeezing anus.")
ShowMessageFace("",0,0,2,107)
ShowMessage("In no time at all, I submit to the forced thrusting.")
ShowMessageFace("",0,0,2,108)
ShowMessage("\\n<Luka>Ah, aaaah...!!")
RunCommonEvent(104)
PictureDisplay(5,"ev_lamias_hc2",0,0,0,0,100,100,255,0)
RunCommonEvent(105)
ShowMessageFace("",0,0,2,109)
ShowMessage("My semen pours into her asshole.\nForced to thrust into her ass, I only feel pleasure from the result...")
246(1)
ShowMessageFace("",0,0,2,110)
ShowMessage("But I'm still given no time for the afterglow.\nAnother serpentine body coils me up after only seconds.")
ShowMessageFace("lamias_fc1",7,0,2,111)
ShowMessage("\\n<Youngest Lamia>Okay, I'm next...\nThis person seems really weak, so I should be okay.")
ShowMessageFace("",0,0,2,112)
ShowMessage("\\n<Luka>Ah, aaaah...!!")
245(bytes(0x04,0x08,0x6f,0x3a,0x0d,0x52,0x50,0x47,0x3a,0x3a,0x42,0x47,0x53,0x08,0x3a,0x0a,0x40,0x6e,0x61,0x6d,0x65,0x49,0x22,0x1e,0x6d,0x6f,0x6e,0x5f,0x68,0x73,0x65,0x61,0x6e,0x30,0x33,0x5f,0x69,0x6e,0x6e,0x65,0x72,0x77,0x6f,0x72,0x6b,0x73,0x5f,0x61,0x33,0x06,0x3a,0x06,0x45,0x54,0x3a,0x0c,0x40,0x76,0x6f,0x6c,0x75,0x6d,0x65,0x69,0x55,0x3a,0x0b,0x40,0x70,0x69,0x74,0x63,0x68,0x69,0x69))
PictureDisplay(5,"ev_lamias_hd1",0,0,0,0,100,100,255,0)
ShowMessageFace("",0,0,2,113)
ShowMessage("With a wet noise, my penis slips into her tiny slit.")
ShowMessageFace("",0,0,2,114)
ShowMessage("Her flesh was tougher than the other three so far.\nThe slightly hard feeling assaults me instantly.")
ShowMessageFace("",0,0,2,115)
ShowMessage("\\n<Luka>Unnngh...!")
ShowMessageFace("lamias_fc1",7,0,2,116)
ShowMessage("\\n<Youngest Lamia>I put it in...♪")
ShowMessageFace("lamias_fc1",5,0,2,117)
ShowMessage("\\n<Second Oldest Lamia>Ahaha, how does it feel inside this child?\nShe hasn't fully developed yet, but it feels good, doesn't it?")
ShowMessageFace("",0,0,2,118)
ShowMessage("\\n<Luka>Ah, aaaah...!!")
ShowMessageFace("",0,0,2,119)
ShowMessage("My penis is pressed by her hard, tight vagina.")
ShowMessageFace("",0,0,2,120)
ShowMessage("But it isn't tight due to the lamia squeezing, like the others did. Her vagina itself is just tiny, and barely able to fit me.")
ShowMessageFace("",0,0,2,121)
ShowMessage("Her flesh presses hard against me inside her.\nA unique sensation, that brings a slightly painful pleasure.")
ShowMessageFace("",0,0,2,122)
ShowMessage("\\n<Luka>Unnngh... Too tight...")
ShowMessageFace("lamias_fc1",5,0,2,123)
ShowMessage("\\n<Second Oldest Lamia>There's no helping that, this child is our youngest sister.\nHer pussy is tiny, and she hasn't finished growing yet.")
ShowMessageFace("lamias_fc1",7,0,2,124)
ShowMessage("\\n<Youngest Lamia>But I can still make him come...")
ShowMessageFace("",0,0,2,125)
ShowMessage("The young lamia starts to wriggle her waist.\nMy penis is tossed side to side in her slightly hard vagina.")
ShowMessageFace("",0,0,2,126)
ShowMessage("Pressed in her tiny vagina, it's a new sensation I haven't felt before.")
ShowMessageFace("",0,0,2,127)
ShowMessage("\\n<Luka>Ah...! Aaah...!")
ShowMessageFace("",0,0,2,128)
ShowMessage("The gentle torture causes me to pant.\nHer hard flesh rubs against me with every movement she makes.")
ShowMessageFace("",0,0,2,129)
ShowMessage("The painful pleasure leads me to a quick climax.")
ShowMessageFace("",0,0,2,130)
ShowMessage("\\n<Luka>Unnngh...I'm coming already...")
ShowMessageFace("lamias_fc1",7,0,2,131)
ShowMessage("\\n<Youngest Lamia>Okay... Go ahead and come inside...")
ShowMessageFace("",0,0,2,132)
ShowMessage("\\n<Luka>Ah, aaaaaah!!")
RunCommonEvent(104)
PictureDisplay(5,"ev_lamias_hd2",0,0,0,0,100,100,255,0)
RunCommonEvent(105)
ShowMessageFace("",0,0,2,133)
ShowMessage("My semen gushes into her tiny vagina.")
ShowMessageFace("",0,0,2,134)
ShowMessage("A climax brought about by painful pleasure.\nIt brings a strange feeling of release...")
ShowMessageFace("lamias_fc1",7,0,2,135)
ShowMessage("\\n<Youngest Lamia>Aha... Making a man come isn't that hard after all.")
ShowMessageFace("",0,0,2,136)
ShowMessage("With a triumphant face, the youngest lamia looks down on me.")
ShowMessageFace("",0,0,2,137)
ShowMessage("\\n<Luka>Unnngh...")
ShowMessageFace("",0,0,2,138)
ShowMessage("After the repeated rapes, my body and mind are totally exhausted.")
246(1)
PictureDisplay(5,"ev_lamias_ha1",0,0,0,0,100,100,255,0)
ShowMessageFace("lamias_fc1",4,0,2,139)
ShowMessage("\\n<Oldest Lamia>It seems like everyone enjoyed themselves.\nLooks like it's my turn again...")
ShowMessageFace("",0,0,2,140)
ShowMessage("\\n<Luka>Ah, aaaah...!!")
ShowMessageFace("",0,0,2,141)
ShowMessage("The gang rape by these four sisters isn't over yet...")
221()
PictureClear(5)
ShowMessageFace("",0,0,2,142)
ShowMessage("Caught by the lamia sisters, I'm considered their prey.\nNot allowed to escape, they gang-rape me every day.")
ShowMessageFace("",0,0,2,143)
ShowMessage("The four lamias are lusting after my body and semen again today. The endless rape will continue tomorrow and forever more...")
DefineLabel("反省会")
ShowMessageFace("",0,0,2,144)
ShowMessage("......")
221()
242(1)
Wait(120)
355("memory_interruption")
ShowMessageFace("",0,0,2,145)
ShowMessage("You hear Ilias' voice calling out to you...\nReceive her evaluation?")
ShowChoices(strings("Receive evaluation","Change difficulty","Reincarnate"),3)
IfPlayerPicksChoice(0,null)
 241(bytes(0x04,0x08,0x6f,0x3a,0x0d,0x52,0x50,0x47,0x3a,0x3a,0x42,0x47,0x4d,0x08,0x3a,0x0a,0x40,0x6e,0x61,0x6d,0x65,0x49,0x22,0x0a,0x69,0x72,0x69,0x61,0x73,0x06,0x3a,0x06,0x45,0x54,0x3a,0x0c,0x40,0x76,0x6f,0x6c,0x75,0x6d,0x65,0x69,0x5f,0x3a,0x0b,0x40,0x70,0x69,0x74,0x63,0x68,0x69,0x6e))
 PictureDisplay(1,"bg001",0,0,0,0,100,100,255,0)
 222()
 PictureDisplay(5,"80_iriasu_st04",0,0,0,0,100,100,0,0)
 PictureMove(5,null,0,0,0,0,100,100,255,0,30,true)
 ShowMessageFace("iriasu_fc1",3,0,2,146)
 ShowMessage("\\n<Ilias>Aren't you happy? You got a whole group of lamias to play with you. Did you enjoy being some monsters' prey?")
 PictureDisplay(5,"80_iriasu_st01",0,0,0,0,100,100,255,0)
 ShowMessageFace("iriasu_fc1",0,0,2,147)
 ShowMessage("\\n<Ilias>Since there are four of them, they get four actions. They don't use special skills, but their normal attacks hurt.")
 ShowMessageFace("iriasu_fc1",0,0,2,148)
 ShowMessage("\\n<Ilias>Some status effects work, but sleep is most effective.\nNever forget that lamias are weak to sleep.")
 ShowMessageFace("iriasu_fc1",0,0,2,149)
 ShowMessage("\\n<Ilias>In addition, ice works well against Lamias.\nConcentrate on ice skills to bring them down fast.")
 PictureDisplay(5,"80_iriasu_st02",0,0,0,0,100,100,255,0)
 ShowMessageFace("iriasu_fc1",1,0,2,150)
 ShowMessage("\\n<Ilias>Now go, oh brave Luka.\nTurn those lamia sisters into jerky.")
 242(1)
 221()
 PictureClear(5)
 PictureClear(1)
 Wait(60)
 0()
IfPlayerPicksChoice(1,null)
 ShowMessageFace("",0,0,2,151)
 ShowMessage("Please choose a difficulty level.")
 RunCommonEvent(110)
 0()
IfPlayerPicksChoice(2,null)
 0()
404()
RunCommonEvent(3000)
0()
