﻿// EVENT 7293
Name "Magda: Defeat"

RunCommonEvent(7000)
PictureDisplay(5,"80_mob_sanzoku_st01",0,0,0,0,100,100,255,0)
PictureClear(6)
ShowMessageFace("mob_sanzoku_fc1",0,0,2,1)
ShowMessage("\\n<Magda>This is my victory!\nAfter your semen, I'll be taking your money.")
125(1,0,1100)
ShowMessageFace("",0,0,2,2)
ShowMessage("Luka hands over 1100G!")
ShowMessageFace("mob_sanzoku_fc1",0,0,2,3)
ShowMessage("\\n<Magda>Now, wash your cock and come back again.\nI'll be sure to make you feel really good next time...")
If(0,2331,1)
 PictureClear(5)
 281(1)
 TeleportPlayer(0,143,5,28,2,0)
 216(0)
 0()
EndIf()
EndEventProcessing()
0()
