﻿// EVENT 4611
Name "Honey Pot"

If(0,25,1)
 221()
 PictureClear(5)
 PictureClear(6)
 ShowMessageFace("",0,0,2,0)
 ShowMessage("......")
 242(2)
 Wait(120)
 241(bytes(0x04,0x08,0x6f,0x3a,0x0d,0x52,0x50,0x47,0x3a,0x3a,0x42,0x47,0x4d,0x08,0x3a,0x0a,0x40,0x6e,0x61,0x6d,0x65,0x49,0x22,0x0c,0x63,0x61,0x73,0x74,0x6c,0x65,0x36,0x06,0x3a,0x06,0x45,0x54,0x3a,0x0c,0x40,0x76,0x6f,0x6c,0x75,0x6d,0x65,0x69,0x69,0x3a,0x0b,0x40,0x70,0x69,0x74,0x63,0x68,0x69,0x69))
 EndEventProcessing()
 0()
EndIf()
PictureDisplay(5,"80_mitutubo_st01",0,0,0,0,100,100,255,0)
ShowMessageFace("mitutubo_fc1",0,0,2,1)
ShowMessage("\\n<Mitsuko>Do you want to enter my pot?")
ShowMessageFace("",0,0,2,2)
ShowMessage("\\n<Luka>Y-yeah...")
PictureDisplay(5,"80_mitutubo_st02",0,0,0,0,100,100,255,0)
ShowMessageFace("mitutubo_fc1",1,0,2,3)
ShowMessage("\\n<Mitsuko>Really???\nWell then, in you gooo~♪")
ShowMessageFace("",0,0,2,4)
ShowMessage("Tentacles shoot out from her pot. They wrap all around my body...")
ShowMessageFace("",0,0,2,5)
ShowMessage("\\n<Luka>Aaah...")
ShowMessageFace("",0,0,2,6)
ShowMessage("The tentacles lift me up and pull me inside the pot. My whole body is submerged in the sticky slime that fills the pot...")
241(bytes(0x04,0x08,0x6f,0x3a,0x0d,0x52,0x50,0x47,0x3a,0x3a,0x42,0x47,0x4d,0x08,0x3a,0x0a,0x40,0x6e,0x61,0x6d,0x65,0x49,0x22,0x09,0x65,0x72,0x6f,0x31,0x06,0x3a,0x06,0x45,0x54,0x3a,0x0c,0x40,0x76,0x6f,0x6c,0x75,0x6d,0x65,0x69,0x69,0x3a,0x0b,0x40,0x70,0x69,0x74,0x63,0x68,0x69,0x69))
245(bytes(0x04,0x08,0x6f,0x3a,0x0d,0x52,0x50,0x47,0x3a,0x3a,0x42,0x47,0x53,0x08,0x3a,0x0a,0x40,0x6e,0x61,0x6d,0x65,0x49,0x22,0x1e,0x6d,0x6f,0x6e,0x5f,0x68,0x73,0x65,0x61,0x6e,0x31,0x33,0x5f,0x69,0x6e,0x6e,0x65,0x72,0x77,0x6f,0x72,0x6b,0x73,0x5f,0x63,0x33,0x06,0x3a,0x06,0x45,0x54,0x3a,0x0c,0x40,0x76,0x6f,0x6c,0x75,0x6d,0x65,0x69,0x55,0x3a,0x0b,0x40,0x70,0x69,0x74,0x63,0x68,0x69,0x69))
PictureDisplay(5,"ev_mitutubo_ha1",0,0,0,0,100,100,0,0)
PictureMove(5,null,0,0,0,0,100,100,255,0,30,true)
ShowMessageFace("",0,0,2,7)
ShowMessage("I'm instantly soaked in her slime. The honey-like liquid inside her pot tightens around my whole body.")
ShowMessageFace("mitutubo_fc1",1,0,2,8)
ShowMessage("\\n<Mitsuko>Ahaha... It feels good inside my pot, doesn't it?")
ShowMessageFace("",0,0,2,9)
ShowMessage("\\n<Luka>Nnngh...It's so sticky...")
ShowMessageFace("",0,0,2,10)
ShowMessage("Inside the pot, tentacles start coiling around my lower body. The slime surrounding my penis starts to flow smoothly.")
ShowMessageFace("",0,0,2,11)
ShowMessage("I feel my whole body caressed by both slime and tentacles. Any thoughts I had of resisting quickly faded away and I'm left defenseless.")
ShowMessageFace("mitutubo_fc1",1,0,2,12)
ShowMessage("\\n<Mitsuko>I guess being submerged in my pot was too much...\nIn that case, let's mate~♪")
ShowMessageFace("",0,0,2,13)
ShowMessage("\\n<Luka>W-wait...")
PictureDisplay(5,"ev_mitutubo_hb1",0,0,0,0,100,100,255,0)
ShowMessageFace("",0,0,2,14)
ShowMessage("Mitsuko hugs me tightly, pressing her lower body against mine. At that moment, my penis is swallowed by her meat hole.")
ShowMessageFace("",0,0,2,15)
ShowMessage("Her vagina is full of little folds. I feel each and every one of them as I'm brought inside her...")
ShowMessageFace("",0,0,2,16)
ShowMessage("\\n<Luka>Ngh... Haaa...")
ShowMessageFace("",0,0,2,17)
ShowMessage("I can feel her folds rubbing back and forth against my glans. They keep rubbing my glans, as if urging me to go deeper.")
ShowMessageFace("",0,0,2,18)
ShowMessage("As the folds keep stimulating me, I finally reach the deepest part of her vagina. My breathing gets heavier as I get to feel the full depths of her vagina.")
ShowMessageFace("mitutubo_fc1",1,0,2,19)
ShowMessage("\\n<Mitsuko>Fufufu it went all the way in.\nIt feels so good inside me, huh?")
ShowMessageFace("",0,0,2,20)
ShowMessage("\\n<Luka>Oh no... I-I can't...")
ShowMessageFace("mitutubo_fc1",1,0,2,21)
ShowMessage("\\n<Mitsuko>Eh?")
ShowMessageFace("",0,0,2,22)
ShowMessage("My penis throbs inside her. A dull ache shoots straight though me...")
RunCommonEvent(104)
PictureDisplay(5,"ev_mitutubo_hb2",0,0,0,0,100,100,255,0)
RunCommonEvent(105)
ShowMessageFace("",0,0,2,23)
ShowMessage("And I ejaculate inside Mitsuko's vagina. My semen flows inside her spurt after spurt.")
ShowMessageFace("",0,0,2,24)
ShowMessage("\\n<Luka>Nnngh...")
ShowMessageFace("mitutubo_fc1",1,0,2,25)
ShowMessage("\\n<Mitsuko>Haha, already?\nBut I haven't even moved yet...")
ShowMessageFace("",0,0,2,26)
ShowMessage("\\n<Luka>That's because... it felt too good...")
ShowMessageFace("mitutubo_fc1",1,0,2,27)
ShowMessage("\\n<Mitsuko>Hehe, you're so cute...♪\nIn that case, I'll make it feel even better~♪")
ShowMessageFace("",0,0,2,28)
ShowMessage("\\n<Luka>B-better...? Yaaahh!")
ShowMessageFace("",0,0,2,29)
ShowMessage("The inside of her vagina starts getting tighter. All of her folds start moving on their own, rubbing up and down my penis.")
ShowMessageFace("",0,0,2,30)
ShowMessage("It feels as if my penis was being licked clean inside her vagina. The pleasure is overwhelming, leaving me even weaker inside her pot.")
ShowMessageFace("",0,0,2,31)
ShowMessage("\\n<Luka>Whoa, this is...\nAaah...")
ShowMessageFace("mitutubo_fc1",1,0,2,32)
ShowMessage("\\n<Mitsuko>Does your penis feel good?\nHora hora, how about this~♪")
ShowMessageFace("",0,0,2,33)
ShowMessage("\\n<Luka>Ahii!!")
ShowMessageFace("",0,0,2,34)
ShowMessage("Her whole vagina starts squeezing and rubbing my penis at the same time. The folds around my glans start rubbing more and more intensely, making me feel like I'm melting.")
ShowMessageFace("",0,0,2,35)
ShowMessage("The vagina of a honeypot is as infamous as its name suggests. I can't fight the rising feeling of my climax as I'm thrust over the edge...")
RunCommonEvent(104)
PictureDisplay(5,"ev_mitutubo_hb3",0,0,0,0,100,100,255,0)
RunCommonEvent(105)
ShowMessageFace("",0,0,2,36)
ShowMessage("\\n<Luka>Ah... Aaah...")
ShowMessageFace("",0,0,2,37)
ShowMessage("I once again shoot a large amount of semen inside Mitsuko's vagina. I taste immense pleasure while entangled in her folds.")
ShowMessageFace("",0,0,2,38)
ShowMessage("Feeling like my lower half is melting, I entrust myself to the ecstasy and cling to Mitsuko's body. I tremble violently as I pour my semen inside her vagina.")
ShowMessageFace("mitutubo_fc1",1,0,2,39)
ShowMessage("\\n<Mitsuko>Haha, you let out a lot inside me! ♪\nHora, I'll let you taste even more~♪")
ShowMessageFace("",0,0,2,40)
ShowMessage("\\n<Luka>W-wait... Yaaaah!!")
ShowMessageFace("",0,0,2,41)
ShowMessage("The inside of her vagina squeezes even tighter around my glans and pulls me further into her. She keeps rubbing my glans and back muscle, sending sparks of pleasure throughout my whole body.")
ShowMessageFace("",0,0,2,42)
ShowMessage("The intense stimulation is too much for my penis, still sensitive after ejaculating. All I do is cling to her, drowning in that sweet pleasure.")
ShowMessageFace("",0,0,2,43)
ShowMessage("My waist starts shaking as a sweet numbness spreads through my entire body. Her folds tighten around my member.")
ShowMessageFace("",0,0,2,44)
ShowMessage("\\n<Luka>Ah, aaah...")
RunCommonEvent(104)
PictureDisplay(5,"ev_mitutubo_hb4",0,0,0,0,100,100,255,0)
RunCommonEvent(105)
ShowMessageFace("",0,0,2,45)
ShowMessage("I feel like my penis is about to melt. Every time my penis pulses, it feels like I'm offering up a bit of my soul.")
ShowMessageFace("",0,0,2,46)
ShowMessage("I shoot more and more of my semen inside her, trapped in this blissful ascension. Even though it's just my third time, I feel incredibly weak.")
ShowMessageFace("mitutubo_fc1",1,0,2,47)
ShowMessage("\\n<Mitsuko>Well, you sure gave me a lot.\nDid my vagina feel that good?")
ShowMessageFace("",0,0,2,48)
ShowMessage("Mitsuko is happily smiling while accepting the huge load I shot inside her vagina. Unable to think of anything else, I just want to melt inside her pot.")
ShowMessageFace("mitutubo_fc1",1,0,2,49)
ShowMessage("\\n<Mitsuko>I like you and your semen.\nHey, stay inside my pot overnight~♪")
ShowMessageFace("",0,0,2,50)
ShowMessage("\\n<Luka>I-in here... all nigh-hiii...")
ShowMessageFace("",0,0,2,51)
ShowMessage("There is no will left to resist. Immersed in the pot, all I want is to drown in this ecstasy.")
ShowMessageFace("mitutubo_fc1",1,0,2,52)
ShowMessage("\\n<Mitsuko>All night long, I'll squeeze you thoroughly...\nI will let you out of the pot tomorrow morning. ♪")
ShowMessageFace("",0,0,2,53)
ShowMessage("\\n<Luka>Unnngh...")
ShowMessageFace("",0,0,2,54)
ShowMessage("I'm stuck inside the pot for the whole night... She'll continuously squeeze my semen out.")
ShowMessageFace("",0,0,2,55)
ShowMessage("While I bathe in pure pleasure inside her honey pot, being squeezed until morning comes...")
ShowMessageFace("mitutubo_fc1",1,0,2,56)
ShowMessage("\\n<Mitsuko>Well then, I'll continue squeezing you. ♪\nHorahorahora~♪")
ShowMessageFace("",0,0,2,57)
ShowMessage("\\n<Luka>Ngh... Haaaa...")
ShowMessageFace("",0,0,2,58)
ShowMessage("Groans of pleasure escape my mouth as I continue to leak my semen inside her pot. When the morning came, she left me in a pitiful state for everyone to see...")
221()
PictureClear(5)
246(2)
ShowMessageFace("",0,0,2,59)
ShowMessage("......")
242(2)
Wait(120)
241(bytes(0x04,0x08,0x6f,0x3a,0x0d,0x52,0x50,0x47,0x3a,0x3a,0x42,0x47,0x4d,0x08,0x3a,0x0a,0x40,0x6e,0x61,0x6d,0x65,0x49,0x22,0x0c,0x63,0x61,0x73,0x74,0x6c,0x65,0x36,0x06,0x3a,0x06,0x45,0x54,0x3a,0x0c,0x40,0x76,0x6f,0x6c,0x75,0x6d,0x65,0x69,0x69,0x3a,0x0b,0x40,0x70,0x69,0x74,0x63,0x68,0x69,0x69))
0()