// EVENT 2049
Name "Seduction: Mimic Girl"

If(0,25,1)
 EndEventProcessing()
 0()
EndIf()
355("$game_troop.lose_event_id = 3049")
ChangeVariable(26,26,0,3,3,1,4)
ChangeVariable(26,26,4,0,10)
355("battler_graphic_hide")
PictureDisplay(5,"80_mimic_st11",0,0,0,0,100,100,255,0)
ShowMessageFace("mimic_fc1",2,0,2,1)
ShowMessage("\\n<Mimic>No more...")
ShowMessageFace("",0,0,2,2)
ShowMessage("The Mimic goes back into her box.")
ChangeSwitch(98,98,0)
ChangeSwitch(96,96,0)
ShowChoices(strings("Don't attack","Attack"),1)
IfPlayerPicksChoice(0,"攻撃を控える")
 ShowMessageFace("",0,0,2,3)
 ShowMessage("Luka holds back from attacking...")
 ShowMessageFace("mimic_fc1",2,0,2,4)
 ShowMessage("\\n<Mimic>...Not attacking?")
 PictureClear(5)
 355("battler_graphic_show")
 ShowMessageFace("",0,0,2,5)
 ShowMessage("The Mimic comes back out!")
 RunCommonEvent(1999)
 EndEventProcessing()
 0()
IfPlayerPicksChoice(1,"追撃する")
 0()
404()
PictureDisplay(5,"80_mimic_st01",0,0,0,0,100,100,255,0)
ShowMessageFace("mimic_fc1",0,0,2,6)
ShowMessage("\\n<Mimic>Ahaha... You're mine!")
250(bytes(0x04,0x08,0x6f,0x3a,0x0c,0x52,0x50,0x47,0x3a,0x3a,0x53,0x45,0x08,0x3a,0x0a,0x40,0x6e,0x61,0x6d,0x65,0x49,0x22,0x13,0x6d,0x6f,0x6e,0x5f,0x65,0x72,0x6f,0x5f,0x73,0x6c,0x69,0x6d,0x65,0x33,0x06,0x3a,0x06,0x45,0x54,0x3a,0x0b,0x40,0x70,0x69,0x74,0x63,0x68,0x69,0x69,0x3a,0x0c,0x40,0x76,0x6f,0x6c,0x75,0x6d,0x65,0x69,0x69))
PictureDisplay(6,"ev_mimic_st21",0,0,0,0,100,100,255,0)
ShowMessageFace("",0,0,2,7)
ShowMessage("The Mimic opens up and swallows Luka at once!")
ShowMessage("Luka has been swallowed!")
ShowMessageFace("mimic_fc1",0,0,2,8)
ShowMessage("\\n<Mimic>Ahahaha, caught you~♪\nHey, hey, what are you going to do now? You can't escape.")
ShowMessageFace("",0,0,2,9)
ShowMessage("\\n<Luka>Hiiee...!")
ShowMessageFace("",0,0,2,10)
ShowMessage("The mucus around me melts my clothes instantly.")
ShowMessage("And all around me, her slimy mucus rubs against my skin.")
ShowMessageFace("mimic_fc1",0,0,2,11)
ShowMessage("\\n<Mimic>Aha, that's digestive fluids.\nWhat are you going to do? Your body is covered in digestive juices now...")
ShowMessageFace("mimic_fc1",0,0,2,12)
ShowMessage("\\n<Mimic>It will feel suuuuper good though, no pain at all.\nYou're going to be devoured by me. Ahahaha.")
ShowMessageFace("",0,0,2,13)
ShowMessage("\\n<Luka>Hiee! N-no...!")
ShowMessageFace("",0,0,2,14)
ShowMessage("The lukewarm digestive juices cover my body.")
ShowMessage("The strange warmth slowly put my thrashing at ease...")
ChangeVariable(26,26,3,0,2)
250(bytes(0x04,0x08,0x6f,0x3a,0x0c,0x52,0x50,0x47,0x3a,0x3a,0x53,0x45,0x08,0x3a,0x0a,0x40,0x6e,0x61,0x6d,0x65,0x49,0x22,0x13,0x6d,0x6f,0x6e,0x5f,0x65,0x72,0x6f,0x5f,0x73,0x6c,0x69,0x6d,0x65,0x33,0x06,0x3a,0x06,0x45,0x54,0x3a,0x0b,0x40,0x70,0x69,0x74,0x63,0x68,0x69,0x69,0x3a,0x0c,0x40,0x76,0x6f,0x6c,0x75,0x6d,0x65,0x69,0x69))
311(0,1,1,1,26,true)
ShowMessageFace("",0,0,2,15)
ShowMessage("The digestive fluids slowly start to dissolve Luka!\\D")
ShowMessage("Luka takes \\V[26] damage!")
ChangeVariable(27,27,0,3,3,1,2)
If(1,27,0,0,0)
 JumpToLabel("射精1")
 0()
EndIf()
ShowMessageFace("",0,0,2,16)
ShowMessage("\\n<Luka>No...Help me...!")
ShowMessageFace("mimic_fc1",0,0,2,17)
ShowMessage("\\n<Mimic>No help for you! Teehee...")
ShowMessageFace("",0,0,2,18)
ShowMessage("The Mimic clings to me.")
ShowMessage("But she's too strong, and I can't escape.")
ShowMessageFace("mimic_fc1",0,0,2,19)
ShowMessage("\\n<Mimic>Ah... Is your penis getting bigger?\nEven though you're getting digested, it's erect.")
ShowMessageFace("mimic_fc1",0,0,2,20)
ShowMessage("\\n<Mimic>Do my juices feel that good to you?\nWanting to come even though you're being eaten... What a pervert. Ahaha!")
ShowMessageFace("mimic_fc1",0,0,2,21)
ShowMessage("\\n<Mimic>Here, I'll give you more of the juices you seem to love so much. ♪")
ShowMessageFace("",0,0,2,22)
ShowMessage("\\n<Luka>Huaaa...")
250(bytes(0x04,0x08,0x6f,0x3a,0x0c,0x52,0x50,0x47,0x3a,0x3a,0x53,0x45,0x08,0x3a,0x0a,0x40,0x6e,0x61,0x6d,0x65,0x49,0x22,0x13,0x6d,0x6f,0x6e,0x5f,0x65,0x72,0x6f,0x5f,0x73,0x6c,0x69,0x6d,0x65,0x33,0x06,0x3a,0x06,0x45,0x54,0x3a,0x0b,0x40,0x70,0x69,0x74,0x63,0x68,0x69,0x69,0x3a,0x0c,0x40,0x76,0x6f,0x6c,0x75,0x6d,0x65,0x69,0x69))
PictureDisplay(6,"ev_mimic_ct11",0,0,0,0,100,100,255,0)
ShowMessageFace("",0,0,2,23)
ShowMessage("More juices splash out around me.")
ShowMessage("It's so viscous, it almost looks like slime...")
ShowMessageFace("mimic_fc1",0,0,2,24)
ShowMessage("\\n<Mimic>Hora...The slimy juices will feel good, I'm sure.\nDoes your penis feel like it could just melt away?")
ShowMessageFace("mimic_fc1",0,0,2,25)
ShowMessage("\\n<Mimic>Ahaha, but it really will melt.\nNow let me see you come.")
ShowMessageFace("mimic_fc1",0,0,2,26)
ShowMessage("\\n<Mimic>I'll let you feel something good at the end, at least. ♪")
ShowMessageFace("",0,0,2,27)
ShowMessage("\\n<Luka>Nnngh...")
ShowMessageFace("",0,0,2,28)
ShowMessage("It's almost like an amoeba.")
ShowMessage("Her slimy juices crawling all around me.")
ShowMessageFace("",0,0,2,29)
ShowMessage("The odd warmth fills me with a bizarre melting pleasure.")
ShowMessageFace("mimic_fc1",0,0,2,30)
ShowMessage("\\n<Mimic>This is your final gift...\nAfter you come, I'll dissolve you fast.")
ShowMessageFace("mimic_fc1",0,0,2,31)
ShowMessage("\\n<Mimic>If you don't want to be eaten, just don't come.\nHehe... Will you be able to withstand it?")
250(bytes(0x04,0x08,0x6f,0x3a,0x0c,0x52,0x50,0x47,0x3a,0x3a,0x53,0x45,0x08,0x3a,0x0a,0x40,0x6e,0x61,0x6d,0x65,0x49,0x22,0x13,0x6d,0x6f,0x6e,0x5f,0x65,0x72,0x6f,0x5f,0x73,0x6c,0x69,0x6d,0x65,0x33,0x06,0x3a,0x06,0x45,0x54,0x3a,0x0b,0x40,0x70,0x69,0x74,0x63,0x68,0x69,0x69,0x3a,0x0c,0x40,0x76,0x6f,0x6c,0x75,0x6d,0x65,0x69,0x69))
311(0,1,1,1,26,true)
ShowMessageFace("",0,0,2,32)
ShowMessage("The digestive juices around Luka's penis give him an eerie pleasure!\\D")
ShowMessage("Luka takes \\V[26] damage!")
ChangeVariable(27,27,0,3,3,1,2)
If(1,27,0,0,0)
 JumpToLabel("射精1")
 0()
EndIf()
ShowMessageFace("",0,0,2,33)
ShowMessage("\\n<Luka>Ugh...!")
ShowMessageFace("",0,0,2,34)
ShowMessage("I clench my teeth to hold back the rising pleasure.")
ShowMessageFace("mimic_fc1",0,0,2,35)
ShowMessage("\\n<Mimic>Ahahaha, you didn't come?\nGood job, goob job~")
ShowMessageFace("mimic_fc1",0,0,2,36)
ShowMessage("\\n<Mimic>But there's a lot more to go...\nHora, hora...")
250(bytes(0x04,0x08,0x6f,0x3a,0x0c,0x52,0x50,0x47,0x3a,0x3a,0x53,0x45,0x08,0x3a,0x0a,0x40,0x6e,0x61,0x6d,0x65,0x49,0x22,0x13,0x6d,0x6f,0x6e,0x5f,0x65,0x72,0x6f,0x5f,0x73,0x6c,0x69,0x6d,0x65,0x33,0x06,0x3a,0x06,0x45,0x54,0x3a,0x0b,0x40,0x70,0x69,0x74,0x63,0x68,0x69,0x69,0x3a,0x0c,0x40,0x76,0x6f,0x6c,0x75,0x6d,0x65,0x69,0x69))
311(0,1,1,1,26,true)
ShowMessageFace("",0,0,2,37)
ShowMessage("The digestive juices around Luka's penis give him an eerie pleasure!\\D")
ShowMessage("Luka takes \\V[26] damage!")
ChangeVariable(27,27,0,3,3,1,2)
If(1,27,0,0,0)
 JumpToLabel("射精1")
 0()
EndIf()
ShowMessageFace("",0,0,2,38)
ShowMessage("\\n<Luka>Aaaaah...!")
ShowMessageFace("mimic_fc1",0,0,2,39)
ShowMessage("\\n<Mimic>Teehee, is that it?\nAre you going to come?")
ShowMessageFace("mimic_fc1",0,0,2,40)
ShowMessage("\\n<Mimic>Covered in digestive juices, and coming...\nAhaha, and then your penis will melt away.")
ShowMessageFace("mimic_fc1",0,0,2,41)
ShowMessage("\\n<Mimic>Your most important thing as a boy will be eaten.")
ShowMessageFace("mimic_fc1",0,0,2,42)
ShowMessage("\\n<Mimic>Aren't you going to beg?\nAsk me to stop and let you go?")
ShowMessageFace("",0,0,2,43)
ShowMessage("\\n<Luka>S-Stop... I'm begging you...")
ShowMessageFace("mimic_fc1",0,0,2,44)
ShowMessage("\\n<Mimic>Not a chance! Aha!\nI'm going to dissolve your penis. ♪")
250(bytes(0x04,0x08,0x6f,0x3a,0x0c,0x52,0x50,0x47,0x3a,0x3a,0x53,0x45,0x08,0x3a,0x0a,0x40,0x6e,0x61,0x6d,0x65,0x49,0x22,0x13,0x6d,0x6f,0x6e,0x5f,0x65,0x72,0x6f,0x5f,0x73,0x6c,0x69,0x6d,0x65,0x33,0x06,0x3a,0x06,0x45,0x54,0x3a,0x0b,0x40,0x70,0x69,0x74,0x63,0x68,0x69,0x69,0x3a,0x0c,0x40,0x76,0x6f,0x6c,0x75,0x6d,0x65,0x69,0x69))
311(0,1,1,1,26,true)
ShowMessageFace("",0,0,2,45)
ShowMessage("The digestive juices around Luka's penis give him an eerie pleasure!\\D")
ShowMessage("Luka takes \\V[26] damage!")
ChangeVariable(27,27,0,3,3,1,2)
If(1,27,0,0,0)
 JumpToLabel("射精1")
 0()
EndIf()
ShowMessageFace("",0,0,2,46)
ShowMessage("\\n<Luka>Huaaa...")
ShowMessageFace("mimic_fc1",0,0,2,47)
ShowMessage("\\n<Mimic>You're about to come now, I can tell.\nToo bad, you endured it for so long too.")
ShowMessageFace("mimic_fc1",0,0,2,48)
ShowMessage("\\n<Mimic>But it's time to dissolve you.\nYou'll dissolve into mush to become my food.")
ShowMessageFace("mimic_fc1",0,0,2,49)
ShowMessage("\\n<Mimic>Ahaha, have you said good bye to your life?\nWell then, is it time for me to feast?")
250(bytes(0x04,0x08,0x6f,0x3a,0x0c,0x52,0x50,0x47,0x3a,0x3a,0x53,0x45,0x08,0x3a,0x0a,0x40,0x6e,0x61,0x6d,0x65,0x49,0x22,0x13,0x6d,0x6f,0x6e,0x5f,0x65,0x72,0x6f,0x5f,0x73,0x6c,0x69,0x6d,0x65,0x33,0x06,0x3a,0x06,0x45,0x54,0x3a,0x0b,0x40,0x70,0x69,0x74,0x63,0x68,0x69,0x69,0x3a,0x0c,0x40,0x76,0x6f,0x6c,0x75,0x6d,0x65,0x69,0x69))
311(0,1,1,1,26,true)
ShowMessageFace("",0,0,2,50)
ShowMessage("The digestive juices around Luka's penis give him an eerie pleasure!\\D")
ShowMessage("Luka takes \\V[26] damage!")
ChangeVariable(27,27,0,3,3,1,2)
If(1,27,0,0,0)
 JumpToLabel("射精1")
 0()
EndIf()
DefineLabel("射精1")
ShowMessageFace("",0,0,2,51)
ShowMessage("\\n<Luka>Oh no, I'm coming... Aaah...")
RunCommonEvent(104)
PictureDisplay(5,"ev_mimic_st22",0,0,0,0,100,100,255,0)
PictureDisplay(6,"ev_mimic_ct12",0,0,0,0,100,100,255,0)
RunCommonEvent(105)
ShowMessageFace("",0,0,2,52)
ShowMessage("With her digestive juics clinging to my penis, I come.")
ShowMessage("Unable to withstand the strange pleasure, I reach a horrifying climax.")
ShowMessageFace("mimic_fc1",0,0,2,53)
ShowMessage("\\n<Mimic>You came...\nI hope you enjoyed your final pleasure...")
ShowMessageFace("mimic_fc1",0,0,2,54)
ShowMessage("\\n<Mimic>Now it's time for me to enjoy it...")
RunCommonEvent(2000)
EndEventProcessing()
0()
