// EVENT 3310
Name "Forest Dryad"

PictureDisplay(5,"80_f_dryad_st02",0,0,0,0,100,100,0,0)
PictureMove(5,null,0,0,0,0,100,100,255,0,30,true)
241(bytes(0x04,0x08,0x6f,0x3a,0x0d,0x52,0x50,0x47,0x3a,0x3a,0x42,0x47,0x4d,0x08,0x3a,0x0a,0x40,0x6e,0x61,0x6d,0x65,0x49,0x22,0x09,0x65,0x72,0x6f,0x31,0x06,0x3a,0x06,0x45,0x54,0x3a,0x0c,0x40,0x76,0x6f,0x6c,0x75,0x6d,0x65,0x69,0x69,0x3a,0x0b,0x40,0x70,0x69,0x74,0x63,0x68,0x69,0x69))
ShowMessageFace("",0,0,2,1)
ShowMessage("\\n<Luka>")
ShowMessage("Auuu...")
ShowMessageFace("f_dryad_fc1",1,0,2,2)
ShowMessage("\\n<Forest Dryad>")
ShowMessage("Can't resist anymore? In that case, I'll suck out your semen...")
ShowMessageFace("",0,0,2,3)
ShowMessage("Tree roots crawl out of the ground, taking my clothes off and restraining me...")
PictureDisplay(5,"ev_f_dryad_h01",0,0,0,0,100,100,0,0)
PictureMove(5,null,0,0,0,0,100,100,255,0,30,true)
ShowMessageFace("",0,0,2,4)
ShowMessage("\\n<Luka>")
ShowMessage("Ugh... Urgh...")
ShowMessageFace("",0,0,2,5)
ShowMessage("Before I know it I'm stark naked in a humiliating position, bound to a solid tree trunk in front of the Forest Dryad.")
ShowMessageFace("",0,0,2,6)
ShowMessage("I'm even deprived of my vision but I can feel the Forest Dryad next to me. I realize there's no way I can resist this.")
PictureDisplay(5,"ev_f_dryad_h02",0,0,0,0,100,100,255,0)
ShowMessageFace("f_dryad_fc1",1,0,2,7)
ShowMessage("\\n<Forest Dryad>")
ShowMessage("Now you can't escape, you're at my mercy...")
ShowMessageFace("f_dryad_fc1",1,0,2,8)
ShowMessage("\\n<Forest Dryad>")
ShowMessage("Also, your penis is already like this... You're quite expectant aren't you, fufufu...")
PictureDisplay(5,"ev_f_dryad_h03",0,0,0,0,100,100,255,0)
ShowMessageFace("",0,0,2,9)
ShowMessage("The Forest Dryad reaches out and touches my penis, filling me with the soft touch of her palm stroking it...")
ShowMessageFace("",0,0,2,10)
ShowMessage("\\n<Luka>")
ShowMessage("Hauuu...")
ShowMessageFace("",0,0,2,11)
ShowMessage("I feel even more sensitive because I can't see anything and her hand stroking my penis makes my waist tremble.")
PictureDisplay(5,"ev_f_dryad_h04",0,0,0,0,100,100,255,0)
ShowMessageFace("f_dryad_fc1",1,0,2,12)
ShowMessage("\\n<Forest Dryad>")
ShowMessage("Your penis is trembling when I stroke it... Does it feel that good, ufufu...")
ShowMessageFace("",0,0,2,13)
ShowMessage("The Dryad keeps stroking and caressing my penis with her soft hand as she laughs, apparently satisfied with my reaction.")
ShowMessageFace("",0,0,2,14)
ShowMessage("\\n<Luka>")
ShowMessage("Hau... Ah, aau...!")
ShowMessageFace("f_dryad_fc1",1,0,2,15)
ShowMessage("\\n<Forest Dryad>")
ShowMessage("It's quite big now; I can finally draw out nutrients from you, you pathetic boy...")
ShowMessageFace("",0,0,2,16)
ShowMessage("\\n<Luka>")
ShowMessage("N-nutrients...?")
PictureDisplay(5,"ev_f_dryad_h06",0,0,0,0,100,100,255,0)
ShowMessageFace("",0,0,2,17)
ShowMessage("I feel something slithering over me but because my vision is blocked, I have no idea what's going on...")
ShowMessageFace("f_dryad_fc1",1,0,2,18)
ShowMessage("\\n<Forest Dryad>")
ShowMessage("I don't cross with men. I extract their semen and use it as nourishment but through my roots.")
ShowMessageFace("",0,0,2,19)
ShowMessage("\\n<Luka>")
ShowMessage("Roots? That's...!")
ShowMessageFace("f_dryad_fc1",1,0,2,20)
ShowMessage("\\n<Forest Dryad>")
ShowMessage("I'll use this root to wring you, it's specifically designed to suck out semen.")
ShowMessageFace("",0,0,2,21)
ShowMessage("Even though I can't see it, I feel something like a tentacle moving, approaching my crotch...")
ShowMessageFace("",0,0,2,22)
ShowMessage("\\n<Luka>")
ShowMessage("S-stop... Aaah...!")
ShowMessageFace("f_dryad_fc1",1,0,2,23)
ShowMessage("\\n<Forest Dryad>")
ShowMessage("Don't be afraid, it's going to be all right... You're going to feel very good after I put your penis inside.")
ShowMessageFace("",0,0,2,24)
ShowMessage("\\n<Luka>")
ShowMessage("No, don't... Ah, aaaaah...!")
245(bytes(0x04,0x08,0x6f,0x3a,0x0d,0x52,0x50,0x47,0x3a,0x3a,0x42,0x47,0x53,0x08,0x3a,0x0a,0x40,0x6e,0x61,0x6d,0x65,0x49,0x22,0x17,0x6d,0x6f,0x6e,0x5f,0x68,0x73,0x65,0x61,0x6e,0x31,0x34,0x5f,0x6b,0x79,0x75,0x69,0x6e,0x31,0x06,0x3a,0x06,0x45,0x54,0x3a,0x0c,0x40,0x76,0x6f,0x6c,0x75,0x6d,0x65,0x69,0x55,0x3a,0x0b,0x40,0x70,0x69,0x74,0x63,0x68,0x69,0x69))
PictureDisplay(5,"ev_f_dryad_h07",0,0,0,0,100,100,255,0)
ShowMessageFace("",0,0,2,25)
ShowMessage("With a slurping sound, my penis is wrapped in a strange sensation. It feels as if I'm sinking inside a wriggling flesh hole.")
ShowMessageFace("",0,0,2,26)
ShowMessage("The Dryad's root swallows my penis and encases it in a slimy sensation...")
ShowMessageFace("f_dryad_fc1",1,0,2,27)
ShowMessage("\\n<Forest Dryad>")
ShowMessage("Ufufu... How does my semen squeezing root feel? It's far more pleasant than a woman's vagina...")
ShowMessageFace("",0,0,2,28)
ShowMessage("\\n<Luka>")
ShowMessage("Hau... Ah, aaaaah...")
PictureDisplay(5,"ev_f_dryad_h09",0,0,0,0,100,100,255,0)
ShowMessageFace("",0,0,2,29)
ShowMessage("The inside is slimy and full of sap, and the undulating membrane feels a lot softer than what I expected.")
ShowMessageFace("",0,0,2,30)
ShowMessage("Just being wrapped inside it feels so good that I could come. I focus on my waist trying to hold back my ejaculation.")
ShowMessageFace("f_dryad_fc1",1,0,2,31)
ShowMessage("\\n<Forest Dryad>")
ShowMessage("Ufufu... Are you trying to hold back from ejaculating? Regardless of how hard you try, I'm still going to squeeze it out of you by force...")
ShowMessageFace("",0,0,2,32)
ShowMessage("\\n<Luka>")
ShowMessage("Ah, aaaaah...!")
PictureDisplay(5,"ev_f_dryad_h10",0,0,0,0,100,100,255,0)
ShowMessageFace("",0,0,2,33)
ShowMessage("Slurping and squeezing, the undulation of her soft flesh becomes more intense, gradually increasing the power of its sucking.")
ShowMessageFace("",0,0,2,34)
ShowMessage("Her soft flesh gently clings to my penis, wriggling and squirming really fast, rubbing intensely against my glans...")
ShowMessageFace("",0,0,2,35)
ShowMessage("\\n<Luka>")
ShowMessage("Aaah... This feels, too good to endure...")
ShowMessageFace("f_dryad_fc1",1,0,2,36)
ShowMessage("\\n<Forest Dryad>")
ShowMessage("Hoora, you can't endure it? Then give up, feed your nourishing semen to my root...")
ShowMessageFace("",0,0,2,37)
ShowMessage("\\n<Luka>")
ShowMessage("Hau... Urgh...")
ShowMessageFace("",0,0,2,38)
ShowMessage("Her soft flesh and membrane coats my male organ with sweet pleasure. As my penis is wrapped inside her semen squeezing hole, a wave of ecstasy washes over me.")
ShowMessageFace("",0,0,2,39)
ShowMessage("I give myself over to the slimy feeling of being sucked and all the power in my waist vanishes. A sweet numbness spreads through my nether region and the feeling of release shoots up my spine...")
ShowMessageFace("",0,0,2,40)
ShowMessage("\\n<Luka>")
ShowMessage("It feels so good... Ah, aaaaaaah...!!")
RunCommonEvent(104)
PictureDisplay(5,"ev_f_dryad_h11",0,0,0,0,100,100,255,0)
RunCommonEvent(105)
ShowMessageFace("",0,0,2,41)
ShowMessage("As my waist trembles, my semen finally shoots out and is absorbed by the root.")
ShowMessageFace("",0,0,2,42)
ShowMessage("On top of that, all throughout my ejaculation, the root keeps sucking on my penis making the ejaculation feel even better than it normally does...")
ShowMessageFace("",0,0,2,43)
ShowMessage("\\n<Luka>")
ShowMessage("Ah... Fuaaaa...")
ShowMessageFace("f_dryad_fc1",1,0,2,44)
ShowMessage("\\n<Forest Dryad>")
ShowMessage("Ufufu, does it feel good? When I suck up nutrients it feels the best...")
ShowMessageFace("f_dryad_fc1",1,0,2,45)
ShowMessage("\\n<Forest Dryad>")
ShowMessage("I'll suck out even more, until not even a single drop is left...")
ShowMessageFace("",0,0,2,46)
ShowMessage("\\n<Luka>")
ShowMessage("Hauu... Ah, aaaaah...!")
ShowMessageFace("",0,0,2,47)
ShowMessage("The root continues its crazy stimulation, the sucking becoming even more intense, making me want to be forcibly wrung.")
ShowMessageFace("",0,0,2,48)
ShowMessage("My waist shoots up and I give myself over to the feeling of release as my penis is encouraged to come...")
ShowMessageFace("",0,0,2,49)
ShowMessage("\\n<Luka>")
ShowMessage("Ah...! Aaaaaah...!!")
RunCommonEvent(104)
PictureDisplay(5,"ev_f_dryad_h12",0,0,0,0,100,100,255,0)
RunCommonEvent(105)
ShowMessageFace("",0,0,2,50)
ShowMessage("I come once more and weakness starts spreading through me as I continuously ejaculate.")
ShowMessageFace("",0,0,2,51)
ShowMessage("\\n<Luka>")
ShowMessage("Ah... Hauuu...")
ShowMessageFace("f_dryad_fc1",1,0,2,52)
ShowMessage("\\n<Forest Dryad>")
ShowMessage("Ufufu, it feels good... Shoot everything out like this.")
ShowMessageFace("",0,0,2,53)
ShowMessage("\\n<Luka>")
ShowMessage("Aaaaaaah...!!")
RunCommonEvent(104)
PictureDisplay(5,"ev_f_dryad_h13",0,0,0,0,100,100,255,0)
RunCommonEvent(105)
ShowMessageFace("",0,0,2,54)
ShowMessage("My penis is mercilessly sucked, semen shooting out of it as I'm forced to ejaculate continuously.")
ShowMessageFace("f_dryad_fc1",1,0,2,55)
ShowMessage("\\n<Forest Dryad>")
ShowMessage("More nutrients... Ufufufu...")
ShowMessageFace("",0,0,2,56)
ShowMessage("\\n<Luka>")
ShowMessage("Hya... Ah, aaaaaah...!!")
RunCommonEvent(104)
RunCommonEvent(105)
ShowMessageFace("f_dryad_fc1",1,0,2,57)
ShowMessage("\\n<Forest Dryad>")
ShowMessage("You can still come... Shoot everything out until the last drop.")
ShowMessageFace("",0,0,2,58)
ShowMessage("\\n<Luka>")
ShowMessage("Ah... Ayeeeee...!!")
RunCommonEvent(104)
RunCommonEvent(105)
246(2)
ShowMessageFace("",0,0,2,59)
ShowMessage("Thus, I'm forced to come over and over until not a single drop came out of me anymore...")
ShowMessageFace("",0,0,2,60)
ShowMessage("\\n<Luka>")
ShowMessage("ah... aah...")
ShowMessageFace("",0,0,2,61)
ShowMessage("Completely wrung, my body convulses after every last drop is squeezed out of me.")
ShowMessageFace("f_dryad_fc1",1,0,2,62)
ShowMessage("\\n<Forest Dryad>")
ShowMessage("...I've squeezed it all out. This is enough for today.")
ShowMessageFace("f_dryad_fc1",1,0,2,63)
ShowMessage("\\n<Forest Dryad>")
ShowMessage("But I'm going to wring you again tomorrow... Please give me all your semen, every day from now on.")
ShowMessageFace("",0,0,2,64)
ShowMessage("\\n<Luka>")
ShowMessage("Th-that's...")
ShowMessageFace("",0,0,2,65)
ShowMessage("Totally exhausted, I can barely keep my eyes open and in the end, filled with despair, I faint...")
221()
PictureClear(5)
PictureClear(6)
ShowMessageFace("",0,0,2,66)
ShowMessage("After that, I was never released, bound by the Forest Dryad's roots.")
ShowMessageFace("",0,0,2,67)
ShowMessage("She kept me like that, sucking up my semen endlessly, turning me into an invalid man...")
ShowMessageFace("",0,0,2,68)
ShowMessage("......")
221()
242(1)
Wait(120)
355("memory_interruption")
ShowMessageFace("",0,0,2,69)
ShowMessage("You hear Ilias' voice calling out to you...")
ShowMessage("Receive her evaluation?")
ShowChoices(strings("Receive evaluation","Change difficulty","Reincarnate"),3)
IfPlayerPicksChoice(0,"Receive Evaluation")
 241(bytes(0x04,0x08,0x6f,0x3a,0x0d,0x52,0x50,0x47,0x3a,0x3a,0x42,0x47,0x4d,0x08,0x3a,0x0a,0x40,0x6e,0x61,0x6d,0x65,0x49,0x22,0x0a,0x69,0x72,0x69,0x61,0x73,0x06,0x3a,0x06,0x45,0x54,0x3a,0x0c,0x40,0x76,0x6f,0x6c,0x75,0x6d,0x65,0x69,0x5f,0x3a,0x0b,0x40,0x70,0x69,0x74,0x63,0x68,0x69,0x6e))
 PictureDisplay(1,"bg001",0,0,0,0,100,100,255,0)
 222()
 PictureDisplay(5,"80_iriasu_st04",0,0,0,0,100,100,0,0)
 PictureMove(5,null,0,0,0,0,100,100,255,0,30,true)
 ShowMessageFace("iriasu_fc1",3,0,2,70)
 ShowMessage("\\n<Ilias>")
 ShowMessage("It seems you're confused about how to grow plants...")
 ShowMessage("Under normal circumstances if you sow your semen, plants won't grow from it.")
 PictureDisplay(5,"80_iriasu_st01",0,0,0,0,100,100,255,0)
 ShowMessageFace("iriasu_fc1",0,0,2,71)
 ShowMessage("\\n<Ilias>")
 ShowMessage("The Forest Dryad mainly focuses on attacking physically.")
 ShowMessage("You should focus on protecting against Bind since her attacks frequently inflict that status.")
 ShowMessageFace("iriasu_fc1",0,0,2,72)
 ShowMessage("\\n<Ilias>")
 ShowMessage("Because she belongs to the plant family, she's weak to Bio and Fire elemental attacks.")
 ShowMessage("Silence and Petrify also work well on her so don't hesitate to make use of them.")
 PictureDisplay(5,"80_iriasu_st02",0,0,0,0,100,100,255,0)
 ShowMessageFace("iriasu_fc1",1,0,2,73)
 ShowMessage("\\n<Ilias>")
 ShowMessage("Now go, oh Brave Luka.")
 ShowMessage("I'll give you a potted plant so you can raise it with your semen.")
 242(1)
 221()
 PictureClear(5)
 PictureClear(1)
 Wait(60)
 0()
IfPlayerPicksChoice(1,"Change difficulty")
 ShowMessageFace("",0,0,2,74)
 ShowMessage("Please choose a difficulty level.")
 RunCommonEvent(110)
 0()
IfPlayerPicksChoice(2,"Reincarnate")
 0()
404()
RunCommonEvent(3000)
0()
