﻿// EVENT 1293
Name "Talk: Amphil"

If(1,20,0,1,0)
 JumpToLabel("情報")
 0()
EndIf()
If(1,20,0,2,0)
 JumpToLabel("質問")
 0()
EndIf()
If(1,20,0,3,0)
 JumpToLabel("要求")
 0()
EndIf()
If(1,20,0,4,0)
 JumpToLabel("贈与")
 0()
EndIf()
DefineLabel("情報")
ChangeVariable(13,13,0,2,1,100)
If(1,13,0,10,2)
 ShowMessageFace("anfill_fc1",0,0,2,1)
 ShowMessage("\\n<Amphil>Class One Cross-World Contact...\nI'll dispose of you...")
 EndEventProcessing()
 0()
EndIf()
If(1,13,0,20,2)
 ShowMessageFace("anfill_fc1",0,0,2,2)
 ShowMessage("\\n<Amphil>I'll wind around you...")
 EndEventProcessing()
 0()
EndIf()
If(1,13,0,30,2)
 ShowMessageFace("anfill_fc1",0,0,2,3)
 ShowMessage("\\n<Amphil>What is this body...?\nWhat am I...?")
 EndEventProcessing()
 0()
EndIf()
If(1,13,0,40,2)
 ShowMessageFace("anfill_fc1",0,0,2,4)
 ShowMessage("\\n<Amphil>Wrap around... I want to be entwined around you...")
 EndEventProcessing()
 0()
EndIf()
If(1,13,0,50,2)
 ShowMessageFace("anfill_fc1",0,0,2,5)
 ShowMessage("\\n<Amphil>Let me suck your semen... Please let me suck it...")
 EndEventProcessing()
 0()
EndIf()
If(1,13,0,60,2)
 ShowMessageFace("anfill_fc1",0,0,2,6)
 ShowMessage("\\n<Amphil>Give me your nourishment...")
 EndEventProcessing()
 0()
EndIf()
If(1,13,0,70,2)
 ShowMessageFace("anfill_fc1",0,0,2,7)
 ShowMessage("\\n<Amphil>Where am I...?\nI've always been in this dark place...")
 EndEventProcessing()
 0()
EndIf()
If(1,13,0,80,2)
 ShowMessageFace("anfill_fc1",0,0,2,8)
 ShowMessage("\\n<Amphil>I feel as if multiple wills are mixed into my being... One by one, these worms form my body...")
 EndEventProcessing()
 0()
EndIf()
If(1,13,0,90,2)
 ShowMessageFace("anfill_fc1",0,0,2,9)
 ShowMessage("\\n<Amphil>I want to leave this place...")
 EndEventProcessing()
 0()
EndIf()
If(1,13,0,100,2)
 ShowMessageFace("anfill_fc1",0,0,2,10)
 ShowMessage("\\n<Amphil>I wonder how much time I have spent here...?")
 EndEventProcessing()
 0()
EndIf()
DefineLabel("質問")
ChangeVariable(13,13,0,2,1,50)
If(1,13,0,10,2)
 ShowMessageFace("anfill_fc1",0,0,2,11)
 ShowMessage("\\n<Amphil>What...am I?")
 ShowChoices(strings("Apoptosis","Parasite","Human"),0)
 IfPlayerPicksChoice(0,"アポトーシス")
  ShowMessageFace("anfill_fc1",0,0,2,12)
  ShowMessage("\\n<Amphil>Yes, I am an Apoptosis...\nA voice is telling me to eliminate intruders...")
  355("change_friend(-5)")
  0()
 IfPlayerPicksChoice(1,"寄生虫")
  ShowMessageFace("anfill_fc1",0,0,2,13)
  ShowMessage("\\n<Amphil>I am a parasite...?\nWhat am I infecting...?")
  0()
 IfPlayerPicksChoice(2,"人間")
  ShowMessageFace("anfill_fc1",0,0,2,14)
  ShowMessage("\\n<Amphil>Human...? I am human with this body...?\nI would like to believe so...")
  355("change_friend(10)")
  0()
 404()
 EndEventProcessing()
 0()
EndIf()
If(1,13,0,20,2)
 ShowMessageFace("anfill_fc1",0,0,2,15)
 ShowMessage("\\n<Amphil>Is there an end to this nightmare...?")
 ShowChoices(strings("There is","There isn't","I tremble in my sleep"),0)
 IfPlayerPicksChoice(0,"ある")
  ShowMessageFace("anfill_fc1",0,0,2,16)
  ShowMessage("\\n<Amphil>I want to think so...")
  355("change_friend(10)")
  0()
 IfPlayerPicksChoice(1,"ない")
  ShowMessageFace("anfill_fc1",0,0,2,17)
  ShowMessage("\\n<Amphil>I see... This nightmare will continue for eternity...")
  0()
 IfPlayerPicksChoice(2,"震えて眠れ")
  ShowMessageFace("anfill_fc1",2,0,2,18)
  ShowMessage("\\n<Amphil>I'm scared...")
  355("change_friend(-5)")
  0()
 404()
 EndEventProcessing()
 0()
EndIf()
If(1,13,0,30,2)
 ShowMessageFace("anfill_fc1",0,0,2,19)
 ShowMessage("\\n<Amphil>What should I do...?")
 ShowChoices(strings("Eliminate intruders","Guide me around Tartarus","Mate with me"),0)
 IfPlayerPicksChoice(0,"侵入者の排除")
  ShowMessageFace("anfill_fc1",0,0,2,20)
  ShowMessage("\\n<Amphil>Then, I will eliminate you...")
  355("change_friend(-5)")
  0()
 IfPlayerPicksChoice(1,"タルタロスの案内")
  ShowMessageFace("anfill_fc1",0,0,2,21)
  ShowMessage("\\n<Amphil>So... What would you like to see...?\nI'll show you after I take your freedom...")
  0()
 IfPlayerPicksChoice(2,"僕と繁殖")
  ShowMessageFace("anfill_fc1",0,0,2,22)
  ShowMessage("\\n<Amphil>Then...let's breed...")
  355("change_friend(10)")
  0()
 404()
 EndEventProcessing()
 0()
EndIf()
If(1,13,0,40,2)
 ShowMessageFace("anfill_fc1",0,0,2,23)
 ShowMessage("\\n<Amphil>Sometimes, my body gets tangled and cannot be unwound... What should I do...?")
 ShowChoices(strings("Untangle yourself","Don't get tangled","Cut it apart"),0)
 IfPlayerPicksChoice(0,"解き方を極める")
  ShowMessageFace("anfill_fc1",0,0,2,24)
  ShowMessage("\\n<Amphil>That seems quite difficult...")
  0()
 IfPlayerPicksChoice(1,"絡まらないようにする")
  ShowMessageFace("anfill_fc1",0,0,2,25)
  ShowMessage("\\n<Amphil>If that were possible, I would not worry about this...")
  355("change_friend(-5)")
  0()
 IfPlayerPicksChoice(2,"いっそ切断する")
  ShowMessageFace("anfill_fc1",0,0,2,26)
  ShowMessage("\\n<Amphil>I suppose it is quicker to do so...")
  355("change_friend(10)")
  0()
 404()
 EndEventProcessing()
 0()
EndIf()
If(1,13,0,50,2)
 ShowMessageFace("anfill_fc1",0,0,2,27)
 ShowMessage("\\n<Amphil>Where did you come from...?")
 ShowChoices(strings("I came from outside Tartarus","I left from Tartarus","I don't understand"),0)
 IfPlayerPicksChoice(0,"タルタロスの外から来た")
  ShowMessageFace("anfill_fc1",0,0,2,28)
  ShowMessage("\\n<Amphil>Then you are an intruder... I will eliminate you...")
  355("change_friend(-5)")
  0()
 IfPlayerPicksChoice(1,"タルタロスの中からわき出た")
  ShowMessageFace("anfill_fc1",0,0,2,29)
  ShowMessage("\\n<Amphil>But you are not an Apoptosis...")
  0()
 IfPlayerPicksChoice(2,"分からない")
  ShowMessageFace("anfill_fc1",0,0,2,30)
  ShowMessage("\\n<Amphil>Then you're the same as me...")
  355("change_friend(10)")
  0()
 404()
 EndEventProcessing()
 0()
EndIf()
DefineLabel("要求")
ChangeVariable(13,13,0,2,1,30)
If(1,13,0,10,2)
 If(8,331)
  ShowMessageFace("anfill_fc1",0,0,2,31)
  ShowMessage("\\n<Amphil>Please give me a sausage...")
  ChangeVariable(24,24,0,3,0,331,0)
  ShowMessageFace("",0,0,2,32)
  ShowMessage("Do you want to give a \\ii[331]? (Have:\\V[24])")
  ShowChoices(strings("Yes","No"),2)
  IfPlayerPicksChoice(0,"Yes")
   ShowMessageFace("anfill_fc1",0,0,2,33)
   ShowMessage("\\n<Amphil>Give it...fufu...")
   ChangeInventory_Item(331,1,0,1)
   355("change_friend(20)")
   EndEventProcessing()
   0()
  IfPlayerPicksChoice(1,"No")
   ShowMessageFace("anfill_fc1",2,0,2,34)
   ShowMessage("\\n<Amphil>............")
   EndEventProcessing()
   0()
  404()
  0()
 Else()
  ChangeVariable(13,13,0,0,20)
  0()
 EndIf()
 0()
EndIf()
If(1,13,0,20,2)
 If(8,55)
  ShowMessageFace("anfill_fc1",0,0,2,35)
  ShowMessage("\\n<Amphil>Please give me an ice stone...")
  ChangeVariable(24,24,0,3,0,55,0)
  ShowMessageFace("",0,0,2,36)
  ShowMessage("Do you want to give an \\ii[55]? (Have:\\V[24])")
  ShowChoices(strings("Yes","No"),2)
  IfPlayerPicksChoice(0,"Yes")
   ShowMessageFace("anfill_fc1",0,0,2,37)
   ShowMessage("\\n<Amphil>Give it...fufu...")
   ChangeInventory_Item(55,1,0,1)
   355("change_friend(30)")
   EndEventProcessing()
   0()
  IfPlayerPicksChoice(1,"No")
   ShowMessageFace("anfill_fc1",2,0,2,38)
   ShowMessage("\\n<Amphil>............")
   EndEventProcessing()
   0()
  404()
  0()
 Else()
  ChangeVariable(13,13,0,0,30)
  0()
 EndIf()
 0()
EndIf()
If(1,13,0,30,2)
 ShowMessageFace("anfill_fc1",0,0,2,39)
 ShowMessage("\\n<Amphil>Please give me some money...")
 If(7,996,0)
  ChangeVariable(24,24,0,3,7,2,0)
  ShowMessageFace("",0,0,2,40)
  ShowMessage("Do you want to give 996G? (Remaining:\\V[24])")
  ShowChoices(strings("Yes","No"),2)
  IfPlayerPicksChoice(0,"Yes")
   ShowMessageFace("anfill_fc1",0,0,2,41)
   ShowMessage("\\n<Amphil>Give it...fufu...")
   125(1,0,996)
   355("change_friend(25)")
   EndEventProcessing()
   0()
  IfPlayerPicksChoice(1,"No")
   ShowMessageFace("anfill_fc1",2,0,2,42)
   ShowMessage("\\n<Amphil>............")
   EndEventProcessing()
   0()
  404()
  0()
 Else()
  ShowMessageFace("anfill_fc1",0,0,2,43)
  ShowMessage("\\n<Amphil>...You have none? I did not think so...")
  EndEventProcessing()
  0()
 EndIf()
 0()
EndIf()
DefineLabel("贈与")
ChangeVariable(13,13,0,2,1,30)
If(1,25,0,1,0)
 ChangeVariable(13,13,0,0,30)
 ChangeVariable(25,25,0,0,0)
 0()
EndIf()
If(1,25,0,2,0)
 ChangeVariable(13,13,0,2,1,20)
 ChangeVariable(25,25,0,0,0)
 0()
EndIf()
If(1,13,0,10,2)
 ShowMessageFace("anfill_fc1",0,0,2,44)
 ShowMessage("\\n<Amphil>I will give you a squid...")
 250(bytes(0x04,0x08,0x6f,0x3a,0x0c,0x52,0x50,0x47,0x3a,0x3a,0x53,0x45,0x08,0x3a,0x0a,0x40,0x6e,0x61,0x6d,0x65,0x49,0x22,0x0a,0x49,0x74,0x65,0x6d,0x31,0x06,0x3a,0x06,0x45,0x54,0x3a,0x0b,0x40,0x70,0x69,0x74,0x63,0x68,0x69,0x69,0x3a,0x0c,0x40,0x76,0x6f,0x6c,0x75,0x6d,0x65,0x69,0x55))
 ChangeInventory_Item(325,0,0,1)
 ShowMessageFace("",0,0,2,45)
 ShowMessage("Amphil gave you a \\ii[325]!")
 EndEventProcessing()
 0()
EndIf()
If(1,13,0,20,2)
 ShowMessageFace("anfill_fc1",0,0,2,46)
 ShowMessage("\\n<Amphil>I will give you this mass of chaos...")
 250(bytes(0x04,0x08,0x6f,0x3a,0x0c,0x52,0x50,0x47,0x3a,0x3a,0x53,0x45,0x08,0x3a,0x0a,0x40,0x6e,0x61,0x6d,0x65,0x49,0x22,0x0a,0x49,0x74,0x65,0x6d,0x31,0x06,0x3a,0x06,0x45,0x54,0x3a,0x0b,0x40,0x70,0x69,0x74,0x63,0x68,0x69,0x69,0x3a,0x0c,0x40,0x76,0x6f,0x6c,0x75,0x6d,0x65,0x69,0x55))
 ChangeInventory_Item(235,0,0,1)
 ShowMessageFace("",0,0,2,47)
 ShowMessage("Amphil gave you a \\ii[235]!")
 EndEventProcessing()
 0()
EndIf()
If(1,13,0,30,2)
 ShowMessageFace("anfill_fc1",0,0,2,48)
 ShowMessage("\\n<Amphil>I will give you some money...")
 250(bytes(0x04,0x08,0x6f,0x3a,0x0c,0x52,0x50,0x47,0x3a,0x3a,0x53,0x45,0x08,0x3a,0x0a,0x40,0x6e,0x61,0x6d,0x65,0x49,0x22,0x0a,0x49,0x74,0x65,0x6d,0x31,0x06,0x3a,0x06,0x45,0x54,0x3a,0x0b,0x40,0x70,0x69,0x74,0x63,0x68,0x69,0x69,0x3a,0x0c,0x40,0x76,0x6f,0x6c,0x75,0x6d,0x65,0x69,0x55))
 125(0,0,1660)
 ShowMessageFace("",0,0,2,49)
 ShowMessage("Amphil gave you 1660G!")
 EndEventProcessing()
 0()
EndIf()
0()
