﻿// EVENT 1265
Name "Talk: Arch Jelly"

If(1,20,0,1,0)
 JumpToLabel("情報")
 0()
EndIf()
If(1,20,0,2,0)
 JumpToLabel("質問")
 0()
EndIf()
If(1,20,0,3,0)
 JumpToLabel("要求")
 0()
EndIf()
If(1,20,0,4,0)
 JumpToLabel("贈与")
 0()
EndIf()
DefineLabel("情報")
ChangeVariable(13,13,0,2,1,100)
If(1,13,0,10,2)
 ShowMessageFace("arkjelly_fc1",0,0,2,1)
 ShowMessage("\\n<Arch Jelly>Wobbling...")
 EndEventProcessing()
 0()
EndIf()
If(1,13,0,20,2)
 ShowMessageFace("arkjelly_fc1",0,0,2,2)
 ShowMessage("\\n<Arch Jelly>Swaying...")
 EndEventProcessing()
 0()
EndIf()
If(1,13,0,30,2)
 ShowMessageFace("arkjelly_fc1",0,0,2,3)
 ShowMessage("\\n<Arch Jelly>Tentacles, swish swish...")
 EndEventProcessing()
 0()
EndIf()
If(1,13,0,40,2)
 ShowMessageFace("arkjelly_fc1",0,0,2,4)
 ShowMessage("\\n<Arch Jelly>Squish, squish...")
 EndEventProcessing()
 0()
EndIf()
If(1,13,0,50,2)
 ShowMessageFace("arkjelly_fc1",0,0,2,5)
 ShowMessage("\\n<Arch Jelly>I get carried away by the waves...")
 EndEventProcessing()
 0()
EndIf()
If(1,13,0,60,2)
 ShowMessageFace("arkjelly_fc1",1,0,2,6)
 ShowMessage("\\n<Arch Jelly>A pretty jellyfish has poison... *smiling*")
 EndEventProcessing()
 0()
EndIf()
If(1,13,0,70,2)
 ShowMessageFace("arkjelly_fc1",0,0,2,7)
 ShowMessage("\\n<Arch Jelly>Because I am an electric jellyfish... I will shock you.")
 EndEventProcessing()
 0()
EndIf()
If(1,13,0,80,2)
 ShowMessageFace("arkjelly_fc1",0,0,2,8)
 ShowMessage("\\n<Arch Jelly>Shocking...")
 EndEventProcessing()
 0()
EndIf()
If(1,13,0,90,2)
 ShowMessageFace("arkjelly_fc1",0,0,2,9)
 ShowMessage("\\n<Arch Jelly>I normally stay in the deep sea...\nWhen I get hungry, I float to the surface...")
 EndEventProcessing()
 0()
EndIf()
If(1,13,0,100,2)
 ShowMessageFace("arkjelly_fc1",0,0,2,10)
 ShowMessage("\\n<Arch Jelly>The Elder Scylla is my friend...")
 EndEventProcessing()
 0()
EndIf()
DefineLabel("質問")
ChangeVariable(13,13,0,2,1,50)
If(1,13,0,10,2)
 ShowMessageFace("arkjelly_fc1",0,0,2,11)
 ShowMessage("\\n<Arch Jelly>You're a human, aren't you...?")
 ShowChoices(strings("I'm a human","I'm an angel","I'm an alien"),0)
 IfPlayerPicksChoice(0,"人間だ")
  ShowMessageFace("arkjelly_fc1",0,0,2,12)
  ShowMessage("\\n<Arch Jelly>Human, squeeze...")
  355("change_friend(10)")
  0()
 IfPlayerPicksChoice(1,"天使だ")
  ShowMessageFace("arkjelly_fc1",2,0,2,13)
  ShowMessage("\\n<Arch Jelly>Angel...? I do not like...")
  355("change_friend(-5)")
  0()
 IfPlayerPicksChoice(2,"エイリアンだ")
  ShowMessageFace("arkjelly_fc1",0,0,2,14)
  ShowMessage("\\n<Arch Jelly>Welcome to our world...")
  355("change_friend(10)")
  0()
 404()
 EndEventProcessing()
 0()
EndIf()
If(1,13,0,20,2)
 ShowMessageFace("arkjelly_fc1",1,0,2,15)
 ShowMessage("\\n<Arch Jelly>I am the strongest among the jellyfish family...")
 ShowChoices(strings("Amazing!","I'm not impressed","I don't care"),0)
 IfPlayerPicksChoice(0,"すごい！")
  ShowMessageFace("arkjelly_fc1",1,0,2,16)
  ShowMessage("\\n<Arch Jelly>Mmmm!")
  355("change_friend(10)")
  0()
 IfPlayerPicksChoice(1,"すごくない")
  ShowMessageFace("arkjelly_fc1",0,0,2,17)
  ShowMessage("\\n<Arch Jelly>Sad...")
  355("change_friend(-5)")
  0()
 IfPlayerPicksChoice(2,"どうでもいい")
  ShowMessageFace("arkjelly_fc1",0,0,2,18)
  ShowMessage("\\n<Arch Jelly>You don't want to talk about the jellyfish family at all...")
  0()
 404()
 EndEventProcessing()
 0()
EndIf()
If(1,13,0,30,2)
 ShowMessageFace("arkjelly_fc1",0,0,2,19)
 ShowMessage("\\n<Arch Jelly>My shining and glittering makes me beautiful, doesn't it...?")
 ShowChoices(strings("It's beautiful","It's not beautiful","I shine more"),0)
 IfPlayerPicksChoice(0,"キレイ")
  ShowMessageFace("arkjelly_fc1",0,0,2,20)
  ShowMessage("\\n<Arch Jelly>Happy...")
  355("change_friend(10)")
  0()
 IfPlayerPicksChoice(1,"キレイじゃない")
  ShowMessageFace("arkjelly_fc1",0,0,2,21)
  ShowMessage("\\n<Arch Jelly>Sad...")
  355("change_friend(-5)")
  0()
 IfPlayerPicksChoice(2,"僕はもっと輝く")
  ShowMessageFace("arkjelly_fc1",0,0,2,22)
  ShowMessage("\\n<Arch Jelly>Amazing...I want to see...!")
  355("change_friend(10)")
  0()
 404()
 EndEventProcessing()
 0()
EndIf()
If(1,13,0,40,2)
 ShowMessageFace("arkjelly_fc1",1,0,2,23)
 ShowMessage("\\n<Arch Jelly>Even if my tentacles are torn off, they will soon grow back...\n...Are you envious?")
 ShowChoices(strings("I'm jealous","I'm not jealous","Humans can also regrow quickly"),0)
 IfPlayerPicksChoice(0,"うらやましい")
  ShowMessageFace("arkjelly_fc1",1,0,2,24)
  ShowMessage("\\n<Arch Jelly>Mmmm...♪")
  355("change_friend(10)")
  0()
 IfPlayerPicksChoice(1,"うらやましくない")
  ShowMessageFace("arkjelly_fc1",0,0,2,25)
  ShowMessage("\\n<Arch Jelly>Gloomy...")
  0()
 IfPlayerPicksChoice(2,"人間もすぐ生えてくる")
  ShowMessageFace("arkjelly_fc1",0,0,2,26)
  ShowMessage("\\n<Arch Jelly>...Huh? Is that so...?")
  0()
 404()
 EndEventProcessing()
 0()
EndIf()
If(1,13,0,50,2)
 ShowMessageFace("arkjelly_fc1",0,0,2,27)
 ShowMessage("\\n<Arch Jelly>How many tentacles do I have?")
 ShowChoices(strings("Between 20 to 30","360,000","Just one"),0)
 IfPlayerPicksChoice(0,"20～30本")
  ShowMessageFace("arkjelly_fc1",1,0,2,28)
  ShowMessage("\\n<Arch Jelly>That is a lot, isn't it...")
  355("change_friend(10)")
  0()
 IfPlayerPicksChoice(1,"36万本")
  ShowMessageFace("arkjelly_fc1",0,0,2,29)
  ShowMessage("\\n<Arch Jelly>That is so many...scary...")
  0()
 IfPlayerPicksChoice(2,"1本もない")
  ShowMessageFace("arkjelly_fc1",0,0,2,30)
  ShowMessage("\\n<Arch Jelly>I have...I have...")
  355("change_friend(-5)")
  0()
 404()
 EndEventProcessing()
 0()
EndIf()
DefineLabel("要求")
ChangeVariable(13,13,0,2,1,30)
If(1,13,0,10,2)
 If(8,322)
  ShowMessageFace("arkjelly_fc1",0,0,2,31)
  ShowMessage("\\n<Arch Jelly>I want to eat fish...")
  ChangeVariable(24,24,0,3,0,322,0)
  ShowMessageFace("",0,0,2,32)
  ShowMessage("Do you want to give a \\ii[322]? (Have:\\V[24])")
  ShowChoices(strings("Yes","No"),2)
  IfPlayerPicksChoice(0,"Yes")
   ShowMessageFace("arkjelly_fc1",1,0,2,33)
   ShowMessage("\\n<Arch Jelly>Fufu...")
   ChangeInventory_Item(322,1,0,1)
   355("change_friend(20)")
   EndEventProcessing()
   0()
  IfPlayerPicksChoice(1,"No")
   ShowMessageFace("arkjelly_fc1",0,0,2,34)
   ShowMessage("\\n<Arch Jelly>You won't give...?")
   EndEventProcessing()
   0()
  404()
  0()
 Else()
  ChangeVariable(13,13,0,0,20)
  0()
 EndIf()
 0()
EndIf()
If(1,13,0,20,2)
 If(8,19)
  ShowMessageFace("arkjelly_fc1",0,0,2,35)
  ShowMessage("\\n<Arch Jelly>Please give me holy water...")
  ChangeVariable(24,24,0,3,0,19,0)
  ShowMessageFace("",0,0,2,36)
  ShowMessage("Do you want to give some \\ii[19]? (Have:\\V[24])")
  ShowChoices(strings("Yes","No"),2)
  IfPlayerPicksChoice(0,"Yes")
   ShowMessageFace("arkjelly_fc1",1,0,2,37)
   ShowMessage("\\n<Arch Jelly>Fufu...")
   ChangeInventory_Item(19,1,0,1)
   355("change_friend(30)")
   EndEventProcessing()
   0()
  IfPlayerPicksChoice(1,"No")
   ShowMessageFace("arkjelly_fc1",0,0,2,38)
   ShowMessage("\\n<Arch Jelly>You won't give...?")
   EndEventProcessing()
   0()
  404()
  0()
 Else()
  ChangeVariable(13,13,0,0,30)
  0()
 EndIf()
 0()
EndIf()
If(1,13,0,30,2)
 ShowMessageFace("arkjelly_fc1",0,0,2,39)
 ShowMessage("\\n<Arch Jelly>I want money...")
 If(7,987,0)
  ChangeVariable(24,24,0,3,7,2,0)
  ShowMessageFace("",0,0,2,40)
  ShowMessage("Do you want to give 987G? (Remaining:\\V[24])")
  ShowChoices(strings("Yes","No"),2)
  IfPlayerPicksChoice(0,"Yes")
   ShowMessageFace("arkjelly_fc1",1,0,2,41)
   ShowMessage("\\n<Arch Jelly>Fufu...")
   125(1,0,987)
   355("change_friend(25)")
   EndEventProcessing()
   0()
  IfPlayerPicksChoice(1,"No")
   ShowMessageFace("arkjelly_fc1",0,0,2,42)
   ShowMessage("\\n<Arch Jelly>You won't give...?")
   EndEventProcessing()
   0()
  404()
  0()
 Else()
  ShowMessageFace("arkjelly_fc1",0,0,2,43)
  ShowMessage("\\n<Arch Jelly>...There is none?")
  EndEventProcessing()
  0()
 EndIf()
 0()
EndIf()
DefineLabel("贈与")
ChangeVariable(13,13,0,2,1,30)
If(1,25,0,1,0)
 ChangeVariable(13,13,0,0,30)
 ChangeVariable(25,25,0,0,0)
 0()
EndIf()
If(1,25,0,2,0)
 ChangeVariable(13,13,0,2,1,20)
 ChangeVariable(25,25,0,0,0)
 0()
EndIf()
If(1,13,0,10,2)
 ShowMessageFace("arkjelly_fc1",0,0,2,44)
 ShowMessage("\\n<Arch Jelly>I will give this coral to you...")
 250(bytes(0x04,0x08,0x6f,0x3a,0x0c,0x52,0x50,0x47,0x3a,0x3a,0x53,0x45,0x08,0x3a,0x0a,0x40,0x6e,0x61,0x6d,0x65,0x49,0x22,0x0a,0x49,0x74,0x65,0x6d,0x31,0x06,0x3a,0x06,0x45,0x54,0x3a,0x0b,0x40,0x70,0x69,0x74,0x63,0x68,0x69,0x69,0x3a,0x0c,0x40,0x76,0x6f,0x6c,0x75,0x6d,0x65,0x69,0x55))
 ChangeInventory_Item(226,0,0,1)
 ShowMessageFace("",0,0,2,45)
 ShowMessage("The Arch Jelly gave you an \\ii[226]!")
 EndEventProcessing()
 0()
EndIf()
If(1,13,0,20,2)
 ShowMessageFace("arkjelly_fc1",0,0,2,46)
 ShowMessage("\\n<Arch Jelly>My tentacles were entangled in this seaweed... I will give it to you...")
 250(bytes(0x04,0x08,0x6f,0x3a,0x0c,0x52,0x50,0x47,0x3a,0x3a,0x53,0x45,0x08,0x3a,0x0a,0x40,0x6e,0x61,0x6d,0x65,0x49,0x22,0x0a,0x49,0x74,0x65,0x6d,0x31,0x06,0x3a,0x06,0x45,0x54,0x3a,0x0b,0x40,0x70,0x69,0x74,0x63,0x68,0x69,0x69,0x3a,0x0c,0x40,0x76,0x6f,0x6c,0x75,0x6d,0x65,0x69,0x55))
 ChangeInventory_Item(335,0,0,1)
 ShowMessageFace("",0,0,2,47)
 ShowMessage("The Arch Jelly gave you some \\ii[335]!")
 EndEventProcessing()
 0()
EndIf()
If(1,13,0,30,2)
 ShowMessageFace("arkjelly_fc1",0,0,2,48)
 ShowMessage("\\n<Arch Jelly>I picked up this money... I will give it to you...")
 250(bytes(0x04,0x08,0x6f,0x3a,0x0c,0x52,0x50,0x47,0x3a,0x3a,0x53,0x45,0x08,0x3a,0x0a,0x40,0x6e,0x61,0x6d,0x65,0x49,0x22,0x0a,0x49,0x74,0x65,0x6d,0x31,0x06,0x3a,0x06,0x45,0x54,0x3a,0x0b,0x40,0x70,0x69,0x74,0x63,0x68,0x69,0x69,0x3a,0x0c,0x40,0x76,0x6f,0x6c,0x75,0x6d,0x65,0x69,0x55))
 125(0,0,1645)
 ShowMessageFace("",0,0,2,49)
 ShowMessage("The Arch Jelly gave you 1645G!")
 EndEventProcessing()
 0()
EndIf()
0()
