﻿// EVENT 1377
Name "Talk: Q-5"

If(1,20,0,1,0)
 JumpToLabel("情報")
 0()
EndIf()
If(1,20,0,2,0)
 JumpToLabel("質問")
 0()
EndIf()
If(1,20,0,3,0)
 JumpToLabel("要求")
 0()
EndIf()
If(1,20,0,4,0)
 JumpToLabel("贈与")
 0()
EndIf()
DefineLabel("情報")
ChangeVariable(13,13,0,2,1,100)
If(1,13,0,10,2)
 ShowMessageFace("q_5_fc1",0,0,2,1)
 ShowMessage("\\n<Q-5>Spin spin spin...")
 EndEventProcessing()
 0()
EndIf()
If(1,13,0,20,2)
 ShowMessageFace("q_5_fc1",0,0,2,2)
 ShowMessage("\\n<Q-5>Squishsquish...")
 EndEventProcessing()
 0()
EndIf()
If(1,13,0,30,2)
 ShowMessageFace("q_5_fc1",0,0,2,3)
 ShowMessage("\\n<Q-5>I spin round and round...")
 EndEventProcessing()
 0()
EndIf()
If(1,13,0,40,2)
 ShowMessageFace("q_5_fc1",0,0,2,4)
 ShowMessage("\\n<Q-5>Rolling, creature...")
 EndEventProcessing()
 0()
EndIf()
If(1,13,0,50,2)
 ShowMessageFace("q_5_fc1",0,0,2,5)
 ShowMessage("\\n<Q-5>S-2 is the only one who will spin around with me... Neither Beast nor A-3 will spin around...")
 EndEventProcessing()
 0()
EndIf()
If(1,13,0,60,2)
 ShowMessageFace("q_5_fc1",0,0,2,6)
 ShowMessage("\\n<Q-5>I was born to spin... Right?")
 EndEventProcessing()
 0()
EndIf()
If(1,13,0,70,2)
 ShowMessageFace("q_5_fc1",0,0,2,7)
 ShowMessage("\\n<Q-5>I'm tentacle friends with S-2...\nA-3 hates her tentacles, so she doesn't want to be friends.")
 EndEventProcessing()
 0()
EndIf()
If(1,13,0,80,2)
 ShowMessageFace("q_5_fc1",0,0,2,8)
 ShowMessage("\\n<Q-5>Spin round and round...\nSpin every day...")
 EndEventProcessing()
 0()
EndIf()
If(1,13,0,90,2)
 ShowMessageFace("q_5_fc1",0,0,2,9)
 ShowMessage("\\n<Q-5>Is the laboratory no longer here...?")
 EndEventProcessing()
 0()
EndIf()
If(1,13,0,100,2)
 ShowMessageFace("q_5_fc1",0,0,2,10)
 ShowMessage("\\n<Q-5>Spinning around is fun...\nRound and round, spin spin spin...")
 EndEventProcessing()
 0()
EndIf()
DefineLabel("質問")
ChangeVariable(13,13,0,2,1,50)
If(1,13,0,10,2)
 ShowMessageFace("q_5_fc1",0,0,2,11)
 ShowMessage("\\n<Q-5>Let's spin round and round together...")
 ShowChoices(strings("Spin","Don't spin","I'm already spinning"),0)
 IfPlayerPicksChoice(0,"回る")
  ShowMessageFace("q_5_fc1",0,0,2,12)
  ShowMessage("\\n<Q-5>Spin spin... Spin spin...")
  355("change_friend(10)")
  0()
 IfPlayerPicksChoice(1,"回らない")
  ShowMessageFace("q_5_fc1",0,0,2,13)
  ShowMessage("\\n<Q-5>............")
  355("change_friend(-5)")
  0()
 IfPlayerPicksChoice(2,"すでに回っている")
  ShowMessageFace("q_5_fc1",0,0,2,14)
  ShowMessage("\\n<Q-5>That's a slow spin...")
  355("change_friend(10)")
  0()
 404()
 EndEventProcessing()
 0()
EndIf()
If(1,13,0,20,2)
 ShowMessageFace("q_5_fc1",0,0,2,15)
 ShowMessage("\\n<Q-5>Is everyone spinning...?")
 ShowChoices(strings("We're spinning","We're not spinning","You could say we are spinning in relativity"),0)
 IfPlayerPicksChoice(0,"回っている")
  ShowMessageFace("q_5_fc1",0,0,2,16)
  ShowMessage("\\n<Q-5>Spin spin, round and round...")
  355("change_friend(10)")
  0()
 IfPlayerPicksChoice(1,"回っていない")
  ShowMessageFace("q_5_fc1",0,0,2,17)
  ShowMessage("\\n<Q-5>............")
  355("change_friend(-5)")
  0()
 IfPlayerPicksChoice(2,"相対的に言えば回転していると言える")
  ShowMessageFace("q_5_fc1",0,0,2,18)
  ShowMessage("\\n<Q-5>......?")
  0()
 404()
 EndEventProcessing()
 0()
EndIf()
If(1,13,0,30,2)
 ShowMessageFace("q_5_fc1",0,0,2,19)
 ShowMessage("\\n<Q-5>Tell me, what spins around...?")
 ShowChoices(strings("Top","Parasol","Our star"),0)
 IfPlayerPicksChoice(0,"コマ")
  ShowMessageFace("q_5_fc1",0,0,2,20)
  ShowMessage("\\n<Q-5>Top... What is that?")
  ShowMessageFace("",0,0,2,21)
  ShowMessage("It seems she doesn't know...")
  0()
 IfPlayerPicksChoice(1,"パラソル")
  ShowMessageFace("q_5_fc1",0,0,2,22)
  ShowMessage("\\n<Q-5>Parasol! I want! Parasol!")
  ShowMessageFace("",0,0,2,23)
  ShowMessage("She seems to be interested!")
  355("change_friend(10)")
  0()
 IfPlayerPicksChoice(2,"この星")
  ShowMessageFace("q_5_fc1",0,0,2,24)
  ShowMessage("\\n<Q-5>......?!?!?!")
  ShowMessageFace("",0,0,2,25)
  ShowMessage("She appears shocked by the fact that you knew...")
  355("change_friend(10)")
  0()
 404()
 EndEventProcessing()
 0()
EndIf()
If(1,13,0,40,2)
 ShowMessageFace("q_5_fc1",0,0,2,26)
 ShowMessage("\\n<Q-5>Experiments are fun, aren't they...?")
 ShowChoices(strings("They're fun","They're not fun","They spin nicely"),0)
 IfPlayerPicksChoice(0,"楽しい")
  ShowMessageFace("q_5_fc1",0,0,2,27)
  ShowMessage("\\n<Q-5>I'm not fun...")
  355("change_friend(-5)")
  0()
 IfPlayerPicksChoice(1,"楽しくない")
  ShowMessageFace("q_5_fc1",0,0,2,28)
  ShowMessage("\\n<Q-5>I'm not having fun either...")
  355("change_friend(10)")
  0()
 IfPlayerPicksChoice(2,"よく回る")
  ShowMessageFace("q_5_fc1",0,0,2,29)
  ShowMessage("\\n<Q-5>If it spins...it's fun!")
  355("change_friend(10)")
  0()
 404()
 EndEventProcessing()
 0()
EndIf()
If(1,13,0,50,2)
 ShowMessageFace("q_5_fc1",0,0,2,30)
 ShowMessage("\\n<Q-5>What kind of creature am I...?")
 ShowChoices(strings("Sea-dweller","Scylla","A strange creature"),0)
 IfPlayerPicksChoice(0,"海棲系")
  ShowMessageFace("q_5_fc1",0,0,2,31)
  ShowMessage("\\n<Q-5>Me, a sea creature...\nI'd like to go to the sea...")
  355("change_friend(10)")
  0()
 IfPlayerPicksChoice(1,"スキュラ")
  ShowMessageFace("q_5_fc1",0,0,2,32)
  ShowMessage("\\n<Q-5>Because I have tentacles...\nSquishsquish...")
  355("change_friend(5)")
  0()
 IfPlayerPicksChoice(2,"ふしぎないきもの")
  ShowMessageFace("q_5_fc1",0,0,2,33)
  ShowMessage("\\n<Q-5>Strange? Strange...?")
  0()
 404()
 EndEventProcessing()
 0()
EndIf()
DefineLabel("要求")
ChangeVariable(13,13,0,2,1,30)
If(1,13,0,10,2)
 If(8,305)
  ShowMessageFace("q_5_fc1",0,0,2,34)
  ShowMessage("\\n<Q-5>Spin spin... Banana...")
  ChangeVariable(24,24,0,3,0,305,0)
  ShowMessageFace("",0,0,2,35)
  ShowMessage("Do you want to give a \\ii[305]? (Have:\\V[24])")
  ShowChoices(strings("Yes","No"),2)
  IfPlayerPicksChoice(0,"Yes")
   ShowMessageFace("q_5_fc1",0,0,2,36)
   ShowMessage("\\n<Q-5>Spin spin...♪")
   ChangeInventory_Item(305,1,0,1)
   355("change_friend(20)")
   EndEventProcessing()
   0()
  IfPlayerPicksChoice(1,"No")
   ShowMessageFace("q_5_fc1",0,0,2,37)
   ShowMessage("\\n<Q-5>Spin spin spin spin spin spin...")
   EndEventProcessing()
   0()
  404()
  0()
 Else()
  ChangeVariable(13,13,0,0,20)
  0()
 EndIf()
 0()
EndIf()
If(1,13,0,20,2)
 If(8,346)
  ShowMessageFace("q_5_fc1",0,0,2,38)
  ShowMessage("\\n<Q-5>Spin spin... Anpan...")
  ChangeVariable(24,24,0,3,0,346,0)
  ShowMessageFace("",0,0,2,39)
  ShowMessage("Do you want to give an \\ii[346]? (Have:\\V[24])")
  ShowChoices(strings("Yes","No"),2)
  IfPlayerPicksChoice(0,"Yes")
   ShowMessageFace("q_5_fc1",0,0,2,40)
   ShowMessage("\\n<Q-5>Spin spin...♪")
   ChangeInventory_Item(346,1,0,1)
   355("change_friend(30)")
   EndEventProcessing()
   0()
  IfPlayerPicksChoice(1,"No")
   ShowMessageFace("q_5_fc1",0,0,2,41)
   ShowMessage("\\n<Q-5>Spin spin spin spin spin spin......")
   EndEventProcessing()
   0()
  404()
  0()
 Else()
  ChangeVariable(13,13,0,0,30)
  0()
 EndIf()
 0()
EndIf()
If(1,13,0,30,2)
 ShowMessageFace("q_5_fc1",0,0,2,42)
 ShowMessage("\\n<Q-5>Spin spin... Money...")
 If(7,1233,0)
  ChangeVariable(24,24,0,3,7,2,0)
  ShowMessageFace("",0,0,2,43)
  ShowMessage("Do you want to give 1233G? (Remaining:\\V[24])")
  ShowChoices(strings("Yes","No"),2)
  IfPlayerPicksChoice(0,"Yes")
   ShowMessageFace("q_5_fc1",0,0,2,44)
   ShowMessage("\\n<Q-5>Spin spin...♪")
   125(1,0,1233)
   355("change_friend(25)")
   EndEventProcessing()
   0()
  IfPlayerPicksChoice(1,"いいえ")
   ShowMessageFace("q_5_fc1",0,0,2,45)
   ShowMessage("\\n<Q-5>Spin spin spin spin spin spin......")
   EndEventProcessing()
   0()
  404()
  0()
 Else()
  ShowMessageFace("q_5_fc1",0,0,2,46)
  ShowMessage("\\n<Q-5>Nothing... Nothing...")
  EndEventProcessing()
  0()
 EndIf()
 0()
EndIf()
DefineLabel("贈与")
ChangeVariable(13,13,0,2,1,30)
If(1,25,0,1,0)
 ChangeVariable(13,13,0,0,30)
 ChangeVariable(25,25,0,0,0)
 0()
EndIf()
If(1,25,0,2,0)
 ChangeVariable(13,13,0,2,1,20)
 ChangeVariable(25,25,0,0,0)
 0()
EndIf()
If(1,13,0,10,2)
 ShowMessageFace("q_5_fc1",0,0,2,47)
 ShowMessage("\\n<Q-5>Spinny spinny cells... I will give you...")
 250(bytes(0x04,0x08,0x6f,0x3a,0x0c,0x52,0x50,0x47,0x3a,0x3a,0x53,0x45,0x08,0x3a,0x0a,0x40,0x6e,0x61,0x6d,0x65,0x49,0x22,0x0a,0x49,0x74,0x65,0x6d,0x31,0x06,0x3a,0x06,0x45,0x54,0x3a,0x0b,0x40,0x70,0x69,0x74,0x63,0x68,0x69,0x69,0x3a,0x0c,0x40,0x76,0x6f,0x6c,0x75,0x6d,0x65,0x69,0x55))
 ChangeInventory_Item(225,0,0,1)
 ShowMessageFace("",0,0,2,48)
 ShowMessage("Q-5 gave you an \\ii[225]!")
 EndEventProcessing()
 0()
EndIf()
If(1,13,0,20,2)
 ShowMessageFace("q_5_fc1",0,0,2,49)
 ShowMessage("\\n<Q-5>Spinny spinny cake... I will give you...")
 250(bytes(0x04,0x08,0x6f,0x3a,0x0c,0x52,0x50,0x47,0x3a,0x3a,0x53,0x45,0x08,0x3a,0x0a,0x40,0x6e,0x61,0x6d,0x65,0x49,0x22,0x0a,0x49,0x74,0x65,0x6d,0x31,0x06,0x3a,0x06,0x45,0x54,0x3a,0x0b,0x40,0x70,0x69,0x74,0x63,0x68,0x69,0x69,0x3a,0x0c,0x40,0x76,0x6f,0x6c,0x75,0x6d,0x65,0x69,0x55))
 ChangeInventory_Item(419,0,0,1)
 ShowMessageFace("",0,0,2,50)
 ShowMessage("Q-5 gave you a \\ii[419]!")
 EndEventProcessing()
 0()
EndIf()
If(1,13,0,30,2)
 ShowMessageFace("q_5_fc1",0,0,2,51)
 ShowMessage("\\n<Q-5>Money, I will give you...")
 250(bytes(0x04,0x08,0x6f,0x3a,0x0c,0x52,0x50,0x47,0x3a,0x3a,0x53,0x45,0x08,0x3a,0x0a,0x40,0x6e,0x61,0x6d,0x65,0x49,0x22,0x0a,0x49,0x74,0x65,0x6d,0x31,0x06,0x3a,0x06,0x45,0x54,0x3a,0x0b,0x40,0x70,0x69,0x74,0x63,0x68,0x69,0x69,0x3a,0x0c,0x40,0x76,0x6f,0x6c,0x75,0x6d,0x65,0x69,0x55))
 125(0,0,2050)
 ShowMessageFace("",0,0,2,52)
 ShowMessage("Q-5 gave you 2050G!")
 EndEventProcessing()
 0()
EndIf()
0()
