// EVENT 4397
Name "Page 65537 2"

If(0,25,1)
 221()
 PictureClear(5)
 PictureClear(6)
 ShowMessageFace("",0,0,2,0)
 ShowMessage("......")
 242(2)
 Wait(120)
 241(bytes(0x04,0x08,0x6f,0x3a,0x0d,0x52,0x50,0x47,0x3a,0x3a,0x42,0x47,0x4d,0x08,0x3a,0x0a,0x40,0x6e,0x61,0x6d,0x65,0x49,0x22,0x0c,0x63,0x61,0x73,0x74,0x6c,0x65,0x36,0x06,0x3a,0x06,0x45,0x54,0x3a,0x0c,0x40,0x76,0x6f,0x6c,0x75,0x6d,0x65,0x69,0x69,0x3a,0x0b,0x40,0x70,0x69,0x74,0x63,0x68,0x69,0x69))
 EndEventProcessing()
 0()
EndIf()
PictureDisplay(5,"80_page65537_st02",0,0,0,0,100,100,255,0)
ShowMessageFace("page65537_fc1",1,0,2,1)
ShowMessage("\\n<Cornelia>You wish to taste my flesh?\nTo taste pleasure...?")
ShowMessageFace("",0,0,2,2)
ShowMessage("\\n<Luka>Y...Yes... Please...")
ShowMessageFace("page65537_fc1",1,0,2,3)
ShowMessage("\\n<Cornelia>Very well. Fufufu...")
ShowMessageFace("",0,0,2,4)
ShowMessage("I follow her to a private room...")
221()
PictureDisplay(1,"bg195",0,0,0,0,100,100,255,0)
PictureDisplay(5,"80_page65537_st12",0,0,0,0,100,100,255,0)
222()
241(bytes(0x04,0x08,0x6f,0x3a,0x0d,0x52,0x50,0x47,0x3a,0x3a,0x42,0x47,0x4d,0x08,0x3a,0x0a,0x40,0x6e,0x61,0x6d,0x65,0x49,0x22,0x09,0x65,0x72,0x6f,0x31,0x06,0x3a,0x06,0x45,0x54,0x3a,0x0c,0x40,0x76,0x6f,0x6c,0x75,0x6d,0x65,0x69,0x69,0x3a,0x0b,0x40,0x70,0x69,0x74,0x63,0x68,0x69,0x69))
ShowMessageFace("page65537_fc1",3,0,2,5)
ShowMessage("\\n<Cornelia>Wanting to taste my hole...\nYou want what that means, do you not?")
ShowMessageFace("",0,0,2,6)
ShowMessage("\\n<Luka>Ah, aaah...")
250(bytes(0x04,0x08,0x6f,0x3a,0x0c,0x52,0x50,0x47,0x3a,0x3a,0x53,0x45,0x08,0x3a,0x0a,0x40,0x6e,0x61,0x6d,0x65,0x49,0x22,0x16,0x6d,0x6f,0x6e,0x5f,0x65,0x72,0x6f,0x5f,0x6d,0x61,0x6b,0x69,0x74,0x75,0x6b,0x69,0x33,0x06,0x3a,0x06,0x45,0x54,0x3a,0x0b,0x40,0x70,0x69,0x74,0x63,0x68,0x69,0x69,0x3a,0x0c,0x40,0x76,0x6f,0x6c,0x75,0x6d,0x65,0x69,0x69))
ShowMessageFace("",0,0,2,7)
ShowMessage("Tentacles shoot out from her body and grasp my body.")
ShowMessageFace("",0,0,2,8)
ShowMessage("They slowly pull me towards an opening large enough to fit my lower body into it.")
ShowMessageFace("",0,0,2,9)
ShowMessage("\\n<Luka>Aaaa...")
ShowMessageFace("page65537_fc1",3,0,2,10)
ShowMessage("\\n<Cornelia>Do you want to come inside here?")
ShowMessageFace("page65537_fc1",3,0,2,11)
ShowMessage("\\n<Cornelia>With my mixer,\nI'll squeeze everything out of you...")
ShowMessageFace("",0,0,2,12)
ShowMessage("The pink flesh inside of her wriggles around.")
ShowMessage("A deep expectation rises up in me at the sight.")
ShowMessageFace("",0,0,2,13)
ShowMessage("A hole to suck in a man, and squeeze them dry...")
ShowMessage("At least once, I want to see what it's like...")
ShowMessageFace("",0,0,2,14)
ShowMessage("Holding those expectations in my heart, I'm drawn in.")
ShowMessageFace("page65537_fc1",3,0,2,15)
ShowMessage("\\n<Cornelia>This organ is made to squeeze and kill a man.\nBut just for you, I won't take your life.")
ShowMessageFace("page65537_fc1",3,0,2,16)
ShowMessage("\\n<Cornelia>Your life isn't in danger, so taste my flesh freely.\nYou are fortunate. Fufufu...")
ShowMessageFace("",0,0,2,17)
ShowMessage("Laughing, she pulls me right up next to her opening...")
245(bytes(0x04,0x08,0x6f,0x3a,0x0d,0x52,0x50,0x47,0x3a,0x3a,0x42,0x47,0x53,0x08,0x3a,0x0a,0x40,0x6e,0x61,0x6d,0x65,0x49,0x22,0x1a,0x6d,0x6f,0x6e,0x5f,0x68,0x73,0x65,0x61,0x6e,0x32,0x31,0x5f,0x74,0x65,0x6e,0x74,0x61,0x63,0x6c,0x65,0x32,0x06,0x3a,0x06,0x45,0x54,0x3a,0x0c,0x40,0x76,0x6f,0x6c,0x75,0x6d,0x65,0x69,0x55,0x3a,0x0b,0x40,0x70,0x69,0x74,0x63,0x68,0x69,0x69))
PictureDisplay(5,"ev_page65537_h1b",0,0,0,0,100,100,255,0)
PictureDisplay(6,"ev_page65537_ct01",0,0,0,0,100,100,255,0)
ShowMessageFace("",0,0,2,18)
ShowMessage("Then forces my lower body into her!")
ShowMessageFace("",0,0,2,19)
ShowMessage("\\n<Luka>Ahhhh!")
ShowMessageFace("",0,0,2,20)
ShowMessage("The soft walls of flesh tighten around my body.")
ShowMessageFace("",0,0,2,21)
ShowMessage("The mucus inside of her starts to cover my body.")
ShowMessage("The creases inside of her rub and massage my entire body.")
ShowMessageFace("",0,0,2,22)
ShowMessage("My feet, waist, thighs... and especially my penis.")
ShowMessageFace("page65537_fc1",3,0,2,23)
ShowMessage("\\n<Cornelia>Haha... How is it?\nMy lower hole is amazing, isn't it?")
ShowMessageFace("",0,0,2,24)
ShowMessage("\\n<Luka>Aaa...")
ShowMessageFace("",0,0,2,25)
ShowMessage("Even if I twist my body, I'm unable to escape from the flesh that's tightening around me.")
ShowMessage("I'm unable to fully focus on anything but the overpowering pleasure attacking my lower body.")
ShowMessageFace("page65537_fc1",3,0,2,26)
ShowMessage("\\n<Cornelia>Hehe... Once they're stuck in this hole,\nevery man ends their resistance.")
ShowMessageFace("",0,0,2,27)
ShowMessage("While I writhe in pleasure, Cornelia looks at my face while she laughs.")
ShowMessageFace("",0,0,2,28)
ShowMessage("The flesh surrounding me starts to contract in waves.")
ShowMessage("Moving and twisting around me, the walls of her hole seem to just be toying with my body.")
ShowMessageFace("",0,0,2,29)
ShowMessage("The flesh moving and rotating around me feels as though I've been inserted into a mixer.")
ShowMessageFace("",0,0,2,30)
ShowMessage("\\n<Luka>Auu! Inside... You're moving!")
ShowMessageFace("page65537_fc1",3,0,2,31)
ShowMessage("\\n<Cornelia>Haha... Amazing, isn't it?\nThis hole is my proud male semen squeezing organ.")
ShowMessageFace("page65537_fc1",3,0,2,32)
ShowMessage("\\n<Cornelia>Enjoy it to the fullest as I squeeze you dry.")
ShowMessageFace("",0,0,2,33)
ShowMessage("\\n<Luka>Auu! Incredible!")
ShowMessageFace("",0,0,2,34)
ShowMessage("The walls start to tighten around me as they continue to twist and rotate.")
ShowMessageFace("",0,0,2,35)
ShowMessage("With no means to escape, I can only go mad by the ecstasy.")
ShowMessage("As I cry out, I only make the sadistic Cornelia happier.")
ShowMessageFace("",0,0,2,36)
ShowMessage("\\n<Luka>Aiiee! Ahhh!")
ShowMessageFace("page65537_fc1",3,0,2,37)
ShowMessage("\\n<Cornelia>Haha... Once a man's organ is enlarged, all they can do is writhe in pleasure.\nHuman males are so pathetic...")
ShowMessageFace("",0,0,2,38)
ShowMessage("\\n<Luka>Aaa... Aaaa....")
ShowMessageFace("",0,0,2,39)
ShowMessage("The flesh around my penis starts to wrap tighter around me.")
ShowMessage("As she increases the pressure, her flesh starts to twist and rotate faster.")
ShowMessageFace("",0,0,2,40)
ShowMessage("Stuck in this organ whose sole purpose is to force me to come, I'm completely helpless...")
ShowMessageFace("",0,0,2,41)
ShowMessage("\\n<Luka>Auu... I'm going to come...!")
ShowMessageFace("",0,0,2,42)
ShowMessage("My body writhes miserably as I yell out.")
ShowMessage("Knowing I can't escape, the only thing I could do was yell out pitifully.")
ShowMessageFace("page65537_fc1",3,0,2,43)
ShowMessage("\\n<Cornelia>Haha... Please let it all out.\nThis organ is designed to just wring out pathetic men's semen, after all.")
ShowMessageFace("",0,0,2,44)
ShowMessage("Stuck in her rotating flesh, I feel the desire to release shoot through my waist.")
ShowMessageFace("",0,0,2,45)
ShowMessage("\\n<Luka>Aaaaa!")
RunCommonEvent(104)
PictureDisplay(5,"ev_page65537_h2b",0,0,0,0,100,100,255,0)
PictureDisplay(6,"ev_page65537_ct02",0,0,0,0,100,100,255,0)
RunCommonEvent(105)
ShowMessageFace("",0,0,2,46)
ShowMessage("Forced to orgasm, I explode inside of her.")
ShowMessage("Each spurt seems to shoot out not only my semen, but my life itself.")
ShowMessageFace("page65537_fc1",3,0,2,47)
ShowMessage("\\n<Cornelia>It's not over yet... Until you're completely dry, I'll squeeze everything out.\nOops, I said before I wouldn't kill you, didn't I?")
ShowMessageFace("",0,0,2,48)
ShowMessage("\\n<Luka>Nnngh...")
245(bytes(0x04,0x08,0x6f,0x3a,0x0d,0x52,0x50,0x47,0x3a,0x3a,0x42,0x47,0x53,0x08,0x3a,0x0a,0x40,0x6e,0x61,0x6d,0x65,0x49,0x22,0x1a,0x6d,0x6f,0x6e,0x5f,0x68,0x73,0x65,0x61,0x6e,0x32,0x32,0x5f,0x74,0x65,0x6e,0x74,0x61,0x63,0x6c,0x65,0x33,0x06,0x3a,0x06,0x45,0x54,0x3a,0x0c,0x40,0x76,0x6f,0x6c,0x75,0x6d,0x65,0x69,0x55,0x3a,0x0b,0x40,0x70,0x69,0x74,0x63,0x68,0x69,0x69))
ShowMessageFace("",0,0,2,49)
ShowMessage("As soon as my ejaculation finished, the walls inside of her started to quickly rotate and twist around me again.")
ShowMessageFace("page65537_fc1",3,0,2,50)
ShowMessage("\\n<Cornelia>My organ forces pleasure into the man,\nand makes him ejaculate against his will.")
ShowMessageFace("page65537_fc1",3,0,2,51)
ShowMessage("\\n<Cornelia>Each ejaculation weakens them so much,\nmost can only survive about ten.")
ShowMessageFace("page65537_fc1",3,0,2,52)
ShowMessage("\\n<Cornelia>How many times do you think you'll live through?\nI must stop right at the edge... Fufufu...")
ShowMessageFace("",0,0,2,53)
ShowMessage("Even if she said she'd stop at the limit...")
ShowMessage("A sense of terror wells up in me at what could happen.")
ShowMessageFace("",0,0,2,54)
ShowMessage("\\n<Luka>S-Stop already, this is enough...\nAhhhhh!")
ShowMessageFace("",0,0,2,55)
ShowMessage("She tightens her flesh around me, cutting short my fearful yell.")
ShowMessageFace("",0,0,2,56)
ShowMessage("Even though I just came, I can feel another already rising through me.")
ShowMessageFace("",0,0,2,57)
ShowMessage("\\n<Luka>Ahhh... Again...")
ShowMessageFace("",0,0,2,58)
ShowMessage("Hearing the frightening story about men dying after ten times, I try to endure with all my might.")
ShowMessage("But even if my mind tries to resist, my body is already a prisoner.")
ShowMessageFace("",0,0,2,59)
ShowMessage("Stuck inside of her, I won't get a choice...")
ShowMessageFace("page65537_fc1",3,0,2,60)
ShowMessage("\\n<Cornelia>Wanting to just selfishly indulge in pleasure... You're lower than an insect.\nI'll enjoy you to the very limit...")
ShowMessageFace("",0,0,2,61)
ShowMessage("\\n<Luka>Aaah... Too good... Coming...!\nNo... Ahhh!")
ShowMessageFace("",0,0,2,62)
ShowMessage("My body trembles as I shake my head in horror.")
RunCommonEvent(104)
PictureDisplay(5,"ev_page65537_h3b",0,0,0,0,100,100,255,0)
PictureDisplay(6,"ev_page65537_ct03",0,0,0,0,100,100,255,0)
RunCommonEvent(105)
ShowMessageFace("",0,0,2,63)
ShowMessage("But even still, I orgasm and shoot more of my semen into her.")
ShowMessageFace("",0,0,2,64)
ShowMessage("\\n<Luka>Faa... I came again...")
ShowMessageFace("",0,0,2,65)
ShowMessage("Along with my semen, I feel more of my energy being drained out.")
ShowMessageFace("page65537_fc1",3,0,2,66)
ShowMessage("\\n<Cornelia>Fufu, there's no reason to be so scared.\nYou won't lose your life...")
ShowMessageFace("",0,0,2,67)
ShowMessage("\\n<Luka>Stop... Auuu!")
ShowMessageFace("",0,0,2,68)
ShowMessage("No matter how much I plead, her organ continues to serve its purpose of forcing pleasure into me.")
ShowMessageFace("",0,0,2,69)
ShowMessage("Once a man is stuck in here, they're squeezed dry until their eventual death...")
ShowMessageFace("",0,0,2,70)
ShowMessage("\\n<Luka>Auu... No more...")
ShowMessageFace("page65537_fc1",3,0,2,71)
ShowMessage("\\n<Cornelia>Haha... How pathetic.\nJust don't ejaculate, and your life is secure.")
ShowMessageFace("",0,0,2,72)
ShowMessage("\\n<Luka>Faa... Aaa....")
RunCommonEvent(104)
RunCommonEvent(105)
ShowMessageFace("",0,0,2,73)
ShowMessage("Contrary to what she just said, I'm forced to ejaculate again.")
ShowMessageFace("",0,0,2,74)
ShowMessage("In addition to the fear, I feel the misery of my situation rise up.")
ShowMessage("Trapped in this inhuman organ, I'm forced to the point of death.")
ShowMessageFace("",0,0,2,75)
ShowMessage("Weakened by this pleasure, I'm going to be squeezed to death...")
ShowMessageFace("",0,0,2,76)
ShowMessage("\\n<Luka>Auu...\nNo... No...")
RunCommonEvent(104)
RunCommonEvent(105)
ShowMessageFace("page65537_fc1",3,0,2,77)
ShowMessage("\\n<Cornelia>Haha... You came again.\nIn compensation for this pleasure, you're getting closer to death...")
ShowMessageFace("",0,0,2,78)
ShowMessage("\\n<Luka>Aghh!")
ShowMessageFace("",0,0,2,79)
ShowMessage("While I clench my teeth in frustration, Cornelia continues to squeeze me closer to my death.")
ShowMessageFace("",0,0,2,80)
ShowMessage("Her organ that kills men by sucking out their semen...")
ShowMessageFace("",0,0,2,81)
ShowMessage("Even though she said she'd stop at the limit, fear and terror of her making a mistake well up in me.")
ShowMessageFace("",0,0,2,82)
ShowMessage("\\n<Luka>Aaaaa!")
RunCommonEvent(104)
RunCommonEvent(105)
ShowMessageFace("",0,0,2,83)
ShowMessage("Like that, I'm forced to orgasm over and over again.")
ShowMessageFace("",0,0,2,84)
ShowMessage("Finally...")
246(1)
ShowMessageFace("",0,0,2,85)
ShowMessage("\\n<Luka>A...aa...")
ShowMessageFace("",0,0,2,86)
ShowMessage("Forced to ejaculate too many times to count, I feel my consciousness start to fade.")
ShowMessageFace("page65537_fc1",3,0,2,87)
ShowMessage("\\n<Cornelia>Haha... How does it feel to be squeezed to death?\nThe next time you come, you'll die.")
ShowMessageFace("",0,0,2,88)
ShowMessage("\\n<Luka>A..aa...")
ShowMessageFace("",0,0,2,89)
ShowMessage("She's finally going to free me here.")
ShowMessage("Any more than this, and I will die.")
ShowMessageFace("page65537_fc1",3,0,2,90)
ShowMessage("\\n<Cornelia>...I changed my mind.\nShall I make you come once more?")
ShowMessageFace("",0,0,2,91)
ShowMessage("\\n<Luka>N-no...!\nYou said you'd release me!")
ShowMessageFace("page65537_fc1",3,0,2,92)
ShowMessage("\\n<Cornelia>Didn't you hear me? I said I changed my mind.\nYour semen is just too delicious...")
ShowMessageFace("",0,0,2,93)
ShowMessage("If she makes me come one more time, I'll die.")
ShowMessage("This can't be happening...")
ShowMessageFace("",0,0,2,94)
ShowMessage("\\n<Luka>Aaah...No...!\nStop! Stop...!!")
ShowMessageFace("page65537_fc1",3,0,2,95)
ShowMessage("\\n<Cornelia>Fufu, goodbye.\nI'll properly squeeze you to the last drop...")
245(bytes(0x04,0x08,0x6f,0x3a,0x0d,0x52,0x50,0x47,0x3a,0x3a,0x42,0x47,0x53,0x08,0x3a,0x0a,0x40,0x6e,0x61,0x6d,0x65,0x49,0x22,0x1a,0x6d,0x6f,0x6e,0x5f,0x68,0x73,0x65,0x61,0x6e,0x32,0x32,0x5f,0x74,0x65,0x6e,0x74,0x61,0x63,0x6c,0x65,0x33,0x06,0x3a,0x06,0x45,0x54,0x3a,0x0c,0x40,0x76,0x6f,0x6c,0x75,0x6d,0x65,0x69,0x55,0x3a,0x0b,0x40,0x70,0x69,0x74,0x63,0x68,0x69,0x69))
ShowMessageFace("",0,0,2,96)
ShowMessage("Her organ starts to twist and rotate around me even fiercer than before.")
ShowMessage("Squeezing my entire lower body, the deathly climax shoots through my waist.")
ShowMessageFace("",0,0,2,97)
ShowMessage("The ecstasy washes over my entire body, and...")
RunCommonEvent(104)
RunCommonEvent(105)
ShowMessageFace("",0,0,2,98)
ShowMessage("Unable to fight against the deathly pleasure, the last of my semen is sucked out.")
ShowMessageFace("",0,0,2,99)
ShowMessage("\\n<Luka>...Aa...")
ShowMessageFace("",0,0,2,100)
ShowMessage("As soon as my ejaculation finishes, I lose consciousness.")
ShowMessageFace("",0,0,2,101)
ShowMessage("While I tasted the sweet release, Cornelia squeezes out my existence itself.")
221()
PictureClear(5)
PictureClear(6)
246(2)
ShowMessageFace("page65537_fc1",3,0,2,102)
ShowMessage("\\n<Cornelia>Were you satisfied?\nThis is the result of wanting to taste my hole...")
ShowMessageFace("",0,0,2,103)
ShowMessage("Her voice was the last thing I heard.")
221()
PictureClear(5)
246(2)
ShowMessageFace("",0,0,2,104)
ShowMessage("...................")
242(2)
Wait(120)
ChangeVariable(1002,1002,0,0,0)
216(1)
355("forced_transfer(154,18,52)")
355("release_temp_actors")
355("$game_map.screen.clear")
0()
