// EVENT 4822
Name "Bonnie 2"

PictureDisplay(5,"80_bonny_st02",0,0,0,0,100,100,0,0)
PictureMove(5,null,0,0,0,0,100,100,255,0,30,true)
ShowMessageFace("bonny_fc1",0,0,2,1)
ShowMessage("\\n<Bonnie>")
ShowMessage("You want to do something that feels good with me...?")
ShowMessageFace("",0,0,2,2)
ShowMessage("\\n<Luka>P...Please...")
ShowMessageFace("bonny_fc1",1,0,2,3)
ShowMessage("\\n<Bonnie>")
ShowMessage("All right, then come to my room!")
ShowMessage("We'll have lots of fun!")
ShowMessageFace("",0,0,2,4)
ShowMessage("Invited, I follow Bonnie to her room...")
221()
PictureDisplay(1,"bg195",0,0,0,0,100,100,255,0)
PictureDisplay(5,"80_bonny_st02",0,0,0,0,100,100,255,0)
222()
241(bytes(0x04,0x08,0x6f,0x3a,0x0d,0x52,0x50,0x47,0x3a,0x3a,0x42,0x47,0x4d,0x08,0x3a,0x0a,0x40,0x6e,0x61,0x6d,0x65,0x49,0x22,0x09,0x65,0x72,0x6f,0x31,0x06,0x3a,0x06,0x45,0x54,0x3a,0x0c,0x40,0x76,0x6f,0x6c,0x75,0x6d,0x65,0x69,0x69,0x3a,0x0b,0x40,0x70,0x69,0x74,0x63,0x68,0x69,0x69))
ShowMessageFace("bonny_fc1",1,0,2,5)
ShowMessage("\\n<Bonnie>")
ShowMessage("All right, then let's mate right away!")
ShowMessageFace("",0,0,2,6)
ShowMessage("Bonnie forcibly tears off my clothes.")
ShowMessage("After being stripped naked, she lunges at me, tackling me.")
245(bytes(0x04,0x08,0x6f,0x3a,0x0d,0x52,0x50,0x47,0x3a,0x3a,0x42,0x47,0x53,0x08,0x3a,0x0a,0x40,0x6e,0x61,0x6d,0x65,0x49,0x22,0x17,0x6d,0x6f,0x6e,0x5f,0x68,0x73,0x65,0x61,0x6e,0x31,0x37,0x5f,0x73,0x69,0x67,0x6f,0x6b,0x69,0x06,0x3a,0x06,0x45,0x54,0x3a,0x0c,0x40,0x76,0x6f,0x6c,0x75,0x6d,0x65,0x69,0x55,0x3a,0x0b,0x40,0x70,0x69,0x74,0x63,0x68,0x69,0x69))
PictureDisplay(5,"ev_bonny_hb1",0,0,0,0,100,100,255,0)
ShowMessageFace("",0,0,2,7)
ShowMessage("Like that, Bonnie clings tightly to me.")
ShowMessage("Her large breasts, and fish lower body press against my body.")
ShowMessageFace("",0,0,2,8)
ShowMessage("\\n<Luka>Uwaa...!")
ShowMessageFace("bonny_fc1",1,0,2,9)
ShowMessage("\\n<Bonnie>")
ShowMessage("Kukuku, I'm going to ravish you!")
ShowMessageFace("",0,0,2,10)
ShowMessage("There's a tiny slit in her lower mermaid body.")
ShowMessage("It's obviously her vagina, waiting to accept me inside...")
ShowMessageFace("",0,0,2,11)
ShowMessage("She slowly guides my penis to that opening.")
ShowMessage("My glans is pressed against her wet entrance...")
ShowMessageFace("",0,0,2,12)
ShowMessage("\\n<Luka>Hauuu...")
ShowMessageFace("",0,0,2,13)
ShowMessage("I can feel the slight film of slime on her lower fish body.")
ShowMessage("I unconsciously shiver at the touch of her emanating warmth.")
ShowMessageFace("bonny_fc1",1,0,2,14)
ShowMessage("\\n<Bonnie>")
ShowMessage("Now, let's mate.")
ShowMessage("I'm going to get pregnant with your child...!")
ShowMessageFace("",0,0,2,15)
ShowMessage("\\n<Luka>Ch-Child...? No, we... Ahhh!")
245(bytes(0x04,0x08,0x6f,0x3a,0x0d,0x52,0x50,0x47,0x3a,0x3a,0x42,0x47,0x53,0x08,0x3a,0x0a,0x40,0x6e,0x61,0x6d,0x65,0x49,0x22,0x1e,0x6d,0x6f,0x6e,0x5f,0x68,0x73,0x65,0x61,0x6e,0x30,0x34,0x5f,0x69,0x6e,0x6e,0x65,0x72,0x77,0x6f,0x72,0x6b,0x73,0x5f,0x61,0x34,0x06,0x3a,0x06,0x45,0x54,0x3a,0x0c,0x40,0x76,0x6f,0x6c,0x75,0x6d,0x65,0x69,0x55,0x3a,0x0b,0x40,0x70,0x69,0x74,0x63,0x68,0x69,0x69))
ShowMessageFace("",0,0,2,16)
ShowMessage("Bonnie takes me inside her.")
ShowMessage("My glans slowly sinks into her warm, wet entrance!")
ShowMessageFace("",0,0,2,17)
ShowMessage("\\n<Luka>Auuu... T-Too tight...")
ShowMessageFace("",0,0,2,18)
ShowMessage("My glans is pressed down hard as soon as I'm inside her.")
ShowMessage("As I'm slowly pushed in, I can feel tiny turns and spirals inside her, too.")
ShowMessageFace("bonny_fc1",1,0,2,19)
ShowMessage("\\n<Bonnie>")
ShowMessage("Is my pussy nice and tight?")
ShowMessage("You'll be able to taste all the legendary sensations of a mermaid...")
ShowMessageFace("",0,0,2,20)
ShowMessage("\\n<Luka>S-Stop... Ahh...!")
ShowMessageFace("",0,0,2,21)
ShowMessage("Bonnie presses her waist against me, forcing me deeper into her.")
ShowMessage("Pressing her flesh aside, my penis sinks inside.")
ShowMessageFace("",0,0,2,22)
ShowMessage("The deeper I get, the tighter she is...")
ShowMessageFace("",0,0,2,23)
ShowMessage("\\n<Luka>Ah...! Ahh...")
ShowMessageFace("bonny_fc1",1,0,2,24)
ShowMessage("\\n<Bonnie>")
ShowMessage("Mermaid's have muscles in their pussies.")
ShowMessage("If a human is brought inside, a human can't last more than ten seconds.")
ShowMessageFace("",0,0,2,25)
ShowMessage("Squeeze, squeeze...")
ShowMessage("Her vaginal flesh starts to move, drawing me deeper inside.")
ShowMessageFace("",0,0,2,26)
ShowMessage("Drawing me inside, giving me a tight pleasure unlike anything else before.")
ShowMessage("My penis is brought into her pussy, just like that.")
ShowMessageFace("",0,0,2,27)
ShowMessage("\\n<Luka>Ahh... So tight...")
ShowMessage("That feels so good...")
ShowMessageFace("",0,0,2,28)
ShowMessage("It's too good to resist.")
ShowMessage("Forced into such a narrow vagina, there's no way I could stop myself from coming...")
ShowMessageFace("bonny_fc1",1,0,2,29)
ShowMessage("\\n<Bonnie>")
ShowMessage("Don't come yet...")
ShowMessage("You have a bit deeper to go...")
ShowMessageFace("",0,0,2,30)
ShowMessage("\\n<Luka>Hauuu...")
ShowMessageFace("",0,0,2,31)
ShowMessage("Her muscles pull on me, drawing me deeper in.")
ShowMessage("My penis twitches as she slowly takes me.")
ShowMessageFace("",0,0,2,32)
ShowMessage("Until at last... My glans presses against her deepest spot.")
ShowMessage("Her hot vaginal flesh is all the way around my penis.")
ShowMessageFace("bonny_fc1",1,0,2,33)
ShowMessage("\\n<Bonnie>")
ShowMessage("Nnnn, that's the spot...!")
ShowMessage("Now, come right into there!")
ShowMessageFace("bonny_fc1",1,0,2,34)
ShowMessage("\\n<Bonnie>")
ShowMessage("My womb is full of eggs!")
ShowMessage("Shoot your semen right inside!")
ShowMessageFace("",0,0,2,35)
ShowMessage("\\n<Luka>E-eggs...? N-no...!")
ShowMessageFace("",0,0,2,36)
ShowMessage("If I reached a climax now, I'd come right into her womb.")
ShowMessage("If that happens, I'll fertilize her eggs.")
ShowMessageFace("",0,0,2,37)
ShowMessage("Even though I must not come inside...")
ShowMessage("Drawn so deep inside, she feels so tight and good...")
ShowMessageFace("",0,0,2,38)
ShowMessage("\\n<Luka>N-noooo... Haauu...")
RunCommonEvent(104)
PictureDisplay(5,"ev_bonny_hb2",0,0,0,0,100,100,255,0)
RunCommonEvent(105)
ShowMessageFace("",0,0,2,39)
ShowMessage("I come inside of her.")
ShowMessage("Right into Bonnie's womb, I shoot spurt after spurt of semen.")
ShowMessageFace("",0,0,2,40)
ShowMessage("\\n<Luka>Ahhh... I came...")
ShowMessageFace("",0,0,2,41)
ShowMessage("Her soft flesh squeezes me as I come inside her.")
ShowMessage("At the same time as the horror of coming inside her, I melt away in ecstasy.")
ShowMessageFace("bonny_fc1",1,0,2,42)
ShowMessage("\\n<Bonnie>")
ShowMessage("Kuku, your seed is filling my womb.")
ShowMessage("My eggs are covered in your sperm.")
ShowMessageFace("bonny_fc1",1,0,2,43)
ShowMessage("\\n<Bonnie>")
ShowMessage("I have to give you thanks for impregnating me.")
ShowMessage("I'll make it feel even better...♪")
ShowMessageFace("",0,0,2,44)
ShowMessage("\\n<Luka>Hya... Ahhh...!")
ShowMessageFace("",0,0,2,45)
ShowMessage("Her vagina begins to swell and move.")
ShowMessage("Skillfully using her muscles, her vaginal flesh is rubbing and stroking my penis inside her.")
ShowMessageFace("bonny_fc1",1,0,2,46)
ShowMessage("\\n<Bonnie>")
ShowMessage("Horehore...♪")
ShowMessageFace("",0,0,2,47)
ShowMessage("At the base, middle and tip of my penis, her vagina sharply contracts.")
ShowMessage("Tightening three places at once, my penis is crushed in her soft embrace.")
ShowMessageFace("",0,0,2,48)
ShowMessage("Assaulted like this right after a climax, I'm left helpless.")
ShowMessage("No man could do anything but writhe in agonized pleasure at this.")
ShowMessageFace("",0,0,2,49)
ShowMessage("\\n<Luka>Th-that feels so good... Ahhh...!")
ShowMessageFace("bonny_fc1",1,0,2,50)
ShowMessage("\\n<Bonnie>")
ShowMessage("Kukuku... You already gave me your seed, but are you going to do it again?")
ShowMessage("Go ahead, shower my eggs with more semen!")
ShowMessageFace("",0,0,2,51)
ShowMessage("She presses down hard on my glans again.")
ShowMessage("At the same time, her vaginal walls swell and move, massaging my penis...")
ShowMessageFace("",0,0,2,52)
ShowMessage("\\n<Luka>A-Ahiii... Ahhh...!")
RunCommonEvent(104)
PictureDisplay(5,"ev_bonny_hb3",0,0,0,0,100,100,255,0)
RunCommonEvent(105)
ShowMessageFace("",0,0,2,53)
ShowMessage("Unable to endure it, I explode in her again.")
ShowMessage("Totally at her mercy, I'm milked for seed again...")
ShowMessageFace("bonny_fc1",1,0,2,54)
ShowMessage("\\n<Bonnie>")
ShowMessage("Kuku, you filled my womb again.")
ShowMessage("With that, I think we can have two or three babies now...♪")
ShowMessageFace("",0,0,2,55)
ShowMessage("\\n<Luka>N-no way... Urhg...!")
ShowMessageFace("",0,0,2,56)
ShowMessage("No matter what I do, it's pointless.")
ShowMessage("Bonnie's vagina has left me too weak, defeated by pleasure.")
ShowMessageFace("",0,0,2,57)
ShowMessage("As soon as I was brought into her, I had lost.")
ShowMessage("Handled so easily, she got me to come inside her womb in no time...")
ShowMessageFace("bonny_fc1",1,0,2,58)
ShowMessage("\\n<Bonnie>")
ShowMessage("Hore, hore, hore... Drown in my body.")
ShowMessage("Give me all of your seed, so we can make a healthy baby!")
ShowMessageFace("",0,0,2,59)
ShowMessage("\\n<Luka>I don't want that... Ahhh...!!")
ShowMessageFace("",0,0,2,60)
ShowMessage("Despite what I say, my body has betrayed me.")
ShowMessage("My body surrenders to her yet again...")
RunCommonEvent(104)
PictureDisplay(5,"ev_bonny_hb4",0,0,0,0,100,100,255,0)
RunCommonEvent(105)
246(2)
ShowMessageFace("",0,0,2,61)
ShowMessage("I shoot more semen deep into her womb.")
ShowMessage("I knew this would impregnate her, but I couldn't resist the pleasure...")
ShowMessageFace("bonny_fc1",1,0,2,62)
ShowMessage("\\n<Bonnie>")
ShowMessage("Kukuku... Now I'll be full of babies.")
ShowMessage("You'll be a father to four daughters.")
ShowMessageFace("bonny_fc1",1,0,2,63)
ShowMessage("\\n<Bonnie>")
ShowMessage("You can't run anymore...")
ShowMessage("Now, become the Pirate Queen's husband!")
ShowMessageFace("",0,0,2,64)
ShowMessage("\\n<Luka>O-Oh no...")
ShowMessageFace("",0,0,2,65)
ShowMessage("Like that, I'll be forced to take responsibility...")
ShowMessage("After my adventure is over, it seems like I'll be married to Bonnie...")
221()
PictureClear(5)
PictureClear(6)
ShowMessageFace("",0,0,2,66)
ShowMessage("......")
RunCommonEvent(3998)
0()
