// EVENT 7072
Name "Kate: Match"

ChangeSwitch(96,96,0)
ChangeSwitch(98,98,0)
ShowMessageFace("mob_maid1_fc1",0,0,2,1)
ShowMessage("\\n<Kate>All right, let's get started.\nI'll use my hand to toy with you...")
PictureDisplay(6,"ev_mob_maid1_ha1",0,0,0,0,100,100,255,0)
250(bytes(0x04,0x08,0x6f,0x3a,0x0c,0x52,0x50,0x47,0x3a,0x3a,0x53,0x45,0x08,0x3a,0x0a,0x40,0x6e,0x61,0x6d,0x65,0x49,0x22,0x12,0x6d,0x6f,0x6e,0x5f,0x65,0x72,0x6f,0x5f,0x6b,0x6f,0x6b,0x69,0x31,0x06,0x3a,0x06,0x45,0x54,0x3a,0x0b,0x40,0x70,0x69,0x74,0x63,0x68,0x69,0x69,0x3a,0x0c,0x40,0x76,0x6f,0x6c,0x75,0x6d,0x65,0x69,0x69))
ChangeVariable(11,11,0,2,24,26)
311(0,1,1,1,11,true)
ShowMessageFace("",0,0,2,2)
ShowMessage("Kate grabs Luka's penis with her soft hand!")
ShowMessage("Her warm palm grabs him tightly!\\D")
ShowMessage("Luka takes \\V[11] damage!")
ChangeVariable(27,27,0,3,3,1,2)
If(1,27,0,0,0)
 RunCommonEvent(7075)
 EndEventProcessing()
 0()
EndIf()
ShowMessageFace("mob_maid1_fc1",0,0,2,3)
ShowMessage("\\n<Kate>So hard already, how vulgar.\nDid you want me to milk you that badly?")
250(bytes(0x04,0x08,0x6f,0x3a,0x0c,0x52,0x50,0x47,0x3a,0x3a,0x53,0x45,0x08,0x3a,0x0a,0x40,0x6e,0x61,0x6d,0x65,0x49,0x22,0x12,0x6d,0x6f,0x6e,0x5f,0x65,0x72,0x6f,0x5f,0x6b,0x6f,0x6b,0x69,0x31,0x06,0x3a,0x06,0x45,0x54,0x3a,0x0b,0x40,0x70,0x69,0x74,0x63,0x68,0x69,0x69,0x3a,0x0c,0x40,0x76,0x6f,0x6c,0x75,0x6d,0x65,0x69,0x69))
ChangeVariable(11,11,0,2,24,26)
311(0,1,1,1,11,true)
ShowMessageFace("",0,0,2,4)
ShowMessage("Kate gently strokes Luka's penis!")
ShowMessage("With her light grip, a sweet stimulation attacks Luka!\\D")
ShowMessage("Luka takes \\V[11] damage!")
ChangeVariable(27,27,0,3,3,1,2)
If(1,27,0,0,0)
 RunCommonEvent(7075)
 EndEventProcessing()
 0()
EndIf()
ShowMessageFace("mob_maid1_fc1",0,0,2,5)
ShowMessage("\\n<Kate>Does it feel nice?\nLet me tease that nipple of yours, too.")
PictureDisplay(6,"ev_mob_maid1_ha2",0,0,0,0,100,100,255,0)
250(bytes(0x04,0x08,0x6f,0x3a,0x0c,0x52,0x50,0x47,0x3a,0x3a,0x53,0x45,0x08,0x3a,0x0a,0x40,0x6e,0x61,0x6d,0x65,0x49,0x22,0x11,0x6d,0x6f,0x6e,0x5f,0x65,0x72,0x6f,0x5f,0x70,0x79,0x75,0x31,0x06,0x3a,0x06,0x45,0x54,0x3a,0x0b,0x40,0x70,0x69,0x74,0x63,0x68,0x69,0x69,0x3a,0x0c,0x40,0x76,0x6f,0x6c,0x75,0x6d,0x65,0x69,0x69))
ChangeVariable(11,11,0,2,24,26)
311(0,1,1,1,11,true)
ShowMessageFace("",0,0,2,6)
ShowMessage("Kate's tongue crawls across Luka's nipple!")
ShowMessage("Her skilled tongue stimulates Luka!\\D")
ShowMessage("Luka takes \\V[11] damage!")
ChangeVariable(27,27,0,3,3,1,2)
If(1,27,0,0,0)
 RunCommonEvent(7076)
 EndEventProcessing()
 0()
EndIf()
250(bytes(0x04,0x08,0x6f,0x3a,0x0c,0x52,0x50,0x47,0x3a,0x3a,0x53,0x45,0x08,0x3a,0x0a,0x40,0x6e,0x61,0x6d,0x65,0x49,0x22,0x12,0x6d,0x6f,0x6e,0x5f,0x65,0x72,0x6f,0x5f,0x6b,0x6f,0x6b,0x69,0x31,0x06,0x3a,0x06,0x45,0x54,0x3a,0x0b,0x40,0x70,0x69,0x74,0x63,0x68,0x69,0x69,0x3a,0x0c,0x40,0x76,0x6f,0x6c,0x75,0x6d,0x65,0x69,0x69))
ChangeVariable(11,11,0,2,24,26)
311(0,1,1,1,11,true)
ShowMessageFace("",0,0,2,7)
ShowMessage("At the same time, she strokes his penis!")
ShowMessage("Her middle finger and thumb wrap around his glans!\\D")
ShowMessage("Luka takes \\V[11] damage!")
ChangeVariable(27,27,0,3,3,1,2)
If(1,27,0,0,0)
 RunCommonEvent(7076)
 EndEventProcessing()
 0()
EndIf()
ShowMessageFace("mob_maid1_fc1",0,0,2,8)
ShowMessage("\\n<Kate>Is this your first time getting a handjob like this...?\nI stimulate the sensitive spots to drive the man to orgasm...")
250(bytes(0x04,0x08,0x6f,0x3a,0x0c,0x52,0x50,0x47,0x3a,0x3a,0x53,0x45,0x08,0x3a,0x0a,0x40,0x6e,0x61,0x6d,0x65,0x49,0x22,0x12,0x6d,0x6f,0x6e,0x5f,0x65,0x72,0x6f,0x5f,0x6b,0x6f,0x6b,0x69,0x31,0x06,0x3a,0x06,0x45,0x54,0x3a,0x0b,0x40,0x70,0x69,0x74,0x63,0x68,0x69,0x69,0x3a,0x0c,0x40,0x76,0x6f,0x6c,0x75,0x6d,0x65,0x69,0x69))
ChangeVariable(11,11,0,2,24,26)
311(0,1,1,1,11,true)
ShowMessageFace("",0,0,2,9)
ShowMessage("Her two fingers rub the tip of Luka's penis!")
ShowMessage("Kate's palm rubs against the back of Luka's penis at the same time!\\D")
ShowMessage("Luka takes \\V[11] damage!")
ChangeVariable(27,27,0,3,3,1,2)
If(1,27,0,0,0)
 RunCommonEvent(7076)
 EndEventProcessing()
 0()
EndIf()
PictureDisplay(6,"ev_mob_maid1_ha3",0,0,0,0,100,100,255,0)
If(1,27,0,125,4)
 ShowMessageFace("ruka_fc1",0,0,2,10)
 ShowMessage("\\n<Luka>Ah, unnngh...")
 ShowMessageFace("mob_maid1_fc1",3,0,2,11)
 ShowMessage("\\n<Kate>Your pre-come is already getting on my hand.\nIt doesn't look like you'll last long at all.")
 0()
Else()
 ShowMessageFace("mob_maid1_fc1",3,0,2,12)
 ShowMessage("\\n<Kate>You seem to be enduring it pretty well...\nLet me coat my hand with your pre-come...")
 0()
EndIf()
250(bytes(0x04,0x08,0x6f,0x3a,0x0c,0x52,0x50,0x47,0x3a,0x3a,0x53,0x45,0x08,0x3a,0x0a,0x40,0x6e,0x61,0x6d,0x65,0x49,0x22,0x12,0x6d,0x6f,0x6e,0x5f,0x65,0x72,0x6f,0x5f,0x6b,0x6f,0x6b,0x69,0x31,0x06,0x3a,0x06,0x45,0x54,0x3a,0x0b,0x40,0x70,0x69,0x74,0x63,0x68,0x69,0x69,0x3a,0x0c,0x40,0x76,0x6f,0x6c,0x75,0x6d,0x65,0x69,0x69))
ChangeVariable(11,11,0,2,24,26)
311(0,1,1,1,11,true)
ShowMessageFace("",0,0,2,13)
ShowMessage("Kate rubs Luka's pre-come on her hand!")
ShowMessage("She uses the lubrication to stroke Luka's penis even smoother!\\D")
ShowMessage("Luka takes \\V[11] damage!")
ChangeVariable(27,27,0,3,3,1,2)
If(1,27,0,0,0)
 RunCommonEvent(7076)
 EndEventProcessing()
 0()
EndIf()
ShowMessageFace("mob_maid1_fc1",3,0,2,14)
ShowMessage("\\n<Kate>Your nipples seem to be feeling good, too.\nEven though you're a man, you're still feeling it?")
250(bytes(0x04,0x08,0x6f,0x3a,0x0c,0x52,0x50,0x47,0x3a,0x3a,0x53,0x45,0x08,0x3a,0x0a,0x40,0x6e,0x61,0x6d,0x65,0x49,0x22,0x11,0x6d,0x6f,0x6e,0x5f,0x65,0x72,0x6f,0x5f,0x70,0x79,0x75,0x32,0x06,0x3a,0x06,0x45,0x54,0x3a,0x0b,0x40,0x70,0x69,0x74,0x63,0x68,0x69,0x69,0x3a,0x0c,0x40,0x76,0x6f,0x6c,0x75,0x6d,0x65,0x69,0x69))
ChangeVariable(11,11,0,2,24,26)
311(0,1,1,1,11,true)
ShowMessageFace("",0,0,2,15)
ShowMessage("Kate skillfully licks Luka's nipple!")
ShowMessage("The tickling sensation pleasures Luka!\\D")
ShowMessage("Luka takes \\V[11] damage!")
ChangeVariable(27,27,0,3,3,1,2)
If(1,27,0,0,0)
 RunCommonEvent(7076)
 EndEventProcessing()
 0()
EndIf()
250(bytes(0x04,0x08,0x6f,0x3a,0x0c,0x52,0x50,0x47,0x3a,0x3a,0x53,0x45,0x08,0x3a,0x0a,0x40,0x6e,0x61,0x6d,0x65,0x49,0x22,0x12,0x6d,0x6f,0x6e,0x5f,0x65,0x72,0x6f,0x5f,0x6b,0x6f,0x6b,0x69,0x31,0x06,0x3a,0x06,0x45,0x54,0x3a,0x0b,0x40,0x70,0x69,0x74,0x63,0x68,0x69,0x69,0x3a,0x0c,0x40,0x76,0x6f,0x6c,0x75,0x6d,0x65,0x69,0x69))
ChangeVariable(11,11,0,2,24,26)
311(0,1,1,1,11,true)
ShowMessageFace("",0,0,2,16)
ShowMessage("At the same time, her hand strokes Luka's penis!")
ShowMessage("All five fingers caress his tip!\\D")
ShowMessage("Luka takes \\V[11] damage!")
ChangeVariable(27,27,0,3,3,1,2)
If(1,27,0,0,0)
 RunCommonEvent(7076)
 EndEventProcessing()
 0()
EndIf()
ShowMessageFace("mob_maid1_fc1",3,0,2,17)
ShowMessage("\\n<Kate>You're literally being led by the hand.\nNow, let me see your pathetic finish.")
250(bytes(0x04,0x08,0x6f,0x3a,0x0c,0x52,0x50,0x47,0x3a,0x3a,0x53,0x45,0x08,0x3a,0x0a,0x40,0x6e,0x61,0x6d,0x65,0x49,0x22,0x12,0x6d,0x6f,0x6e,0x5f,0x65,0x72,0x6f,0x5f,0x6b,0x6f,0x6b,0x69,0x31,0x06,0x3a,0x06,0x45,0x54,0x3a,0x0b,0x40,0x70,0x69,0x74,0x63,0x68,0x69,0x69,0x3a,0x0c,0x40,0x76,0x6f,0x6c,0x75,0x6d,0x65,0x69,0x69))
ChangeVariable(11,11,0,2,24,26)
311(0,1,1,1,11,true)
ShowMessageFace("",0,0,2,18)
ShowMessage("Kate skillfully moves all five fingers!")
ShowMessage("The oppresive pleasure overpowers Luka!\\D")
ShowMessage("Luka takes \\V[11] damage!")
ChangeVariable(27,27,0,3,3,1,2)
If(1,27,0,0,0)
 RunCommonEvent(7076)
 EndEventProcessing()
 0()
EndIf()
ShowMessageFace("mob_maid1_fc1",3,0,2,19)
ShowMessage("\\n<Kate>All right, this is the finish.\nI'll give the decisive blow to your penis!")
250(bytes(0x04,0x08,0x6f,0x3a,0x0c,0x52,0x50,0x47,0x3a,0x3a,0x53,0x45,0x08,0x3a,0x0a,0x40,0x6e,0x61,0x6d,0x65,0x49,0x22,0x12,0x6d,0x6f,0x6e,0x5f,0x65,0x72,0x6f,0x5f,0x6b,0x6f,0x6b,0x69,0x31,0x06,0x3a,0x06,0x45,0x54,0x3a,0x0b,0x40,0x70,0x69,0x74,0x63,0x68,0x69,0x69,0x3a,0x0c,0x40,0x76,0x6f,0x6c,0x75,0x6d,0x65,0x69,0x69))
ChangeVariable(11,11,0,2,24,26)
311(0,1,1,1,11,true)
ShowMessageFace("",0,0,2,20)
ShowMessage("Her skilled fingers run all over Luka's penis!")
ShowMessage("Firmly gripping him, she strokes fast!\\D")
ShowMessage("Luka takes \\V[11] damage!")
ChangeVariable(27,27,0,3,3,1,2)
If(1,27,0,0,0)
 RunCommonEvent(7076)
 EndEventProcessing()
 0()
EndIf()
RunCommonEvent(7074)
EndEventProcessing()
0()
