﻿// EVENT 4971
Name "Bugstaves"

PictureDisplay(5,"80_m_dragonfly_st01",0,0,-200,-30,100,100,0,0)
PictureDisplay(6,"80_m_tento_st01",0,0,200,-30,100,100,0,0)
PictureDisplay(7,"80_m_batterfly_st01",0,0,0,130,100,100,0,0)
PictureMove(5,null,0,0,-200,-30,100,100,255,0,30,false)
PictureMove(6,null,0,0,200,-30,100,100,255,0,30,false)
PictureMove(7,null,0,0,0,130,100,100,255,0,30,true)
ShowMessageFace("m_batterfly_fc1",1,0,2,1)
ShowMessage("\\n<Magical Butterfly>Haha, we can do whatever?\nThen let's play with this guy ♪")
ShowMessageFace("m_tento_fc1",0,0,2,2)
ShowMessage("\\n<Magical Ladybug>Ehehe, we're going to squeeze a lot out of you! ♪")
ShowMessageFace("m_dragonfly_fc1",0,0,2,3)
ShowMessage("\\n<Magical Dragonfly>Don't be too rough on him.\nThe teacher will be angry if we break another man...")
ShowMessageFace("",0,0,2,4)
ShowMessage("\\n<Luka>Such a group... Aaah...!")
ShowMessageFace("",0,0,2,5)
ShowMessage("Thus I'm dragged into their room...")
221()
PictureClear(6)
PictureClear(7)
PictureDisplay(1,"bg195",0,0,0,0,100,100,255,0)
PictureDisplay(5,"ev_m_batterfly_hb1",0,0,0,0,100,100,255,0)
222()
241(bytes(0x04,0x08,0x6f,0x3a,0x0d,0x52,0x50,0x47,0x3a,0x3a,0x42,0x47,0x4d,0x08,0x3a,0x0a,0x40,0x6e,0x61,0x6d,0x65,0x49,0x22,0x09,0x65,0x72,0x6f,0x31,0x06,0x3a,0x06,0x45,0x54,0x3a,0x0c,0x40,0x76,0x6f,0x6c,0x75,0x6d,0x65,0x69,0x69,0x3a,0x0b,0x40,0x70,0x69,0x74,0x63,0x68,0x69,0x69))
ShowMessageFace("",0,0,2,6)
ShowMessage("As I enter their room, the insect girls tear my clothes off...and I'm forcefully pinned to the floor.")
ShowMessageFace("",0,0,2,7)
ShowMessage("\\n<Luka>S-so rough...")
ShowMessageFace("m_batterfly_fc1",1,0,2,8)
ShowMessage("\\n<Magical Butterfly>Well then, let's mate ♪\nI'll swallow your penis with my fallopian tube...")
PictureDisplay(5,"ev_m_batterfly_hb2",0,0,0,0,100,100,255,0)
ShowMessageFace("",0,0,2,9)
ShowMessage("The Magical Butterfly's abdomen slowly starts moving.\nThe tip of her abdomen opens up like a mouth and approaches my crotch.")
ShowMessageFace("",0,0,2,10)
ShowMessage("The hole opens up, showing off her soft slimy flesh...\nA sticky mucus drips out from within.")
ShowMessageFace("",0,0,2,11)
ShowMessage("\\n<Luka>S-stop...this...")
ShowMessageFace("",0,0,2,12)
ShowMessage("Her disgusting genitals are trying to swallow mine.\nThe only thing I could do is watch in horror.")
ShowMessageFace("m_batterfly_fc1",1,0,2,13)
ShowMessage("\\n<Magical Butterfly>Ehehe, time to dig in. ♪")
ShowMessageFace("m_tento_fc1",0,0,2,14)
ShowMessage("\\n<Magical Ladybug>I wonder how long he will hold out?\nButterfly's fallopian tube feels really good. ♪")
ShowMessageFace("m_dragonfly_fc1",0,0,2,15)
ShowMessage("\\n<Magical Dragonfly>Leave some for me as well...")
ShowMessageFace("",0,0,2,16)
ShowMessage("\\n<Luka>S-stop... Aaaah...")
ShowMessageFace("",0,0,2,17)
ShowMessage("The girls look down at me and giggle as I try to escape.\nJust like that, her fallopian tube wraps around my penis...")
245(bytes(0x04,0x08,0x6f,0x3a,0x0d,0x52,0x50,0x47,0x3a,0x3a,0x42,0x47,0x53,0x08,0x3a,0x0a,0x40,0x6e,0x61,0x6d,0x65,0x49,0x22,0x1e,0x6d,0x6f,0x6e,0x5f,0x68,0x73,0x65,0x61,0x6e,0x31,0x32,0x5f,0x69,0x6e,0x6e,0x65,0x72,0x77,0x6f,0x72,0x6b,0x73,0x5f,0x63,0x32,0x06,0x3a,0x06,0x45,0x54,0x3a,0x0c,0x40,0x76,0x6f,0x6c,0x75,0x6d,0x65,0x69,0x55,0x3a,0x0b,0x40,0x70,0x69,0x74,0x63,0x68,0x69,0x69))
PictureDisplay(5,"ev_m_batterfly_hb3",0,0,0,0,100,100,255,0)
ShowMessageFace("",0,0,2,18)
ShowMessage("My dick is buried inside her hot, slimy hole.\nThe inside feels soft and slimy and her flesh tightly squeezes my penis...")
ShowMessageFace("",0,0,2,19)
ShowMessage("\\n<Luka>Ah... Aaaau!!")
ShowMessageFace("m_batterfly_fc1",1,0,2,20)
ShowMessage("\\n<Magical Butterfly>Ahaha, it's inside! ♪\nIt went all the way to the deepest part of my fallopian tube! ♪")
ShowMessageFace("",0,0,2,21)
ShowMessage("The inner walls of her fallopian tube are ribbed.\nEvery time she moves her abdomen, the creases inside rub against the neck of my penis.")
ShowMessageFace("",0,0,2,22)
ShowMessage("On top of that, her fallopian tube moves up and down, stimulating my entire penis with those creases... The agonizing pleasure causes me to moan out loud.")
ShowMessageFace("",0,0,2,23)
ShowMessage("\\n<Luka>Ah... Aaaau!")
ShowMessageFace("m_tento_fc1",0,0,2,24)
ShowMessage("\\n<Magical Ladybug>Haha, he's already moaning...\nThen I guess he'll come in no time. ♪")
ShowMessageFace("m_dragonfly_fc1",0,0,2,25)
ShowMessage("\\n<Magical Dragonfly>A human enjoying mating with insects...\nShouldn't you be ashamed?")
ShowMessageFace("",0,0,2,26)
ShowMessage("\\n<Luka>Ugh...")
ShowMessageFace("",0,0,2,27)
ShowMessage("The girls look down at me with curiosity and contempt as I writhe in the pleasure of mating. The magical butterfly's fallopian tube moves up and down, toying with my manhood...")
ShowMessageFace("m_batterfly_fc1",1,0,2,28)
ShowMessage("\\n<Magical Butterfly>Mating feels gooood, doesn't it?\nHora hora, hurry up and cooome!")
ShowMessageFace("",0,0,2,29)
ShowMessage("\\n<Luka>Uwa... Ah, aaaau!")
ShowMessageFace("",0,0,2,30)
ShowMessage("I'm mating with this girl's grotesque organ...\nThe immorality of the situation only serves to increase the pleasure.")
ShowMessageFace("",0,0,2,31)
ShowMessage("Lewd noises come from where we're connected, and an intense rubbing stimulation is forced into me. There's no way I can endure this pleasure for long...")
ShowMessageFace("",0,0,2,32)
ShowMessage("\\n<Luka>Auu... I'm coming already...")
ShowMessageFace("m_batterfly_fc1",1,0,2,33)
ShowMessage("\\n<Magical Butterfly>Ahaha, then come already! ♪\nDoesn't it feel heavenly to mate with me?")
ShowMessageFace("m_tento_fc1",0,0,2,34)
ShowMessage("\\n<Magical Ladybug>He can't take it anymore...\nHe looks soooo happy. ♪")
ShowMessageFace("m_dragonfly_fc1",0,0,2,35)
ShowMessage("\\n<Magical Dragonfly>He can't even last five minutes? Unbelievable...")
ShowMessageFace("",0,0,2,36)
ShowMessage("The girls giggle as they ridicule and look down on me...\nThe most humiliating moment for a man is looming over me as the girls watch.")
ShowMessageFace("",0,0,2,37)
ShowMessage("\\n<Luka>Au...coming...! Aaaaaaaah...!!")
RunCommonEvent(104)
PictureDisplay(5,"ev_m_batterfly_hb4",0,0,0,0,100,100,255,0)
RunCommonEvent(105)
ShowMessageFace("",0,0,2,38)
ShowMessage("My penis starts throbbing and the ejaculation announcing my surrender begins. My semen pours out inside her fallopian tube.")
ShowMessageFace("",0,0,2,39)
ShowMessage("I'm shooting my semen inside the Magical Butterfly's grotesque organ...\nIt's proof that I've mated with an insect.")
PictureDisplay(5,"ev_m_batterfly_hb5",0,0,0,0,100,100,255,0)
ShowMessageFace("m_batterfly_fc1",1,0,2,40)
ShowMessage("\\n<Magical Butterfly>Nnn... So much came out.\nYour semen is flooding my abdomen...")
ShowMessageFace("m_tento_fc1",0,0,2,41)
ShowMessage("\\n<Magical Ladybug>That was very fast. ♪\nHe came soooo quickly. ♪")
ShowMessageFace("m_dragonfly_fc1",0,0,2,42)
ShowMessage("\\n<Magical Dragonfly>Even though I'm older, he's the fastest I've seen so far...")
ShowMessageFace("",0,0,2,43)
ShowMessage("\\n<Luka>Hauuu...")
ShowMessageFace("",0,0,2,44)
ShowMessage("I feel humiliated for succumbing to this mating.\nOn top of that, the feeling of release brings with it exhaustion.")
ShowMessageFace("",0,0,2,45)
ShowMessage("It feels as if I've shot everything out, even though I ejaculated just once. I lay there helplessly as the girls pin me down.")
PictureDisplay(5,"ev_m_batterfly_hb6",0,0,0,0,100,100,255,0)
ShowMessageFace("m_tento_fc1",0,0,2,46)
ShowMessage("\\n<Magical Ladybug>Haha, how pathetic...\nI'll give you a nice present! ♪")
ShowMessageFace("",0,0,2,47)
ShowMessage("The Magical Ladybug reaches down to her crotch.\nLike that she starts fiddling her secret place with her fingers.")
PictureDisplay(5,"ev_m_batterfly_hb7",0,0,0,0,100,100,255,0)
ShowMessageFace("",0,0,2,48)
ShowMessage("Her small honeypot starts twitching...\nA sticky liquid starts dripping from it...")
PictureDisplay(5,"ev_m_batterfly_hb8",0,0,0,0,100,100,255,0)
ShowMessageFace("",0,0,2,49)
ShowMessage("Splat! Urine pours down on my face.\nThe Magical Ladybug is urinating on me.")
ShowMessageFace("",0,0,2,50)
ShowMessage("\\n<Luka>Ah... Aaaau!!")
ShowMessageFace("",0,0,2,51)
ShowMessage("With a lewd expression on her face, she showers my face with her pee. As a man, I feel completely humiliated having this done to me.")
ShowMessageFace("m_tento_fc1",0,0,2,52)
ShowMessage("\\n<Magical Ladybug>Ehehe, I peed on you. ♪")
ShowMessageFace("m_batterfly_fc1",1,0,2,53)
ShowMessage("\\n<Magical Butterfly>That's adorable, Ladybug. ♪")
ShowMessageFace("m_dragonfly_fc1",0,0,2,54)
ShowMessage("\\n<Magical Dragonfly>Aaah, you disgraced our prey...")
ShowMessageFace("",0,0,2,55)
ShowMessage("The girls ridicule me as I lay there, covered in urine.\nI've been both physically and mentally abused, and I feel drained...")
ShowMessageFace("m_batterfly_fc1",1,0,2,56)
ShowMessage("\\n<Magical Butterfly>Awww don't look at me with that sad face.\nYou're our toy now...♪")
PictureDisplay(5,"ev_m_batterfly_hb9",0,0,0,0,100,100,255,0)
ShowMessageFace("",0,0,2,57)
ShowMessage("The Magical Butterfly's tongue starts growing...\nAnd it forces its way into my mouth.")
ShowMessageFace("",0,0,2,58)
ShowMessage("\\n<Luka>Nnn... Ngh...!!")
ShowMessageFace("",0,0,2,59)
ShowMessage("Her thin, tubular tongue crawls all over the inside of my mouth and entwines itself with my own. It's as if she's violating my mouth.")
ShowMessageFace("m_batterfly_fc1",1,0,2,60)
ShowMessage("\\n<Magical Butterfly>Ehehe, deep kissing. ♪")
ShowMessageFace("m_tento_fc1",0,0,2,61)
ShowMessage("\\n<Magical Ladybug>Now that he's our toy, we can play with him lots...")
ShowMessageFace("m_dragonfly_fc1",0,0,2,62)
ShowMessage("\\n<Magical Dragonfly>You can't escape anymore...\nYou're going to be our toy for a while...")
ShowMessageFace("",0,0,2,63)
ShowMessage("\\n<Luka>Nn, ngh... That's... Auuuu...")
ShowMessageFace("",0,0,2,64)
ShowMessage("As I'm being ridiculed by the girls, both my body and mind are dominated... I almost lose my sanity in this hell of crazy pleasure.")
221()
PictureClear(5)
PictureClear(6)
246(2)
ShowMessageFace("",0,0,2,65)
ShowMessage("......")
RunCommonEvent(3998)
0()
