// EVENT 2044
Name "Seduction: Rafflesia Girl"

If(0,25,1)
 EndEventProcessing()
 0()
EndIf()
355("$game_troop.lose_event_id = 3044")
ChangeVariable(26,26,0,3,3,1,4)
ChangeVariable(26,26,4,0,10)
ShowMessageFace("rahure_fc1",0,0,2,1)
ShowMessage("\\n<Rafflesia Girl>You are strong...\nI want your genes.")
ShowMessageFace("rahure_fc1",1,0,2,2)
ShowMessage("\\n<Rafflesia Girl>Hey, will you pollinate me?\nIn return, I'll make you feel good...")
ChangeSwitch(98,98,0)
ChangeSwitch(96,96,0)
ShowChoices(strings("Ignore her","Give in to temptation"),1)
IfPlayerPicksChoice(0,"Ignore her")
 ShowMessageFace("",0,0,2,3)
 ShowMessage("Luka resists her temptation!")
 RunCommonEvent(1999)
 EndEventProcessing()
 0()
IfPlayerPicksChoice(1,"誘惑に乗る")
 0()
404()
ShowMessageFace("rahure_fc1",1,0,2,4)
ShowMessage("\\n<Rafflesia Girl>Then let's pollinate...\nFirst, I can't have you move around...")
250(bytes(0x04,0x08,0x6f,0x3a,0x0c,0x52,0x50,0x47,0x3a,0x3a,0x53,0x45,0x08,0x3a,0x0a,0x40,0x6e,0x61,0x6d,0x65,0x49,0x22,0x0c,0x6d,0x6f,0x6e,0x5f,0x67,0x61,0x73,0x06,0x3a,0x06,0x45,0x54,0x3a,0x0b,0x40,0x70,0x69,0x74,0x63,0x68,0x69,0x69,0x3a,0x0c,0x40,0x76,0x6f,0x6c,0x75,0x6d,0x65,0x69,0x69))
ShowMessageFace("",0,0,2,5)
ShowMessage("A sweet smell spreads from the Rafflesia Girl!")
ShowMessage("Luka is soaking in ecstasy!")
ShowMessageFace("rahure_fc1",1,0,2,6)
ShowMessage("\\n<Rafflesia Girl>Allow me to start.\nPollinating me will feel amazing...")
ChangeVariable(26,26,3,0,2)
250(bytes(0x04,0x08,0x6f,0x3a,0x0c,0x52,0x50,0x47,0x3a,0x3a,0x53,0x45,0x08,0x3a,0x0a,0x40,0x6e,0x61,0x6d,0x65,0x49,0x22,0x16,0x6d,0x6f,0x6e,0x5f,0x65,0x72,0x6f,0x5f,0x6d,0x61,0x6b,0x69,0x74,0x75,0x6b,0x69,0x32,0x06,0x3a,0x06,0x45,0x54,0x3a,0x0b,0x40,0x70,0x69,0x74,0x63,0x68,0x69,0x69,0x3a,0x0c,0x40,0x76,0x6f,0x6c,0x75,0x6d,0x65,0x69,0x69))
355("battler_graphic_hide")
PictureDisplay(5,"ev_rahure_st11",0,0,0,0,100,100,255,0)
311(0,1,1,1,26,true)
ShowMessageFace("",0,0,2,7)
ShowMessage("The Rafflesia Girl's tentacles draw Luka to her!")
ShowMessage("Luka's immersed inside her body!\\D")
ShowMessage("Luka takes \\V[26] damage!")
ChangeVariable(27,27,0,3,3,1,2)
If(1,27,0,0,0)
 JumpToLabel("射精1")
 0()
EndIf()
ShowMessageFace("",0,0,2,8)
ShowMessage("\\n<Luka>Huaaa...")
ShowMessageFace("",0,0,2,9)
ShowMessage("Sticky liquid fills her floral body.")
ShowMessage("My lower body is submerged in it, making me feel weak.")
ShowMessageFace("rahure_fc1",1,0,2,10)
ShowMessage("\\n<Rafflesia Girl>First, I'll coat your penis with pollen.")
250(bytes(0x04,0x08,0x6f,0x3a,0x0c,0x52,0x50,0x47,0x3a,0x3a,0x53,0x45,0x08,0x3a,0x0a,0x40,0x6e,0x61,0x6d,0x65,0x49,0x22,0x16,0x6d,0x6f,0x6e,0x5f,0x65,0x72,0x6f,0x5f,0x6d,0x61,0x6b,0x69,0x74,0x75,0x6b,0x69,0x33,0x06,0x3a,0x06,0x45,0x54,0x3a,0x0b,0x40,0x70,0x69,0x74,0x63,0x68,0x69,0x69,0x3a,0x0c,0x40,0x76,0x6f,0x6c,0x75,0x6d,0x65,0x69,0x69))
PictureDisplay(6,"ev_rahure_ct01",0,0,0,0,100,100,255,0)
311(0,1,1,1,26,true)
ShowMessageFace("",0,0,2,11)
ShowMessage("Innumerable stamens cling to Luka's penis!")
ShowMessage("They rub and stroke, covering him with pollen!\\D")
ShowMessage("Luka takes \\V[26] damage!")
ChangeVariable(27,27,0,3,3,1,2)
If(1,27,0,0,0)
 JumpToLabel("射精2")
 0()
EndIf()
ShowMessageFace("rahure_fc1",1,0,2,12)
ShowMessage("\\n<Rafflesia Girl>Now, ejaculate on my pistil.\nThe semen and pollen will mix together...")
ShowMessageFace("rahure_fc1",1,0,2,13)
ShowMessage("\\n<Rafflesia Girl>Hora...\nCover my pistil with your semen...")
250(bytes(0x04,0x08,0x6f,0x3a,0x0c,0x52,0x50,0x47,0x3a,0x3a,0x53,0x45,0x08,0x3a,0x0a,0x40,0x6e,0x61,0x6d,0x65,0x49,0x22,0x16,0x6d,0x6f,0x6e,0x5f,0x65,0x72,0x6f,0x5f,0x6d,0x61,0x6b,0x69,0x74,0x75,0x6b,0x69,0x33,0x06,0x3a,0x06,0x45,0x54,0x3a,0x0b,0x40,0x70,0x69,0x74,0x63,0x68,0x69,0x69,0x3a,0x0c,0x40,0x76,0x6f,0x6c,0x75,0x6d,0x65,0x69,0x69))
PictureDisplay(6,"ev_rahure_ct11",0,0,0,0,100,100,255,0)
311(0,1,1,1,26,true)
ShowMessageFace("",0,0,2,14)
ShowMessage("Her pistil reaches out to Luka's penis!")
ShowMessage("The wat pistil rubs against his penis!\\D")
ShowMessage("Luka takes \\V[26] damage!")
ChangeVariable(27,27,0,3,3,1,2)
If(1,27,0,0,0)
 JumpToLabel("射精3")
 0()
EndIf()
ShowMessageFace("",0,0,2,15)
ShowMessage("\\n<Luka>Ugh...Urhg...!")
ShowMessageFace("rahure_fc1",1,0,2,16)
ShowMessage("\\n<Rafflesia Girl>Fufu... All you have to do is ejaculate.\nSprinkle your semen all over, and pollinate me...")
250(bytes(0x04,0x08,0x6f,0x3a,0x0c,0x52,0x50,0x47,0x3a,0x3a,0x53,0x45,0x08,0x3a,0x0a,0x40,0x6e,0x61,0x6d,0x65,0x49,0x22,0x16,0x6d,0x6f,0x6e,0x5f,0x65,0x72,0x6f,0x5f,0x6d,0x61,0x6b,0x69,0x74,0x75,0x6b,0x69,0x33,0x06,0x3a,0x06,0x45,0x54,0x3a,0x0b,0x40,0x70,0x69,0x74,0x63,0x68,0x69,0x69,0x3a,0x0c,0x40,0x76,0x6f,0x6c,0x75,0x6d,0x65,0x69,0x69))
311(0,1,1,1,26,true)
ShowMessageFace("",0,0,2,17)
ShowMessage("The pistil rubs up and down the back of Luka's penis!")
ShowMessage("The sweet sensation drives Luka closer to the edge!\\D")
ShowMessage("Luka takes \\V[26] damage!")
ChangeVariable(27,27,0,3,3,1,2)
If(1,27,0,0,0)
 JumpToLabel("射精3")
 0()
EndIf()
ShowMessageFace("rahure_fc1",1,0,2,18)
ShowMessage("\\n<Rafflesia Girl>I'll keep rubbing it until you come...\nFufufu, you can't hold on much longer, can you?")
250(bytes(0x04,0x08,0x6f,0x3a,0x0c,0x52,0x50,0x47,0x3a,0x3a,0x53,0x45,0x08,0x3a,0x0a,0x40,0x6e,0x61,0x6d,0x65,0x49,0x22,0x16,0x6d,0x6f,0x6e,0x5f,0x65,0x72,0x6f,0x5f,0x6d,0x61,0x6b,0x69,0x74,0x75,0x6b,0x69,0x33,0x06,0x3a,0x06,0x45,0x54,0x3a,0x0b,0x40,0x70,0x69,0x74,0x63,0x68,0x69,0x69,0x3a,0x0c,0x40,0x76,0x6f,0x6c,0x75,0x6d,0x65,0x69,0x69))
311(0,1,1,1,26,true)
ShowMessageFace("",0,0,2,19)
ShowMessage("Her pistil strokes Luka's penis!")
ShowMessage("The seductive touch pushes him over the edge!\\D")
ShowMessage("Luka takes \\V[26] damage!")
ChangeVariable(27,27,0,3,3,1,2)
If(1,27,0,0,0)
 JumpToLabel("射精3")
 0()
EndIf()
DefineLabel("射精1")
ShowMessageFace("",0,0,2,20)
ShowMessage("\\n<Luka>Oh no, I'm coming... Aaah...")
RunCommonEvent(104)
PictureDisplay(5,"ev_rahure_st12",0,0,0,0,100,100,255,0)
RunCommonEvent(105)
ShowMessageFace("",0,0,2,21)
ShowMessage("The moment he's forced into her flower body, Luka comes.")
ShowMessage("His semen shoots out all over her body.")
ShowMessageFace("rahure_fc1",0,0,2,22)
ShowMessage("\\n<Rafflesia Girl>Arara... I wasn't ready yet.\nI can't be pollinated like that...")
ShowMessageFace("rahure_fc1",1,0,2,23)
ShowMessage("\\n<Rafflesia Girl>So, we'll have to do it again.\nNow, do it properly this time.")
RunCommonEvent(2000)
EndEventProcessing()
DefineLabel("射精2")
ShowMessageFace("",0,0,2,24)
ShowMessage("\\n<Luka>Oh no, I'm coming... Aaah...")
RunCommonEvent(104)
PictureDisplay(5,"ev_rahure_st12",0,0,0,0,100,100,255,0)
PictureDisplay(6,"ev_rahure_ct02",0,0,0,0,100,100,255,0)
RunCommonEvent(105)
PictureDisplay(6,"ev_rahure_ct03",0,0,0,0,100,100,255,0)
ShowMessageFace("",0,0,2,25)
ShowMessage("Unable to stand the touch of the stamens, Luka comes.")
ShowMessageFace("rahure_fc1",0,0,2,26)
ShowMessage("\\n<Rafflesia Girl>Arara... I wasn't ready yet.\nI can't be pollinated like that...")
ShowMessageFace("rahure_fc1",1,0,2,27)
ShowMessage("\\n<Rafflesia Girl>So, we'll have to do it again.\nNow, do it properly this time.")
RunCommonEvent(2000)
EndEventProcessing()
DefineLabel("射精3")
ShowMessageFace("",0,0,2,28)
ShowMessage("\\n<Luka>Oh no, I'm coming... Aaah...")
RunCommonEvent(104)
PictureDisplay(5,"ev_rahure_st12",0,0,0,0,100,100,255,0)
PictureDisplay(6,"ev_rahure_ct12",0,0,0,0,100,100,255,0)
RunCommonEvent(105)
PictureDisplay(6,"ev_rahure_ct13",0,0,0,0,100,100,255,0)
ShowMessageFace("",0,0,2,29)
ShowMessage("The seductive touch pushes Luka over the edge, forcing him to come.")
ShowMessage("His sticky semen shoots out all over her body.")
ShowMessageFace("rahure_fc1",1,0,2,30)
ShowMessage("\\n<Rafflesia Girl>Ahaha, your semen is all over my pistil.\nI'm so happy you let out so much. ♪")
ShowMessageFace("rahure_fc1",1,0,2,31)
ShowMessage("\\n<Rafflesia Girl>Hey, don't you want to pollinate me even more?\nI mean, just look at your drooling...♪")
RunCommonEvent(2000)
EndEventProcessing()
0()
