// EVENT 4448
Name "Cursed Doll 3"

If(0,25,1)
 221()
 PictureClear(5)
 PictureClear(6)
 ShowMessageFace("",0,0,2,0)
 ShowMessage("......")
 242(2)
 Wait(120)
 241(bytes(0x04,0x08,0x6f,0x3a,0x0d,0x52,0x50,0x47,0x3a,0x3a,0x42,0x47,0x4d,0x08,0x3a,0x0a,0x40,0x6e,0x61,0x6d,0x65,0x49,0x22,0x0c,0x63,0x61,0x73,0x74,0x6c,0x65,0x36,0x06,0x3a,0x06,0x45,0x54,0x3a,0x0c,0x40,0x76,0x6f,0x6c,0x75,0x6d,0x65,0x69,0x69,0x3a,0x0b,0x40,0x70,0x69,0x74,0x63,0x68,0x69,0x69))
 EndEventProcessing()
 0()
EndIf()
PictureDisplay(5,"80_doll_st01",0,0,0,0,100,100,255,0)
ShowMessageFace("doll_fc1",0,0,2,1)
ShowMessage("\\n<Miyabi>Big bro, let's play...")
ShowMessageFace("",0,0,2,2)
ShowMessage("\\n<Luka>Ok, what do you want to play?")
ShowMessageFace("",0,0,2,3)
ShowMessage("Suddenly, a wicked thought crosses my mind.")
ShowMessage("If she says play... I wonder if she'd listen to a lewd request.")
ShowMessageFace("",0,0,2,4)
ShowMessage("\\n<Luka>Should we go to a room?")
ShowMessageFace("doll_fc1",0,0,2,5)
ShowMessage("\\n<Miyabi>Let's play a lot...")
ShowMessageFace("",0,0,2,6)
ShowMessage("I go to a private room with Miyabi...")
221()
PictureDisplay(1,"bg195",0,0,0,0,100,100,255,0)
PictureDisplay(5,"ev_doll_hc01",0,0,0,0,100,100,255,0)
222()
241(bytes(0x04,0x08,0x6f,0x3a,0x0d,0x52,0x50,0x47,0x3a,0x3a,0x42,0x47,0x4d,0x08,0x3a,0x0a,0x40,0x6e,0x61,0x6d,0x65,0x49,0x22,0x09,0x65,0x72,0x6f,0x31,0x06,0x3a,0x06,0x45,0x54,0x3a,0x0c,0x40,0x76,0x6f,0x6c,0x75,0x6d,0x65,0x69,0x69,0x3a,0x0b,0x40,0x70,0x69,0x74,0x63,0x68,0x69,0x69))
ShowMessageFace("doll_fc1",0,0,2,7)
ShowMessage("\\n<Miyabi>You want to play a lewd game...?")
ShowMessageFace("",0,0,2,8)
ShowMessage("Miyabi rolls around on the bed, and shows off her naked lower body.")
ShowMessage("There, she has a small artificial pussy.")
ShowMessageFace("",0,0,2,9)
ShowMessage("\\n<Luka>C-Can I put it in you?")
ShowMessageFace("doll_fc1",0,0,2,10)
ShowMessage("\\n<Miyabi>Let's play a game then.\nI'll play with big bro's penis...")
ShowMessageFace("doll_fc1",0,0,2,11)
ShowMessage("\\n<Miyabi>And if you can endure it, you can put it in.")
ShowMessageFace("",0,0,2,12)
ShowMessage("\\n<Luka>Ok, that sounds fun...")
PictureDisplay(5,"ev_doll_hc02",0,0,0,0,100,100,255,0)
ShowMessageFace("",0,0,2,13)
ShowMessage("After I agree to the game, she climbs on top of my lower body.")
ShowMessage("The doll's slit lightly presses against my penis.")
ShowMessageFace("",0,0,2,14)
ShowMessage("The surface of her skin is soft.")
ShowMessage("Though she has hard parts on her body, some of it is incredibly soft.")
ShowMessageFace("doll_fc1",0,0,2,15)
ShowMessage("\\n<Miyabi>How do you want me to play with your penis, big bro?")
ShowMessageFace("",0,0,2,16)
ShowMessage("\\n<Luka>......")
ShowChoices(strings("Intercrural","Footjob","Hairjob"),0)
IfPlayerPicksChoice(0,"Intercrural")
 ShowMessageFace("doll_fc1",0,0,2,17)
 ShowMessage("\\n<Miyabi>Ok, then I'll rub it like this...")
 ShowMessageFace("",0,0,2,18)
 ShowMessage("With a lewd smile, Miyabi starts to grind her hips against me.")
 ShowMessage("Her body rubs against my penis underneath her.")
 ShowMessageFace("",0,0,2,19)
 ShowMessage("\\n<Luka>Ah, ugh...")
 ShowMessageFace("",0,0,2,20)
 ShowMessage("Even if some of her skin is hard, it feels amazing.")
 ShowMessage("It makes me excited just feeling her.")
 ShowMessageFace("",0,0,2,21)
 ShowMessage("A doll in the shape of a young, innocent girl.")
 ShowMessage("A sense of immorality floods through me as she rubs her tiny body against my cock.")
 ShowMessageFace("doll_fc1",0,0,2,22)
 ShowMessage("\\n<Miyabi>Your penis is twitching...\nI don't think you can hold on, big bro...")
 ShowMessageFace("",0,0,2,23)
 ShowMessage("Miyabi rubs her body against me as she says that.")
 ShowMessage("She stares at my penis and giggles as she moves.")
 ShowMessageFace("",0,0,2,24)
 ShowMessage("\\n<Luka>Unnngh... Aaah...")
 ShowMessageFace("",0,0,2,25)
 ShowMessage("It feels like she's trying to bully my penis.")
 ShowMessage("Despite the rhythmic stimulation, my excitement is growing.")
 ShowMessageFace("",0,0,2,26)
 ShowMessage("I feel myself on the verge of coming.")
 ShowMessage("But if I don't endure it here, I won't be able to put it inside her...")
 ShowMessageFace("doll_fc1",0,0,2,27)
 ShowMessage("\\n<Miyabi>I love it when men come...\nIt's so funny when the penis twitches...")
 ShowMessageFace("",0,0,2,28)
 ShowMessage("Miyabi looks at my penis in delight.")
 ShowMessage("She's waiting to watch it shoot out semen...")
 ShowMessageFace("",0,0,2,29)
 ShowMessage("Taking this torture, I...")
 ShowChoices(strings("Give in...","Endure!"),0)
 IfPlayerPicksChoice(0,"Give in...")
  ShowMessageFace("doll_fc1",0,0,2,30)
  ShowMessage("\\n<Miyabi>There's something coming out of the hole...\nAre you leaking already...?")
  ShowMessageFace("",0,0,2,31)
  ShowMessage("Miyabi laughs as she looks at the pre-come leaking from me.")
  ShowMessage("While giggling, she continues rubbing my penis...")
  ShowMessageFace("",0,0,2,32)
  ShowMessage("\\n<Luka>Aaah...I'm coming...")
  ShowMessageFace("",0,0,2,33)
  ShowMessage("At last, I was unable to endure it any longer.")
  ShowMessage("Staring at the tiny pussy in front of me that I won't be able to enter, I near my finish.")
  ShowMessageFace("doll_fc1",0,0,2,34)
  ShowMessage("\\n<Miyabi>You're going to leak...\nHow embarrassing, big bro...")
  ShowMessageFace("",0,0,2,35)
  ShowMessage("As Miyabi laughs at me, my moment of defeat comes.")
  ShowMessage("Unable to hold back, my waist presses forward as I climax.")
  246(2)
  RunCommonEvent(104)
  PictureDisplay(5,"ev_doll_hc03",0,0,0,0,100,100,255,0)
  RunCommonEvent(105)
  ShowMessageFace("",0,0,2,36)
  ShowMessage("\\n<Luka>Aaaaah...")
  ShowMessageFace("",0,0,2,37)
  ShowMessage("My semen shoots out.")
  ShowMessage("It's like a white flag of surrender...")
  ShowMessageFace("",0,0,2,38)
  ShowMessage("I feel like a failure as a man.")
  ShowMessage("Every time my penis pulses, it shoots more proof of my defeat onto her.")
  ShowMessageFace("doll_fc1",0,0,2,39)
  ShowMessage("\\n<Miyabi>You came...\nBig bro is weaker than I thought, he couldn't endure at all...")
  ShowMessageFace("",0,0,2,40)
  ShowMessage("\\n<Luka>......")
  ShowMessageFace("",0,0,2,41)
  ShowMessage("Like that, I'm denied from entering her.")
  ShowMessage("Miyabi giggles as I lay under her, too weak to move.")
  221()
  PictureClear(5)
  ShowMessageFace("",0,0,2,42)
  ShowMessage("......")
  242(2)
  Wait(120)
  241(bytes(0x04,0x08,0x6f,0x3a,0x0d,0x52,0x50,0x47,0x3a,0x3a,0x42,0x47,0x4d,0x08,0x3a,0x0a,0x40,0x6e,0x61,0x6d,0x65,0x49,0x22,0x0c,0x63,0x61,0x73,0x74,0x6c,0x65,0x36,0x06,0x3a,0x06,0x45,0x54,0x3a,0x0c,0x40,0x76,0x6f,0x6c,0x75,0x6d,0x65,0x69,0x69,0x3a,0x0b,0x40,0x70,0x69,0x74,0x63,0x68,0x69,0x69))
  EndEventProcessing()
  0()
 IfPlayerPicksChoice(1,"Endure!")
  JumpToLabel("我慢")
  0()
 404()
 0()
IfPlayerPicksChoice(1,"Footjob")
 ShowMessageFace("doll_fc1",0,0,2,43)
 ShowMessage("\\n<Miyabi>Ok, I'll play with you with my feet...")
 PictureDisplay(5,"ev_doll_hc04",0,0,0,0,100,100,255,0)
 ShowMessageFace("",0,0,2,44)
 ShowMessage("Miyabi presses her toes against my glans.")
 ShowMessage("Her dexterous toes rub the tip of my penis with skill.")
 ShowMessageFace("",0,0,2,45)
 ShowMessage("\\n<Luka>Ah, ugh...")
 ShowMessageFace("",0,0,2,46)
 ShowMessage("Even though some parts of her skin are hard, it feels amazing.")
 ShowMessage("Her touch itself excites me.")
 ShowMessageFace("",0,0,2,47)
 ShowMessage("A doll in the shape of a young, innocent girl.")
 ShowMessage("A sense of immorality fills me as she uses her small foot to rub me.")
 ShowMessageFace("doll_fc1",0,0,2,48)
 ShowMessage("\\n<Miyabi>Your penis is twitching...\nI don't think you can hold on, big bro...")
 ShowMessageFace("",0,0,2,49)
 ShowMessage("Miyabi moves her feet as she toys with me.")
 ShowMessage("She stares at my penis, and giggles.")
 ShowMessageFace("",0,0,2,50)
 ShowMessage("\\n<Luka>Unnngh... Aaah...")
 ShowMessageFace("",0,0,2,51)
 ShowMessage("It feels like she's trying to bully my penis.")
 ShowMessage("Despite the rhythmic stimulation, my excitement is growing.")
 ShowMessageFace("",0,0,2,52)
 ShowMessage("I feel myself on the verge of coming.")
 ShowMessage("But if I don't endure it here, I won't be able to put it inside her...")
 ShowMessageFace("doll_fc1",0,0,2,53)
 ShowMessage("\\n<Miyabi>I love it when men come...\nIt's so funny when the penis twitches...")
 ShowMessageFace("",0,0,2,54)
 ShowMessage("Miyabi looks at my penis in delight.")
 ShowMessage("She's waiting to watch it shoot out semen...")
 ShowMessageFace("",0,0,2,55)
 ShowMessage("Taking this torture, I...")
 ShowChoices(strings("Give in...","Endure!"),0)
 IfPlayerPicksChoice(0,"Give in...")
  ShowMessageFace("doll_fc1",0,0,2,56)
  ShowMessage("\\n<Miyabi>There's something coming out of the hole...\nAre you leaking already...?")
  ShowMessageFace("",0,0,2,57)
  ShowMessage("Miyabi laughs as she looks at the pre-come leaking from me.")
  ShowMessage("But despite her derision, her foot never stops stroking me.")
  ShowMessageFace("",0,0,2,58)
  ShowMessage("\\n<Luka>Aaah...I'm coming...")
  ShowMessageFace("",0,0,2,59)
  ShowMessage("At last, I was unable to endure it any longer.")
  ShowMessage("Staring at the tiny pussy in front of me that I won't be able to enter, I near my finish.")
  ShowMessageFace("doll_fc1",0,0,2,60)
  ShowMessage("\\n<Miyabi>You're going to leak...\nHow embarrassing, big bro...")
  ShowMessageFace("",0,0,2,61)
  ShowMessage("As Miyabi laughs at me, my moment of defeat comes.")
  ShowMessage("Unable to hold back, my waist presses forward as I climax.")
  246(2)
  RunCommonEvent(104)
  PictureDisplay(5,"ev_doll_hc05",0,0,0,0,100,100,255,0)
  RunCommonEvent(105)
  ShowMessageFace("",0,0,2,62)
  ShowMessage("\\n<Luka>Aaaaah...")
  ShowMessageFace("",0,0,2,63)
  ShowMessage("My semen shoots out.")
  ShowMessage("It's like a white flag of surrender...")
  ShowMessageFace("",0,0,2,64)
  ShowMessage("I feel like a failure as a man.")
  ShowMessage("Every time my penis pulses, it shoots more proof of my defeat onto her.")
  ShowMessageFace("doll_fc1",0,0,2,65)
  ShowMessage("\\n<Miyabi>You came...\nBig bro is weaker than I thought, he couldn't endure at all...")
  ShowMessageFace("",0,0,2,66)
  ShowMessage("\\n<Luka>......")
  ShowMessageFace("",0,0,2,67)
  ShowMessage("Like that, I'm denied from entering her.")
  ShowMessage("Miyabi giggles as I lay under her, too weak to move.")
  221()
  PictureClear(5)
  ShowMessageFace("",0,0,2,68)
  ShowMessage("......")
  242(2)
  Wait(120)
  241(bytes(0x04,0x08,0x6f,0x3a,0x0d,0x52,0x50,0x47,0x3a,0x3a,0x42,0x47,0x4d,0x08,0x3a,0x0a,0x40,0x6e,0x61,0x6d,0x65,0x49,0x22,0x0c,0x63,0x61,0x73,0x74,0x6c,0x65,0x36,0x06,0x3a,0x06,0x45,0x54,0x3a,0x0c,0x40,0x76,0x6f,0x6c,0x75,0x6d,0x65,0x69,0x69,0x3a,0x0b,0x40,0x70,0x69,0x74,0x63,0x68,0x69,0x69))
  EndEventProcessing()
  0()
 IfPlayerPicksChoice(1,"Endure!")
  JumpToLabel("我慢")
  0()
 404()
 0()
IfPlayerPicksChoice(2,"Hairjob")
 ShowMessageFace("doll_fc1",0,0,2,69)
 ShowMessage("\\n<Miyabi>I'll play with you with my hair...")
 PictureDisplay(5,"ev_doll_hc09",0,0,0,0,100,100,255,0)
 ShowMessageFace("",0,0,2,70)
 ShowMessage("Miyabi's hair suddenly starts to grow.")
 PictureDisplay(5,"ev_doll_hc10",0,0,0,0,100,100,255,0)
 ShowMessageFace("",0,0,2,71)
 ShowMessage("It winds around my penis.")
 ShowMessage("Moving like a tentacle, it starts to stroke me.")
 ShowMessageFace("",0,0,2,72)
 ShowMessage("\\n<Luka>Ah, ugh...")
 ShowMessageFace("",0,0,2,73)
 ShowMessage("She skillfully tightens it, but I don't feel any pain.")
 ShowMessage("Her hair rubs every inch of my penis.")
 ShowMessageFace("",0,0,2,74)
 ShowMessage("A doll in the shape of a young, innocent girl.")
 ShowMessage("A sense of immorality floods me as her hair toys with my penis.")
 PictureDisplay(5,"ev_doll_hc11",0,0,0,0,100,100,255,0)
 ShowMessageFace("doll_fc1",0,0,2,75)
 ShowMessage("\\n<Miyabi>Your penis is twitching...\nI don't think you can hold on, big bro...")
 ShowMessageFace("",0,0,2,76)
 ShowMessage("As she says that, Miyabi uses her hair to tickle the tip of my penis.")
 ShowMessage("She looks down at my penis and giggles.")
 ShowMessageFace("",0,0,2,77)
 ShowMessage("\\n<Luka>Unnngh... Aaah...")
 ShowMessageFace("",0,0,2,78)
 ShowMessage("It feels like she's trying to bully my penis.")
 ShowMessage("Sometimes she tightens her hair, other times she strokes it...")
 ShowMessageFace("",0,0,2,79)
 ShowMessage("I feel myself on the verge of coming.")
 ShowMessage("But if I don't endure it here, I won't be able to put it inside her...")
 ShowMessageFace("doll_fc1",0,0,2,80)
 ShowMessage("\\n<Miyabi>I love it when men come...\nIt's so funny when the penis twitches...")
 ShowMessageFace("",0,0,2,81)
 ShowMessage("Miyabi looks at my penis in delight.")
 ShowMessage("She's waiting to watch it shoot out semen...")
 ShowMessageFace("",0,0,2,82)
 ShowMessage("Taking this torture, I...")
 ShowChoices(strings("Give in...","Endure!"),0)
 IfPlayerPicksChoice(0,"Give in...")
  ShowMessageFace("doll_fc1",0,0,2,83)
  ShowMessage("\\n<Miyabi>There's something coming out of the hole...\nAre you leaking already...?")
  ShowMessageFace("",0,0,2,84)
  ShowMessage("Miyabi laughs as she looks at the pre-come leaking from me.")
  ShowMessage("All the while, her hair is playing with me...")
  ShowMessageFace("",0,0,2,85)
  ShowMessage("\\n<Luka>Aaah...I'm coming...")
  ShowMessageFace("",0,0,2,86)
  ShowMessage("At last, I was unable to endure it any longer.")
  ShowMessage("Staring at the tiny pussy in front of me that I won't be able to enter, I near my finish.")
  ShowMessageFace("doll_fc1",0,0,2,87)
  ShowMessage("\\n<Miyabi>You're going to leak...\nHow embarrassing, big bro...")
  ShowMessageFace("",0,0,2,88)
  ShowMessage("As Miyabi laughs at me, my moment of defeat comes.")
  ShowMessage("Unable to hold back, my waist presses forward as I climax.")
  246(2)
  RunCommonEvent(104)
  PictureDisplay(5,"ev_doll_hc12",0,0,0,0,100,100,255,0)
  RunCommonEvent(105)
  ShowMessageFace("",0,0,2,89)
  ShowMessage("\\n<Luka>Aaaaah...")
  ShowMessageFace("",0,0,2,90)
  ShowMessage("My semen shoots out.")
  ShowMessage("It's like a white flag of surrender...")
  ShowMessageFace("",0,0,2,91)
  ShowMessage("I feel like a failure as a man.")
  ShowMessage("Every time my penis pulses, it shoots more proof of my defeat onto her.")
  ShowMessageFace("doll_fc1",0,0,2,92)
  ShowMessage("\\n<Miyabi>You came...\nBig bro is weaker than I thought, he couldn't endure at all...")
  ShowMessageFace("",0,0,2,93)
  ShowMessage("\\n<Luka>......")
  ShowMessageFace("",0,0,2,94)
  ShowMessage("Like that, I'm denied from entering her.")
  ShowMessage("Miyabi giggles as I lay under her, too weak to move.")
  221()
  PictureClear(5)
  ShowMessageFace("",0,0,2,95)
  ShowMessage("......")
  242(2)
  Wait(120)
  241(bytes(0x04,0x08,0x6f,0x3a,0x0d,0x52,0x50,0x47,0x3a,0x3a,0x42,0x47,0x4d,0x08,0x3a,0x0a,0x40,0x6e,0x61,0x6d,0x65,0x49,0x22,0x0c,0x63,0x61,0x73,0x74,0x6c,0x65,0x36,0x06,0x3a,0x06,0x45,0x54,0x3a,0x0c,0x40,0x76,0x6f,0x6c,0x75,0x6d,0x65,0x69,0x69,0x3a,0x0b,0x40,0x70,0x69,0x74,0x63,0x68,0x69,0x69))
  EndEventProcessing()
  0()
 IfPlayerPicksChoice(1,"Endure!")
  JumpToLabel("我慢")
  0()
 404()
 0()
404()
DefineLabel("我慢")
ShowMessageFace("",0,0,2,96)
ShowMessage("\\n<Luka>Urhg...")
ShowMessageFace("",0,0,2,97)
ShowMessage("Desperate to hold on, I manage to endure.")
ShowMessage("Miyabi stops toying with my penis, and smiles.")
PictureDisplay(5,"ev_doll_hc02",0,0,0,0,100,100,255,0)
ShowMessageFace("doll_fc1",0,0,2,98)
ShowMessage("\\n<Miyabi>You managed to endure it... Ok, you can put it in.\nI'll suck out big bro's energy...")
ShowMessageFace("",0,0,2,99)
ShowMessage("Suck out my energy... The disturbing words are overlooked in my lust.")
ShowMessage("I grab hold of her small body, and press the tip of my penis against her tiny slit.")
ShowMessageFace("",0,0,2,100)
ShowMessage("\\n<Luka>O-Ok then, I'm putting it in...")
ShowMessageFace("",0,0,2,101)
ShowMessage("Pressing my waist forward, I push myself into her.")
245(bytes(0x04,0x08,0x6f,0x3a,0x0d,0x52,0x50,0x47,0x3a,0x3a,0x42,0x47,0x53,0x08,0x3a,0x0a,0x40,0x6e,0x61,0x6d,0x65,0x49,0x22,0x1e,0x6d,0x6f,0x6e,0x5f,0x68,0x73,0x65,0x61,0x6e,0x30,0x39,0x5f,0x69,0x6e,0x6e,0x65,0x72,0x77,0x6f,0x72,0x6b,0x73,0x5f,0x62,0x31,0x06,0x3a,0x06,0x45,0x54,0x3a,0x0c,0x40,0x76,0x6f,0x6c,0x75,0x6d,0x65,0x69,0x55,0x3a,0x0b,0x40,0x70,0x69,0x74,0x63,0x68,0x69,0x69))
PictureDisplay(5,"ev_doll_hc07",0,0,0,0,100,100,255,0)
ShowMessageFace("",0,0,2,102)
ShowMessage("\\n<Luka>Ah! Ahhh!!")
ShowMessageFace("",0,0,2,103)
ShowMessage("The soft interior didn't feel like a doll at all.")
ShowMessageFace("",0,0,2,104)
ShowMessage("Warm and wet inside of her, my body writhes at the surprising sensation.")
ShowMessage("I squirm underneath her in a pleasant surprise at how good she feels.")
ShowMessageFace("",0,0,2,105)
ShowMessage("\\n<Luka>What... Is this...? It feels so good...\nIt's curved...")
ShowMessageFace("doll_fc1",1,0,2,106)
ShowMessage("\\n<Miyabi>You put it in, big bro...")
ShowMessageFace("",0,0,2,107)
ShowMessage("Miyabi giggles as I hold her.")
ShowMessage("Her wet vagina squeezes and presses against me, as if it were alive.")
ShowMessageFace("",0,0,2,108)
ShowMessage("I can't endure this small vagina...")
ShowMessageFace("doll_fc1",1,0,2,109)
ShowMessage("\\n<Miyabi>Let it out, big bro...")
ShowMessageFace("",0,0,2,110)
ShowMessage("At the same time that she said that, she started to move her waist.")
ShowMessage("Forcing me in and out of her, the tip of my penis rubs along the wall of her curved vagina.")
ShowMessageFace("",0,0,2,111)
ShowMessage("I let out a moan as my penis starts to twitch.")
ShowMessageFace("",0,0,2,112)
ShowMessage("\\n<Luka>Uuu.... Ahhh...")
RunCommonEvent(104)
PictureDisplay(5,"ev_doll_hc08",0,0,0,0,100,100,255,0)
RunCommonEvent(105)
ShowMessageFace("",0,0,2,113)
ShowMessage("I explode in her tiny hole, shooting out my semen.")
ShowMessage("The pleasure from her tiny vagina forced me to orgasm almost in an instant...")
ShowMessageFace("",0,0,2,114)
ShowMessage("\\n<Luka>Auuu...")
ShowMessageFace("",0,0,2,115)
ShowMessage("The immoral feeling of violating a young girl, and coming in her...")
ShowMessage("But more than immoral feelings, I'm overcome with disgust at myself for surrendering so quickly.")
ShowMessageFace("",0,0,2,116)
ShowMessage("I tremble in defeat as I hold her small body.")
ShowMessage("In addition, after coming inside of her I feel a sense of lethargy come over me.")
ShowMessageFace("",0,0,2,117)
ShowMessage("I feel that there's something dangerous about continuing to have sex with her like this.")
ShowMessage("I quickly try to pull out of her, but...")
ShowMessageFace("doll_fc1",1,0,2,118)
ShowMessage("\\n<Miyabi>Big bro... I want to play more...")
ShowMessageFace("",0,0,2,119)
ShowMessage("\\n<Luka>I-I can't pull out... Why...?")
ShowMessageFace("",0,0,2,120)
ShowMessage("Miyabi clings to my body, and doesn't let go.")
ShowMessage("My penis is still inserted deep in her.")
ShowMessageFace("",0,0,2,121)
ShowMessage("\\n<Luka>Stop... Uuu...")
245(bytes(0x04,0x08,0x6f,0x3a,0x0d,0x52,0x50,0x47,0x3a,0x3a,0x42,0x47,0x53,0x08,0x3a,0x0a,0x40,0x6e,0x61,0x6d,0x65,0x49,0x22,0x1e,0x6d,0x6f,0x6e,0x5f,0x68,0x73,0x65,0x61,0x6e,0x31,0x30,0x5f,0x69,0x6e,0x6e,0x65,0x72,0x77,0x6f,0x72,0x6b,0x73,0x5f,0x62,0x32,0x06,0x3a,0x06,0x45,0x54,0x3a,0x0c,0x40,0x76,0x6f,0x6c,0x75,0x6d,0x65,0x69,0x55,0x3a,0x0b,0x40,0x70,0x69,0x74,0x63,0x68,0x69,0x69))
ShowMessageFace("",0,0,2,122)
ShowMessage("Miyabi squeezes her vagina.")
ShowMessage("Right after ejaculating, she's already stimulating me again.")
ShowMessageFace("",0,0,2,123)
ShowMessage("Leading me to a world of pleasure, I can't resist her...")
ShowMessageFace("",0,0,2,124)
ShowMessage("\\n<Luka>Aaah... Incredible...")
ShowMessageFace("",0,0,2,125)
ShowMessage("I let out a groan as I feel another ejaculation start to rise in my waist.")
ShowMessageFace("",0,0,2,126)
ShowMessage("The numbness that started to fill my waist after my last orgasm continues to slowly spread through my body.")
ShowMessageFace("",0,0,2,127)
ShowMessage("This tiny doll is playing with me...")
ShowMessage("But even so, I don't have the strength to get her off...")
ShowMessageFace("doll_fc1",1,0,2,128)
ShowMessage("\\n<Miyabi>Let it out, big bro...\nI want all of your white stuff in me...")
ShowMessageFace("",0,0,2,129)
ShowMessage("She grins as she tightens around my penis.")
ShowMessageFace("",0,0,2,130)
ShowMessage("Slowly moving her waist, she coaxes me towards another orgasm.")
ShowMessageFace("",0,0,2,131)
ShowMessage("\\n<Luka>Auu... If you do that... I can't...!")
ShowMessageFace("",0,0,2,132)
ShowMessage("I quickly reach another height due to the pleasure being forced into me.")
RunCommonEvent(104)
RunCommonEvent(105)
ShowMessageFace("",0,0,2,133)
ShowMessage("I explode again inside the Cursed Doll's warm hole.")
ShowMessage("The doubt and fear that was left in my mind starts to fade as the numbness spreads.")
ShowMessageFace("",0,0,2,134)
ShowMessage("Before I noticed it myself, I had already become addicted to the pleasure she can give me.")
ShowMessageFace("",0,0,2,135)
ShowMessage("\\n<Luka>Faaa... Incredible...")
ShowMessageFace("doll_fc1",1,0,2,136)
ShowMessage("\\n<Miyabi>I want to play even more, big bro...")
ShowMessageFace("",0,0,2,137)
ShowMessage("From her deepest spot to her entrance, she continues to slowly move her waist back and forth.")
ShowMessage("Back and forth, my penis is forced in and out of her tiny hole.")
ShowMessageFace("",0,0,2,138)
ShowMessage("The amazing feeling attacking me with every thrust quickly pushes me over another edge.")
ShowMessageFace("",0,0,2,139)
ShowMessage("\\n<Luka>Aaaaaa!")
RunCommonEvent(104)
RunCommonEvent(105)
ShowMessageFace("",0,0,2,140)
ShowMessage("Raped by a small doll, I explode in her for a third time.")
ShowMessageFace("doll_fc1",1,0,2,141)
ShowMessage("\\n<Miyabi>It's delicious, big bro...\nMore... I want to play more...")
ShowMessageFace("",0,0,2,142)
ShowMessage("Without mercy, she continues to wring more from me.")
ShowMessageFace("",0,0,2,143)
ShowMessage("Each time I ejaculate, more and more of my strength is taken from me.")
ShowMessage("As I am now, I can barely keep my eyes open.")
ShowMessageFace("",0,0,2,144)
ShowMessage("\\n<Luka>Auu... If you keep doing that...")
ShowMessageFace("doll_fc1",1,0,2,145)
ShowMessage("\\n<Miyabi>Give me more please, big bro...\nMore... More... More...")
ShowMessageFace("",0,0,2,146)
ShowMessage("She continues her movement, as the last of my fear fades.")
ShowMessage("Being raped by Miyabi, I'm not allowed to have any fear...")
ShowMessageFace("",0,0,2,147)
ShowMessage("\\n<Luka>Auu...")
ShowMessageFace("doll_fc1",1,0,2,148)
ShowMessage("\\n<Miyabi>I want to play more...\nUntil big bro breaks...")
ShowMessageFace("",0,0,2,149)
ShowMessage("Holding my penis inside of her, she single-mindedly wrings out my energy.")
ShowMessage("I have no choice but to give in to her devilish desire.")
ShowMessageFace("",0,0,2,150)
ShowMessage("Once she forced me into her, my fate was sealed...")
ShowMessageFace("doll_fc1",1,0,2,151)
ShowMessage("\\n<Miyabi>Give me more... Big bro...")
ShowMessageFace("",0,0,2,152)
ShowMessage("\\n<Luka>Aaaa!!")
RunCommonEvent(104)
RunCommonEvent(105)
ShowMessageFace("",0,0,2,153)
ShowMessage("I explode in the doll again.")
ShowMessage("More of my energy is taken by this little doll...")
ShowMessageFace("",0,0,2,154)
ShowMessage("Having sex with Miyabi is costing me my life...")
ShowMessageFace("doll_fc1",1,0,2,155)
ShowMessage("\\n<Miyabi>More, more... More of what I want...")
ShowMessageFace("",0,0,2,156)
ShowMessage("\\n<Luka>Auuuu!")
RunCommonEvent(104)
RunCommonEvent(105)
ShowMessageFace("",0,0,2,157)
ShowMessage("The numbness is covering my entire body now.")
ShowMessage("Unable to feel anything but the pleasure in my penis, it feels as though it isn't even my body any longer.")
ShowMessageFace("doll_fc1",1,0,2,158)
ShowMessage("\\n<Miyabi>Let's play more, big bro...")
ShowMessageFace("",0,0,2,159)
ShowMessage("\\n<Luka>Ahh...")
RunCommonEvent(104)
RunCommonEvent(105)
ShowMessageFace("",0,0,2,160)
ShowMessage("Miyabi laughs as she sucks out more of my energy.")
ShowMessage("My vision dims until I can barely make out her sadistic face.")
ShowMessageFace("",0,0,2,161)
ShowMessage("I'm barely able to keep a coherent thought...")
ShowMessage("If this doesn't stop right now...")
ShowMessageFace("doll_fc1",1,0,2,162)
ShowMessage("\\n<Miyabi>What's wrong, big bro?\nYou aren't moving anymore...")
ShowMessageFace("",0,0,2,163)
ShowMessage("\\n<Luka>A...a...a...")
ShowMessageFace("",0,0,2,164)
ShowMessage("She continues moving her waist as she looks at my face questioningly.")
RunCommonEvent(104)
RunCommonEvent(105)
221()
PictureClear(5)
246(2)
ShowMessageFace("",0,0,2,165)
ShowMessage("While basking in that final orgasm, I lose consciousness.")
ShowMessage("All of my energy was sucked up by Miyabi...")
ShowMessageFace("",0,0,2,166)
ShowMessage("A miserable end, with a doll having taken everything from me.")
ShowMessage("But at least it felt good until the last moment...")
221()
PictureClear(5)
246(2)
ShowMessageFace("",0,0,2,167)
ShowMessage("..................")
242(2)
Wait(120)
ChangeVariable(1002,1002,0,0,0)
216(1)
355("forced_transfer(154,18,52)")
355("release_temp_actors")
355("$game_map.screen.clear")
0()
