// EVENT 2037
Name "Seduction: Riot"

If(0,25,1)
 EndEventProcessing()
 0()
EndIf()
355("$game_troop.lose_event_id = 3037")
ChangeVariable(26,26,0,3,3,1,4)
ChangeVariable(26,26,4,0,10)
ShowMessageFace("liot_fc1",0,0,2,1)
ShowMessage("\\n<Riot>My defeat is inevitable, but...\nVery well, you can do as you please.")
ShowMessageFace("liot_fc1",0,0,2,2)
ShowMessage("\\n<Riot>It's the fate of the loser to be played with.\nDo as you please to this body of mine.")
ShowMessageFace("",0,0,2,3)
ShowMessage("Riot bends over, and shows her pubic area.")
ShowMessage("Mucus drips from her opening...")
ChangeSwitch(98,98,0)
ChangeSwitch(96,96,0)
ShowChoices(strings("Ignore her","Give in to temptation"),1)
IfPlayerPicksChoice(0,"Ignore her")
 ShowMessageFace("",0,0,2,4)
 ShowMessage("Luka resists her temptation!")
 RunCommonEvent(1999)
 EndEventProcessing()
 0()
IfPlayerPicksChoice(1,"誘惑に乗る")
 0()
404()
ShowMessageFace("",0,0,2,5)
ShowMessage("Luka clings to Riot's body, and pushes himself inside!")
ShowMessage("He pushes in one smooth movement!")
ShowMessageFace("liot_fc1",4,0,2,6)
ShowMessage("\\n<Riot>Good... All the way inside me.")
ChangeVariable(26,26,3,0,4)
250(bytes(0x04,0x08,0x6f,0x3a,0x0c,0x52,0x50,0x47,0x3a,0x3a,0x53,0x45,0x08,0x3a,0x0a,0x40,0x6e,0x61,0x6d,0x65,0x49,0x22,0x11,0x6d,0x6f,0x6e,0x5f,0x65,0x72,0x6f,0x5f,0x70,0x79,0x75,0x32,0x06,0x3a,0x06,0x45,0x54,0x3a,0x0b,0x40,0x70,0x69,0x74,0x63,0x68,0x69,0x69,0x3a,0x0c,0x40,0x76,0x6f,0x6c,0x75,0x6d,0x65,0x69,0x69))
311(0,1,1,1,26,true)
ShowMessageFace("",0,0,2,7)
ShowMessage("Luka's penis sinks all the way inside Riot!")
ShowMessage("Her hot, soft vagina clenches down around him!\\D")
ShowMessage("Luka takes \\V[26] damage!")
ChangeVariable(27,27,0,3,3,1,2)
If(1,27,0,0,0)
 JumpToLabel("射精1")
 0()
EndIf()
ShowMessageFace("",0,0,2,8)
ShowMessage("\\n<Luka>Ah...! Ugh...!")
ShowMessageFace("liot_fc1",1,0,2,9)
ShowMessage("\\n<Riot>Kuku... You let yourself be caught by a woman's weapon.\nNow, I'll make you come at once!")
250(bytes(0x04,0x08,0x6f,0x3a,0x0c,0x52,0x50,0x47,0x3a,0x3a,0x53,0x45,0x08,0x3a,0x0a,0x40,0x6e,0x61,0x6d,0x65,0x49,0x22,0x13,0x6d,0x6f,0x6e,0x5f,0x65,0x72,0x6f,0x5f,0x63,0x68,0x75,0x70,0x61,0x34,0x06,0x3a,0x06,0x45,0x54,0x3a,0x0b,0x40,0x70,0x69,0x74,0x63,0x68,0x69,0x69,0x3a,0x0c,0x40,0x76,0x6f,0x6c,0x75,0x6d,0x65,0x69,0x69))
311(0,1,1,1,26,true)
ShowMessageFace("",0,0,2,10)
ShowMessage("Riot squeezes down on Luka's penis!")
ShowMessage("Her warm flesh clamps down on Luka!\\D")
ShowMessage("Luka takes \\V[26] damage!")
ChangeVariable(27,27,0,3,3,1,2)
If(1,27,0,0,0)
 JumpToLabel("射精2")
 0()
EndIf()
ShowMessageFace("",0,0,2,11)
ShowMessage("\\n<Luka>Aaah...!")
ShowMessageFace("",0,0,2,12)
ShowMessage("She feels way too good...")
ShowMessage("At this rate, I'll come in no time.")
ShowChoices(strings("Pull out","Give in"),1)
IfPlayerPicksChoice(0,"腰を引く")
 ShowMessageFace("",0,0,2,13)
 ShowMessage("Luka tries to pull out!")
 ShowMessage("But Riot is too tight for Luka to escape from!")
 ShowMessageFace("liot_fc1",1,0,2,14)
 ShowMessage("\\n<Riot>No escaping...\nI'll make you come right away!")
 0()
IfPlayerPicksChoice(1,"身を任せる")
 ShowMessageFace("",0,0,2,15)
 ShowMessage("Luka surrenders to the pleasure...")
 ShowMessageFace("liot_fc1",1,0,2,16)
 ShowMessage("\\n<Riot>It seems you stopped resisting... But I won't go easy on you.\nI'll make you come right away!")
 0()
404()
250(bytes(0x04,0x08,0x6f,0x3a,0x0c,0x52,0x50,0x47,0x3a,0x3a,0x53,0x45,0x08,0x3a,0x0a,0x40,0x6e,0x61,0x6d,0x65,0x49,0x22,0x13,0x6d,0x6f,0x6e,0x5f,0x65,0x72,0x6f,0x5f,0x63,0x68,0x75,0x70,0x61,0x34,0x06,0x3a,0x06,0x45,0x54,0x3a,0x0b,0x40,0x70,0x69,0x74,0x63,0x68,0x69,0x69,0x3a,0x0c,0x40,0x76,0x6f,0x6c,0x75,0x6d,0x65,0x69,0x69))
311(0,1,1,1,26,true)
ShowMessageFace("",0,0,2,17)
ShowMessage("Riot's vagina gets even tighter!")
ShowMessage("The intense pressure forces Luka to come!\\D")
ShowMessage("Luka takes \\V[26] damage!")
ChangeVariable(27,27,0,3,3,1,2)
If(1,27,0,0,0)
 JumpToLabel("射精2")
 0()
EndIf()
DefineLabel("射精1")
ShowMessageFace("",0,0,2,18)
ShowMessage("\\n<Luka>Ah...Coming...")
RunCommonEvent(104)
RunCommonEvent(105)
ShowMessageFace("",0,0,2,19)
ShowMessage("As soon as Luka is inside of Riot, he's forced to come.")
ShowMessage("Her tight vagina is too much for him to take.")
ShowMessageFace("liot_fc1",1,0,2,20)
ShowMessage("\\n<Riot>Haha, already coming!?\nWhat a pathetic man!")
RunCommonEvent(2000)
EndEventProcessing()
DefineLabel("射精2")
ShowMessageFace("",0,0,2,21)
ShowMessage("\\n<Luka>Aaah...So tight...")
RunCommonEvent(104)
RunCommonEvent(105)
ShowMessageFace("",0,0,2,22)
ShowMessage("Riot's vagina tightens around Luka, forcing him to come almost instantly.")
ShowMessageFace("liot_fc1",1,0,2,23)
ShowMessage("\\n<Riot>Fufu, this is a woman's weapon.\nYou couldn't resist it, could you? And it's your complete defeat...")
RunCommonEvent(2000)
EndEventProcessing()
0()
