// EVENT 2277
Name "Seduction: Natasha"

355("$game_troop.lose_event_id = 3277")
ChangeVariable(26,26,0,3,3,1,4)
ChangeVariable(26,26,4,0,10)
ShowMessageFace("d_succubus_fc1",0,0,2,1)
ShowMessage("\\n<Natasha>")
ShowMessage("This fight isn't very interesting...")
ShowMessage("Shall I finish it quickly?")
ShowMessageFace("",0,0,2,2)
ShowMessage("Natasha's tail extends towards Luka!")
ShowMessage("The tip opens wide, like a mouth, racing toward his penis!")
ShowMessageFace("d_succubus_fc1",1,0,2,3)
ShowMessage("\\n<Natasha>")
ShowMessage("I'll suck you dry in moments with this tail.")
ShowMessage("Don't you want to be finished in seconds, tasting ultimate pleasure?")
ChangeSwitch(98,98,0)
ChangeSwitch(96,96,0)
ShowChoices(strings("Ignore","Give in to temptation"),1)
IfPlayerPicksChoice(0,"無視する")
 ShowMessageFace("",0,0,2,4)
 ShowMessage("But Luka shakes off the temptation!")
 RunCommonEvent(1999)
 EndEventProcessing()
 0()
IfPlayerPicksChoice(1,"誘惑に乗る")
 0()
404()
ShowMessageFace("d_succubus_fc1",1,0,2,5)
ShowMessage("\\n<Natasha>")
ShowMessage("Fufu, then the battle's over.")
ShowMessage("Since you're so honest with your desires, I'll reward you.")
ChangeVariable(26,26,3,0,6)
250(bytes(0x04,0x08,0x6f,0x3a,0x0c,0x52,0x50,0x47,0x3a,0x3a,0x53,0x45,0x08,0x3a,0x0a,0x40,0x6e,0x61,0x6d,0x65,0x49,0x22,0x13,0x6d,0x6f,0x6e,0x5f,0x65,0x72,0x6f,0x5f,0x62,0x75,0x63,0x68,0x75,0x31,0x06,0x3a,0x06,0x45,0x54,0x3a,0x0b,0x40,0x70,0x69,0x74,0x63,0x68,0x69,0x69,0x3a,0x0c,0x40,0x76,0x6f,0x6c,0x75,0x6d,0x65,0x69,0x69))
PictureDisplay(5,"ev_d_succubus_hc1",0,0,0,0,100,100,255,0)
311(0,1,1,1,26,true)
ShowMessageFace("",0,0,2,6)
ShowMessage("Natasha's tail sucks in Luka's penis!")
ShowMessage("The soft, slimy flesh envelops him!\\D")
ShowMessage("Luka takes \\V[26] damage!")
ChangeVariable(27,27,0,3,3,1,2)
If(1,27,0,0,0)
 JumpToLabel("射精1")
 0()
EndIf()
ShowMessageFace("d_succubus_fc1",1,0,2,7)
ShowMessage("\\n<Natasha>")
ShowMessage("Now to squeeze.")
ShowMessage("You'll probably be finished with just one time.")
250(bytes(0x04,0x08,0x6f,0x3a,0x0c,0x52,0x50,0x47,0x3a,0x3a,0x53,0x45,0x08,0x3a,0x0a,0x40,0x6e,0x61,0x6d,0x65,0x49,0x22,0x13,0x6d,0x6f,0x6e,0x5f,0x65,0x72,0x6f,0x5f,0x63,0x68,0x75,0x70,0x61,0x36,0x06,0x3a,0x06,0x45,0x54,0x3a,0x0b,0x40,0x70,0x69,0x74,0x63,0x68,0x69,0x69,0x3a,0x0c,0x40,0x76,0x6f,0x6c,0x75,0x6d,0x65,0x69,0x69))
PictureDisplay(5,"ev_d_succubus_hc2",0,0,0,0,100,100,255,0)
311(0,1,1,1,26,true)
ShowMessageFace("",0,0,2,8)
ShowMessage("Natasha's tail sucks hard on Luka's penis!")
ShowMessage("The intense pleasure instantly milks Luka!\\D")
ShowMessage("Luka takes \\V[26] damage!")
ChangeVariable(27,27,0,3,3,1,2)
If(1,27,0,0,0)
 JumpToLabel("射精1")
 0()
EndIf()
DefineLabel("射精1")
ShowMessageFace("",0,0,2,9)
ShowMessage("\\n<Luka>No, coming... Ahh...")
RunCommonEvent(104)
PictureDisplay(5,"ev_d_succubus_hc3",0,0,0,0,100,100,255,0)
RunCommonEvent(105)
ShowMessageFace("",0,0,2,10)
ShowMessage("I explode, coming inside Natasha's tail.")
ShowMessage("Overwelmed by pleasure, I come in an instant.")
ShowMessageFace("d_succubus_fc1",1,0,2,11)
ShowMessage("\\n<Natasha>")
ShowMessage("Fufu, you couldn't bear it.")
ShowMessage("I'll play with you lots, now...")
RunCommonEvent(2000)
EndEventProcessing()
0()
