﻿// EVENT 3029
Name "High Slug Girl"

If(0,25,1)
 JumpToLabel("反省会")
 0()
EndIf()
PictureDisplay(5,"80_highslag_st02",0,0,0,0,100,100,0,0)
PictureMove(5,null,0,0,0,0,100,100,255,0,30,true)
241(bytes(0x04,0x08,0x6f,0x3a,0x0d,0x52,0x50,0x47,0x3a,0x3a,0x42,0x47,0x4d,0x08,0x3a,0x0a,0x40,0x6e,0x61,0x6d,0x65,0x49,0x22,0x09,0x65,0x72,0x6f,0x31,0x06,0x3a,0x06,0x45,0x54,0x3a,0x0c,0x40,0x76,0x6f,0x6c,0x75,0x6d,0x65,0x69,0x69,0x3a,0x0b,0x40,0x70,0x69,0x74,0x63,0x68,0x69,0x69))
ShowMessageFace("",0,0,2,1)
ShowMessage("\\n<Luka>Nnngh...")
ShowMessageFace("highslag_fc1",1,0,2,2)
ShowMessage("\\n<High Slug>Sheesh, you really made me work hard...\nIf I don't tease you a lot, I'll be frustrated.")
ShowMessageFace("",0,0,2,3)
ShowMessage("The High Slug moves toward me, pressing her lower body against mine.")
ShowMessage("Then...")
245(bytes(0x04,0x08,0x6f,0x3a,0x0d,0x52,0x50,0x47,0x3a,0x3a,0x42,0x47,0x53,0x08,0x3a,0x0a,0x40,0x6e,0x61,0x6d,0x65,0x49,0x22,0x1e,0x6d,0x6f,0x6e,0x5f,0x68,0x73,0x65,0x61,0x6e,0x30,0x34,0x5f,0x69,0x6e,0x6e,0x65,0x72,0x77,0x6f,0x72,0x6b,0x73,0x5f,0x61,0x34,0x06,0x3a,0x06,0x45,0x54,0x3a,0x0c,0x40,0x76,0x6f,0x6c,0x75,0x6d,0x65,0x69,0x55,0x3a,0x0b,0x40,0x70,0x69,0x74,0x63,0x68,0x69,0x69))
PictureDisplay(5,"ev_highslag_hb01",0,0,0,0,100,100,0,0)
PictureMove(5,null,0,0,0,0,100,100,255,0,30,true)
ShowMessageFace("",0,0,2,4)
ShowMessage("\\n<Luka>Hii...! Aaah...!")
ShowMessageFace("",0,0,2,5)
ShowMessage("Half of her slug body presses down hard on me.")
ShowMessage("I'm covered by her mucous membrane from head to toe.")
ShowMessageFace("",0,0,2,6)
ShowMessage("This strange, slimy sensation...")
ShowMessage("It covers my entire body, strangely squirming.")
ShowMessageFace("",0,0,2,7)
ShowMessage("\\n<Luka>S-Stop...! What are you...!")
ShowMessageFace("",0,0,2,8)
ShowMessage("With my vision blocked, I start to struggle.")
ShowMessage("But my limbs only sink into her slug body uselessly.")
PictureDisplay(5,"ev_highslag_hb02",0,0,0,0,100,100,255,0)
ShowMessageFace("highslag_fc1",1,0,2,9)
ShowMessage("\\n<High Slug>I'll tell you something good.\nI'm carnivorous...")
ShowMessageFace("highslag_fc1",1,0,2,10)
ShowMessage("\\n<High Slug>With my slug lower body, I cover my prey...\nDissolve them in digestive juices, and devour them...")
ShowMessageFace("highslag_fc1",1,0,2,11)
ShowMessage("\\n<High Slug>Fufufu, just like you are now...")
ShowMessageFace("",0,0,2,12)
ShowMessage("\\n<Luka>Hii... Th-That...!")
ShowMessageFace("",0,0,2,13)
ShowMessage("I struggle in fear to escape from her mucous.")
ShowMessage("But my arms and legs only sink into her elastic body, pushed back.")
ShowMessageFace("",0,0,2,14)
ShowMessage("My entire body is covered in her slimy feeling.")
ShowMessage("I look no different from any other prey struggling in their captors embrace.")
PictureDisplay(5,"ev_highslag_hb03",0,0,0,0,100,100,255,0)
ShowMessageFace("highslag_fc1",1,0,2,15)
ShowMessage("\\n<High Slug>Ahaha, that's good...\nStruggle until the very end.")
ShowMessageFace("highslag_fc1",1,0,2,16)
ShowMessage("\\n<High Slug>I love dissolving away crying and struggling prey.\nLet me hear your delicious cries...")
ShowMessageFace("",0,0,2,17)
ShowMessage("\\n<Luka>N-nooo...!\nAaaah...!!")
PictureDisplay(5,"ev_highslag_hb04",0,0,0,0,100,100,255,0)
ShowMessageFace("",0,0,2,18)
ShowMessage("More slime oozes out from her body, covering mine.")
ShowMessage("This must be the digestive juices...")
ShowMessageFace("",0,0,2,19)
ShowMessage("Her mucus covered body starts to squirm.")
ShowMessage("Squirming slowly...")
ShowMessageFace("",0,0,2,20)
ShowMessage("\\n<Luka>Ah, aaah...\nHuaaa...")
ShowMessageFace("",0,0,2,21)
ShowMessage("It starts to feel good.")
ShowMessage("The sticky, slimy caress over my entire body...")
ShowMessageFace("",0,0,2,22)
ShowMessage("My lower body starts to react.")
ShowMessage("My penis slowly starts to enlarge, pressing against her body.")
ShowMessageFace("highslag_fc1",1,0,2,23)
ShowMessage("\\n<High Slug>Ahahaha, you got erect?\nDo men have no shame? How pitiful...")
ShowMessageFace("highslag_fc1",1,0,2,24)
ShowMessage("\\n<High Slug>Let me make you feel even more miserable.\nLike this...")
ShowMessageFace("",0,0,2,25)
ShowMessage("\\n<Luka>Ah...! Haau...!")
ShowMessageFace("",0,0,2,26)
ShowMessage("I can't help but moan in the next moment.")
ShowMessage("My enlarged penis is wrapped up in her slimy body.")
PictureDisplay(6,"ev_highslag_ct01",0,0,0,0,100,100,255,0)
ShowMessageFace("",0,0,2,27)
ShowMessage("I feel her squishy, slimy body around my penis.")
ShowMessage("It's as if my penis is inside of her...")
ShowMessageFace("",0,0,2,28)
ShowMessage("Her slimy body squirms around me.")
ShowMessage("Rubbing me, her squirming body massages my penis.")
ShowMessageFace("",0,0,2,29)
ShowMessage("\\n<Luka>Nnngh...Stop...!")
ShowMessageFace("highslag_fc1",1,0,2,30)
ShowMessage("\\n<High Slug>I'll dissolve your sexual organs, and digest them...\nNo man can resist climaxing from that.")
ShowMessageFace("",0,0,2,31)
ShowMessage("\\n<Luka>Ah, hyaaa...!")
ShowMessageFace("",0,0,2,32)
ShowMessage("Covered in digestive juices, my penis rubs against her.")
ShowMessage("It feels just as good as if I was inside of a vagina.")
ShowMessageFace("",0,0,2,33)
ShowMessage("Actually, the digestive stimulation...")
ShowMessage("My penis twitches in pure pleasure at the sensation.")
ShowMessageFace("highslag_fc1",1,0,2,34)
ShowMessage("\\n<High Slug>Fufufu... What a hopeless penis.\nI wonder if it thinks it's actually inside a female?")
ShowMessageFace("highslag_fc1",1,0,2,35)
ShowMessage("\\n<High Slug>It would be pretty pathetic to come like that.\nComing while being digested...")
ShowMessageFace("",0,0,2,36)
ShowMessage("\\n<Luka>Hyaa...Ah, aaah...")
ShowMessageFace("",0,0,2,37)
ShowMessage("I tremble in her embrace.")
ShowMessage("It's not just my penis, but my whole body is being attacked by this digestive sensation.")
ShowMessageFace("",0,0,2,38)
ShowMessage("It feels as if my entire body is being massaged.")
ShowMessage("The pleasure starts to rise past the disgust.")
ShowMessageFace("",0,0,2,39)
ShowMessage("My penis, rubbing against her slimy body...")
ShowMessage("Unable to endure much more, it starts to twitch and go numb.")
ShowMessageFace("",0,0,2,40)
ShowMessage("\\n<Luka>Nnngh...I'm coming...")
ShowMessageFace("highslag_fc1",1,0,2,41)
ShowMessage("\\n<High Slug>Ahaha, miserable prey...\nDo you even understand what's happening to your penis?")
ShowMessageFace("highslag_fc1",1,0,2,42)
ShowMessage("\\n<High Slug>It's covered in digestive juices and melting away, you know?\nDoes it think it's mating? And going to come inside a female?")
ShowMessageFace("",0,0,2,43)
ShowMessage("I tremble as she ridicules me.")
ShowMessage("Underneath her, I accept my defeat as a man.")
ShowMessageFace("",0,0,2,44)
ShowMessage("\\n<Luka>Ah... No more...\nAaaah...!")
RunCommonEvent(104)
PictureDisplay(5,"ev_highslag_hb05",0,0,0,0,100,100,255,0)
PictureDisplay(6,"ev_highslag_ct02",0,0,0,0,100,100,255,0)
RunCommonEvent(105)
ShowMessageFace("",0,0,2,45)
ShowMessage("\\n<Luka>Hnnaaa...")
ShowMessageFace("",0,0,2,46)
ShowMessage("My penis pulses, spewing semen all over.")
ShowMessage("The mild white milky fluid stains her slimy body.")
ShowMessageFace("",0,0,2,47)
ShowMessage("A miserable climax as it's being digested.")
ShowMessage("Even though I feel defeated, the sense of release fills me.")
PictureDisplay(5,"ev_highslag_hb06",0,0,0,0,100,100,255,0)
ShowMessageFace("highslag_fc1",1,0,2,48)
ShowMessage("\\n<High Slug>Ahahaha, you really came!\nHow miserably unsightly...")
ShowMessageFace("highslag_fc1",1,0,2,49)
ShowMessage("\\n<High Slug>My, isn't the human male's reproductive desire far too simple?\nIt can't even tell the difference between mating and being eaten.")
ShowMessageFace("highslag_fc1",1,0,2,50)
ShowMessage("\\n<High Slug>Well then... I'll go a bit more violently.\nI'll devour you with my slug body...")
ShowMessageFace("",0,0,2,51)
ShowMessage("\\n<Luka>Hyaaa...! Aaaah...!")
PictureDisplay(5,"ev_highslag_hb07",0,0,0,0,100,100,255,0)
PictureDisplay(6,"ev_highslag_ct03",0,0,0,0,100,100,255,0)
PictureMove(5,null,0,0,0,0,100,100,255,0,30,true)
ShowMessageFace("",0,0,2,52)
ShowMessage("Her lower body covers more of my own.")
ShowMessage("Her mucus covered flesh wraps around me.")
ShowMessageFace("",0,0,2,53)
ShowMessage("It's like I'm being swallowed by a slug...")
ShowMessage("No, I really am being swallowed by a slug's body!")
If(0,95,0)
 246(2)
 221()
 ShowMessageFace("",0,0,2,54)
 ShowMessage("＊＊＊The rest of the vore scene is being skipped.＊＊＊")
 JumpToLabel("zzz")
 0()
EndIf()
ShowMessageFace("",0,0,2,55)
ShowMessage("\\n<Luka>Hyaaa! H-Help me...!")
ShowMessageFace("",0,0,2,56)
ShowMessage("While crying, I lash out with my arms and legs.")
ShowMessage("But any resistance of mine is easily pushed back by her rubbery mucus body.")
ShowMessageFace("",0,0,2,57)
ShowMessage("Swallowed by her body as I struggle...")
ShowMessage("I'm nothing more than miserable prey to be devoured by a slug.")
ShowMessageFace("highslag_fc1",1,0,2,58)
ShowMessage("\\n<High Slug>Ahaha... Hey, how do you feel?\nWhat's it like being digested alive?")
ShowMessageFace("",0,0,2,59)
ShowMessage("\\n<Luka>Noo... Help me...!\nAaaah...!")
PictureDisplay(5,"ev_highslag_hb08",0,0,0,0,100,100,255,0)
ShowMessageFace("",0,0,2,60)
ShowMessage("My body is being swallowed by her mucous membrane.")
ShowMessage("All over, her strange squirming covers me with more and more juices.")
ShowMessageFace("",0,0,2,61)
ShowMessage("Unable to struggle any more, I surrender myself over.")
ShowMessage("Knowing my own helplessness, being miserably digested.")
ShowMessageFace("highslag_fc1",1,0,2,62)
ShowMessage("\\n<High Slug>Don't worry, I'll take care of your penis until the end.\nAfter all, melted flesh tastes best mixed with some semen...")
ShowMessageFace("",0,0,2,63)
ShowMessage("\\n<Luka>Help me... Help...\nHya, Aaah...")
ShowMessageFace("",0,0,2,64)
ShowMessage("The mucous membrane around my penis tightens.")
ShowMessage("Squirming, it plays with every inch of my sensitive penis.")
ShowMessageFace("",0,0,2,65)
ShowMessage("It's toying with my penis as it covers it with more digestive juices.")
ShowMessage("She's really digesting me...")
ShowMessageFace("",0,0,2,66)
ShowMessage("\\n<Luka>N-no...\nNo...")
ShowMessageFace("",0,0,2,67)
ShowMessage("I shed helpless tears as I'm being digested.")
ShowMessage("However, my lower body trembles in joy...")
ShowMessageFace("",0,0,2,68)
ShowMessage("\\n<Luka>Ah, aaah...")
RunCommonEvent(104)
PictureDisplay(5,"ev_highslag_hb09",0,0,0,0,100,100,255,0)
PictureDisplay(6,"ev_highslag_ct04",0,0,0,0,100,100,255,0)
RunCommonEvent(105)
ShowMessageFace("",0,0,2,69)
ShowMessage("I climax, spurting out some semen.")
ShowMessage("Unable to resist, my body is easily manipulated.")
ShowMessageFace("",0,0,2,70)
ShowMessage("I'll dissolve away in this sensation...")
ShowMessage("Tasting a mix of despair and cruel pleasure.")
PictureDisplay(5,"ev_highslag_hb10",0,0,0,0,100,100,255,0)
ShowMessageFace("highslag_fc1",1,0,2,71)
ShowMessage("\\n<High Slug>Ahaha, truly miserable...\nWhile being devoured, to continue to come...")
ShowMessageFace("highslag_fc1",1,0,2,72)
ShowMessage("\\n<High Slug>The digestion is advancing, too.\nNow, melt into mush...")
ShowMessageFace("",0,0,2,73)
ShowMessage("\\n<Luka>Nnngh...\nAh, aaah...")
ShowMessageFace("",0,0,2,74)
ShowMessage("The digestive juices cover my entire body.")
ShowMessage("A sweet ecstasy fills me as I dissolve away.")
ShowMessageFace("",0,0,2,75)
ShowMessage("Semen continues to drip from my penis as I melt in ecstasy.")
ShowMessage("A humiliating thing for a male...")
ShowMessageFace("highslag_fc1",1,0,2,76)
ShowMessage("\\n<High Slug>Ahaha, your consciousness is melting away, isn't it?\nAren't you overjoyed? You got to be devoured by me...")
ShowMessageFace("",0,0,2,77)
ShowMessage("\\n<Luka>....Ah....A...")
ShowMessageFace("",0,0,2,78)
ShowMessage("My mind itself melts away in her sweet slimy body.")
ShowMessage("My thoughts filled with ecstasy, I melt away...")
221()
PictureClear(5)
PictureClear(6)
246(2)
ShowMessageFace("",0,0,2,79)
ShowMessage("\\n<Luka>......")
ShowMessageFace("",0,0,2,80)
ShowMessage("Both my mind and body dissolve away.")
ShowMessage("Everything of mine is used as food for the High Slug...")
ShowMessageFace("",0,0,2,81)
DefineLabel("反省会")
ShowMessage("......")
DefineLabel("zzz")
221()
242(1)
Wait(120)
355("memory_interruption")
ShowMessageFace("",0,0,2,82)
ShowMessage("You hear Ilias' voice calling out to you...")
ShowMessage("Receive her evaluation?")
ShowChoices(strings("Receive evaluation","Change difficulty","Reincarnate"),3)
IfPlayerPicksChoice(0,null)
 241(bytes(0x04,0x08,0x6f,0x3a,0x0d,0x52,0x50,0x47,0x3a,0x3a,0x42,0x47,0x4d,0x08,0x3a,0x0a,0x40,0x6e,0x61,0x6d,0x65,0x49,0x22,0x0a,0x69,0x72,0x69,0x61,0x73,0x06,0x3a,0x06,0x45,0x54,0x3a,0x0c,0x40,0x76,0x6f,0x6c,0x75,0x6d,0x65,0x69,0x5f,0x3a,0x0b,0x40,0x70,0x69,0x74,0x63,0x68,0x69,0x6e))
 PictureDisplay(1,"bg001",0,0,0,0,100,100,255,0)
 222()
 PictureDisplay(5,"80_iriasu_st04",0,0,0,0,100,100,0,0)
 PictureMove(5,null,0,0,0,0,100,100,255,0,30,true)
 ShowMessageFace("iriasu_fc1",3,0,2,83)
 ShowMessage("\\n<Ilias>No way... Eaten by a slug?\nYou're a poor snack to have.")
 PictureDisplay(5,"80_iriasu_st01",0,0,0,0,100,100,255,0)
 ShowMessageFace("iriasu_fc1",0,0,2,84)
 ShowMessage("\\n<Ilias>The High Slug's attack power isn't very high.\nShe instead makes use of annoying status effects.")
 ShowMessageFace("iriasu_fc1",0,0,2,85)
 ShowMessage("\\n<Ilias>Also, she has high HP and defense power.\nDue to these factors, she's an annoying enemy.")
 ShowMessageFace("iriasu_fc1",0,0,2,86)
 ShowMessage("\\n<Ilias>Common with slugs, she's weak to lightning.\nUse lots of lightning magic, and make her go numb.")
 ShowMessageFace("iriasu_fc1",0,0,2,87)
 ShowMessage("\\n<Ilias>While you can afflict her with status ailments... Slime and poison are basically ineffective.")
 ShowMessageFace("iriasu_fc1",0,0,2,88)
 ShowMessage("\\n<Ilias>Unless it's a long fight, she isn't too difficult.\nIf you have access to lightning, she should be easy.")
 PictureDisplay(5,"80_iriasu_st02",0,0,0,0,100,100,255,0)
 ShowMessageFace("iriasu_fc1",1,0,2,89)
 ShowMessage("\\n<Ilias>Now go, oh brave Luka.\nDestroy the slugs, and save that overrun village.")
 242(1)
 221()
 PictureClear(5)
 PictureClear(1)
 Wait(60)
 0()
IfPlayerPicksChoice(1,null)
 ShowMessageFace("",0,0,2,90)
 ShowMessage("Please choose a difficulty level.")
 RunCommonEvent(110)
 0()
IfPlayerPicksChoice(2,null)
 0()
404()
RunCommonEvent(3000)
0()
