// EVENT 7241
Name "Satsuki: Talk"

If(1,825,0,0,0)
 ChangeVariable(825,825,0,0,1)
 0()
EndIf()
241(bytes(0x04,0x08,0x6f,0x3a,0x0d,0x52,0x50,0x47,0x3a,0x3a,0x42,0x47,0x4d,0x08,0x3a,0x0a,0x40,0x6e,0x61,0x6d,0x65,0x49,0x22,0x09,0x65,0x72,0x6f,0x32,0x06,0x3a,0x06,0x45,0x54,0x3a,0x0c,0x40,0x76,0x6f,0x6c,0x75,0x6d,0x65,0x69,0x50,0x3a,0x0b,0x40,0x70,0x69,0x74,0x63,0x68,0x69,0x69))
PictureDisplay(5,"80_mob_miko1_st01",0,0,0,0,100,100,0,0)
PictureMove(5,null,0,0,0,0,100,100,255,0,30,true)
If(0,2331,1)
 ShowMessageFace("mob_miko1_fc1",0,0,2,1)
 ShowMessage("\\n<Satsuki>Hum... Perhaps you're here for a battle fuck challenge?\nOf course I know about it too!")
 0()
EndIf()
If(1,825,0,2,1)
 ShowMessageFace("mob_miko1_fc1",0,0,2,2)
 ShowMessage("\\n<Satsuki>The bet is 700G.\nThough, if you win, there are no more prizes for you...")
 0()
Else()
 ShowMessageFace("mob_miko1_fc1",0,0,2,3)
 ShowMessage("\\n<Satsuki>The bet is for 700G.\nIf you win, I'll give you an accessory that will prevent you from getting hit by unusual powerful attacks.")
EndIf()
ShowMessageFace("mob_miko1_fc1",6,0,2,4)
ShowMessage("\\n<Satsuki>Well, what do you say?\nDo you want to... have a battle fuck... with me?")
ShowChoices(strings("Battle Fuck Challenge","Reconsider"),2)
IfPlayerPicksChoice(0,"バトルファックを挑む")
 If(7,700,0)
  RunCommonEvent(7242)
  EndEventProcessing()
  0()
 Else()
  ShowMessageFace("mob_miko1_fc1",0,0,2,5)
  ShowMessage("\\n<Satsuki>It seems you don't have enough money though...\nHow disappointing...")
  PictureClear(5)
  EndEventProcessing()
  0()
 EndIf()
 0()
IfPlayerPicksChoice(1,"やめておく")
 ShowMessageFace("mob_miko1_fc1",0,0,2,6)
 ShowMessage("\\n<Satsuki>W-What? You don't want to battle fuck... me?")
 ShowMessage("I'm sorry, please come back again...")
 PictureClear(5)
 EndEventProcessing()
 0()
404()
0()
