﻿// EVENT 0505
Name "コラボC2：迷宮"

ChangeVariable(1225,1225,1,0,1)
If(1,1225,0,1,0)
 205(-1,bytes(0x04,0x08,0x6f,0x3a,0x13,0x52,0x50,0x47,0x3a,0x3a,0x4d,0x6f,0x76,0x65,0x52,0x6f,0x75,0x74,0x65,0x09,0x3a,0x0c,0x40,0x72,0x65,0x70,0x65,0x61,0x74,0x46,0x3a,0x0f,0x40,0x73,0x6b,0x69,0x70,0x70,0x61,0x62,0x6c,0x65,0x46,0x3a,0x0a,0x40,0x77,0x61,0x69,0x74,0x54,0x3a,0x0a,0x40,0x6c,0x69,0x73,0x74,0x5b,0x09,0x6f,0x3a,0x15,0x52,0x50,0x47,0x3a,0x3a,0x4d,0x6f,0x76,0x65,0x43,0x6f,0x6d,0x6d,0x61,0x6e,0x64,0x07,0x3a,0x0a,0x40,0x63,0x6f,0x64,0x65,0x69,0x09,0x3a,0x10,0x40,0x70,0x61,0x72,0x61,0x6d,0x65,0x74,0x65,0x72,0x73,0x5b,0x00,0x6f,0x3b,0x0a,0x07,0x3b,0x0b,0x69,0x09,0x3b,0x0c,0x5b,0x00,0x6f,0x3b,0x0a,0x07,0x3b,0x0b,0x69,0x09,0x3b,0x0c,0x5b,0x00,0x6f,0x3b,0x0a,0x07,0x3b,0x0b,0x69,0x00,0x3b,0x0c,0x5b,0x00))
 ShowMessageFace("byakunen_fc1",2,0,2,1)
 ShowMessage("\\n<Hakunen>")
 ShowMessage("あれ、ここは……？")
 ShowMessage("さっき来たところですよね。")
 ShowMessageFace("kazuya_fc1",0,0,2,2)
 ShowMessage("\\n<Kazuya>")
 ShowMessage("ああ……そこの妖狐にも見覚えがあるしな。")
 EndEventProcessing()
 0()
EndIf()
If(1,1225,0,2,0)
 205(-1,bytes(0x04,0x08,0x6f,0x3a,0x13,0x52,0x50,0x47,0x3a,0x3a,0x4d,0x6f,0x76,0x65,0x52,0x6f,0x75,0x74,0x65,0x09,0x3a,0x0c,0x40,0x72,0x65,0x70,0x65,0x61,0x74,0x46,0x3a,0x0f,0x40,0x73,0x6b,0x69,0x70,0x70,0x61,0x62,0x6c,0x65,0x46,0x3a,0x0a,0x40,0x77,0x61,0x69,0x74,0x54,0x3a,0x0a,0x40,0x6c,0x69,0x73,0x74,0x5b,0x09,0x6f,0x3a,0x15,0x52,0x50,0x47,0x3a,0x3a,0x4d,0x6f,0x76,0x65,0x43,0x6f,0x6d,0x6d,0x61,0x6e,0x64,0x07,0x3a,0x0a,0x40,0x63,0x6f,0x64,0x65,0x69,0x09,0x3a,0x10,0x40,0x70,0x61,0x72,0x61,0x6d,0x65,0x74,0x65,0x72,0x73,0x5b,0x00,0x6f,0x3b,0x0a,0x07,0x3b,0x0b,0x69,0x09,0x3b,0x0c,0x5b,0x00,0x6f,0x3b,0x0a,0x07,0x3b,0x0b,0x69,0x09,0x3b,0x0c,0x5b,0x00,0x6f,0x3b,0x0a,0x07,0x3b,0x0b,0x69,0x00,0x3b,0x0c,0x5b,0x00))
 ShowMessageFace("kazuya_fc2",2,0,2,3)
 ShowMessage("\\n<Kazuya>")
 ShowMessage("くっ……また、ここか。")
 ShowMessage("正しい道を行かないと、戻されるみたいだな。")
 ShowMessageFace("byakunen_fc1",2,0,2,4)
 ShowMessage("\\n<Hakunen>")
 ShowMessage("正しい道筋ですか……")
 ShowMessage("記憶力が試されますね。")
 ShowMessageFace("lanpass_fc2",2,0,2,5)
 ShowMessage("\\n<Lampas>")
 ShowMessage("私は自信がないな……")
 ShowMessage("二人に丸投げしていい？")
 EndEventProcessing()
 0()
EndIf()
If(0,2902,0)
 ShowMessageFace("lanpass_fc2",0,0,2,6)
 ShowMessage("\\n<Lampas>")
 ShowMessage("ダメだったか……ゴメンね♪")
 ShowMessage("おわびに、ドロップあげる。")
 250(bytes(0x04,0x08,0x6f,0x3a,0x0c,0x52,0x50,0x47,0x3a,0x3a,0x53,0x45,0x08,0x3a,0x0a,0x40,0x6e,0x61,0x6d,0x65,0x49,0x22,0x0a,0x49,0x74,0x65,0x6d,0x31,0x06,0x3a,0x06,0x45,0x54,0x3a,0x0b,0x40,0x70,0x69,0x74,0x63,0x68,0x69,0x69,0x3a,0x0c,0x40,0x76,0x6f,0x6c,0x75,0x6d,0x65,0x69,0x55))
 ChangeInventory_Item(50,0,0,1)
 EndEventProcessing()
 0()
EndIf()
If(0,2903,0)
 If(0,2904,0)
  If(0,2905,0)
   ShowMessageFace("byakunen_fc1",2,0,2,7)
   ShowMessage("\\n<Hakunen>")
   ShowMessage("さっきの十字路……正面も左右も行きましたよね？")
   ShowMessage("それなのに、いずれも戻されてしまうなんて……")
   ShowMessageFace("kazuya_fc1",0,0,2,8)
   ShowMessage("\\n<Kazuya>")
   ShowMessage("いや……まだ、行っていない道があるだろ？")
   ShowMessageFace("",0,0,2,9)
   ShowMessage("前に突破した、あのループ通路――")
   ShowMessage("解き方は、きっとあれと同じはずだ。")
   EndEventProcessing()
   0()
  EndIf()
  0()
 EndIf()
 0()
EndIf()
0()
