// EVENT 3052
Name "Sea Cucumber Girl"

If(0,25,1)
 JumpToLabel("反省会")
 0()
EndIf()
PictureDisplay(5,"80_namako_st02",0,0,0,0,100,100,0,0)
PictureMove(5,null,0,0,0,0,100,100,255,0,30,true)
241(bytes(0x04,0x08,0x6f,0x3a,0x0d,0x52,0x50,0x47,0x3a,0x3a,0x42,0x47,0x4d,0x08,0x3a,0x0a,0x40,0x6e,0x61,0x6d,0x65,0x49,0x22,0x09,0x65,0x72,0x6f,0x31,0x06,0x3a,0x06,0x45,0x54,0x3a,0x0c,0x40,0x76,0x6f,0x6c,0x75,0x6d,0x65,0x69,0x69,0x3a,0x0b,0x40,0x70,0x69,0x74,0x63,0x68,0x69,0x69))
ShowMessageFace("",0,0,2,1)
ShowMessage("\\n<Luka>Ahhg...")
ShowMessageFace("",0,0,2,2)
ShowMessage("Defeated, I expose my helpless body to the Sea Cucumber Girl.")
ShowMessage("I can't resist any longer...")
ShowMessageFace("namako_fc1",1,0,2,3)
ShowMessage("\\n<Sea Cucumber Girl>Allow me to squeeze out your semen.\nI'll extract all of your male juices...")
250(bytes(0x04,0x08,0x6f,0x3a,0x0c,0x52,0x50,0x47,0x3a,0x3a,0x53,0x45,0x08,0x3a,0x0a,0x40,0x6e,0x61,0x6d,0x65,0x49,0x22,0x16,0x6d,0x6f,0x6e,0x5f,0x65,0x72,0x6f,0x5f,0x6d,0x61,0x6b,0x69,0x74,0x75,0x6b,0x69,0x33,0x06,0x3a,0x06,0x45,0x54,0x3a,0x0b,0x40,0x70,0x69,0x74,0x63,0x68,0x69,0x69,0x3a,0x0c,0x40,0x76,0x6f,0x6c,0x75,0x6d,0x65,0x69,0x69))
ShowMessageFace("",0,0,2,4)
ShowMessage("The Sea Cucumber Girl's gaping mouth approaches me...")
ShowMessage("Opening wide, she swallows me from my feet!")
ShowMessageFace("",0,0,2,5)
ShowMessage("\\n<Luka>Ah...! Aaaaaah!!")
245(bytes(0x04,0x08,0x6f,0x3a,0x0d,0x52,0x50,0x47,0x3a,0x3a,0x42,0x47,0x53,0x08,0x3a,0x0a,0x40,0x6e,0x61,0x6d,0x65,0x49,0x22,0x1a,0x6d,0x6f,0x6e,0x5f,0x68,0x73,0x65,0x61,0x6e,0x32,0x31,0x5f,0x74,0x65,0x6e,0x74,0x61,0x63,0x6c,0x65,0x32,0x06,0x3a,0x06,0x45,0x54,0x3a,0x0c,0x40,0x76,0x6f,0x6c,0x75,0x6d,0x65,0x69,0x55,0x3a,0x0b,0x40,0x70,0x69,0x74,0x63,0x68,0x69,0x69))
PictureDisplay(5,"ev_namako_ha1",0,0,0,0,100,100,255,0)
ShowMessageFace("",0,0,2,6)
ShowMessage("My body is quickly sucked into her large mouth.")
ShowMessage("Wrapped tightly from neck to toe, I can't even struggle.")
ShowMessageFace("",0,0,2,7)
ShowMessage("My penis rubs against her fleshy walls.")
ShowMessage("I don't want to admit it, but the touch fills me with a sweet pleasure.")
ShowMessageFace("",0,0,2,8)
ShowMessage("\\n<Luka>Ahiii!")
ShowMessageFace("",0,0,2,9)
ShowMessage("Stuck in her mouth, she starts to move her mouth around, rubbing me all over my body.")
ShowMessageFace("",0,0,2,10)
ShowMessage("Her insides are warm and sticky, the mucus causing my body to cling to her walls.")
ShowMessage("It's as if my whole body is stuck inside a giant pussy, designed only to force pleasure into me.")
ShowMessageFace("",0,0,2,11)
ShowMessage("\\n<Luka>Haaa! Stop!")
ShowMessageFace("namako_fc1",1,0,2,12)
ShowMessage("\\n<Sea Cucumber Girl>Now... Let it out.\nLet me eat all your semen...")
ShowMessageFace("",0,0,2,13)
ShowMessage("Stuck inside of her body, I can feel all of her muscles and organs through her walls.")
ShowMessage("I may be stuck in an organ itself, whose sole purpose is to force an ejaculation...")
ShowMessageFace("",0,0,2,14)
ShowMessage("\\n<Luka>Auuu!")
ShowMessageFace("",0,0,2,15)
ShowMessage("Despite feeling horror at my situation, I can't resist the pleasure.")
ShowMessageFace("",0,0,2,16)
ShowMessage("Captured by such a strange monster, I'm being forced to ejaculate in such a pathetic way.")
ShowMessage("Knowing that she's only squeezing me to feed on semen, the humiliation brings a sick pleasure.")
ShowMessageFace("",0,0,2,18)
ShowMessage("\\n<Luka>Ahhh!")
ShowMessageFace("",0,0,2,19)
ShowMessage("The desire to release rises up quickly through me.")
ShowMessage("Stuck in her tight wriggling mouth, I'm forced to ejaculate in misery.")
RunCommonEvent(104)
PictureDisplay(5,"ev_namako_ha2",0,0,0,0,100,100,255,0)
RunCommonEvent(105)
ShowMessageFace("",0,0,2,20)
ShowMessage("My body shakes pitifully as I explode inside of her mouth.")
ShowMessage("Frustrated at being powerless, tears start to flow down my face.")
ShowMessageFace("namako_fc1",1,0,2,22)
ShowMessage("\\n<Sea Cucumber Girl>Fufu... Crying during an orgasm?\nNo matter how mortifying, you're just my pitiful prey now.")
ShowMessageFace("namako_fc1",1,0,2,23)
ShowMessage("\\n<Sea Cucumber Girl>I just need to stimulate you a little, and I get to feed on your delicious male juice.")
ShowMessageFace("",0,0,2,24)
ShowMessage("\\n<Luka>Doing something like tha... Ahhh!")
245(bytes(0x04,0x08,0x6f,0x3a,0x0d,0x52,0x50,0x47,0x3a,0x3a,0x42,0x47,0x53,0x08,0x3a,0x0a,0x40,0x6e,0x61,0x6d,0x65,0x49,0x22,0x1a,0x6d,0x6f,0x6e,0x5f,0x68,0x73,0x65,0x61,0x6e,0x32,0x32,0x5f,0x74,0x65,0x6e,0x74,0x61,0x63,0x6c,0x65,0x33,0x06,0x3a,0x06,0x45,0x54,0x3a,0x0c,0x40,0x76,0x6f,0x6c,0x75,0x6d,0x65,0x69,0x55,0x3a,0x0b,0x40,0x70,0x69,0x74,0x63,0x68,0x69,0x69))
ShowMessageFace("",0,0,2,25)
ShowMessage("While my mind tries to reject the pleasure, my body is happily accepting it.")
ShowMessage("Stuck inside of her, the pleasure attacking me all over my body makes it feel like I'm being melted inside of her.")
ShowMessageFace("",0,0,2,27)
ShowMessage("\\n<Luka>No more... Or I'll come again...")
ShowMessageFace("",0,0,2,28)
ShowMessage("The Sea Cucumber Girl laughs at me as I summon all of my remaining power to try to endure the rising desire to release.")
ShowMessageFace("namako_fc1",1,0,2,29)
ShowMessage("\\n<Sea Cucumber Girl>Fufu... Even if you try to endure, it's pointless.")
ShowMessageFace("namako_fc1",1,0,2,30)
ShowMessage("\\n<Sea Cucumber Girl>Wrapped up like this, you have no choice but to give in to what I want.")
ShowMessageFace("",0,0,2,31)
ShowMessage("\\n<Luka>Faaa...")
ShowMessageFace("",0,0,2,32)
ShowMessage("The sweet pleasure erodes my willpower, as my body begins to overpower my mind.")
ShowMessage("The rising orgasm thrusts aside my mind, as my body gives in to the pleasure.")
ShowMessageFace("",0,0,2,34)
ShowMessage("\\n<Luka>Aaahhh!!")
RunCommonEvent(104)
RunCommonEvent(105)
ShowMessageFace("",0,0,2,35)
ShowMessage("As I explode in her mouth yet again, she doesn't stop squeezing and massaging me.")
ShowMessageFace("",0,0,2,36)
ShowMessage("\\n<Luka>Haaa...")
ShowMessageFace("namako_fc1",1,0,2,37)
ShowMessage("\\n<Sea Cucumber Girl>That felt amazing, right?\nYou want to come over and over again, right?")
ShowMessageFace("namako_fc1",1,0,2,38)
ShowMessage("\\n<Sea Cucumber Girl>Don't worry, I'll keep this up until you're dry...")
ShowMessageFace("",0,0,2,39)
ShowMessage("\\n<Luka>Faa... Too good...")
ShowMessageFace("",0,0,2,40)
ShowMessage("The sweet ecstasy forced into me finally takes over my mind.")
ShowMessageFace("",0,0,2,41)
ShowMessage("Resigned to my fate, I accept the pleasure.")
ShowMessage("Surrendering my body to her, I enjoy the stimulation.")
ShowMessageFace("",0,0,2,42)
ShowMessage("At last, my body and mind have both been given to the Sea Cucumber Girl.")
ShowMessageFace("namako_fc1",1,0,2,43)
ShowMessage("\\n<Sea Cucumber Girl>Fufu... So you stopped struggling.")
ShowMessageFace("namako_fc1",1,0,2,44)
ShowMessage("\\n<Sea Cucumber Girl>Don't be ashamed, you're just a pathetic human man after all.\nEven if you resist at first, it was inevitable that you'd become a prisoner.")
ShowMessageFace("",0,0,2,45)
ShowMessage("\\n<Luka>Faaa... More... Suck me more...")
ShowMessageFace("",0,0,2,46)
ShowMessage("My entire body squeezed by the cucumber, the ecstasy floods my body.")
ShowMessage("Even though she's doing whatever she wants to me, I feel so good...")
ShowMessageFace("",0,0,2,48)
ShowMessage("\\n<Luka>Ahh... I'm coming again!")
RunCommonEvent(104)
PictureDisplay(5,"ev_namako_ha3",0,0,0,0,100,100,255,0)
RunCommonEvent(105)
ShowMessageFace("",0,0,2,49)
ShowMessage("Rejoicing at the sense of release, I give more of my semen to the Sea Cucumber Girl.")
ShowMessage("Completely dominated by her, this is my new role as a man.")
ShowMessageFace("",0,0,2,51)
ShowMessage("\\n<Luka>Auu... More...")
ShowMessageFace("namako_fc1",1,0,2,52)
ShowMessage("\\n<Sea Cucumber Girl>Fufu... Good boy.")
ShowMessageFace("namako_fc1",1,0,2,53)
ShowMessage("\\n<Sea Cucumber Girl>I'll squeeze out as much as you want, so just stay in a trance inside of me...")
ShowMessageFace("",0,0,2,54)
ShowMessage("\\n<Luka>Auuu!")
ShowMessageFace("",0,0,2,55)
ShowMessage("Once I surrendered, everything became easy.")
ShowMessage("All I have to do is lay back and let her continue to take me to heaven...")
RunCommonEvent(104)
RunCommonEvent(105)
ShowMessageFace("",0,0,2,56)
ShowMessage("\\n<Luka>Faa...")
ShowMessageFace("",0,0,2,57)
ShowMessage("Stuck in her strange mouth, I melt in the overpowering pleasure.")
ShowMessage("Coming over and over, she squeezes me completely dry.")
RunCommonEvent(104)
RunCommonEvent(105)
PictureDisplay(5,"ev_namako_ha4",0,0,0,0,100,100,255,0)
ShowMessageFace("",0,0,2,58)
ShowMessage("Not even letting out semen as I orgasm anymore, my vision starts to fade.")
ShowMessageFace("",0,0,2,59)
ShowMessage("\\n<Luka>Auu...\nAmazing...")
ShowMessageFace("namako_fc1",1,0,2,60)
ShowMessage("\\n<Sea Cucumber Girl>...Fufu, I won't let you die.\nI'll squeeze everything out until you're on the brink of death, then revive you and start it all over again.")
PictureDisplay(5,"ev_namako_ha5",0,0,0,0,100,100,255,0)
ShowMessageFace("namako_fc1",1,0,2,61)
ShowMessage("\\n<Sea Cucumber Girl>From now on, you're my slave.\nHahahahaha.")
ShowMessageFace("",0,0,2,62)
ShowMessage("\\n<Luka>..............")
ShowMessageFace("",0,0,2,63)
ShowMessage("As I listen to her laugh, my consciousness fades.")
221()
PictureClear(5)
PictureClear(6)
246(2)
ShowMessageFace("",0,0,2,64)
ShowMessage("For giving her my body and mind, she'll continue to reward me like this...")
ShowMessage("Immersed in the ecstasy, she continues to squeeze me for the rest of my life.")
DefineLabel("反省会")
ShowMessageFace("",0,0,2,65)
ShowMessage("............")
221()
242(1)
Wait(120)
355("memory_interruption")
ShowMessageFace("",0,0,2,66)
ShowMessage("You hear Ilias' voice calling out to you...")
ShowMessage("Receive her evaluation?")
ShowChoices(strings("Receive Evaluation","Change Difficulty","Reincarnate"),3)
IfPlayerPicksChoice(0,null)
 241(bytes(0x04,0x08,0x6f,0x3a,0x0d,0x52,0x50,0x47,0x3a,0x3a,0x42,0x47,0x4d,0x08,0x3a,0x0a,0x40,0x6e,0x61,0x6d,0x65,0x49,0x22,0x0a,0x69,0x72,0x69,0x61,0x73,0x06,0x3a,0x06,0x45,0x54,0x3a,0x0c,0x40,0x76,0x6f,0x6c,0x75,0x6d,0x65,0x69,0x5f,0x3a,0x0b,0x40,0x70,0x69,0x74,0x63,0x68,0x69,0x6e))
 PictureDisplay(1,"bg001",0,0,0,0,100,100,255,0)
 222()
 PictureDisplay(5,"80_iriasu_st04",0,0,0,0,100,100,0,0)
 PictureMove(5,null,0,0,0,0,100,100,255,0,30,true)
 ShowMessageFace("iriasu_fc1",3,0,2,67)
 ShowMessage("\\n<Ilias>Looks like it felt really good getting squeezed by the Sea Cucumber Girl...\nYou're a really pitiful Hero.")
 PictureDisplay(5,"80_iriasu_st01",0,0,0,0,100,100,255,0)
 ShowMessageFace("iriasu_fc1",0,0,2,68)
 ShowMessage("\\n<Ilias>The Sea Cucumber Girl's Binding attack is very dangerous.\nIt brings with it a Trance state as well.")
 ShowMessageFace("iriasu_fc1",0,0,2,69)
 ShowMessage("\\n<Ilias>Because her HP is high, expect to have trouble with her.\nUse Lightning and Earth skills since she's weak against them.")
 ShowMessageFace("iriasu_fc1",0,0,2,70)
 ShowMessage("\\n<Ilias>Almost all status ailments work on her.\nIt should be easy if you use Blind and Sleep.")
 PictureDisplay(5,"80_iriasu_st02",0,0,0,0,100,100,255,0)
 ShowMessageFace("iriasu_fc1",1,0,2,71)
 ShowMessage("\\n<Ilias>Now go, oh brave Luka.\nDon't let the Sea Cucumber Girl squeeze you like that again.")
 242(1)
 221()
 PictureClear(5)
 PictureClear(1)
 Wait(60)
 0()
IfPlayerPicksChoice(1,null)
 ShowMessageFace("",0,0,2,72)
 ShowMessage("Please choose a difficulty level.")
 RunCommonEvent(110)
 0()
IfPlayerPicksChoice(2,null)
 0()
404()
RunCommonEvent(3000)
0()
