﻿// EVENT 4391
Name "Page 257 1"

If(0,25,1)
 221()
 PictureClear(5)
 PictureClear(6)
 ShowMessageFace("",0,0,2,0)
 ShowMessage("......")
 242(2)
 Wait(120)
 241(bytes(0x04,0x08,0x6f,0x3a,0x0d,0x52,0x50,0x47,0x3a,0x3a,0x42,0x47,0x4d,0x08,0x3a,0x0a,0x40,0x6e,0x61,0x6d,0x65,0x49,0x22,0x0c,0x63,0x61,0x73,0x74,0x6c,0x65,0x36,0x06,0x3a,0x06,0x45,0x54,0x3a,0x0c,0x40,0x76,0x6f,0x6c,0x75,0x6d,0x65,0x69,0x69,0x3a,0x0b,0x40,0x70,0x69,0x74,0x63,0x68,0x69,0x69))
 EndEventProcessing()
 0()
EndIf()
PictureDisplay(5,"80_page257_st02",0,0,0,0,100,100,255,0)
ShowMessageFace("page257_fc1",1,0,2,1)
ShowMessage("\\n<Yoko>You want pleasure...?\nI don't mind, I'm interested in a few things myself...")
ShowMessageFace("",0,0,2,2)
ShowMessage("\\n<Luka>......")
ShowMessageFace("",0,0,2,3)
ShowMessage("I follow Yoko to her room...")
221()
PictureDisplay(1,"bg195",0,0,0,0,100,100,255,0)
PictureDisplay(5,"80_page257_st02",0,0,0,0,100,100,255,0)
222()
241(bytes(0x04,0x08,0x6f,0x3a,0x0d,0x52,0x50,0x47,0x3a,0x3a,0x42,0x47,0x4d,0x08,0x3a,0x0a,0x40,0x6e,0x61,0x6d,0x65,0x49,0x22,0x09,0x65,0x72,0x6f,0x31,0x06,0x3a,0x06,0x45,0x54,0x3a,0x0c,0x40,0x76,0x6f,0x6c,0x75,0x6d,0x65,0x69,0x69,0x3a,0x0b,0x40,0x70,0x69,0x74,0x63,0x68,0x69,0x69))
ShowMessageFace("page257_fc1",1,0,2,4)
ShowMessage("\\n<Yoko>So this is a man's penis?\nIt looks quite silly... Teehee.")
ShowMessageFace("",0,0,2,5)
ShowMessage("Yoko giggles as she looks at my naked body.")
ShowMessage("She reaches out toward my penis.")
ShowMessageFace("page257_fc1",1,0,2,6)
ShowMessage("\\n<Yoko>If I touch it, will it get larger?")
ShowMessageFace("",0,0,2,7)
ShowMessage("\\n<Luka>Ahh! Stop!")
ShowMessageFace("",0,0,2,8)
ShowMessage("My penis gets hard in Yoko's soft hand.")
ShowMessage("Her soft touch made me erect in seconds.")
PictureDisplay(6,"ev_page257_ct01",0,0,0,0,100,100,255,0)
ShowMessageFace("page257_fc1",1,0,2,9)
ShowMessage("\\n<Yoko>Haha. It's true.")
245(bytes(0x04,0x08,0x6f,0x3a,0x0d,0x52,0x50,0x47,0x3a,0x3a,0x42,0x47,0x53,0x08,0x3a,0x0a,0x40,0x6e,0x61,0x6d,0x65,0x49,0x22,0x17,0x6d,0x6f,0x6e,0x5f,0x68,0x73,0x65,0x61,0x6e,0x31,0x37,0x5f,0x73,0x69,0x67,0x6f,0x6b,0x69,0x06,0x3a,0x06,0x45,0x54,0x3a,0x0c,0x40,0x76,0x6f,0x6c,0x75,0x6d,0x65,0x69,0x55,0x3a,0x0b,0x40,0x70,0x69,0x74,0x63,0x68,0x69,0x69))
ShowMessageFace("",0,0,2,10)
ShowMessage("Yoko laughs at my pathetic yell after she grabs me.")
ShowMessageFace("",0,0,2,11)
ShowMessage("She starts to softly stroke it, as if trying to confirm the sensitivity.")
ShowMessage("I let loose a pitiful cry at her stroking.")
ShowMessageFace("page257_fc1",1,0,2,12)
ShowMessage("\\n<Yoko>Does that cry mean it's too sensitive?\nYour penis is twitching like a scared animal...")
ShowMessageFace("",0,0,2,13)
ShowMessage("\\n<Luka>Aaaa...")
ShowMessageFace("",0,0,2,14)
ShowMessage("Yoko grabs my penis with both hands, and starts to stroke it as if it was some cute animal.")
ShowMessage("Held by her soft palms, I could do nothing but squirm.")
ShowMessageFace("page257_fc1",1,0,2,15)
ShowMessage("\\n<Yoko>Hehe... Does it feel good?")
ShowMessageFace("",0,0,2,16)
ShowMessage("Yoko beams a mocking smile at me as she continues to caress me.")
ShowMessageFace("",0,0,2,17)
ShowMessage("I can feel all ten of her fingers grasping me...")
ShowMessage("Stimulating me in different ways, she carefully watches my reactions.")
ShowMessageFace("page257_fc1",1,0,2,18)
ShowMessage("\\n<Yoko>Every time I touch this little hole,\nyour waist quickly jumps up...")
ShowMessageFace("",0,0,2,19)
ShowMessage("\\n<Luka>Ahhh!")
ShowMessageFace("",0,0,2,20)
ShowMessage("She starts to slowly circle my urethral opening with her index finger.")
ShowMessage("Leaking pre-come from the pleasure she's forcing into me, it makes her finger wet.")
ShowMessageFace("",0,0,2,21)
ShowMessage("Yoko looks at the white liquid with amusement.")
ShowMessageFace("page257_fc1",1,0,2,22)
ShowMessage("\\n<Yoko>Are you happy at me touching your penis?\nDo you want me to play with you even more?")
ShowMessageFace("",0,0,2,23)
ShowMessage("Giggling, Yoko spreads open the opening with her fingers.")
ShowMessageFace("",0,0,2,24)
ShowMessage("Gently poking my tip, the tantalizing pleasure explodes through my waist.")
ShowMessageFace("",0,0,2,26)
ShowMessage("\\n<Luka>Ahhhhhh!")
ShowMessageFace("page257_fc1",1,0,2,27)
ShowMessage("\\n<Yoko>Your penis looks so happy at being played with...\nMen are so simple...")
ShowMessageFace("",0,0,2,28)
ShowMessage("While muttering in amazement, she spits into her right hand.")
ShowMessageFace("",0,0,2,29)
ShowMessage("Her now slippery hand grasps onto the tip of my penis.")
ShowMessageFace("",0,0,2,30)
ShowMessage("\\n<Luka>Auu!")
ShowMessageFace("page257_fc1",1,0,2,31)
ShowMessage("\\n<Yoko>Like this, I'll massage the tip...\nWhen you can't take it any more, just shoot it out.")
ShowMessageFace("page257_fc1",1,0,2,32)
ShowMessage("\\n<Yoko>I'll catch all of it in this hand... Haha.")
ShowMessageFace("",0,0,2,33)
ShowMessage("\\n<Luka>Ahhh!")
ShowMessageFace("",0,0,2,34)
ShowMessage("Yoko rhythmically grabs and releases the tip of my penis as she rotates her hand around in a circle.")
ShowMessageFace("",0,0,2,35)
ShowMessage("Her soft hand, now lubricated by her saliva, attacks me with overpowering pleasure.")
ShowMessageFace("",0,0,2,36)
ShowMessage("Each rotation of her hand drains more of the small strength I had left in my body.")
ShowMessageFace("",0,0,2,37)
ShowMessage("\\n<Luka>Faaa!")
ShowMessageFace("page257_fc1",1,0,2,38)
ShowMessage("\\n<Yoko>Haha... What a pathetic yell.\nAre you about to explode into my palm?")
ShowMessageFace("",0,0,2,39)
ShowMessage("I can feel the desire to release rise through my waist.")
ShowMessage("Cornered and unable to escape, I have no choice but to admit it...")
ShowMessageFace("",0,0,2,40)
ShowMessage("\\n<Luka>Auu... C...Coming!")
ShowMessageFace("page257_fc1",1,0,2,41)
ShowMessage("\\n<Yoko>Hehe... Go ahead.")
ShowMessageFace("",0,0,2,42)
ShowMessage("Grinning, Yoko keeps rubbing me.")
ShowMessage("That pleasure that's forcing me to surrender...")
ShowMessageFace("",0,0,2,43)
ShowMessage("\\n<Luka>Aaaaa!")
RunCommonEvent(104)
PictureDisplay(6,"ev_page257_ct02",0,0,0,0,100,100,255,0)
RunCommonEvent(105)
ShowMessageFace("",0,0,2,44)
ShowMessage("As I orgasm, she grabs down on my penis as I start to ejaculate.")
ShowMessageFace("page257_fc1",1,0,2,45)
ShowMessage("\\n<Yoko>Hehe...")
ShowMessageFace("",0,0,2,46)
ShowMessage("She laughs as my semen shoots out over her hand, continuing to massage me during my ejaculation.")
ShowMessageFace("",0,0,2,47)
ShowMessage("\\n<Luka>Aaaa!")
ShowMessageFace("page257_fc1",1,0,2,48)
ShowMessage("\\n<Yoko>As I thought, you're really sensitive while you ejaculate.\nIt looks like a man's orgasm is a little more complex than I thought.")
ShowMessageFace("",0,0,2,49)
ShowMessage("Even though she says that, she doesn't stop the stimulation.")
ShowMessageFace("",0,0,2,50)
ShowMessage("\\n<Luka>Stop! Ahhhh!")
ShowMessageFace("",0,0,2,51)
ShowMessage("My body writhes as she continues massaging me during my ejaculation.")
ShowMessageFace("",0,0,2,52)
ShowMessage("Humiliated at being toyed with during my orgasm, I finally shoot out the last spurt.")
ShowMessageFace("page257_fc1",1,0,2,53)
ShowMessage("\\n<Yoko>Did it feel good? Now, for the next time...")
ShowMessageFace("",0,0,2,54)
ShowMessage("\\n<Luka>Stop... Already...")
ShowMessageFace("page257_fc1",1,0,2,55)
ShowMessage("\\n<Yoko>I'm not even close to satisfied.\nThis time, let me see just how much semen you can shoot out.")
ShowMessageFace("",0,0,2,56)
ShowMessage("She grabs my penis in her right hand, and starts to quickly pump me up and down.")
ShowMessage("Different from when she was just playing with me, this time Yoko is trying to force me to ejaculate as quickly as possible.")
ShowMessageFace("",0,0,2,57)
ShowMessage("\\n<Luka>Aaaaa!")
ShowMessageFace("page257_fc1",1,0,2,58)
ShowMessage("\\n<Yoko>This is how a man usually plays with himself...\nIs this what you do when you want to squeeze out your own semen?")
ShowMessageFace("",0,0,2,59)
ShowMessage("\\n<Luka>Auu... Stop it...")
ShowMessageFace("",0,0,2,60)
ShowMessage("Yoko starts to quicken her speed, as her grip starts to slowly tighten.")
ShowMessageFace("",0,0,2,61)
ShowMessage("As she tries to force me into another ejaculation, I feel the next orgasm start to rise through my waist.")
ShowMessageFace("",0,0,2,62)
ShowMessage("\\n<Luka>Aaa... Coming again...")
ShowMessageFace("page257_fc1",1,0,2,63)
ShowMessage("\\n<Yoko>That's a lot faster than before...\nIs my technique that good?")
ShowMessageFace("",0,0,2,64)
ShowMessage("\\n<Luka>Auuu!")
ShowMessageFace("",0,0,2,65)
ShowMessage("I finally succumb to Yoko's pumping.")
RunCommonEvent(104)
PictureDisplay(6,"ev_page257_ct03",0,0,0,0,100,100,255,0)
RunCommonEvent(105)
ShowMessageFace("",0,0,2,66)
ShowMessage("Forced to ejaculate again, the humiliation washes over me.")
ShowMessageFace("page257_fc1",1,0,2,67)
ShowMessage("\\n<Yoko>Hehe... It's shooting all over the place.\nMen have such bad manners.")
ShowMessageFace("",0,0,2,68)
ShowMessage("Saying that, she doesn't slow down her hand at all.")
ShowMessage("Up and down... Her hand continues the merciless torture.")
ShowMessageFace("",0,0,2,69)
ShowMessage("\\n<Luka>Ahh! Stop already!")
ShowMessageFace("page257_fc1",1,0,2,70)
ShowMessage("\\n<Yoko>What did I just say?\nI said I wanted to see how much can come out.")
ShowMessageFace("page257_fc1",1,0,2,71)
ShowMessage("\\n<Yoko>Until nothing more comes out, I have to keep going.")
ShowMessageFace("",0,0,2,72)
ShowMessage("\\n<Luka>Ahhh!")
ShowMessageFace("",0,0,2,73)
ShowMessage("Declaring that terrifying statement, Yoko continues to milk me.")
ShowMessage("Completely at the mercy of her hand, the urge to release rises in me yet again.")
ShowMessageFace("",0,0,2,74)
ShowMessage("Forced to yield to her whims, the disgrace fills me up.")
ShowMessageFace("",0,0,2,75)
ShowMessage("No matter how hard I try to endure, her hand destroys my will.")
ShowMessageFace("",0,0,2,76)
ShowMessage("\\n<Luka>Auu... I'm going to come...")
RunCommonEvent(104)
RunCommonEvent(105)
ShowMessageFace("page257_fc1",1,0,2,77)
ShowMessage("\\n<Yoko>It's less than the last time...\nYou can put out more though, right?")
ShowMessageFace("",0,0,2,78)
ShowMessage("She continues her pumping.")
ShowMessage("Single-mindedly squeezing everything out of me, I'm forced to another height.")
ShowMessageFace("",0,0,2,79)
ShowMessage("\\n<Luka>Auuuuuu!")
RunCommonEvent(104)
PictureDisplay(6,"ev_page257_ct04",0,0,0,0,100,100,255,0)
RunCommonEvent(105)
ShowMessageFace("",0,0,2,80)
ShowMessage("No matter how much I shoot out, she continues to milk me.")
ShowMessage("Not trying to give pleasure, she's just squeezing me to satisfy her curiosity.")
ShowMessageFace("",0,0,2,81)
ShowMessage("\\n<Luka>Aaaaah...!!")
RunCommonEvent(104)
RunCommonEvent(105)
246(1)
ShowMessageFace("",0,0,2,82)
ShowMessage("Finally satisfying her interest, by the tenth orgasm nothing more comes out.")
ShowMessageFace("page257_fc1",1,0,2,83)
ShowMessage("\\n<Yoko>Oh... That's pretty impressive.\nYou got so much all over my body.")
ShowMessageFace("",0,0,2,84)
ShowMessage("Yoko giggles as she plays with the cloudy white semen on her.")
ShowMessage("She looks at me with the face of a female who has completely dominated a man.")
ShowMessageFace("",0,0,2,85)
ShowMessage("\\n<Luka>Ah... Oooh...")
ShowMessageFace("",0,0,2,86)
ShowMessage("Squeezed dry, I'm too exhausted to move.")
ShowMessage("I can't even move a finger any more...")
ShowMessageFace("page257_fc1",1,0,2,87)
ShowMessage("\\n<Yoko>Hehe... It looks like you're completely exhausted.\nThen... Shall I invite you into my world?")
ShowMessageFace("",0,0,2,88)
ShowMessage("\\n<Luka>What...?")
ShowMessageFace("",0,0,2,89)
ShowMessage("Suddenly, she covers my body with her book, and closes it over me!")
ShowMessage("The next moment...")
221()
PictureClear(5)
ShowMessageFace("",0,0,2,90)
ShowMessage("I'm in a strange place...")
ShowMessageFace("",0,0,2,91)
ShowMessage("Lying in a dark world, I'm unable to move my body.")
ShowMessageFace("",0,0,2,92)
ShowMessage("\\n<Luka>Where is this...?")
PictureDisplay(5,"80_page257_st01",0,0,0,0,100,100,255,0)
ShowMessageFace("page257_fc1",1,0,2,93)
ShowMessage("\\n<Yoko>You're inside the book... A different world.\nI brought you into my world.")
ShowMessageFace("",0,0,2,94)
ShowMessage("\\n<Luka>No way...")
ShowMessageFace("page257_fc1",1,0,2,95)
ShowMessage("\\n<Yoko>There are lots of things I still want to try with your body.")
ShowMessageFace("page257_fc1",1,0,2,96)
ShowMessage("\\n<Yoko>There's plenty of time,\nso I'll be sure to thoroughly study you...")
ShowMessageFace("",0,0,2,97)
ShowMessage("\\n<Luka>No way... Auu!")
ShowMessageFace("",0,0,2,98)
ShowMessage("Her small hands grab my penis again.")
ShowMessageFace("page257_fc1",1,0,2,99)
ShowMessage("\\n<Yoko>Now, this time let's try...")
ShowMessageFace("",0,0,2,100)
ShowMessage("\\n<Luka>Ahhh!")
221()
PictureClear(5)
PictureClear(6)
ShowMessageFace("",0,0,2,101)
ShowMessage("Thus, I continue to satisfy her curiosity...")
ShowMessage("I'm just her specimen, unable to ever escape...")
ShowMessageFace("",0,0,2,102)
ShowMessage("The next morning, however, she releases me.")
ShowMessage("My lower body was played with all night...")
ShowMessageFace("",0,0,2,103)
ShowMessage("............")
242(2)
Wait(120)
241(bytes(0x04,0x08,0x6f,0x3a,0x0d,0x52,0x50,0x47,0x3a,0x3a,0x42,0x47,0x4d,0x08,0x3a,0x0a,0x40,0x6e,0x61,0x6d,0x65,0x49,0x22,0x0c,0x63,0x61,0x73,0x74,0x6c,0x65,0x36,0x06,0x3a,0x06,0x45,0x54,0x3a,0x0c,0x40,0x76,0x6f,0x6c,0x75,0x6d,0x65,0x69,0x69,0x3a,0x0b,0x40,0x70,0x69,0x74,0x63,0x68,0x69,0x69))
0()
