// EVENT 3040
Name "Dark Elf Mage"

If(0,25,1)
 JumpToLabel("反省会")
 0()
EndIf()
PictureDisplay(5,"80_delh_b_st02",0,0,0,0,100,100,0,0)
PictureMove(5,null,0,0,0,0,100,100,255,0,30,true)
241(bytes(0x04,0x08,0x6f,0x3a,0x0d,0x52,0x50,0x47,0x3a,0x3a,0x42,0x47,0x4d,0x08,0x3a,0x0a,0x40,0x6e,0x61,0x6d,0x65,0x49,0x22,0x09,0x65,0x72,0x6f,0x31,0x06,0x3a,0x06,0x45,0x54,0x3a,0x0c,0x40,0x76,0x6f,0x6c,0x75,0x6d,0x65,0x69,0x69,0x3a,0x0b,0x40,0x70,0x69,0x74,0x63,0x68,0x69,0x69))
ShowMessageFace("",0,0,2,1)
ShowMessage("\\n<Luka>Ugh...")
ShowMessageFace("delh_b_fc1",1,0,2,2)
ShowMessage("\\n<Dark Elf>You actually let me capture you? Oh wow... This is quite rare, I'm going to have so much fun...")
250(bytes(0x04,0x08,0x6f,0x3a,0x0c,0x52,0x50,0x47,0x3a,0x3a,0x53,0x45,0x08,0x3a,0x0a,0x40,0x6e,0x61,0x6d,0x65,0x49,0x22,0x16,0x6d,0x6f,0x6e,0x5f,0x65,0x72,0x6f,0x5f,0x6d,0x61,0x6b,0x69,0x74,0x75,0x6b,0x69,0x32,0x06,0x3a,0x06,0x45,0x54,0x3a,0x0b,0x40,0x70,0x69,0x74,0x63,0x68,0x69,0x69,0x3a,0x0c,0x40,0x76,0x6f,0x6c,0x75,0x6d,0x65,0x69,0x69))
PictureDisplay(5,"ev_delh_b_h1",0,0,0,0,100,100,255,0)
ShowMessageFace("",0,0,2,3)
ShowMessage("My clothes are torn off as the tentacle binds me.")
ShowMessageFace("delh_b_fc1",1,0,2,4)
ShowMessage("\\n<Dark Elf>Now I'll be able to really suck out all of your energy.\nSmile for me, because you're going to have a stupid grin plastered on your face in no time, anyways.")
ShowMessageFace("",0,0,2,5)
ShowMessage("\\n<Luka>Ah! Stop!")
ShowMessageFace("",0,0,2,6)
ShowMessage("The tentacle wraps all around me with its slime covered flesh. It's immensely strong underneath, but soft and plush outside.")
PictureDisplay(5,"ev_delh_b_h2",0,0,0,0,100,100,255,0)
ShowMessageFace("delh_b_fc1",1,0,2,7)
ShowMessage("\\n<Dark Elf>I'll cover your penis with this tentacle... aren't you happy?")
ShowMessageFace("delh_b_fc1",1,0,2,8)
ShowMessage("\\n<Dark Elf>I know just how great it feels wrapped around you, don't deny it, just come endlessly for me.\nIt will feel absolutely amazing...")
ShowMessageFace("",0,0,2,11)
ShowMessage("\\n<Luka>Ahhh!\nI don't want that!")
ShowMessageFace("",0,0,2,12)
ShowMessage("Wrapped in the tentacles, each one wriggles around me, slowly winding and exploring every inch of my sensitive skin. As I tremble in disgust, a slight expectation rises through me.")
ShowMessageFace("",0,0,2,13)
ShowMessage("If that slimy thing was to wrap around my dick... what would it feel like?")
ShowMessageFace("",0,0,2,14)
ShowMessage("\\n<Luka>N... No... Stop...")
ShowMessageFace("delh_b_fc1",1,0,2,15)
ShowMessage("\\n<Dark Elf>Well... Shall I start? You're obviously ready for it...")
245(bytes(0x04,0x08,0x6f,0x3a,0x0d,0x52,0x50,0x47,0x3a,0x3a,0x42,0x47,0x53,0x08,0x3a,0x0a,0x40,0x6e,0x61,0x6d,0x65,0x49,0x22,0x1a,0x6d,0x6f,0x6e,0x5f,0x68,0x73,0x65,0x61,0x6e,0x32,0x31,0x5f,0x74,0x65,0x6e,0x74,0x61,0x63,0x6c,0x65,0x32,0x06,0x3a,0x06,0x45,0x54,0x3a,0x0c,0x40,0x76,0x6f,0x6c,0x75,0x6d,0x65,0x69,0x55,0x3a,0x0b,0x40,0x70,0x69,0x74,0x63,0x68,0x69,0x69))
PictureDisplay(5,"ev_delh_b_h3",0,0,0,0,100,100,255,0)
ShowMessageFace("",0,0,2,16)
ShowMessage("As she stares at my cock, throbbing in the air, the slimy tentacles cover my stomach. As the warm flesh spreads, my dick is inevitably swallowed as well, causing me to grit my teeth.")
ShowMessageFace("",0,0,2,17)
ShowMessage("\\n<Luka>Haaa!")
ShowMessageFace("",0,0,2,18)
ShowMessage("Inside the soft interior, I can feel its squishy skin carefully coating my entire length in slime.") 
ShowMessageFace("",0,0,2,18)
ShowMessage("Each time I rub against its walls, I feel more of my strength being drained. This isn't right, I need to get away...")
ShowMessageFace("delh_b_fc1",1,0,2,19)
ShowMessage("\\n<Dark Elf>Fufu... It's incredible isn't it?\nEvery little time you feel good, it sucks more energy from you... In no time you'll be a limp, constantly climaxing fool.")
ShowMessageFace("",0,0,2,20)
ShowMessage("\\n<Luka>Aaaaa!")
ShowMessageFace("",0,0,2,21)
ShowMessage("The tentacle starts to slowly vibrate. The variety of stimulation it gives me throws my body into fits.")
ShowMessageFace("",0,0,2,22)
ShowMessage("Stuck in the tentacles' wavy interior, they lick and coax my cock to a height from which I can't return...")
ShowMessageFace("",0,0,2,23)
ShowMessage("\\n<Luka>Auu... Stop this...")
ShowMessageFace("",0,0,2,24)
ShowMessage("I can feel the ejaculation rising up through me.")
ShowMessage("But this time is different from before... a feeling of numbness spreads through my body, but my waist stays as electrified as always.")
ShowMessageFace("delh_b_fc1",1,0,2,25)
ShowMessage("\\n<Dark Elf>Fufu... Look at you, shamefully squirming in my grip...\nThe tentacles won't stop. Their only purpose is to drain you so give up on any ideas of a break.")
ShowMessageFace("delh_b_fc1",1,0,2,26)
ShowMessage("\\n<Dark Elf>Just surrender already. Won't it be great to put your mind at ease and become entranced by my touch?")
ShowMessageFace("",0,0,2,27)
ShowMessage("\\n<Luka>Haaa....")
ShowMessageFace("",0,0,2,28)
ShowMessage("I can't take it anymore.")
ShowMessage("My dick is being stimulated by this tentacle and I can't stop it... I don't want to stop it...")
ShowMessageFace("delh_b_fc1",1,0,2,29)
ShowMessage("\\n<Dark Elf>Now... Let it suck everything away...")
ShowMessageFace("",0,0,2,30)
ShowMessage("\\n<Luka>Aaaahhh!")
ShowMessageFace("",0,0,2,31)
ShowMessage("The tentacle's insides start to slowly move in a waving formation, as if trying to milk everything out of me!")
RunCommonEvent(104)
PictureDisplay(5,"ev_delh_b_h4",0,0,0,0,100,100,255,0)
RunCommonEvent(105)
ShowMessageFace("",0,0,2,32)
ShowMessage("Wrapped by her tentacles, I explode inside of them. I gasp for breath as the vulgar sounds of her dripping tentacles squeezing my cock echo against the trees.")
ShowMessageFace("",0,0,2,32)
ShowMessage("The tentacle on me sucks up everything I shoot out into it...")
ShowMessageFace("",0,0,2,33)
ShowMessage("\\n<Luka>Aaaah... Stop it now...")
ShowMessageFace("delh_b_fc1",1,0,2,34)
ShowMessage("\\n<Dark Elf>Fufu... Not a chance.")
245(bytes(0x04,0x08,0x6f,0x3a,0x0d,0x52,0x50,0x47,0x3a,0x3a,0x42,0x47,0x53,0x08,0x3a,0x0a,0x40,0x6e,0x61,0x6d,0x65,0x49,0x22,0x1a,0x6d,0x6f,0x6e,0x5f,0x68,0x73,0x65,0x61,0x6e,0x32,0x32,0x5f,0x74,0x65,0x6e,0x74,0x61,0x63,0x6c,0x65,0x33,0x06,0x3a,0x06,0x45,0x54,0x3a,0x0c,0x40,0x76,0x6f,0x6c,0x75,0x6d,0x65,0x69,0x55,0x3a,0x0b,0x40,0x70,0x69,0x74,0x63,0x68,0x69,0x69))
ShowMessageFace("",0,0,2,35)
ShowMessage("As soon as the tentacle absorbed the last of the semen, it starts to stimulate me again.")
ShowMessageFace("",0,0,2,36)
ShowMessage("This time is much worse, it's like with every orgasm I feed it, it learns more of what I like and my weaknesses. It's only been a few seconds and I can feel myself losing again...")
ShowMessageFace("delh_b_fc1",1,0,2,37)
ShowMessage("\\n<Dark Elf>I told you it won't stop and I won't let it...\nI want to see your dumb expression as the last of your reason leaves you with the last bit of your semen...")
ShowMessageFace("delh_b_fc1",1,0,2,38)
ShowMessage("\\n<Dark Elf>Just think, your life itself is going to be sucked up by this tentacle...\nAre you happy? Because you really look like you are, hahahaha.")
ShowMessageFace("",0,0,2,40)
ShowMessage("\\n<Luka>How could I...")
ShowMessageFace("",0,0,2,41)
ShowMessage("I focus all of my willpower on my waist to stop the orgasm.")
ShowMessage("But the tentacle continues its milking movement, slowly breaking my endurance.")
ShowMessageFace("",0,0,2,42)
ShowMessage("The desire for release slowly bubbles up through me...")
ShowMessage("Even though I just came, I'm already at the breaking point of another.")
ShowMessageFace("delh_b_fc1",1,0,2,43)
ShowMessage("\\n<Dark Elf>Why are you resisting? It's hopeless.\nYou let yourself get caught by me, so you gave me full permission to suck you to death, I bet you even wanted this...")
ShowMessageFace("",0,0,2,44)
ShowMessage("\\n<Luka>No...!")
ShowMessageFace("",0,0,2,45)
ShowMessage("I use all of my strength to try and struggle out of its grip, but this tentacle is glued to my shaft as it sweetly squeezes and sucks me. Driven to the limit, I can't endure any longer.")
ShowMessageFace("",0,0,2,46)
ShowMessage("\\n<Luka>Faa! Ahhhh!")
RunCommonEvent(104)
RunCommonEvent(105)
ShowMessageFace("",0,0,2,47)
ShowMessage("Without any warning, I feel myself release into the tentacle again. It vibrates happily as I keep feeding it...")
ShowMessage("All the strength I had left to escape fades away.")
ShowMessageFace("",0,0,2,48)
ShowMessage("Being squeezed by the tentacle... I feel so good...")
ShowMessageFace("",0,0,2,49)
ShowMessage("\\n<Luka>Faa... My strength is gone...")
ShowMessageFace("delh_b_fc1",1,0,2,50)
ShowMessage("\\n<Dark Elf>Haha... Stay entranced in ecstasy like that.\nYou'll feel better if you just lie back and let it work your entire waist.")
ShowMessageFace("",0,0,2,51)
ShowMessage("The Dark Elf laughs as the tentacle milks me.")
ShowMessage("Without mercy, the slimy tentacle continues to suck everything out.")
ShowMessageFace("",0,0,2,53)
ShowMessage("\\n<Luka>Aaa! Coming...again...!")
RunCommonEvent(104)
PictureDisplay(5,"ev_delh_b_h5",0,0,0,0,100,100,255,0)
RunCommonEvent(105)
ShowMessageFace("",0,0,2,54)
ShowMessage("The tentacle sucks everything as I shoot it.")
ShowMessage("Not just my penis, but my entire body is exhausted and brought to the limit. A dull ache is all I can feel through my body now.")
ShowMessageFace("",0,0,2,56)
ShowMessage("\\n<Luka>Ahii! Stop it!\nIt's too good...!")
ShowMessageFace("delh_b_fc1",1,0,2,57)
ShowMessage("\\n<Dark Elf>Shhh... I've almost finished, you're so close...\nOnly a little more and there won't be anything left...")
ShowMessageFace("",0,0,2,58)
ShowMessage("\\n<Luka>Haa! Ahhh!")
ShowMessageFace("",0,0,2,59)
ShowMessage("The tentacle quickly contracts around me, forcing another orgasm.")
RunCommonEvent(104)
RunCommonEvent(105)
ShowMessageFace("",0,0,2,61)
ShowMessage("\\n<Luka>Auuu... Stop it... please...")
ShowMessageFace("",0,0,2,62)
ShowMessage("Forced to ejaculate over and over, the tentacle never stops.")
ShowMessage("At this rate, I really will be sucked to death...")
ShowMessageFace("",0,0,2,64)
ShowMessage("\\n<Luka>Someone... Help... Stop...")
ShowMessageFace("delh_b_fc1",1,0,2,65)
ShowMessage("\\n<Dark Elf>No.\nI told you I was going to suck you dry. If you didn't want this, then why did you lose so easily?")
ShowMessageFace("delh_b_fc1",1,0,2,66)
ShowMessage("\\n<Dark Elf>As much as I wish it wouldn't end, this will only stop when you die.")
ShowMessageFace("",0,0,2,67)
ShowMessage("\\n<Luka>No... Stop... Ahhh!")
RunCommonEvent(104)
RunCommonEvent(105)
ShowMessageFace("",0,0,2,68)
ShowMessage("Continually forced to ejaculate, my vision starts to fade.")
ShowMessage("The tentacle never stops stimulating me, even as I slowly lose consciousness.")
ShowMessageFace("delh_b_fc1",1,0,2,69)
ShowMessage("\\n<Dark Elf>Already? You've got another round or two left in there, right?\nLet it all out, you need this...")
ShowMessageFace("",0,0,2,70)
ShowMessage("\\n<Luka>Aaa....")
RunCommonEvent(104)
RunCommonEvent(105)
ShowMessageFace("",0,0,2,71)
ShowMessage("My life itself is being squeezed out of my penis...")
ShowMessage("Each ejaculation brings me closer to the end...")
221()
PictureClear(5)
246(2)
ShowMessageFace("delh_b_fc1",1,0,2,73)
ShowMessage("\\n<Dark Elf>Fufu... I sucked it all up.")
ShowMessageFace("",0,0,2,74)
ShowMessage("With a final squeeze, the last of my life is sucked out.")
ShowMessageFace("delh_b_fc1",1,0,2,75)
ShowMessage("\\n<Dark Elf>I'm almost sad to kill someone as cute and tasty as you are...\nFufufu... almost sad, but not quite. Thanks for the meal.")
DefineLabel("反省会")
ShowMessageFace("",0,0,2,76)
ShowMessage(".............")
221()
242(1)
Wait(120)
355("memory_interruption")
ShowMessageFace("",0,0,2,77)
ShowMessage("You hear Ilias' voice calling out to you...")
ShowMessage("Receive her evaluation?")
ShowChoices(strings("Receive Evaluation","Change Difficulty","Reincarnate"),3)
IfPlayerPicksChoice(0,null)
 241(bytes(0x04,0x08,0x6f,0x3a,0x0d,0x52,0x50,0x47,0x3a,0x3a,0x42,0x47,0x4d,0x08,0x3a,0x0a,0x40,0x6e,0x61,0x6d,0x65,0x49,0x22,0x0a,0x69,0x72,0x69,0x61,0x73,0x06,0x3a,0x06,0x45,0x54,0x3a,0x0c,0x40,0x76,0x6f,0x6c,0x75,0x6d,0x65,0x69,0x5f,0x3a,0x0b,0x40,0x70,0x69,0x74,0x63,0x68,0x69,0x6e))
 PictureDisplay(1,"bg001",0,0,0,0,100,100,255,0)
 222()
 PictureDisplay(5,"80_iriasu_st04",0,0,0,0,100,100,0,0)
 PictureMove(5,null,0,0,0,0,100,100,255,0,30,true)
 ShowMessageFace("iriasu_fc1",3,0,2,78)
 ShowMessage("\\n<Ilias>Were you satisfied having all your energy taken by that tentacle?\nFallen Luka, Dark Hero Luka... It sounds really disturbing.")
 PictureDisplay(5,"80_iriasu_st01",0,0,0,0,100,100,255,0)
 ShowMessageFace("iriasu_fc1",0,0,2,79)
 ShowMessage("\\n<Ilias>The Dark Elf Mage uses a variety of Tentacle skills.\nThey can also use Ice elemental magic so be careful.")
 ShowMessageFace("iriasu_fc1",0,0,2,80)
 ShowMessage("\\n<Ilias>She is one nasty foe because she uses skills that Bind quite often.\nYou really should struggle out of her binds.")
 ShowMessageFace("iriasu_fc1",0,0,2,81)
 ShowMessage("\\n<Ilias>Silence is effective and seals off her Ice magic.\nThe downside is that she has no weakness...")
 ShowMessageFace("iriasu_fc1",0,0,2,82)
 ShowMessage("\\n<Ilias>Neither her defense nor her HP is that high so wail on her with physical attacks.\nShe'll be down in no time if you keep physically attacking her.")
 PictureDisplay(5,"80_iriasu_st02",0,0,0,0,100,100,255,0)
 ShowMessageFace("iriasu_fc1",1,0,2,83)
 ShowMessage("\\n<Ilias>Now go, oh brave Luka.\nDo not become corrupted and win this time.")
 242(1)
 221()
 PictureClear(5)
 PictureClear(1)
 Wait(60)
 0()
IfPlayerPicksChoice(1,null)
 ShowMessageFace("",0,0,2,84)
 ShowMessage("Please choose a difficulty level.")
 RunCommonEvent(110)
 0()
IfPlayerPicksChoice(2,null)
 0()
404()
RunCommonEvent(3000)
0()