// EVENT 4947
Name "Shirohebi 2"

PictureDisplay(5,"80_sirohebisama_st02",0,0,0,0,100,100,0,0)
PictureMove(5,null,0,0,0,0,100,100,255,0,30,true)
ShowMessageFace("sirohebisama_fc1",0,0,2,1)
ShowMessage("\\n<Shirohebi>Hah... You want me to play with you?")
ShowMessageFace("",0,0,2,2)
ShowMessage("\\n<Luka>Y-yes please...")
ShowMessageFace("sirohebisama_fc1",1,0,2,3)
ShowMessage("\\n<Shirohebi>Kuku, what a cute hero.\nThen I'm going to play with you a lot, so prepare yourself...")
ShowMessageFace("",0,0,2,4)
ShowMessage("I follow her to a private room...")
221()
PictureDisplay(1,"bg195",0,0,0,0,100,100,255,0)
PictureDisplay(5,"ev_sirohebisama_hb1",0,0,0,0,100,100,255,0)
222()
241(bytes(0x04,0x08,0x6f,0x3a,0x0d,0x52,0x50,0x47,0x3a,0x3a,0x42,0x47,0x4d,0x08,0x3a,0x0a,0x40,0x6e,0x61,0x6d,0x65,0x49,0x22,0x09,0x65,0x72,0x6f,0x31,0x06,0x3a,0x06,0x45,0x54,0x3a,0x0c,0x40,0x76,0x6f,0x6c,0x75,0x6d,0x65,0x69,0x69,0x3a,0x0b,0x40,0x70,0x69,0x74,0x63,0x68,0x69,0x69))
250(bytes(0x04,0x08,0x6f,0x3a,0x0c,0x52,0x50,0x47,0x3a,0x3a,0x53,0x45,0x08,0x3a,0x0a,0x40,0x6e,0x61,0x6d,0x65,0x49,0x22,0x16,0x6d,0x6f,0x6e,0x5f,0x65,0x72,0x6f,0x5f,0x6d,0x61,0x6b,0x69,0x74,0x75,0x6b,0x69,0x33,0x06,0x3a,0x06,0x45,0x54,0x3a,0x0b,0x40,0x70,0x69,0x74,0x63,0x68,0x69,0x69,0x3a,0x0c,0x40,0x76,0x6f,0x6c,0x75,0x6d,0x65,0x69,0x69))
ShowMessageFace("sirohebisama_fc1",1,0,2,5)
ShowMessage("\\n<Shirohebi>Hore hore, how about...?")
ShowMessageFace("",0,0,2,6)
ShowMessage("\\n<Luka>Auuuuu...")
ShowMessageFace("",0,0,2,7)
ShowMessage("Shirohebi coils around me, easily taking away my freedom.")
ShowMessageFace("",0,0,2,8)
ShowMessage("\\n<Luka>T-too forceful...!")
ShowMessageFace("sirohebisama_fc1",1,0,2,9)
ShowMessage("\\n<Shirohebi>I won't let you go...\nI'll humiliate you as I play with you.")
PictureDisplay(6,"ev_sirohebisama_ct01",0,0,0,0,100,100,255,0)
ShowMessageFace("",0,0,2,10)
ShowMessage("Shirohebi presses my penis against her hot, wet vagina.\nJust the feeling of it instantly makes me get erect in response.")
ShowMessageFace("",0,0,2,11)
ShowMessage("\\n<Luka>Nngh...")
ShowMessageFace("sirohebisama_fc1",1,0,2,12)
ShowMessage("\\n<Shirohebi>Haha... You seem to be ready to mate with me.\nI'll squeeze your semen completely dry...")
ShowMessageFace("",0,0,2,13)
ShowMessage("\\n<Luka>S...stop... Ahhh!")
245(bytes(0x04,0x08,0x6f,0x3a,0x0d,0x52,0x50,0x47,0x3a,0x3a,0x42,0x47,0x53,0x08,0x3a,0x0a,0x40,0x6e,0x61,0x6d,0x65,0x49,0x22,0x1e,0x6d,0x6f,0x6e,0x5f,0x68,0x73,0x65,0x61,0x6e,0x30,0x34,0x5f,0x69,0x6e,0x6e,0x65,0x72,0x77,0x6f,0x72,0x6b,0x73,0x5f,0x61,0x34,0x06,0x3a,0x06,0x45,0x54,0x3a,0x0c,0x40,0x76,0x6f,0x6c,0x75,0x6d,0x65,0x69,0x55,0x3a,0x0b,0x40,0x70,0x69,0x74,0x63,0x68,0x69,0x69))
PictureDisplay(6,"ev_sirohebisama_ct02",0,0,0,0,100,100,255,0)
PictureDisplay(5,"ev_sirohebisama_hb2",0,0,0,0,100,100,255,0)
ShowMessageFace("",0,0,2,14)
ShowMessage("Shirohebi presses against me, forcing me deep into her.\nWith my freedom taken away, I can't do anything to stop her from raping me.")
ShowMessageFace("",0,0,2,15)
ShowMessage("Her soft, hot vaginal walls slowly press down on me, almost as if forming to my shape inside her.")
ShowMessageFace("",0,0,2,16)
ShowMessage("\\n<Luka>N...no... Ahhh!")
ShowMessageFace("sirohebisama_fc1",1,0,2,17)
ShowMessage("\\n<Shirohebi>Hehe... You're already moaning?\nDo I feel that good?")
PictureDisplay(6,"ev_sirohebisama_ct03",0,0,0,0,100,100,255,0)
PictureDisplay(5,"ev_sirohebisama_hb3",0,0,0,0,100,100,255,0)
ShowMessageFace("",0,0,2,18)
ShowMessage("With a smile of superiority, Shirohebi starts to move her body. My penis is tossed around inside her tight, hot vagina.")
ShowMessageFace("",0,0,2,19)
ShowMessage("It almost feels like a mouth, sucking and pulling on me.\nOn my back with no way to resist, I can only moan as the pleasure assaults me.")
ShowMessageFace("",0,0,2,20)
ShowMessage("\\n<Luka>Ah... Ahhhhh...")
ShowMessageFace("",0,0,2,21)
ShowMessage("I put all of my power into trying to stop myself, but I can't deny the pleasure attacking me.")
ShowMessageFace("",0,0,2,22)
ShowMessage("\\n<Luka>I...I'm going to come...")
ShowMessageFace("sirohebisama_fc1",1,0,2,23)
ShowMessage("\\n<Shirohebi>Already? What a pathetic man...\nCome on, try to show a little more backbone.")
ShowMessageFace("",0,0,2,24)
ShowMessage("Giggling as she looks down at me, Shirohebi gives me a squeeze with her vagina. The quick burst of pleasure just leads me closer to my climax.")
ShowMessageFace("sirohebisama_fc1",1,0,2,25)
ShowMessage("\\n<Shirohebi>Haha, that's it, then?\nAre you already leaking?")
ShowMessageFace("sirohebisama_fc1",1,0,2,26)
ShowMessage("\\n<Shirohebi>Fine, then come inside me!\nSpray everything out into me!")
ShowMessageFace("",0,0,2,27)
ShowMessage("\\n<Luka>N...nooo... Ahhhh!")
RunCommonEvent(104)
PictureDisplay(5,"ev_sirohebisama_hb4",0,0,0,0,100,100,255,0)
PictureDisplay(6,"ev_sirohebisama_ct04",0,0,0,0,100,100,255,0)
RunCommonEvent(105)
ShowMessageFace("",0,0,2,28)
ShowMessage("Unable to endure it any longer, I explode inside her as she squeezes me.")
PictureDisplay(5,"ev_sirohebisama_hb5",0,0,0,0,100,100,255,0)
PictureDisplay(6,"ev_sirohebisama_ct05",0,0,0,0,100,100,255,0)
ShowMessageFace("",0,0,2,29)
ShowMessage("\\n<Luka>Huaaa...")
ShowMessageFace("",0,0,2,30)
ShowMessage("Still bound, my body untenses as the pleasure from the orgasm washes over me.")
ShowMessageFace("sirohebisama_fc1",1,0,2,31)
ShowMessage("\\n<Shirohebi>Haha... You already look like you're in a trance of ecstasy.")
ShowMessageFace("sirohebisama_fc1",1,0,2,32)
ShowMessage("\\n<Shirohebi>But I'm not nearly so satisfied...\nI'm going to keep squeezing you until I've had enough!")
ShowMessageFace("",0,0,2,33)
ShowMessage("Shirohebi stares at me with the eyes of a predator taunting its prey.")
ShowMessageFace("sirohebisama_fc1",1,0,2,34)
ShowMessage("\\n<Shirohebi>I would like for you to taste much more of my skills... But with how quick you ejaculate, I think I'm too much for you.")
PictureDisplay(5,"ev_sirohebisama_hb6",0,0,0,0,100,100,255,0)
PictureDisplay(6,"ev_sirohebisama_ct06",0,0,0,0,100,100,255,0)
ShowMessageFace("",0,0,2,35)
ShowMessage("\\n<Luka>Ah, ahhhhh...!!")
245(bytes(0x04,0x08,0x6f,0x3a,0x0d,0x52,0x50,0x47,0x3a,0x3a,0x42,0x47,0x53,0x08,0x3a,0x0a,0x40,0x6e,0x61,0x6d,0x65,0x49,0x22,0x1e,0x6d,0x6f,0x6e,0x5f,0x68,0x73,0x65,0x61,0x6e,0x30,0x38,0x5f,0x69,0x6e,0x6e,0x65,0x72,0x77,0x6f,0x72,0x6b,0x73,0x5f,0x61,0x38,0x06,0x3a,0x06,0x45,0x54,0x3a,0x0c,0x40,0x76,0x6f,0x6c,0x75,0x6d,0x65,0x69,0x55,0x3a,0x0b,0x40,0x70,0x69,0x74,0x63,0x68,0x69,0x69))
ShowMessageFace("",0,0,2,36)
ShowMessage("Shirohebi's vaginal muscles suddenly start tensing, forcing a strange vibration sensation into me.")
ShowMessageFace("",0,0,2,37)
ShowMessage("Rather than the squeezing stimulations from before, this feels like every inch of her flesh is massaging and rubbing me as it quickly moves.")
ShowMessageFace("sirohebisama_fc1",1,0,2,38)
ShowMessage("\\n<Shirohebi>Hehe... You can feel it, can't you?\nMy insides are wriggling and squirming quickly...")
ShowMessageFace("sirohebisama_fc1",1,0,2,39)
ShowMessage("\\n<Shirohebi>I can control my own muscles however I want there. Aren't you glad you get to taste something like this?")
ShowMessageFace("",0,0,2,40)
ShowMessage("\\n<Luka>Huaaa... That feels good...")
ShowMessageFace("",0,0,2,41)
ShowMessage("Her soft, warm flesh rubs especially hard against my glans inside her, making me breathe out a sigh of ecstasy.")
ShowMessageFace("sirohebisama_fc1",1,0,2,42)
ShowMessage("\\n<Shirohebi>Haha... Just look at you.\nDo I feel that amazing?")
ShowMessageFace("sirohebisama_fc1",1,0,2,43)
ShowMessage("\\n<Shirohebi>Let me hear that pitiful male moan you have.")
ShowMessageFace("",0,0,2,44)
ShowMessage("\\n<Luka>Ah, aaaah...!")
ShowMessageFace("",0,0,2,45)
ShowMessage("Her soft flesh suddenly tightens, squeezing down hard on me like before.")
ShowMessageFace("",0,0,2,46)
ShowMessage("At her mercy as she toys with my penis, I can only feebly moan as her skills bring me to the edge again in no time.")
ShowMessageFace("",0,0,2,47)
ShowMessage("\\n<Luka>Ah...! Hyaaaa...!")
ShowMessageFace("sirohebisama_fc1",1,0,2,48)
ShowMessage("\\n<Shirohebi>Hehehe... Well? Do you want me to toy with you more? Or finish you off in one shot?")
ShowMessageFace("",0,0,2,49)
ShowMessage("\\n<Luka>Please... Just let me come...")
ShowMessageFace("sirohebisama_fc1",1,0,2,50)
ShowMessage("\\n<Shirohebi>Haha... Look at you now, begging to ejaculate.\nThen I'll grant your wish...")
ShowMessageFace("",0,0,2,51)
ShowMessage("With a strong squeeze, her flesh tightens on all sides as it continues vibrating against my penis.")
ShowMessageFace("",0,0,2,52)
ShowMessage("\\n<Luka>Ah, aaaaaah!!")
RunCommonEvent(104)
PictureDisplay(5,"ev_sirohebisama_hb7",0,0,0,0,100,100,255,0)
PictureDisplay(6,"ev_sirohebisama_ct07",0,0,0,0,100,100,255,0)
RunCommonEvent(105)
ShowMessageFace("",0,0,2,53)
ShowMessage("I explode inside her again, my resistance crushed in an instant by her technique.")
ShowMessageFace("",0,0,2,54)
ShowMessage("And even during my ejaculation, she doesn't let up.")
ShowMessageFace("sirohebisama_fc1",1,0,2,55)
ShowMessage("\\n<Shirohebi>Hehe... I'll devour all of your semen...")
PictureDisplay(5,"ev_sirohebisama_hb8",0,0,0,0,100,100,255,0)
PictureDisplay(6,"ev_sirohebisama_ct08",0,0,0,0,100,100,255,0)
ShowMessageFace("",0,0,2,56)
ShowMessage("Her vagina pulses little by little, hitting me with a strange stimulation as she milks out all of the semen from my last ejaculation.")
ShowMessageFace("",0,0,2,57)
ShowMessage("\\n<Luka>Aaaahh...!")
ShowMessageFace("sirohebisama_fc1",1,0,2,58)
ShowMessage("\\n<Shirohebi>Hehe... You understand that your semen is being devoured, right?")
ShowMessageFace("sirohebisama_fc1",1,0,2,59)
ShowMessage("\\n<Shirohebi>Your delicious semen is shooting into me, to be consumed... Reflect on the joy you get to experience at being able to offer me your semen.")
ShowMessageFace("",0,0,2,60)
ShowMessage("Almost as if sucking out my soul, her vagina continues to pulse and squeeze out my semen.")
ShowMessageFace("",0,0,2,61)
ShowMessage("\\n<Luka>Ahh... Please, let me go...\nI'm going to come again... Let me go...!")
ShowMessageFace("sirohebisama_fc1",1,0,2,62)
ShowMessage("\\n<Shirohebi>Haha... Why would I let you go?\nJust go mad in my embrace of endless pleasure...")
ShowMessageFace("",0,0,2,63)
ShowMessage("\\n<Luka>Ah, auuuu!")
ShowMessageFace("",0,0,2,64)
ShowMessage("As her vaginal stimulation continues, my lower body goes numb again as my resistance is crushed.")
RunCommonEvent(104)
PictureDisplay(5,"ev_sirohebisama_hb9",0,0,0,0,100,100,255,0)
PictureDisplay(6,"ev_sirohebisama_ct09",0,0,0,0,100,100,255,0)
RunCommonEvent(105)
ShowMessageFace("",0,0,2,65)
ShowMessage("And with another spurt, more semen erupts into her greedy vagina.")
ShowMessageFace("sirohebisama_fc1",1,0,2,66)
ShowMessage("\\n<Shirohebi>Haha, another ejaculation.\nNow I'll get another good taste...")
ShowMessageFace("",0,0,2,67)
ShowMessage("\\n<Luka>Ah... Ahhh!")
ShowMessageFace("",0,0,2,68)
ShowMessage("Her vagina shrinks smaller as it starts the pulsing, sucking motion to draw out my semen.")
ShowMessageFace("sirohebisama_fc1",1,0,2,69)
ShowMessage("\\n<Shirohebi>There's lots more to squeeze out...")
ShowMessageFace("",0,0,2,70)
ShowMessage("\\n<Luka>Ahh... Please, no more!\nI can't come any more!")
ShowMessageFace("sirohebisama_fc1",1,0,2,71)
ShowMessage("\\n<Shirohebi>Haha... You can't come any more?\nBut you won't escape from my vagina just with that.")
ShowMessageFace("sirohebisama_fc1",1,0,2,72)
ShowMessage("\\n<Shirohebi>Don't worry, your semen is too appetizing for me to simply kill you. I'll keep you alive, and keep squeezing you dry.")
ShowMessageFace("",0,0,2,73)
ShowMessage("\\n<Luka>Ah, aaaaaah!!")
RunCommonEvent(104)
RunCommonEvent(105)
ShowMessageFace("",0,0,2,74)
ShowMessage("My semen shoots out, sucked up by her devilish vagina. Completely at her mercy, I have no choice but to continue shooting off inside her...")
ShowMessageFace("sirohebisama_fc1",1,0,2,75)
ShowMessage("\\n<Shirohebi>Haha... Do you want me to rub your penis more?\nOr perhaps suck on it?")
ShowMessageFace("sirohebisama_fc1",1,0,2,76)
ShowMessage("\\n<Shirohebi>Which do you want next?\nHow do you want me to make you come?")
ShowMessageFace("",0,0,2,77)
ShowMessage("\\n<Luka>No more... Please stop!\nAh, aaaaaah!!")
RunCommonEvent(104)
RunCommonEvent(105)
ShowMessageFace("",0,0,2,78)
ShowMessage("The merciless rape only continues.\nBut as she said, she doesn't kill me.")
ShowMessageFace("",0,0,2,79)
ShowMessage("Stuck in Shirohebi's coil, this hell of pleasure never ends.")
221()
PictureClear(5)
PictureClear(6)
246(2)
ShowMessageFace("",0,0,2,80)
ShowMessage("......")
RunCommonEvent(3998)
0()
