// EVENT 7031
Name "Don Dahlia: Talk"

If(0,25,1)
 ShowMessageFace("",0,0,2,0)
 ShowMessage("You cannot challenge this BF without copying over the pictures from the first chapter.")
 PictureClear(5)
 EndEventProcessing()
 0()
EndIf()
If(1,804,0,0,0)
 ChangeVariable(804,804,0,0,1)
 0()
EndIf()
ShowMessageFace("dondaria_fc1",0,0,2,1)
ShowMessage("\\n<Don Dahlia>I see you've brought a Ticket to Heaven. You know what that means, right?")
241(bytes(0x04,0x08,0x6f,0x3a,0x0d,0x52,0x50,0x47,0x3a,0x3a,0x42,0x47,0x4d,0x08,0x3a,0x0a,0x40,0x6e,0x61,0x6d,0x65,0x49,0x22,0x09,0x65,0x72,0x6f,0x32,0x06,0x3a,0x06,0x45,0x54,0x3a,0x0c,0x40,0x76,0x6f,0x6c,0x75,0x6d,0x65,0x69,0x4b,0x3a,0x0b,0x40,0x70,0x69,0x74,0x63,0x68,0x69,0x69))
ShowChoices(strings("No","Yes"),1)
IfPlayerPicksChoice(0,"No")
 ShowMessageFace("dondaria_fc1",0,0,2,2)
 ShowMessage("\\n<Don Dahlia>With that ticket, you can challenge me to a battle fuck. It's a 5 minute match with the usual rules. Got it?")
 0()
IfPlayerPicksChoice(1,"Yes")
 ShowMessageFace("dondaria_fc1",0,0,2,3)
 ShowMessage("\\n<Don Dahlia>Okay, let's battle fuck. I've got 5 minutes, got it?")
 0()
404()
If(1,804,0,2,1)
 ShowMessageFace("dondaria_fc1",0,0,2,4)
 ShowMessage("\\n<Don Dahlia>I already lost to you once so I won't owe you nothin' if you win again. I'll be glad to be your partner anyway.")
 0()
Else()
 ShowMessageFace("dondaria_fc1",0,0,2,5)
 ShowMessage("\\n<Don Dahlia>If you manage to beat me, I'll give you this accessory of mine. It's a nice treasure called a \\ia[1652].")
 ShowMessageFace("dondaria_fc1",0,0,2,6)
 ShowMessage("\\n<Don Dahlia>If you lose...\nI won't take anything of yours. Those tickets are how I make my money, you see.")
 0()
EndIf()
ShowMessageFace("dondaria_fc1",0,0,2,7)
ShowMessage("\\n<Don Dahlia>Now let's have some fun together.\nI'll leave you humiliated and covered in your own cum.")
ShowChoices(strings("Battle Fuck Challenge","Reconsider"),2)
IfPlayerPicksChoice(0,"バトルファックを挑む")
 If(0,2331,1)
  216(1)
  ShowMessageFace("",0,0,2,8)
  ShowMessage("Luka's companions wait outside the tent...")
  0()
 EndIf()
 RunCommonEvent(7032)
 EndEventProcessing()
 0()
IfPlayerPicksChoice(1,"やめておく")
 ShowMessageFace("dondaria_fc1",0,0,2,9)
 ShowMessage("\\n<Don Dahlia>Hmph, you're no fun. If you aren't here for business, scram.")
 PictureClear(5)
 EndEventProcessing()
 0()
404()
0()
