// EVENT 4551
Name "Mummy Girl 1"

If(0,25,1)
 221()
 PictureClear(5)
 PictureClear(6)
 ShowMessageFace("",0,0,2,0)
 ShowMessage("......")
 242(2)
 Wait(120)
 241(bytes(0x04,0x08,0x6f,0x3a,0x0d,0x52,0x50,0x47,0x3a,0x3a,0x42,0x47,0x4d,0x08,0x3a,0x0a,0x40,0x6e,0x61,0x6d,0x65,0x49,0x22,0x0c,0x63,0x61,0x73,0x74,0x6c,0x65,0x36,0x06,0x3a,0x06,0x45,0x54,0x3a,0x0c,0x40,0x76,0x6f,0x6c,0x75,0x6d,0x65,0x69,0x69,0x3a,0x0b,0x40,0x70,0x69,0x74,0x63,0x68,0x69,0x69))
 EndEventProcessing()
 0()
EndIf()
PictureDisplay(5,"80_mummy_st01",0,0,0,0,100,100,255,0)
ShowMessageFace("mummy_fc1",0,0,2,1)
ShowMessage("\\n<Patra>You want to have your energy drained...\nIs that really what you want?")
ShowMessageFace("",0,0,2,2)
ShowMessage("\\n<Luka>P-please...")
ShowMessageFace("mummy_fc1",0,0,2,3)
ShowMessage("\\n<Patra>Very well, in that case...")
241(bytes(0x04,0x08,0x6f,0x3a,0x0d,0x52,0x50,0x47,0x3a,0x3a,0x42,0x47,0x4d,0x08,0x3a,0x0a,0x40,0x6e,0x61,0x6d,0x65,0x49,0x22,0x09,0x65,0x72,0x6f,0x31,0x06,0x3a,0x06,0x45,0x54,0x3a,0x0c,0x40,0x76,0x6f,0x6c,0x75,0x6d,0x65,0x69,0x69,0x3a,0x0b,0x40,0x70,0x69,0x74,0x63,0x68,0x69,0x69))
250(bytes(0x04,0x08,0x6f,0x3a,0x0c,0x52,0x50,0x47,0x3a,0x3a,0x53,0x45,0x08,0x3a,0x0a,0x40,0x6e,0x61,0x6d,0x65,0x49,0x22,0x0e,0x6d,0x6f,0x6e,0x5f,0x75,0x6d,0x61,0x72,0x75,0x06,0x3a,0x06,0x45,0x54,0x3a,0x0b,0x40,0x70,0x69,0x74,0x63,0x68,0x69,0x69,0x3a,0x0c,0x40,0x76,0x6f,0x6c,0x75,0x6d,0x65,0x69,0x69))
PictureDisplay(5,"ev_mummy_h1",0,0,0,0,100,100,255,0)
ShowMessageFace("",0,0,2,4)
ShowMessage("Patra's bandages expand and wrap around my hands and feet.")
ShowMessage("Unable to move, I'm suspended in midair.")
ShowMessageFace("",0,0,2,5)
ShowMessage("Patra grabs my dangling penis.")
ShowMessageFace("",0,0,2,6)
ShowMessage("\\n<Luka>Ah!")
ShowMessageFace("",0,0,2,7)
ShowMessage("I can feel the warmth of her hand through the bandage.")
ShowMessage("The sudden stimulation from her grab makes my body shake.")
ShowMessageFace("",0,0,2,8)
ShowMessage("\\n<Luka>W-wait a minute...\nThis is embarrassing...")
ShowMessageFace("mummy_fc1",1,0,2,9)
ShowMessage("\\n<Patra>You asked for this.\nI'll drain your energy like this...")
ShowMessageFace("",0,0,2,10)
ShowMessage("\\n<Luka>D-drain me then...Aaah...")
245(bytes(0x04,0x08,0x6f,0x3a,0x0d,0x52,0x50,0x47,0x3a,0x3a,0x42,0x47,0x53,0x08,0x3a,0x0a,0x40,0x6e,0x61,0x6d,0x65,0x49,0x22,0x17,0x6d,0x6f,0x6e,0x5f,0x68,0x73,0x65,0x61,0x6e,0x31,0x37,0x5f,0x73,0x69,0x67,0x6f,0x6b,0x69,0x06,0x3a,0x06,0x45,0x54,0x3a,0x0c,0x40,0x76,0x6f,0x6c,0x75,0x6d,0x65,0x69,0x55,0x3a,0x0b,0x40,0x70,0x69,0x74,0x63,0x68,0x69,0x69))
ShowMessageFace("",0,0,2,11)
ShowMessage("Patra starts to slowly move her hand up and down.")
ShowMessageFace("",0,0,2,12)
ShowMessage("Firmly holding on to my dangling penis, she grips me hard at the base and slowly moves down to the tip.")
ShowMessageFace("",0,0,2,13)
ShowMessage("Back and forth, just like she was milking a cow...")
ShowMessageFace("",0,0,2,14)
ShowMessage("\\n<Luka>S...Stop...!")
ShowMessageFace("",0,0,2,15)
ShowMessage("Suspended in midair, my writhing doesn't accomplish anything.")
ShowMessage("All I do is sway back and forth.")
ShowMessageFace("mummy_fc1",1,0,2,16)
ShowMessage("\\n<Patra>I'll squeeze everything out of you like this, as if you were mere livestock.\nTaste the humiliation of having your energy squeezed out like this...")
ShowMessageFace("",0,0,2,17)
ShowMessage("\\n<Luka>Unnngh...S-Stop this...!")
ShowMessageFace("",0,0,2,18)
ShowMessage("I keep trying to shake my body as she milks me.")
ShowMessage("But the bandages holding me up don't loosen at all.")
ShowMessageFace("",0,0,2,19)
ShowMessage("At this rate, I won't be able to do anything...")
ShowMessageFace("mummy_fc1",1,0,2,20)
ShowMessage("\\n<Patra>It's useless even if you try to endure.\nJust surrender to the stimulation...")
ShowMessageFace("",0,0,2,21)
ShowMessage("\\n<Luka>Faaa...")
ShowMessageFace("",0,0,2,22)
ShowMessage("After continuing the milking stimulation for a while longer, she starts to slowly change her movements.")
ShowMessageFace("",0,0,2,23)
ShowMessage("She makes a small circle with her thumb and forefinger around the tip of my penis, as her palm tightens around the shaft.")
ShowMessage("Holding me in a new way, she resumes the milking movements.")
ShowMessageFace("",0,0,2,24)
ShowMessage("The disgrace causes a sick excitement to rise in me, as I feel an orgasm start to boil up.")
ShowMessageFace("mummy_fc1",1,0,2,25)
ShowMessage("\\n<Patra>It looks like you're about to come...\nLike livestock, scatter your semen and taste the humiliation...")
ShowMessageFace("",0,0,2,26)
ShowMessage("\\n<Luka>Noooo... I'm coming already...")
ShowMessageFace("",0,0,2,27)
ShowMessage("The rhythmic stimulation of her milking is too much for me...")
ShowMessageFace("",0,0,2,28)
ShowMessage("\\n<Luka>Ah, aaaah...!!")
RunCommonEvent(104)
PictureDisplay(5,"ev_mummy_h2",0,0,0,0,100,100,255,0)
RunCommonEvent(105)
ShowMessageFace("",0,0,2,29)
ShowMessage("I finally come due to Patra's milking...")
ShowMessageFace("",0,0,2,30)
ShowMessage("Still hanging in the air, my semen shoots straight down onto the floor.")
ShowMessage("The humiliation of being milked like an animal fills my mind.")
ShowMessageFace("",0,0,2,31)
ShowMessage("\\n<Luka>Hnnaaa...")
ShowMessageFace("",0,0,2,32)
ShowMessage("I was forced to surrender to her handjob and scatter my semen all over the ground.")
ShowMessage("Filled with misery, I relax my body.")
ShowMessageFace("mummy_fc1",1,0,2,33)
ShowMessage("\\n<Patra>...Came already?\nWhat a pathetic display...")
ShowMessageFace("",0,0,2,34)
ShowMessage("\\n<Luka>Unnngh...")
ShowMessageFace("",0,0,2,35)
ShowMessage("Patra grabs onto my penis again.")
ShowMessage("She resumes her milking movements, forcing the leftover semen in my urethra to spill out.")
ShowMessageFace("",0,0,2,36)
ShowMessage("Everything that was left in my urethra is squeezed out...")
ShowMessage("Patra witnesses this humiliating display.")
ShowMessageFace("mummy_fc1",1,0,2,37)
ShowMessage("\\n<Patra>Now, I'll squeeze out even more.\nPrepare yourself, you're going to meet a pathetic end as I squeeze everything out of you...")
PictureDisplay(5,"ev_mummy_h3",0,0,0,0,100,100,255,0)
ShowMessageFace("",0,0,2,38)
ShowMessage("A bandage expands and wraps around my penis.")
ShowMessage("In an instant, it had tightly wrapped all the way around me.")
ShowMessageFace("",0,0,2,39)
ShowMessage("\\n<Luka>Aie! What is this...?")
ShowMessageFace("",0,0,2,40)
ShowMessage("A strange sense attacks me everywhere the bandage touches.")
ShowMessage("A soft feeling of ecstasy slowly spreads through my waist from the bandages wrapped around my penis.")
ShowMessageFace("mummy_fc1",1,0,2,41)
ShowMessage("\\n<Patra>This bandage has energy extraction magic in it.")
ShowMessageFace("mummy_fc1",1,0,2,42)
ShowMessage("\\n<Patra>While giving unparalleled pleasure,\nit will take everything from you...")
ShowMessageFace("",0,0,2,43)
ShowMessage("\\n<Luka>Ah, aaah...")
ShowMessageFace("",0,0,2,44)
ShowMessage("As the sweet euphoria spreads through my body, it isn't possible for me to resist against the rising desire.")
ShowMessage("Shaking my waist pointlessly in midair, I give in to the pleasure.")
RunCommonEvent(104)
PictureDisplay(5,"ev_mummy_h4",0,0,0,0,100,100,255,0)
RunCommonEvent(105)
ShowMessageFace("",0,0,2,45)
ShowMessage("\\n<Luka>Faaa...")
ShowMessageFace("",0,0,2,46)
ShowMessage("Awash in pleasure, I give in to the orgasm.")
ShowMessage("But my ejaculation doesn't feel like the last one.")
ShowMessageFace("",0,0,2,47)
ShowMessage("Instead of spurts, it feels like something is continually flowing out of me.")
ShowMessage("The accompanying pleasure was anything but ordinary, too.")
ShowMessageFace("",0,0,2,48)
ShowMessage("\\n<Luka>Faaa... This is amazing...")
ShowMessageFace("mummy_fc1",1,0,2,49)
ShowMessage("\\n<Patra>Kuku, how pathetic...\nA prisoner of pleasure...")
ShowMessageFace("",0,0,2,50)
ShowMessage("Patral ridicules my moans.")
ShowMessage("Still, I don't stop coming...")
RunCommonEvent(104)
RunCommonEvent(105)
ShowMessageFace("",0,0,2,51)
ShowMessage("\\n<Luka>Unnngh...Again, I came...")
ShowMessageFace("mummy_fc1",1,0,2,52)
ShowMessage("\\n<Patra>You're the same as any other male.\nJust a bit of stimulation here and you all moan pathetically...")
ShowMessageFace("",0,0,2,53)
ShowMessage("\\n<Luka>Faaa...")
RunCommonEvent(104)
RunCommonEvent(105)
ShowMessageFace("",0,0,2,54)
ShowMessage("Drowning in the pleasure from her strange bandage, I orgasm one after another.")
ShowMessageFace("",0,0,2,55)
ShowMessage("\\n<Luka>That feels so good...Faaa...")
ShowMessageFace("",0,0,2,56)
ShowMessage("Another sweet discharge feeling comes over me.")
ShowMessage("But it isn't semen...")
ShowMessageFace("",0,0,2,57)
ShowMessage("Unable to control myself because of the pleasure, I was peeing onto the floor.")
ShowMessageFace("",0,0,2,58)
ShowMessage("\\n<Luka>Unnngh...")
ShowMessageFace("mummy_fc1",1,0,2,59)
ShowMessage("\\n<Patra>...Unable to control yourself because of the pleasure.\nYou've reached a new low, boy.")
ShowMessageFace("",0,0,2,60)
ShowMessage("\\n<Luka>Faaa...")
RunCommonEvent(104)
RunCommonEvent(105)
ShowMessageFace("",0,0,2,61)
ShowMessage("But the pleasure doesn't stop.")
ShowMessage("More semen shoots out of me onto the floor, mixing with the urine.")
ShowMessageFace("",0,0,2,62)
ShowMessage("Fatigue starts to spread through my body.")
ShowMessage("The more I ejaculate, the more my thoughts become hazy.")
ShowMessageFace("",0,0,2,63)
ShowMessage("\\n<Luka>Unnngh...")
ShowMessageFace("mummy_fc1",1,0,2,64)
ShowMessage("\\n<Patra>Are you feeling faint...?\nI'm squeezing out your life itself, along with your semen...")
ShowMessageFace("mummy_fc1",1,0,2,65)
ShowMessage("\\n<Patra>Everyone who desires to be drained, they shrivel up...\nI suck out their life and sperm until they dry up...")
ShowMessageFace("",0,0,2,66)
ShowMessage("\\n<Luka>Faaa...")
RunCommonEvent(104)
RunCommonEvent(105)
ShowMessageFace("",0,0,2,67)
ShowMessage("Ecstasy and fatigue mix together as I feel my body losing strength.")
ShowMessage("A blurry white fog covers my consciousness, then...")
RunCommonEvent(104)
RunCommonEvent(105)
221()
PictureClear(5)
246(2)
ShowMessageFace("",0,0,2,68)
ShowMessage("It's as if the remaining energy I have just gushes out of me all at once.")
ShowMessage("At the same time, my consciousness fades into darkness.")
ShowMessageFace("",0,0,2,69)
ShowMessage("......")
242(2)
Wait(120)
ChangeVariable(1002,1002,0,0,0)
216(1)
355("forced_transfer(154,18,52)")
355("release_temp_actors")
355("$game_map.screen.clear")
0()
