// EVENT 2024
Name "Seduction: Bee Girl"

If(0,25,1)
 EndEventProcessing()
 0()
EndIf()
355("$game_troop.lose_event_id = 3024")
ChangeVariable(26,26,0,3,3,1,4)
ChangeVariable(26,26,4,0,10)
ShowMessageFace("mitubati_fc1",2,0,2,1)
ShowMessage("\\n<Bee Girl>I seem to be on the ropes...\nI don't think I can win at this rate.")
ShowMessageFace("mitubati_fc1",2,0,2,2)
ShowMessage("\\n<Bee Girl>Hey, I'll lick your penis.\nIf I do that, won't you let me go?")
ChangeSwitch(98,98,0)
ChangeSwitch(96,96,0)
ShowChoices(strings("Ignore her","Have her lick"),1)
IfPlayerPicksChoice(0,"無視する")
 ShowMessageFace("",0,0,2,3)
 ShowMessage("Luka resists her temptation!")
 RunCommonEvent(1999)
 EndEventProcessing()
 0()
IfPlayerPicksChoice(1,"舐めてもらう")
 0()
404()
ShowMessageFace("mitubati_fc1",1,0,2,4)
ShowMessage("\\n<Bee Girl>Hehe, then let me lick you.\nI'll give you a good taste of my tongue.")
250(bytes(0x04,0x08,0x6f,0x3a,0x0c,0x52,0x50,0x47,0x3a,0x3a,0x53,0x45,0x08,0x3a,0x0a,0x40,0x6e,0x61,0x6d,0x65,0x49,0x22,0x12,0x6d,0x6f,0x6e,0x5f,0x65,0x72,0x6f,0x5f,0x6b,0x6f,0x6b,0x69,0x31,0x06,0x3a,0x06,0x45,0x54,0x3a,0x0b,0x40,0x70,0x69,0x74,0x63,0x68,0x69,0x69,0x3a,0x0c,0x40,0x76,0x6f,0x6c,0x75,0x6d,0x65,0x69,0x69))
311(0,1,1,1,26,true)
ShowMessageFace("",0,0,2,5)
ShowMessage("The Bee Girl's tongue reaches out and licks Luka's penis!")
ShowMessage("Her rough tongue stimulates him!\\D")
ShowMessage("Luka takes \\V[26] damage!")
ChangeVariable(27,27,0,3,3,1,2)
If(1,27,0,0,0)
 JumpToLabel("射精1")
 0()
EndIf()
ShowMessageFace("mitubati_fc1",1,0,2,6)
ShowMessage("\\n<Bee Girl>I'll lick you lots, so just enjoy it ok?")
250(bytes(0x04,0x08,0x6f,0x3a,0x0c,0x52,0x50,0x47,0x3a,0x3a,0x53,0x45,0x08,0x3a,0x0a,0x40,0x6e,0x61,0x6d,0x65,0x49,0x22,0x12,0x6d,0x6f,0x6e,0x5f,0x65,0x72,0x6f,0x5f,0x6b,0x6f,0x6b,0x69,0x31,0x06,0x3a,0x06,0x45,0x54,0x3a,0x0b,0x40,0x70,0x69,0x74,0x63,0x68,0x69,0x69,0x3a,0x0c,0x40,0x76,0x6f,0x6c,0x75,0x6d,0x65,0x69,0x69))
311(0,1,1,1,26,true)
ShowMessageFace("",0,0,2,7)
ShowMessage("The Bee Girl's tongue licks Luka's penis!")
ShowMessage("Her tongue coils around the tip of his penis!\\D")
ShowMessage("Luka takes \\V[26] damage!")
ChangeVariable(27,27,0,3,3,1,2)
If(1,27,0,0,0)
 JumpToLabel("射精1")
 0()
EndIf()
ShowMessageFace("mitubati_fc1",1,0,2,8)
ShowMessage("\\n<Bee Girl>Hey, don't you want me to coil my tongue around it?\nIf I do, it will feel much better...")
ShowChoices(strings("Resist Temptation","Have her wrap it around"),1)
IfPlayerPicksChoice(0,"誘惑を振り払う")
 ShowMessageFace("",0,0,2,9)
 ShowMessage("Luka resists her temptation!")
 RunCommonEvent(1999)
 EndEventProcessing()
 0()
IfPlayerPicksChoice(1,"舌を巻き付けてもらう")
 ShowMessageFace("",0,0,2,10)
 ShowMessage("Luka surrenders to the pleasure...")
 0()
404()
ShowMessageFace("mitubati_fc1",1,0,2,11)
ShowMessage("\\n<Bee Girl>Hehe, you want me to wrap around it.\nIt will feel amazing, so be sure to come a lot...")
ChangeVariable(26,26,3,0,2)
250(bytes(0x04,0x08,0x6f,0x3a,0x0c,0x52,0x50,0x47,0x3a,0x3a,0x53,0x45,0x08,0x3a,0x0a,0x40,0x6e,0x61,0x6d,0x65,0x49,0x22,0x12,0x6d,0x6f,0x6e,0x5f,0x65,0x72,0x6f,0x5f,0x6b,0x6f,0x6b,0x69,0x31,0x06,0x3a,0x06,0x45,0x54,0x3a,0x0b,0x40,0x70,0x69,0x74,0x63,0x68,0x69,0x69,0x3a,0x0c,0x40,0x76,0x6f,0x6c,0x75,0x6d,0x65,0x69,0x69))
PictureDisplay(6,"ev_mitubati_ct01",0,0,0,0,100,100,255,0)
311(0,1,1,1,26,true)
ShowMessageFace("",0,0,2,12)
ShowMessage("Her tongue coils around Luka's penis!")
ShowMessage("His penis is wrapped up from root to tip!\\D")
ShowMessage("Luka takes \\V[26] damage!")
ChangeVariable(27,27,0,3,3,1,2)
If(1,27,0,0,0)
 JumpToLabel("射精2")
 0()
EndIf()
ShowMessageFace("mitubati_fc1",1,0,2,13)
ShowMessage("\\n<Bee Girl>Let me lick it all up...\nIsn't this pleasure captivating?")
250(bytes(0x04,0x08,0x6f,0x3a,0x0c,0x52,0x50,0x47,0x3a,0x3a,0x53,0x45,0x08,0x3a,0x0a,0x40,0x6e,0x61,0x6d,0x65,0x49,0x22,0x12,0x6d,0x6f,0x6e,0x5f,0x65,0x72,0x6f,0x5f,0x6b,0x6f,0x6b,0x69,0x31,0x06,0x3a,0x06,0x45,0x54,0x3a,0x0b,0x40,0x70,0x69,0x74,0x63,0x68,0x69,0x69,0x3a,0x0c,0x40,0x76,0x6f,0x6c,0x75,0x6d,0x65,0x69,0x69))
311(0,1,1,1,26,true)
ShowMessageFace("",0,0,2,14)
ShowMessage("Her coiled tongue gives Luka intense pleasure!")
ShowMessage("The saliva dripping off her tongue stimulates him!\\D")
ShowMessage("Luka takes \\V[26] damage!")
ChangeVariable(27,27,0,3,3,1,2)
If(1,27,0,0,0)
 JumpToLabel("射精2")
 0()
EndIf()
ShowMessageFace("mitubati_fc1",1,0,2,15)
ShowMessage("\\n<Bee Girl>I'll lick you all over...\nDon't hold back, just let it all go.")
250(bytes(0x04,0x08,0x6f,0x3a,0x0c,0x52,0x50,0x47,0x3a,0x3a,0x53,0x45,0x08,0x3a,0x0a,0x40,0x6e,0x61,0x6d,0x65,0x49,0x22,0x12,0x6d,0x6f,0x6e,0x5f,0x65,0x72,0x6f,0x5f,0x6b,0x6f,0x6b,0x69,0x31,0x06,0x3a,0x06,0x45,0x54,0x3a,0x0b,0x40,0x70,0x69,0x74,0x63,0x68,0x69,0x69,0x3a,0x0c,0x40,0x76,0x6f,0x6c,0x75,0x6d,0x65,0x69,0x69))
311(0,1,1,1,26,true)
ShowMessageFace("",0,0,2,16)
ShowMessage("Her tongue tightens around Luka's penis!")
ShowMessage("The sticky tongue forces pleasure into Luka!\\D")
ShowMessage("Luka takes \\V[26] damage!")
ChangeVariable(27,27,0,3,3,1,2)
If(1,27,0,0,0)
 JumpToLabel("射精2")
 0()
EndIf()
ShowMessageFace("mitubati_fc1",1,0,2,17)
ShowMessage("\\n<Bee Girl>Now for the finish...\nLeaked semen is sweeter than honey to me...")
250(bytes(0x04,0x08,0x6f,0x3a,0x0c,0x52,0x50,0x47,0x3a,0x3a,0x53,0x45,0x08,0x3a,0x0a,0x40,0x6e,0x61,0x6d,0x65,0x49,0x22,0x12,0x6d,0x6f,0x6e,0x5f,0x65,0x72,0x6f,0x5f,0x6b,0x6f,0x6b,0x69,0x31,0x06,0x3a,0x06,0x45,0x54,0x3a,0x0b,0x40,0x70,0x69,0x74,0x63,0x68,0x69,0x69,0x3a,0x0c,0x40,0x76,0x6f,0x6c,0x75,0x6d,0x65,0x69,0x69))
311(0,1,1,1,26,true)
ShowMessageFace("",0,0,2,18)
ShowMessage("Her lusting tongue attacks Luka's penis!")
ShowMessage("The tip of her tongue traces up and down the back of his penis!\\D")
ShowMessage("Luka takes \\V[26] damage!")
ChangeVariable(27,27,0,3,3,1,2)
If(1,27,0,0,0)
 JumpToLabel("射精2")
 0()
EndIf()
DefineLabel("射精1")
ShowMessageFace("",0,0,2,19)
ShowMessage("\\n<Luka>Oh no, I'm coming... Aaah...")
RunCommonEvent(104)
RunCommonEvent(105)
ShowMessageFace("",0,0,2,20)
ShowMessage("The Bee Girl forced me to come so quickly.")
ShowMessage("With only a little licking...")
ShowMessageFace("mitubati_fc1",1,0,2,21)
ShowMessage("\\n<Bee Girl>Ara, already came?\nJust after a little licking, too... How sad.")
RunCommonEvent(2000)
EndEventProcessing()
DefineLabel("射精2")
ShowMessageFace("",0,0,2,22)
ShowMessage("\\n<Luka>Amazing... It feels so good...\nAh, aaaah...!")
RunCommonEvent(104)
PictureDisplay(6,"ev_mitubati_ct02",0,0,0,0,100,100,255,0)
RunCommonEvent(105)
ShowMessageFace("",0,0,2,23)
ShowMessage("My penis pulses inside her coiled tongue.")
ShowMessage("Enraptured in pleasure, I reach climax.")
ShowMessageFace("mitubati_fc1",1,0,2,24)
ShowMessage("\\n<Bee Girl>Fufu, your semen is gushing out.\nA boy's semen is more delicious than any honey...")
ShowMessageFace("",0,0,2,25)
ShowMessage("The Bee Girl smiles at me, and continues licking.")
ShowMessage("She laps up every last drop of my semen like that...")
RunCommonEvent(2000)
EndEventProcessing()
0()
