﻿// EVENT 0079
Name "Skill: Play 391-400"

ChangeVariable(11,11,0,2,1,5)
If(1,100,0,391,0)
 If(1,11,0,1,0)
  ShowMessageFace("mefist_fc2",0,0,2,1)
  ShowMessage("\\n<Mephisto>It is important to have a frame of mind for battle...")
  ShowMessageFace("",0,0,2,2)
  ShowMessage("Mephisto began preaching!\n...But nobody was listening.")
  EndEventProcessing()
  0()
 EndIf()
 If(1,11,0,2,0)
  ShowMessageFace("mefist_fc2",1,0,2,3)
  ShowMessage("\\n<Mephisto>This is a spell I invented...Super Fire!")
  355("interrupt_skill(3306)")
  EndEventProcessing()
  0()
 EndIf()
 If(1,11,0,3,0)
  ShowMessageFace("mefist_fc2",2,0,2,4)
  ShowMessage("\\n<Mephisto>All the students ever do is talk back and forth with one another...")
  ShowMessageFace("",0,0,2,5)
  ShowMessage("Mephisto is complaining to herself...")
  EndEventProcessing()
  0()
 EndIf()
 If(1,11,0,4,0)
  ShowMessageFace("mefist_fc2",0,0,2,6)
  ShowMessage("\\n<Mephisto>Please take this, it is filled with energy.")
  ShowMessageFace("",0,0,2,7)
  ShowMessage("Mephisto presents a gift!")
  250(bytes(0x04,0x08,0x6f,0x3a,0x0c,0x52,0x50,0x47,0x3a,0x3a,0x53,0x45,0x08,0x3a,0x0a,0x40,0x6e,0x61,0x6d,0x65,0x49,0x22,0x0a,0x49,0x74,0x65,0x6d,0x31,0x06,0x3a,0x06,0x45,0x54,0x3a,0x0b,0x40,0x70,0x69,0x74,0x63,0x68,0x69,0x69,0x3a,0x0c,0x40,0x76,0x6f,0x6c,0x75,0x6d,0x65,0x69,0x55))
  ChangeInventory_Item(328,0,0,1)
  ShowMessageFace("",0,0,2,8)
  ShowMessage("You obtain an \\ii[328]!")
  EndEventProcessing()
  0()
 EndIf()
 If(1,11,0,5,0)
  ShowMessageFace("mefist_fc2",0,0,2,9)
  ShowMessage("\\n<Mephisto>I shall use this ultimate spell I invented...\nUltramephy!")
  ShowMessageFace("",0,0,2,10)
  ShowMessage("Mephisto casts Ultramephy!\n...But nothing happened.")
  EndEventProcessing()
  0()
 EndIf()
 0()
EndIf()
0()
