﻿// EVENT 3481
Name "ネメア"

PictureDisplay(5,"80_nemea_st01",0,0,0,0,100,100,0,0)
PictureMove(5,null,0,0,0,0,100,100,255,0,30,true)
241(bytes(0x04,0x08,0x6f,0x3a,0x0d,0x52,0x50,0x47,0x3a,0x3a,0x42,0x47,0x4d,0x08,0x3a,0x0a,0x40,0x6e,0x61,0x6d,0x65,0x49,0x22,0x09,0x65,0x72,0x6f,0x31,0x06,0x3a,0x06,0x45,0x54,0x3a,0x0c,0x40,0x76,0x6f,0x6c,0x75,0x6d,0x65,0x69,0x69,0x3a,0x0b,0x40,0x70,0x69,0x74,0x63,0x68,0x69,0x69))
ShowMessageFace("",0,0,2,1)
ShowMessage("\\n<Luka>")
ShowMessage("あぅぅぅ……")
ShowMessageFace("nemea_fc1",5,0,2,2)
ShowMessage("\\n<Nemea>")
ShowMessage("もうおしまいかしら？")
ShowMessage("それじゃあ、いただきまぁす……♡")
ShowMessageFace("",0,0,2,3)
ShowMessage("ネメアは、脱力した僕を強引に押し倒してきた。")
ShowMessage("そのまま、上にのしかかり――")
245(bytes(0x04,0x08,0x6f,0x3a,0x0d,0x52,0x50,0x47,0x3a,0x3a,0x42,0x47,0x53,0x08,0x3a,0x0a,0x40,0x6e,0x61,0x6d,0x65,0x49,0x22,0x1e,0x6d,0x6f,0x6e,0x5f,0x68,0x73,0x65,0x61,0x6e,0x30,0x35,0x5f,0x69,0x6e,0x6e,0x65,0x72,0x77,0x6f,0x72,0x6b,0x73,0x5f,0x61,0x35,0x06,0x3a,0x06,0x45,0x54,0x3a,0x0c,0x40,0x76,0x6f,0x6c,0x75,0x6d,0x65,0x69,0x55,0x3a,0x0b,0x40,0x70,0x69,0x74,0x63,0x68,0x69,0x69))
RunCommonEvent(104)
PictureDisplay(5,"ev_nemea_h01",0,0,0,0,100,100,255,0)
RunCommonEvent(105)
ShowMessageFace("",0,0,2,4)
ShowMessage("熱い肉壺にペニスが沈んだ瞬間――")
ShowMessage("肉棒は、一気に精液を吐き出していた。")
ShowMessageFace("",0,0,2,5)
ShowMessage("挿入直後の、一瞬での射精。")
ShowMessage("その強烈な快感は、1秒さえ耐える事を許さなかった――")
ShowMessageFace("",0,0,2,6)
ShowMessage("\\n<Luka>")
ShowMessage("あ……はぅ、うぅぅ……")
ShowMessageFace("nemea_fc1",5,0,2,7)
ShowMessage("\\n<Nemea>")
ShowMessage("あらあら、ごめんなさい……♡")
ShowMessage("秒殺しちゃったわね。")
ShowMessageFace("nemea_fc1",1,0,2,8)
ShowMessage("\\n<Nemea>")
ShowMessage("でも、恥ずかしがる必要はないわよ。")
ShowMessage("どんな子でも、みんなこうなっちゃうから……♪")
ShowMessageFace("",0,0,2,9)
ShowMessage("目を細めるネメアの体の下で、僕は快楽に悶える。")
ShowMessage("その肉壺は艶めかしくうねり、ペニスを甘く蕩かしていた。")
ShowMessageFace("",0,0,2,10)
ShowMessage("それはまさに、とろけそうな快感の中で昇天するかのよう。")
ShowMessage("甘い安らぎをもって、男を天国に誘う魔性の蜜壺だった――")
ShowMessageFace("",0,0,2,11)
ShowMessage("\\n<Luka>")
ShowMessage("はぅ……う、あぁぁ……")
ShowMessageFace("nemea_fc1",5,0,2,12)
ShowMessage("\\n<Nemea>")
ShowMessage("それじゃあ、一気に吸い尽くしてあげる。")
ShowMessage("さあ、天国に逝きなさい……♡")
ShowMessageFace("",0,0,2,13)
ShowMessage("\\n<Luka>")
ShowMessage("あ……あぁぁぁぁ～～！！")
PictureDisplay(5,"ev_nemea_h02",0,0,0,0,100,100,255,0)
ShowMessageFace("",0,0,2,14)
ShowMessage("ずきゅっ、ずきゅっ……と、精が一気に吸い上げられた。")
ShowMessage("凄まじい快感が、股間から全身へと駆け巡る。")
ShowMessageFace("",0,0,2,15)
ShowMessage("柔肉はペニスを包んだまま、じゅぶじゅぶと収縮した。")
ShowMessage("その強烈な快感に、僕はびくびくと腰を跳ね上げ――")
RunCommonEvent(104)
PictureDisplay(5,"ev_nemea_h03",0,0,0,0,100,100,255,0)
RunCommonEvent(105)
ShowMessageFace("",0,0,2,16)
ShowMessage("\\n<Luka>")
ShowMessage("はぅぅぅっ……！！")
ShowMessageFace("",0,0,2,17)
ShowMessage("そして、あっという間に射精していた。")
ShowMessage("圧倒的な吸精の快感に、一瞬で果てたのだ――")
PictureDisplay(5,"ev_nemea_h04",0,0,0,0,100,100,255,0)
ShowMessageFace("nemea_fc1",5,0,2,18)
ShowMessage("\\n<Nemea>")
ShowMessage("ふふふっ、気持ち良いでしょう？")
ShowMessage("このまま一気に、吸い尽くしてあげるわぁ……")
ShowMessageFace("",0,0,2,19)
ShowMessage("\\n<Luka>")
ShowMessage("や、やめ……はぅぅぅっ！！")
ShowMessageFace("",0,0,2,20)
ShowMessage("これまでの二度の射精で、脱力感は全身に広がっている。")
ShowMessage("命に関わるくらいまで、精気が吸われてしまったのだ。")
ShowMessageFace("",0,0,2,21)
ShowMessage("これは、ネメアにとっての食事。")
ShowMessage("僕は捕食者に押さえ込まれ、無慈悲に貪られているのだ――")
PictureDisplay(5,"ev_nemea_h05",0,0,0,0,100,100,255,0)
ShowMessageFace("",0,0,2,22)
ShowMessage("\\n<Luka>")
ShowMessage("だめ……し、死んじゃう……")
ShowMessageFace("nemea_fc1",5,0,2,23)
ShowMessage("\\n<Nemea>")
ShowMessage("うふふっ、大丈夫よ。")
ShowMessage("最期の瞬間まで、とっても気持ち良いから……")
ShowMessageFace("",0,0,2,24)
ShowMessage("\\n<Luka>")
ShowMessage("そんな……あ、あぅぅぅ……")
ShowMessageFace("",0,0,2,25)
ShowMessage("じゅぶぶっ……と、ペニスを狂おしく吸引する魔膣。")
ShowMessage("その甘い感触に、腰がびくんと跳ね上がり――")
RunCommonEvent(104)
PictureDisplay(5,"ev_nemea_h06",0,0,0,0,100,100,255,0)
RunCommonEvent(105)
ShowMessageFace("",0,0,2,26)
ShowMessage("大量の精液が、ネメアの膣内に溢れていった。")
ShowMessage("快楽と引き替えに、生命力がどっぷりと奪われていく。")
ShowMessageFace("",0,0,2,27)
ShowMessage("体が衰弱していくのが、自分でも感じ取れるほど。")
ShowMessage("生命そのものを貪られながら、僕は快楽に悶えた。")
PictureDisplay(5,"ev_nemea_h07",0,0,0,0,100,100,255,0)
ShowMessageFace("",0,0,2,28)
ShowMessage("\\n<Luka>")
ShowMessage("あ……うぅぅぅ……")
ShowMessageFace("nemea_fc1",5,0,2,29)
ShowMessage("\\n<Nemea>")
ShowMessage("あら……まだ息があるの？")
ShowMessage("あれで死なないなんて、流石勇者くんね♡")
ShowMessageFace("nemea_fc1",5,0,2,30)
ShowMessage("\\n<Nemea>")
ShowMessage("とっても……遊びがいがあるわぁ……♡")
ShowMessage("それじゃあ……これはどうかしら♡")
ShowMessageFace("",0,0,2,31)
ShowMessage("\\n<Luka>")
ShowMessage("あひ……ひぁぁぁぁ～～！！")
ShowMessageFace("",0,0,2,32)
ShowMessage("ぎゅぅぅっ……と、肉壺が甘く狂おしくペニスを締め付ける。")
ShowMessage("精を吸い上げる快感は、ますます鮮明となり――")
RunCommonEvent(104)
PictureDisplay(5,"ev_nemea_h08",0,0,0,0,100,100,255,0)
RunCommonEvent(105)
ShowMessageFace("",0,0,2,33)
ShowMessage("そして、たちまち大量の精が迸った。")
ShowMessage("同時に精気が搾取され、ますます体から力が失われる――")
ShowMessageFace("",0,0,2,34)
ShowMessage("\\n<Luka>")
ShowMessage("はぅ……ふぁぁぁ……")
ShowMessageFace("",0,0,2,35)
ShowMessage("生きたまま、生命を貪られながら――")
ShowMessage("僕は、その狂おしい快楽に溺れつつあった。")
ShowMessageFace("",0,0,2,36)
ShowMessage("もっと、この快感を味わいたい――")
ShowMessage("もっともっと、ネメアに命を貪ってほしい――")
ShowMessageFace("",0,0,2,37)
ShowMessage("\\n<Luka>")
ShowMessage("あぅぅ……も、もっと……吸ってぇ……")
ShowMessageFace("nemea_fc1",1,0,2,38)
ShowMessage("\\n<Nemea>")
ShowMessage("うふふっ、いいわよ……♡")
ShowMessage("勇者くん、いっぱい頑張ったものね……♡")
ShowMessageFace("nemea_fc1",1,0,2,39)
ShowMessage("\\n<Nemea>")
ShowMessage("たくさん幸せになれるように、望み通りにしてあげる♡")
ShowMessage("ほぉら、こういうのはどう……？")
PictureDisplay(5,"ev_nemea_h09",0,0,0,0,100,100,255,0)
ShowMessageFace("",0,0,2,40)
ShowMessage("\\n<Luka>")
ShowMessage("ひぁ……あひぃぃぃぃ～～！！")
ShowMessageFace("",0,0,2,41)
ShowMessage("強烈な吸精感に、僕は悲鳴を上げた。")
ShowMessage("快楽の電流が、全身を駆け巡るかのようだ。")
ShowMessageFace("",0,0,2,42)
ShowMessage("腰がびくびくと跳ね上がり――")
ShowMessage("ペニスが、肉壺の中でひくひく脈動し――")
RunCommonEvent(104)
RunCommonEvent(105)
ShowMessageFace("",0,0,2,43)
ShowMessage("そして、大量の精液がどっぷりと溢れ出る。")
ShowMessage("体からは力が抜け、意識も胡乱になるほどだ――")
PictureDisplay(5,"ev_nemea_h10",0,0,0,0,100,100,255,0)
ShowMessageFace("",0,0,2,44)
ShowMessage("\\n<Luka>")
ShowMessage("ぅぁ……ぁぅぅ……")
ShowMessageFace("nemea_fc1",5,0,2,45)
ShowMessage("\\n<Nemea>")
ShowMessage("あらあら、今のでまだ生きてるなんて……")
ShowMessageFace("nemea_fc1",5,0,2,46)
ShowMessage("\\n<Nemea>")
ShowMessage("かわいくて、丈夫で……そして、美味しくて……")
ShowMessage("このまま私のモノにしたいくらい……♡")
ShowMessageFace("nemea_fc1",5,0,2,47)
ShowMessage("\\n<Nemea>")
ShowMessage("でも、お姉さん他にも食べたい子がたくさんいるの……♡")
ShowMessage("だから、最期は一気に……一番気持ち良くしてあげるわ♡")
ShowMessageFace("",0,0,2,48)
ShowMessage("\\n<Luka>")
ShowMessage("ぅ……ぅぅぅ……")
ShowMessageFace("nemea_fc1",5,0,2,49)
ShowMessage("\\n<Nemea>")
ShowMessage("さあ、これで昇天しちゃいなさい……♡")
PictureDisplay(5,"ev_nemea_h11",0,0,0,0,100,100,255,0)
ShowMessageFace("",0,0,2,50)
ShowMessage("\\n<Luka>")
ShowMessage("あぎ……あ、ひぁぁぁぁぁ～～！！")
ShowMessageFace("",0,0,2,51)
ShowMessage("甘く狂おしく、ペニスが――そして生命が貪られる。")
ShowMessage("魔膣はじゅぶじゅぶと収縮し、破滅的な快楽を与えてきた。")
ShowMessageFace("",0,0,2,52)
ShowMessage("僕は末期の悦びに悶え、腰をガクガクと跳ね上げ――")
ShowMessageFace("",0,0,2,53)
ShowMessage("\\n<Luka>")
ShowMessage("はぅ……うぅぅぅっ……！！")
RunCommonEvent(104)
PictureDisplay(5,"ev_nemea_h12",0,0,0,0,100,100,255,0)
RunCommonEvent(105)
ShowMessageFace("",0,0,2,54)
ShowMessage("そして、ひときわ大量の精液をネメアの膣内に噴き上げた。")
ShowMessage("僕に残されていた、最期の生命の迸りを――")
ShowMessageFace("nemea_fc1",5,0,2,55)
ShowMessage("\\n<Nemea>")
ShowMessage("うふふっ、それが最期の快楽よ。")
ShowMessage("ほら……お姉さんが残さず食べてあげるから……")
ShowMessageFace("nemea_fc1",5,0,2,56)
ShowMessage("\\n<Nemea>")
ShowMessage("おやすみするまで、い～っぱい気持ちよくなってね……♡")
ShowMessageFace("",0,0,2,57)
ShowMessage("全身がドロドロにとろけそうなほどの快楽。")
ShowMessage("魂まで抜けていくような、心地良い放出感――")
ShowMessageFace("",0,0,2,58)
ShowMessage("\\n<Luka>")
ShowMessage("ぅぁ……ぁ……")
ShowMessageFace("",0,0,2,59)
ShowMessage("そして、体から力が完全に失われた。")
ShowMessage("意識さえ、甘い夢の中に消え果てていき――")
PictureDisplay(5,"ev_nemea_h13",0,0,0,0,100,100,255,0)
246(2)
ShowMessageFace("nemea_fc1",5,0,2,60)
ShowMessage("\\n<Nemea>")
ShowMessage("ごちそうさま……うふふっ。")
ShowMessageFace("",0,0,2,61)
ShowMessage("ネメアの体の下には、涸れ果てた体が横たわっていた。")
ShowMessage("死ぬまで精気を吸い尽くされ、勇者は息絶えたのである――")
221()
PictureClear(5)
PictureClear(6)
246(2)
ShowMessageFace("",0,0,2,62)
ShowMessage("・・・・・・・・")
221()
242(1)
Wait(120)
ShowChoices(strings("難易度を変更する","輪廻に戻る"),2)
IfPlayerPicksChoice(0,null)
 ShowMessageFace("",0,0,2,63)
 ShowMessage("難易度を選択して下さい。")
 RunCommonEvent(110)
 0()
IfPlayerPicksChoice(1,null)
 0()
404()
RunCommonEvent(2999)
0()
