// EVENT 2023
Name "Seduction: Orc Girl"

If(0,25,1)
 EndEventProcessing()
 0()
EndIf()
355("$game_troop.lose_event_id = 3023")
ChangeVariable(26,26,0,3,3,1,4)
ChangeVariable(26,26,4,0,10)
ShowMessageFace("orc_fc1",2,0,2,1)
ShowMessage("\\n<Orc Girl>...I'm just a miserable little pig bitch.\nI'm just a tool to use to fuck and release your sexual desires.")
ShowMessageFace("",0,0,2,2)
ShowMessage("The Orc Girl kneels down and points to her mouth.")
ShowMessageFace("orc_fc1",0,0,2,3)
ShowMessage("\\n<Orc Girl>I'll serve your dick with my mouth!\nSo please have mercy on this miserable pig bitch.")
ChangeSwitch(98,98,0)
ChangeSwitch(96,96,0)
ShowChoices(strings("Ignore her","Have her suck"),1)
IfPlayerPicksChoice(0,"無視する")
 ShowMessageFace("",0,0,2,4)
 ShowMessage("Luka resists her temptation!")
 RunCommonEvent(1999)
 EndEventProcessing()
 0()
IfPlayerPicksChoice(1,"咥えてもらう")
 0()
404()
ShowMessageFace("",0,0,2,5)
ShowMessage("Invited, Luka brings his penis close to the Orc Girl's mouth.")
ShowMessageFace("orc_fc1",1,0,2,6)
ShowMessage("\\n<Orc Girl>Buhihi... You'll spare my life, right?\nThen as thanks, I'll suck you hard~♪")
250(bytes(0x04,0x08,0x6f,0x3a,0x0c,0x52,0x50,0x47,0x3a,0x3a,0x53,0x45,0x08,0x3a,0x0a,0x40,0x6e,0x61,0x6d,0x65,0x49,0x22,0x11,0x6d,0x6f,0x6e,0x5f,0x65,0x72,0x6f,0x5f,0x70,0x79,0x75,0x31,0x06,0x3a,0x06,0x45,0x54,0x3a,0x0b,0x40,0x70,0x69,0x74,0x63,0x68,0x69,0x69,0x3a,0x0c,0x40,0x76,0x6f,0x6c,0x75,0x6d,0x65,0x69,0x69))
PictureDisplay(5,"ev_orc_ct01",0,0,0,0,100,100,255,0)
311(0,1,1,1,26,true)
ShowMessageFace("",0,0,2,7)
ShowMessage("The Orc Girl closes her lips around Luka's glans!")
ShowMessage("Her thick lips kiss his penis!\\D")
ShowMessage("Luka takes \\V[26] damage!")
ChangeVariable(27,27,0,3,3,1,2)
If(1,27,0,0,0)
 JumpToLabel("射精1")
 0()
EndIf()
ShowMessageFace("orc_fc1",1,0,2,8)
ShowMessage("\\n<Orc Girl>Nnnn... Chyuuu...")
250(bytes(0x04,0x08,0x6f,0x3a,0x0c,0x52,0x50,0x47,0x3a,0x3a,0x53,0x45,0x08,0x3a,0x0a,0x40,0x6e,0x61,0x6d,0x65,0x49,0x22,0x13,0x6d,0x6f,0x6e,0x5f,0x65,0x72,0x6f,0x5f,0x63,0x68,0x75,0x70,0x61,0x31,0x06,0x3a,0x06,0x45,0x54,0x3a,0x0b,0x40,0x70,0x69,0x74,0x63,0x68,0x69,0x69,0x3a,0x0c,0x40,0x76,0x6f,0x6c,0x75,0x6d,0x65,0x69,0x69))
PictureDisplay(5,"ev_orc_ct01",0,0,0,0,100,100,255,0)
311(0,1,1,1,26,true)
ShowMessageFace("",0,0,2,9)
ShowMessage("The Orc Girl slowly kisses and sucks on the tip of Luka's penis!\\D")
ShowMessage("Luka takes \\V[26] damage!")
ChangeVariable(27,27,0,3,3,1,2)
If(1,27,0,0,0)
 JumpToLabel("射精1")
 0()
EndIf()
ShowMessageFace("orc_fc1",1,0,2,10)
ShowMessage("\\n<Orc Girl>Does your penis feel good?\nI want to suck it even more...")
ShowMessageFace("orc_fc1",1,0,2,11)
ShowMessage("\\n<Orc Girl>Just let me suck it a little more, please?")
ShowChoices(strings("Resist Temptation","Let her suck"),1)
IfPlayerPicksChoice(0,"誘惑を振り払う")
 ShowMessageFace("",0,0,2,12)
 ShowMessage("Luka resists her temptation!")
 RunCommonEvent(1999)
 EndEventProcessing()
 0()
IfPlayerPicksChoice(1,"吸い付いてもらう")
 ShowMessageFace("",0,0,2,13)
 ShowMessage("Luka surrenders to the pleasure...")
 0()
404()
ShowMessageFace("orc_fc1",1,0,2,14)
ShowMessage("\\n<Orc Girl>Buhihi...\nThen let me suck some more...")
ChangeVariable(26,26,3,0,2)
250(bytes(0x04,0x08,0x6f,0x3a,0x0c,0x52,0x50,0x47,0x3a,0x3a,0x53,0x45,0x08,0x3a,0x0a,0x40,0x6e,0x61,0x6d,0x65,0x49,0x22,0x13,0x6d,0x6f,0x6e,0x5f,0x65,0x72,0x6f,0x5f,0x62,0x75,0x63,0x68,0x75,0x31,0x06,0x3a,0x06,0x45,0x54,0x3a,0x0b,0x40,0x70,0x69,0x74,0x63,0x68,0x69,0x69,0x3a,0x0c,0x40,0x76,0x6f,0x6c,0x75,0x6d,0x65,0x69,0x69))
PictureDisplay(5,"ev_orc_ct02",0,0,0,0,100,100,255,0)
311(0,1,1,1,26,true)
ShowMessageFace("",0,0,2,15)
ShowMessage("The Orc Girl slowly sucks on Luka's penis!\\D")
ShowMessage("Luka takes \\V[26] damage!")
ChangeVariable(27,27,0,3,3,1,2)
If(1,27,0,0,0)
 JumpToLabel("射精2")
 0()
EndIf()
ShowMessageFace("orc_fc1",1,0,2,16)
ShowMessage("\\n<Orc Girl>*Suck* *Suck*\nLet me show you a pig bitch's vacuum blowjob!")
250(bytes(0x04,0x08,0x6f,0x3a,0x0c,0x52,0x50,0x47,0x3a,0x3a,0x53,0x45,0x08,0x3a,0x0a,0x40,0x6e,0x61,0x6d,0x65,0x49,0x22,0x13,0x6d,0x6f,0x6e,0x5f,0x65,0x72,0x6f,0x5f,0x62,0x75,0x63,0x68,0x75,0x31,0x06,0x3a,0x06,0x45,0x54,0x3a,0x0b,0x40,0x70,0x69,0x74,0x63,0x68,0x69,0x69,0x3a,0x0c,0x40,0x76,0x6f,0x6c,0x75,0x6d,0x65,0x69,0x69))
311(0,1,1,1,26,true)
ShowMessageFace("",0,0,2,17)
ShowMessage("The Orc Girl sucks on Luka like a vacuum!")
ShowMessage("Her soft, sweet lips around his dick bring intense pleasure!\\D")
ShowMessage("Luka takes \\V[26] damage!")
ChangeVariable(27,27,0,3,3,1,2)
If(1,27,0,0,0)
 JumpToLabel("射精2")
 0()
EndIf()
ShowMessageFace("",0,0,2,18)
ShowMessage("\\n<Luka>Aaah...Amazing...")
ShowChoices(strings("Resist Temptation","Let her make you come"),1)
IfPlayerPicksChoice(0,"誘惑を振り払う")
 ShowMessageFace("",0,0,2,19)
 ShowMessage("But the Orc Girl doesn't let his penis go!")
 ShowMessageFace("orc_fc1",1,0,2,20)
 ShowMessage("\\n<Orc Girl>Buhihi, you can't run any more.\nI'm going to make you come *Suck*♪")
 0()
IfPlayerPicksChoice(1,"このままイかせてもらう")
 ShowMessageFace("",0,0,2,21)
 ShowMessage("Luka surrenders to the pleasure...")
 ShowMessageFace("orc_fc1",1,0,2,22)
 ShowMessage("\\n<Orc Girl>Buhihi... Men can't withstand a good blowjob.\nNow, time to make you come!")
 0()
404()
250(bytes(0x04,0x08,0x6f,0x3a,0x0c,0x52,0x50,0x47,0x3a,0x3a,0x53,0x45,0x08,0x3a,0x0a,0x40,0x6e,0x61,0x6d,0x65,0x49,0x22,0x13,0x6d,0x6f,0x6e,0x5f,0x65,0x72,0x6f,0x5f,0x62,0x75,0x63,0x68,0x75,0x31,0x06,0x3a,0x06,0x45,0x54,0x3a,0x0b,0x40,0x70,0x69,0x74,0x63,0x68,0x69,0x69,0x3a,0x0c,0x40,0x76,0x6f,0x6c,0x75,0x6d,0x65,0x69,0x69))
PictureDisplay(5,"ev_orc_ct02",0,0,0,0,100,100,255,0)
311(0,1,1,1,26,true)
ShowMessageFace("",0,0,2,23)
ShowMessage("The Orc Girl sucks on Luka's penis with a wet noise!")
ShowMessage("Her wet, soft lips overwhelm him!\\D")
ShowMessage("Luka takes \\V[26] damage!")
ChangeVariable(27,27,0,3,3,1,2)
If(1,27,0,0,0)
 JumpToLabel("射精2")
 0()
EndIf()
ShowMessageFace("orc_fc1",1,0,2,24)
ShowMessage("\\n<Orc Girl>Buhi, this is the finish.\nYou'll reach heaven with my vacuum blowjob~♪")
250(bytes(0x04,0x08,0x6f,0x3a,0x0c,0x52,0x50,0x47,0x3a,0x3a,0x53,0x45,0x08,0x3a,0x0a,0x40,0x6e,0x61,0x6d,0x65,0x49,0x22,0x13,0x6d,0x6f,0x6e,0x5f,0x65,0x72,0x6f,0x5f,0x62,0x75,0x63,0x68,0x75,0x31,0x06,0x3a,0x06,0x45,0x54,0x3a,0x0b,0x40,0x70,0x69,0x74,0x63,0x68,0x69,0x69,0x3a,0x0c,0x40,0x76,0x6f,0x6c,0x75,0x6d,0x65,0x69,0x69))
311(0,1,1,1,26,true)
ShowMessageFace("",0,0,2,25)
ShowMessage("With her lips on the tip of Luka's penis, the Orc Girl sucks as hard as she can!")
ShowMessage("The stimulation causes Luka's body to go numb in pleasure!\\D")
ShowMessage("Luka takes \\V[26] damage!")
ChangeVariable(27,27,0,3,3,1,2)
If(1,27,0,0,0)
 JumpToLabel("射精2")
 0()
EndIf()
DefineLabel("射精1")
ShowMessageFace("",0,0,2,26)
ShowMessage("\\n<Luka>Aaah...I'm coming...")
RunCommonEvent(104)
PictureDisplay(5,"ev_orc_ct03",0,0,0,0,100,100,255,0)
RunCommonEvent(105)
ShowMessageFace("",0,0,2,27)
ShowMessage("With barely any stimulation, Luka comes.")
ShowMessage("His body shakes as he's forced to orgasm so easily.")
ShowMessageFace("orc_fc1",1,0,2,28)
ShowMessage("\\n<Orc Girl>Buhihi, you already came?\nIt's pretty pathetic to come just from a kiss.")
RunCommonEvent(2000)
EndEventProcessing()
DefineLabel("射精2")
ShowMessageFace("",0,0,2,29)
ShowMessage("\\n<Luka>No, don't suck while I come...!")
RunCommonEvent(104)
PictureDisplay(5,"ev_orc_ct03",0,0,0,0,100,100,255,0)
RunCommonEvent(105)
ShowMessageFace("",0,0,2,30)
ShowMessage("Luka squirms as she continues sucking during his ejaculation.")
ShowMessage("It's as if she's sucking out his very soul.")
ShowMessageFace("orc_fc1",1,0,2,31)
ShowMessage("\\n<Orc Girl>Buhihi...\nAren't you ashamed to come in the mouth of a bitch pig woman?")
RunCommonEvent(2000)
EndEventProcessing()
0()
