﻿


EVENT   2
 PAGE   1
  250(bytes(0x04,0x08,0x6f,0x3a,0x0c,0x52,0x50,0x47,0x3a,0x3a,0x53,0x45,0x08,0x3a,0x0a,0x40,0x6e,0x61,0x6d,0x65,0x49,0x22,0x09,0x4d,0x6f,0x76,0x65,0x06,0x3a,0x06,0x45,0x54,0x3a,0x0b,0x40,0x70,0x69,0x74,0x63,0x68,0x69,0x69,0x3a,0x0c,0x40,0x76,0x6f,0x6c,0x75,0x6d,0x65,0x69,0x55))
  TeleportPlayer(0,910,7,6,0,0)
  0()



EVENT   1
 PAGE   1
  250(bytes(0x04,0x08,0x6f,0x3a,0x0c,0x52,0x50,0x47,0x3a,0x3a,0x53,0x45,0x08,0x3a,0x0a,0x40,0x6e,0x61,0x6d,0x65,0x49,0x22,0x09,0x4d,0x6f,0x76,0x65,0x06,0x3a,0x06,0x45,0x54,0x3a,0x0b,0x40,0x70,0x69,0x74,0x63,0x68,0x69,0x69,0x3a,0x0c,0x40,0x76,0x6f,0x6c,0x75,0x6d,0x65,0x69,0x55))
  TeleportPlayer(0,918,7,1,0,0)
  0()



EVENT   3
 PAGE   1
  241(bytes(0x04,0x08,0x6f,0x3a,0x0d,0x52,0x50,0x47,0x3a,0x3a,0x42,0x47,0x4d,0x08,0x3a,0x0a,0x40,0x6e,0x61,0x6d,0x65,0x49,0x22,0x12,0x73,0x63,0x65,0x6e,0x65,0x5f,0x62,0x61,0x74,0x74,0x6c,0x65,0x31,0x06,0x3a,0x06,0x45,0x54,0x3a,0x0c,0x40,0x76,0x6f,0x6c,0x75,0x6d,0x65,0x69,0x69,0x3a,0x0b,0x40,0x70,0x69,0x74,0x63,0x68,0x69,0x69))
  355("keep_all_equip")
  355("set_temp_actors(819,823,802,801,825,814)")
  355("persona_change(825)")
  314(0,0)
  205(-1,bytes(0x04,0x08,0x6f,0x3a,0x13,0x52,0x50,0x47,0x3a,0x3a,0x4d,0x6f,0x76,0x65,0x52,0x6f,0x75,0x74,0x65,0x09,0x3a,0x0c,0x40,0x72,0x65,0x70,0x65,0x61,0x74,0x46,0x3a,0x0f,0x40,0x73,0x6b,0x69,0x70,0x70,0x61,0x62,0x6c,0x65,0x46,0x3a,0x0a,0x40,0x77,0x61,0x69,0x74,0x54,0x3a,0x0a,0x40,0x6c,0x69,0x73,0x74,0x5b,0x07,0x6f,0x3a,0x15,0x52,0x50,0x47,0x3a,0x3a,0x4d,0x6f,0x76,0x65,0x43,0x6f,0x6d,0x6d,0x61,0x6e,0x64,0x07,0x3a,0x0a,0x40,0x63,0x6f,0x64,0x65,0x69,0x18,0x3a,0x10,0x40,0x70,0x61,0x72,0x61,0x6d,0x65,0x74,0x65,0x72,0x73,0x5b,0x00,0x6f,0x3b,0x0a,0x07,0x3b,0x0b,0x69,0x00,0x3b,0x0c,0x5b,0x00))
  222()
  Wait(60)
  ShowMessageFace("",0,0,2,1)
  ShowMessage("グランドノア地下牢で、ターサを救出したものの――")
  ShowMessage("魔城トゥーロマンサが、この世界に召喚されてしまった。")
  ShowMessageFace("",0,0,2,2)
  ShowMessage("襲い来る多数の夢魔達、そして新たなる仲間――")
  ShowMessage("この窮地を切り抜け、魔城から脱出しなければならない。")
  PictureDisplay(5,"80_succubusm_st01",0,0,0,0,100,100,0,0)
  PictureMove(5,null,0,0,0,0,100,100,255,0,30,true)
  ShowMessageFace("rest_fc1",0,0,2,3)
  ShowMessage("\\n<Lest>")
  ShowMessage("はっ……！")
  250(bytes(0x04,0x08,0x6f,0x3a,0x0c,0x52,0x50,0x47,0x3a,0x3a,0x53,0x45,0x08,0x3a,0x0a,0x40,0x6e,0x61,0x6d,0x65,0x49,0x22,0x11,0x6d,0x6f,0x6e,0x5f,0x6b,0x61,0x72,0x61,0x62,0x75,0x72,0x69,0x06,0x3a,0x06,0x45,0x54,0x3a,0x0b,0x40,0x70,0x69,0x74,0x63,0x68,0x69,0x69,0x3a,0x0c,0x40,0x76,0x6f,0x6c,0x75,0x6d,0x65,0x69,0x69))
  ShowMessageFace("",0,0,2,4)
  ShowMessage("夢魔に対し、僕は剣で突きを繰り出すが――")
  ShowMessageFace("succubusm_fc1",0,0,2,5)
  ShowMessage("\\n<サキュバス>")
  ShowMessage("それじゃあ、ダメ……")
  ShowMessage("もっと別なので突いてくれない？")
  ShowMessageFace("rest_fc1",0,0,2,6)
  ShowMessage("\\n<Lest>")
  ShowMessage("やはり、効かないか……！")
  ShowMessageFace("rovissa_fc1",0,0,2,7)
  ShowMessage("\\n<Rovissa>")
  ShowMessage("レスト……だったっけ？")
  ShowMessage("あなたは支援に専念して！")
  ShowMessageFace("rest_fc1",0,0,2,8)
  ShowMessage("\\n<Lest>")
  ShowMessage("ああ……分かった！")
  ShowMessageFace("",0,0,2,9)
  ShowMessage("ノビッサやラルスのようなセックスバトルの力――")
  ShowMessage("それを、僕は持っていないのだ。")
  PictureClear(5)
  Wait(30)
  212(-1,856,false)
  Wait(30)
  ChangeSwitch(31,31,0)
  PictureDisplay(5,"80_succubusm_st01",0,0,-150,0,100,100,0,0)
  PictureDisplay(6,"80_succubusm_st01",0,0,150,0,100,100,0,0)
  PictureMove(5,null,0,0,-150,0,100,100,255,0,30,false)
  PictureMove(6,null,0,0,150,0,100,100,255,0,30,true)
  ShowMessageFace("succubusm_fc1",0,0,2,10)
  ShowMessage("\\n<サキュバス>")
  ShowMessage("うふふっ、遊びましょう……")
  ShowMessageFace("",0,0,2,11)
  ShowMessage("夢魔はさらに数を増やした！")
  ShowMessageFace("tarsa_fc2",2,0,2,12)
  ShowMessage("\\n<Tarsa>")
  ShowMessage("ちょっとぉ、まだ来るのぉ……？")
  ShowMessage("せめて三人ずつ……ね？")
  ShowMessageFace("nobissa_fc1",0,0,2,13)
  ShowMessage("\\n<Novissa>")
  ShowMessage("…………！！")
  PictureClear(5)
  PictureClear(6)
  Battle(0,1368,false,false)
  ChangeSwitch(32,32,0)
  ShowMessageFace("rovissa_fc1",0,0,2,14)
  ShowMessage("\\n<Rovissa>")
  ShowMessage("流石に、かなり数が減ってきたわね。")
  ShowMessage("もう少しよ……！")
  ShowMessageFace("lars_fc01",0,0,2,15)
  ShowMessage("\\n<Lars>")
  ShowMessage("…………！！")
  Battle(0,1369,false,false)
  ChangeSwitch(33,33,0)
  ShowMessageFace("daimeikai_fc1",1,0,2,16)
  ShowMessage("\\n<Daimyokai>")
  ShowMessage("これでタダ働きかよ……")
  ShowMessage("誰ぞから報酬もらえんのか？")
  ShowMessageFace("rest_fc1",0,0,2,17)
  ShowMessage("\\n<Lest>")
  ShowMessage("敵は残り少数だ……")
  ShowMessage("みんな、がんばってくれ！")
  Battle(0,1369,false,false)
  ChangeSwitch(31,31,1)
  ChangeSwitch(32,32,1)
  ChangeSwitch(33,33,1)
  ChangeVariable(1209,1209,0,0,1)
  241(bytes(0x04,0x08,0x6f,0x3a,0x0d,0x52,0x50,0x47,0x3a,0x3a,0x42,0x47,0x4d,0x08,0x3a,0x0a,0x40,0x6e,0x61,0x6d,0x65,0x49,0x22,0x14,0x73,0x63,0x65,0x6e,0x65,0x5f,0x65,0x70,0x69,0x6c,0x6f,0x67,0x75,0x65,0x32,0x06,0x3a,0x06,0x45,0x54,0x3a,0x0c,0x40,0x76,0x6f,0x6c,0x75,0x6d,0x65,0x69,0x69,0x3a,0x0b,0x40,0x70,0x69,0x74,0x63,0x68,0x69,0x69))
  ShowMessageFace("rovissa_fc1",0,0,2,18)
  ShowMessage("\\n<Rovissa>")
  ShowMessage("ざっと、こんなものね。")
  ShowMessageFace("tarsa_fc2",0,0,2,19)
  ShowMessage("\\n<Tarsa>")
  ShowMessage("うふふっ、気持ち良かった……♡")
  ShowMessageFace("lars_fc01",0,0,2,20)
  ShowMessage("\\n<Lars>")
  ShowMessage("……………………")
  ShowMessageFace("",0,0,2,21)
  ShowMessage("激戦の後、ようやく夢魔の群れを撃退した。")
  ShowMessage("あれだけの敵を倒すなんて、心強い仲間達だ――")
  PictureDisplay(5,"80_rovissa_st01",0,0,0,0,100,100,0,0)
  PictureMove(5,null,0,0,0,0,100,100,255,0,30,true)
  ShowMessageFace("rovissa_fc1",0,0,2,22)
  ShowMessage("\\n<Rovissa>")
  ShowMessage("魔城の召喚は阻止できなかったけど……")
  ShowMessage("二人の勇者に出会えたのは、ラッキーだったわね。")
  PictureDisplay(5,"80_daimeikai_st01",0,0,0,0,100,100,255,0)
  ShowMessageFace("daimeikai_fc1",1,0,2,23)
  ShowMessage("\\n<Daimyokai>")
  ShowMessage("だが、この状況は厄介だな。")
  ShowMessage("魔城の地下深くに、少数で孤立状態だぜ。")
  ShowMessageFace("daimeikai_fc1",1,0,2,24)
  ShowMessage("\\n<Daimyokai>")
  ShowMessage("敵の第一波は乗り切ったが……")
  ShowMessage("まだまだ、襲ってくるはずだしな。")
  ShowMessageFace("rest_fc1",0,0,2,25)
  ShowMessage("\\n<Lest>")
  ShowMessage("追い込まれる前に、ここから脱出しよう。")
  PictureDisplay(5,"80_lars_st11",0,0,-150,0,100,100,255,0)
  PictureDisplay(6,"80_nobissa_st01",0,0,150,0,100,100,255,0)
  ShowMessageFace("lars_fc01",0,0,2,26)
  ShowMessage("\\n<Lars>")
  ShowMessage("……………………")
  ShowMessageFace("nobissa_fc1",0,0,2,27)
  ShowMessage("\\n<Novissa>")
  ShowMessage("……………………")
  ShowMessageFace("",0,0,2,28)
  ShowMessage("ラルスとノビッサが、無言のまま頷く。")
  ShowMessage("非常に寡黙な二人だが、実に心強い。")
  ShowMessageFace("daimeikai_fc1",1,0,2,29)
  ShowMessage("\\n<Daimyokai>")
  ShowMessage("なあ、お前ら……")
  ShowMessage("なんか、性格（キャラ）かぶってないか？")
  ShowMessageFace("lars_fc01",0,0,2,30)
  ShowMessage("\\n<Lars>")
  ShowMessage("…………！？")
  ShowMessageFace("nobissa_fc1",0,0,2,31)
  ShowMessage("\\n<Novissa>")
  ShowMessage("…………！？")
  ShowMessageFace("rovissa_fc1",0,0,2,32)
  ShowMessage("\\n<Rovissa>")
  ShowMessage("……失礼なこと言わないでよね。")
  ShowMessage("さっさと行くわよ！")
  ShowMessageFace("rest_fc1",0,0,2,33)
  ShowMessage("\\n<Lest>")
  ShowMessage("ああ……早くここから脱出しよう。")
  PictureClear(5)
  PictureClear(6)
  ShowMessageFace("",0,0,2,34)
  ShowMessage("ここは魔城の深部、かなり危険な道のりになるはず。")
  ShowMessage("力を合わせ、先に進むしかない――")
  221()
  ChangeSwitch(2959,2959,0)
  314(0,0)
  TeleportPlayer(0,919,20,25,2,2)
  222()
  241(bytes(0x04,0x08,0x6f,0x3a,0x0d,0x52,0x50,0x47,0x3a,0x3a,0x42,0x47,0x4d,0x08,0x3a,0x0a,0x40,0x6e,0x61,0x6d,0x65,0x49,0x22,0x08,0x63,0x62,0x31,0x06,0x3a,0x06,0x45,0x54,0x3a,0x0c,0x40,0x76,0x6f,0x6c,0x75,0x6d,0x65,0x69,0x69,0x3a,0x0b,0x40,0x70,0x69,0x74,0x63,0x68,0x69,0x69))
  EndEventProcessing()
  0()
 PAGE   2
  // condition: variable 1209 >= 1
  0()



EVENT   4
 PAGE   1
  // condition: switch 31 is ON
  0()
 PAGE   2
  // condition: switch 33 is ON
  0()
 PAGE   3
  // condition: variable 1209 >= 1
  0()



EVENT   5
 PAGE   1
  0()
 PAGE   2
  // condition: variable 1209 >= 1
  0()



EVENT   6
 PAGE   1
  // condition: switch 31 is ON
  0()
 PAGE   2
  // condition: switch 32 is ON
  0()
 PAGE   3
  // condition: variable 1209 >= 1
  0()



EVENT   7
 PAGE   1
  0()
 PAGE   2
  // condition: variable 1209 >= 1
  0()



EVENT   8
 PAGE   1
  0()
 PAGE   2
  // condition: switch 33 is ON
  0()
 PAGE   3
  // condition: variable 1209 >= 1
  0()



EVENT   9
 PAGE   1
  0()
 PAGE   2
  // condition: variable 1209 >= 1
  0()



EVENT   10
 PAGE   1
  0()
 PAGE   2
  // condition: switch 33 is ON
  0()
 PAGE   3
  // condition: variable 1209 >= 1
  0()



EVENT   11
 PAGE   1
  // condition: switch 31 is ON
  0()
 PAGE   2
  // condition: switch 32 is ON
  0()
 PAGE   3
  // condition: variable 1209 >= 1
  0()



EVENT   12
 PAGE   1
  250(bytes(0x04,0x08,0x6f,0x3a,0x0c,0x52,0x50,0x47,0x3a,0x3a,0x53,0x45,0x08,0x3a,0x0a,0x40,0x6e,0x61,0x6d,0x65,0x49,0x22,0x0a,0x43,0x68,0x65,0x73,0x74,0x06,0x3a,0x06,0x45,0x54,0x3a,0x0b,0x40,0x70,0x69,0x74,0x63,0x68,0x69,0x69,0x3a,0x0c,0x40,0x76,0x6f,0x6c,0x75,0x6d,0x65,0x69,0x55))
  205(0,bytes(0x04,0x08,0x6f,0x3a,0x13,0x52,0x50,0x47,0x3a,0x3a,0x4d,0x6f,0x76,0x65,0x52,0x6f,0x75,0x74,0x65,0x09,0x3a,0x0c,0x40,0x72,0x65,0x70,0x65,0x61,0x74,0x46,0x3a,0x0f,0x40,0x73,0x6b,0x69,0x70,0x70,0x61,0x62,0x6c,0x65,0x46,0x3a,0x0a,0x40,0x77,0x61,0x69,0x74,0x54,0x3a,0x0a,0x40,0x6c,0x69,0x73,0x74,0x5b,0x0b,0x6f,0x3a,0x15,0x52,0x50,0x47,0x3a,0x3a,0x4d,0x6f,0x76,0x65,0x43,0x6f,0x6d,0x6d,0x61,0x6e,0x64,0x07,0x3a,0x0a,0x40,0x63,0x6f,0x64,0x65,0x69,0x29,0x3a,0x10,0x40,0x70,0x61,0x72,0x61,0x6d,0x65,0x74,0x65,0x72,0x73,0x5b,0x00,0x6f,0x3b,0x0a,0x07,0x3b,0x0b,0x69,0x16,0x3b,0x0c,0x5b,0x00,0x6f,0x3b,0x0a,0x07,0x3b,0x0b,0x69,0x14,0x3b,0x0c,0x5b,0x06,0x69,0x08,0x6f,0x3b,0x0a,0x07,0x3b,0x0b,0x69,0x17,0x3b,0x0c,0x5b,0x00,0x6f,0x3b,0x0a,0x07,0x3b,0x0b,0x69,0x14,0x3b,0x0c,0x5b,0x06,0x69,0x08,0x6f,0x3b,0x0a,0x07,0x3b,0x0b,0x69,0x00,0x3b,0x0c,0x5b,0x00))
  ChangeSelfSwitch("A",0)
  ChangeInventoryArmor(142,0,0,1,false)
  0()
 PAGE   2
  // condition: self-switch A is ON
  0()



EVENT   13
 PAGE   1
  0()



EVENT   14
 PAGE   1
  0()



EVENT   15
 PAGE   1
  0()



EVENT   16
 PAGE   1
  0()



EVENT   17
 PAGE   1
  // condition: switch 2959 is ON
  RunCommonEvent(500)
  0()
