﻿
DisplayName "Remina"



EVENT   1
 PAGE   1
  250(bytes(0x04,0x08,0x6f,0x3a,0x0c,0x52,0x50,0x47,0x3a,0x3a,0x53,0x45,0x08,0x3a,0x0a,0x40,0x6e,0x61,0x6d,0x65,0x49,0x22,0x09,0x4d,0x6f,0x76,0x65,0x06,0x3a,0x06,0x45,0x54,0x3a,0x0b,0x40,0x70,0x69,0x74,0x63,0x68,0x69,0x69,0x3a,0x0c,0x40,0x76,0x6f,0x6c,0x75,0x6d,0x65,0x69,0x55))
  TeleportPlayer(0,194,56,62,0,0)
  0()



EVENT   2
 PAGE   1
  250(bytes(0x04,0x08,0x6f,0x3a,0x0c,0x52,0x50,0x47,0x3a,0x3a,0x53,0x45,0x08,0x3a,0x0a,0x40,0x6e,0x61,0x6d,0x65,0x49,0x22,0x09,0x4d,0x6f,0x76,0x65,0x06,0x3a,0x06,0x45,0x54,0x3a,0x0b,0x40,0x70,0x69,0x74,0x63,0x68,0x69,0x69,0x3a,0x0c,0x40,0x76,0x6f,0x6c,0x75,0x6d,0x65,0x69,0x55))
  TeleportPlayer(0,194,56,62,0,0)
  0()



EVENT   3
 PAGE   1
  250(bytes(0x04,0x08,0x6f,0x3a,0x0c,0x52,0x50,0x47,0x3a,0x3a,0x53,0x45,0x08,0x3a,0x0a,0x40,0x6e,0x61,0x6d,0x65,0x49,0x22,0x09,0x4d,0x6f,0x76,0x65,0x06,0x3a,0x06,0x45,0x54,0x3a,0x0b,0x40,0x70,0x69,0x74,0x63,0x68,0x69,0x69,0x3a,0x0c,0x40,0x76,0x6f,0x6c,0x75,0x6d,0x65,0x69,0x55))
  TeleportPlayer(0,194,56,62,0,0)
  0()



EVENT   4
 PAGE   1
  250(bytes(0x04,0x08,0x6f,0x3a,0x0c,0x52,0x50,0x47,0x3a,0x3a,0x53,0x45,0x08,0x3a,0x0a,0x40,0x6e,0x61,0x6d,0x65,0x49,0x22,0x09,0x4d,0x6f,0x76,0x65,0x06,0x3a,0x06,0x45,0x54,0x3a,0x0b,0x40,0x70,0x69,0x74,0x63,0x68,0x69,0x69,0x3a,0x0c,0x40,0x76,0x6f,0x6c,0x75,0x6d,0x65,0x69,0x55))
  TeleportPlayer(0,194,56,62,0,0)
  0()



EVENT   5
 PAGE   1
  250(bytes(0x04,0x08,0x6f,0x3a,0x0c,0x52,0x50,0x47,0x3a,0x3a,0x53,0x45,0x08,0x3a,0x0a,0x40,0x6e,0x61,0x6d,0x65,0x49,0x22,0x09,0x4d,0x6f,0x76,0x65,0x06,0x3a,0x06,0x45,0x54,0x3a,0x0b,0x40,0x70,0x69,0x74,0x63,0x68,0x69,0x69,0x3a,0x0c,0x40,0x76,0x6f,0x6c,0x75,0x6d,0x65,0x69,0x55))
  TeleportPlayer(0,194,56,62,0,0)
  0()



EVENT   6
 PAGE   1
  281(0)
  250(bytes(0x04,0x08,0x6f,0x3a,0x0c,0x52,0x50,0x47,0x3a,0x3a,0x53,0x45,0x08,0x3a,0x0a,0x40,0x6e,0x61,0x6d,0x65,0x49,0x22,0x09,0x4d,0x6f,0x76,0x65,0x06,0x3a,0x06,0x45,0x54,0x3a,0x0b,0x40,0x70,0x69,0x74,0x63,0x68,0x69,0x69,0x3a,0x0c,0x40,0x76,0x6f,0x6c,0x75,0x6d,0x65,0x69,0x55))
  TeleportPlayer(0,186,23,50,0,0)
  0()



EVENT   7
 PAGE   1
  281(0)
  250(bytes(0x04,0x08,0x6f,0x3a,0x0c,0x52,0x50,0x47,0x3a,0x3a,0x53,0x45,0x08,0x3a,0x0a,0x40,0x6e,0x61,0x6d,0x65,0x49,0x22,0x09,0x4d,0x6f,0x76,0x65,0x06,0x3a,0x06,0x45,0x54,0x3a,0x0b,0x40,0x70,0x69,0x74,0x63,0x68,0x69,0x69,0x3a,0x0c,0x40,0x76,0x6f,0x6c,0x75,0x6d,0x65,0x69,0x55))
  TeleportPlayer(0,186,23,51,0,0)
  0()



EVENT   8
 PAGE   1
  281(0)
  250(bytes(0x04,0x08,0x6f,0x3a,0x0c,0x52,0x50,0x47,0x3a,0x3a,0x53,0x45,0x08,0x3a,0x0a,0x40,0x6e,0x61,0x6d,0x65,0x49,0x22,0x09,0x4d,0x6f,0x76,0x65,0x06,0x3a,0x06,0x45,0x54,0x3a,0x0b,0x40,0x70,0x69,0x74,0x63,0x68,0x69,0x69,0x3a,0x0c,0x40,0x76,0x6f,0x6c,0x75,0x6d,0x65,0x69,0x55))
  TeleportPlayer(0,186,23,36,0,0)
  0()



EVENT   9
 PAGE   1
  281(0)
  250(bytes(0x04,0x08,0x6f,0x3a,0x0c,0x52,0x50,0x47,0x3a,0x3a,0x53,0x45,0x08,0x3a,0x0a,0x40,0x6e,0x61,0x6d,0x65,0x49,0x22,0x09,0x4d,0x6f,0x76,0x65,0x06,0x3a,0x06,0x45,0x54,0x3a,0x0b,0x40,0x70,0x69,0x74,0x63,0x68,0x69,0x69,0x3a,0x0c,0x40,0x76,0x6f,0x6c,0x75,0x6d,0x65,0x69,0x55))
  TeleportPlayer(0,186,23,36,0,0)
  0()



EVENT   10
 PAGE   1
  281(0)
  250(bytes(0x04,0x08,0x6f,0x3a,0x0c,0x52,0x50,0x47,0x3a,0x3a,0x53,0x45,0x08,0x3a,0x0a,0x40,0x6e,0x61,0x6d,0x65,0x49,0x22,0x09,0x4d,0x6f,0x76,0x65,0x06,0x3a,0x06,0x45,0x54,0x3a,0x0b,0x40,0x70,0x69,0x74,0x63,0x68,0x69,0x69,0x3a,0x0c,0x40,0x76,0x6f,0x6c,0x75,0x6d,0x65,0x69,0x55))
  TeleportPlayer(0,186,23,36,0,0)
  0()



EVENT   11
 PAGE   1
  281(0)
  250(bytes(0x04,0x08,0x6f,0x3a,0x0c,0x52,0x50,0x47,0x3a,0x3a,0x53,0x45,0x08,0x3a,0x0a,0x40,0x6e,0x61,0x6d,0x65,0x49,0x22,0x09,0x4d,0x6f,0x76,0x65,0x06,0x3a,0x06,0x45,0x54,0x3a,0x0b,0x40,0x70,0x69,0x74,0x63,0x68,0x69,0x69,0x3a,0x0c,0x40,0x76,0x6f,0x6c,0x75,0x6d,0x65,0x69,0x55))
  TeleportPlayer(0,186,23,36,0,0)
  0()



EVENT   12
 PAGE   1
  281(0)
  250(bytes(0x04,0x08,0x6f,0x3a,0x0c,0x52,0x50,0x47,0x3a,0x3a,0x53,0x45,0x08,0x3a,0x0a,0x40,0x6e,0x61,0x6d,0x65,0x49,0x22,0x09,0x4d,0x6f,0x76,0x65,0x06,0x3a,0x06,0x45,0x54,0x3a,0x0b,0x40,0x70,0x69,0x74,0x63,0x68,0x69,0x69,0x3a,0x0c,0x40,0x76,0x6f,0x6c,0x75,0x6d,0x65,0x69,0x55))
  TeleportPlayer(0,186,23,36,0,0)
  0()



EVENT   13
 PAGE   1
  281(0)
  250(bytes(0x04,0x08,0x6f,0x3a,0x0c,0x52,0x50,0x47,0x3a,0x3a,0x53,0x45,0x08,0x3a,0x0a,0x40,0x6e,0x61,0x6d,0x65,0x49,0x22,0x09,0x4d,0x6f,0x76,0x65,0x06,0x3a,0x06,0x45,0x54,0x3a,0x0b,0x40,0x70,0x69,0x74,0x63,0x68,0x69,0x69,0x3a,0x0c,0x40,0x76,0x6f,0x6c,0x75,0x6d,0x65,0x69,0x55))
  TeleportPlayer(0,187,1,50,0,0)
  0()



EVENT   14
 PAGE   1
  281(0)
  250(bytes(0x04,0x08,0x6f,0x3a,0x0c,0x52,0x50,0x47,0x3a,0x3a,0x53,0x45,0x08,0x3a,0x0a,0x40,0x6e,0x61,0x6d,0x65,0x49,0x22,0x09,0x4d,0x6f,0x76,0x65,0x06,0x3a,0x06,0x45,0x54,0x3a,0x0b,0x40,0x70,0x69,0x74,0x63,0x68,0x69,0x69,0x3a,0x0c,0x40,0x76,0x6f,0x6c,0x75,0x6d,0x65,0x69,0x55))
  TeleportPlayer(0,187,1,50,0,0)
  0()



EVENT   15
 PAGE   1
  281(0)
  250(bytes(0x04,0x08,0x6f,0x3a,0x0c,0x52,0x50,0x47,0x3a,0x3a,0x53,0x45,0x08,0x3a,0x0a,0x40,0x6e,0x61,0x6d,0x65,0x49,0x22,0x09,0x4d,0x6f,0x76,0x65,0x06,0x3a,0x06,0x45,0x54,0x3a,0x0b,0x40,0x70,0x69,0x74,0x63,0x68,0x69,0x69,0x3a,0x0c,0x40,0x76,0x6f,0x6c,0x75,0x6d,0x65,0x69,0x55))
  TeleportPlayer(0,187,1,50,0,0)
  0()



EVENT   16
 PAGE   1
  281(0)
  250(bytes(0x04,0x08,0x6f,0x3a,0x0c,0x52,0x50,0x47,0x3a,0x3a,0x53,0x45,0x08,0x3a,0x0a,0x40,0x6e,0x61,0x6d,0x65,0x49,0x22,0x09,0x4d,0x6f,0x76,0x65,0x06,0x3a,0x06,0x45,0x54,0x3a,0x0b,0x40,0x70,0x69,0x74,0x63,0x68,0x69,0x69,0x3a,0x0c,0x40,0x76,0x6f,0x6c,0x75,0x6d,0x65,0x69,0x55))
  TeleportPlayer(0,187,1,50,0,0)
  0()



EVENT   17
 PAGE   1
  281(0)
  250(bytes(0x04,0x08,0x6f,0x3a,0x0c,0x52,0x50,0x47,0x3a,0x3a,0x53,0x45,0x08,0x3a,0x0a,0x40,0x6e,0x61,0x6d,0x65,0x49,0x22,0x09,0x4d,0x6f,0x76,0x65,0x06,0x3a,0x06,0x45,0x54,0x3a,0x0b,0x40,0x70,0x69,0x74,0x63,0x68,0x69,0x69,0x3a,0x0c,0x40,0x76,0x6f,0x6c,0x75,0x6d,0x65,0x69,0x55))
  TeleportPlayer(0,187,1,39,0,0)
  0()



EVENT   18
 PAGE   1
  281(0)
  250(bytes(0x04,0x08,0x6f,0x3a,0x0c,0x52,0x50,0x47,0x3a,0x3a,0x53,0x45,0x08,0x3a,0x0a,0x40,0x6e,0x61,0x6d,0x65,0x49,0x22,0x09,0x4d,0x6f,0x76,0x65,0x06,0x3a,0x06,0x45,0x54,0x3a,0x0b,0x40,0x70,0x69,0x74,0x63,0x68,0x69,0x69,0x3a,0x0c,0x40,0x76,0x6f,0x6c,0x75,0x6d,0x65,0x69,0x55))
  TeleportPlayer(0,187,1,39,0,0)
  0()



EVENT   19
 PAGE   1
  281(0)
  250(bytes(0x04,0x08,0x6f,0x3a,0x0c,0x52,0x50,0x47,0x3a,0x3a,0x53,0x45,0x08,0x3a,0x0a,0x40,0x6e,0x61,0x6d,0x65,0x49,0x22,0x09,0x4d,0x6f,0x76,0x65,0x06,0x3a,0x06,0x45,0x54,0x3a,0x0b,0x40,0x70,0x69,0x74,0x63,0x68,0x69,0x69,0x3a,0x0c,0x40,0x76,0x6f,0x6c,0x75,0x6d,0x65,0x69,0x55))
  TeleportPlayer(0,187,1,39,0,0)
  0()



EVENT   20
 PAGE   1
  281(0)
  250(bytes(0x04,0x08,0x6f,0x3a,0x0c,0x52,0x50,0x47,0x3a,0x3a,0x53,0x45,0x08,0x3a,0x0a,0x40,0x6e,0x61,0x6d,0x65,0x49,0x22,0x09,0x4d,0x6f,0x76,0x65,0x06,0x3a,0x06,0x45,0x54,0x3a,0x0b,0x40,0x70,0x69,0x74,0x63,0x68,0x69,0x69,0x3a,0x0c,0x40,0x76,0x6f,0x6c,0x75,0x6d,0x65,0x69,0x55))
  TeleportPlayer(0,187,1,39,0,0)
  0()



EVENT   21
 PAGE   1
  281(0)
  250(bytes(0x04,0x08,0x6f,0x3a,0x0c,0x52,0x50,0x47,0x3a,0x3a,0x53,0x45,0x08,0x3a,0x0a,0x40,0x6e,0x61,0x6d,0x65,0x49,0x22,0x09,0x4d,0x6f,0x76,0x65,0x06,0x3a,0x06,0x45,0x54,0x3a,0x0b,0x40,0x70,0x69,0x74,0x63,0x68,0x69,0x69,0x3a,0x0c,0x40,0x76,0x6f,0x6c,0x75,0x6d,0x65,0x69,0x55))
  TeleportPlayer(0,187,1,39,0,0)
  0()



EVENT   22
 PAGE   1
  281(0)
  250(bytes(0x04,0x08,0x6f,0x3a,0x0c,0x52,0x50,0x47,0x3a,0x3a,0x53,0x45,0x08,0x3a,0x0a,0x40,0x6e,0x61,0x6d,0x65,0x49,0x22,0x09,0x4d,0x6f,0x76,0x65,0x06,0x3a,0x06,0x45,0x54,0x3a,0x0b,0x40,0x70,0x69,0x74,0x63,0x68,0x69,0x69,0x3a,0x0c,0x40,0x76,0x6f,0x6c,0x75,0x6d,0x65,0x69,0x55))
  TeleportPlayer(0,188,12,18,0,0)
  0()



EVENT   23
 PAGE   1
  281(0)
  250(bytes(0x04,0x08,0x6f,0x3a,0x0c,0x52,0x50,0x47,0x3a,0x3a,0x53,0x45,0x08,0x3a,0x0a,0x40,0x6e,0x61,0x6d,0x65,0x49,0x22,0x09,0x4d,0x6f,0x76,0x65,0x06,0x3a,0x06,0x45,0x54,0x3a,0x0b,0x40,0x70,0x69,0x74,0x63,0x68,0x69,0x69,0x3a,0x0c,0x40,0x76,0x6f,0x6c,0x75,0x6d,0x65,0x69,0x55))
  TeleportPlayer(0,188,12,18,0,0)
  0()



EVENT   24
 PAGE   1
  281(0)
  250(bytes(0x04,0x08,0x6f,0x3a,0x0c,0x52,0x50,0x47,0x3a,0x3a,0x53,0x45,0x08,0x3a,0x0a,0x40,0x6e,0x61,0x6d,0x65,0x49,0x22,0x09,0x4d,0x6f,0x76,0x65,0x06,0x3a,0x06,0x45,0x54,0x3a,0x0b,0x40,0x70,0x69,0x74,0x63,0x68,0x69,0x69,0x3a,0x0c,0x40,0x76,0x6f,0x6c,0x75,0x6d,0x65,0x69,0x55))
  TeleportPlayer(0,188,12,18,0,0)
  0()



EVENT   25
 PAGE   1
  281(0)
  250(bytes(0x04,0x08,0x6f,0x3a,0x0c,0x52,0x50,0x47,0x3a,0x3a,0x53,0x45,0x08,0x3a,0x0a,0x40,0x6e,0x61,0x6d,0x65,0x49,0x22,0x09,0x4d,0x6f,0x76,0x65,0x06,0x3a,0x06,0x45,0x54,0x3a,0x0b,0x40,0x70,0x69,0x74,0x63,0x68,0x69,0x69,0x3a,0x0c,0x40,0x76,0x6f,0x6c,0x75,0x6d,0x65,0x69,0x55))
  TeleportPlayer(0,188,12,18,0,0)
  0()



EVENT   26
 PAGE   1
  281(0)
  250(bytes(0x04,0x08,0x6f,0x3a,0x0c,0x52,0x50,0x47,0x3a,0x3a,0x53,0x45,0x08,0x3a,0x0a,0x40,0x6e,0x61,0x6d,0x65,0x49,0x22,0x09,0x4d,0x6f,0x76,0x65,0x06,0x3a,0x06,0x45,0x54,0x3a,0x0b,0x40,0x70,0x69,0x74,0x63,0x68,0x69,0x69,0x3a,0x0c,0x40,0x76,0x6f,0x6c,0x75,0x6d,0x65,0x69,0x55))
  TeleportPlayer(0,188,12,18,0,0)
  0()



EVENT   27
 PAGE   1
  250(bytes(0x04,0x08,0x6f,0x3a,0x0c,0x52,0x50,0x47,0x3a,0x3a,0x53,0x45,0x08,0x3a,0x0a,0x40,0x6e,0x61,0x6d,0x65,0x49,0x22,0x09,0x4d,0x6f,0x76,0x65,0x06,0x3a,0x06,0x45,0x54,0x3a,0x0b,0x40,0x70,0x69,0x74,0x63,0x68,0x69,0x69,0x3a,0x0c,0x40,0x76,0x6f,0x6c,0x75,0x6d,0x65,0x69,0x55))
  TeleportPlayer(0,222,50,70,0,0)
  0()



EVENT   28
 PAGE   1
  250(bytes(0x04,0x08,0x6f,0x3a,0x0c,0x52,0x50,0x47,0x3a,0x3a,0x53,0x45,0x08,0x3a,0x0a,0x40,0x6e,0x61,0x6d,0x65,0x49,0x22,0x09,0x4d,0x6f,0x76,0x65,0x06,0x3a,0x06,0x45,0x54,0x3a,0x0b,0x40,0x70,0x69,0x74,0x63,0x68,0x69,0x69,0x3a,0x0c,0x40,0x76,0x6f,0x6c,0x75,0x6d,0x65,0x69,0x55))
  TeleportPlayer(0,222,16,74,0,0)
  0()



EVENT   29
 PAGE   1
  0()



EVENT   30
 PAGE   1
  250(bytes(0x04,0x08,0x6f,0x3a,0x0c,0x52,0x50,0x47,0x3a,0x3a,0x53,0x45,0x08,0x3a,0x0a,0x40,0x6e,0x61,0x6d,0x65,0x49,0x22,0x09,0x4d,0x6f,0x76,0x65,0x06,0x3a,0x06,0x45,0x54,0x3a,0x0b,0x40,0x70,0x69,0x74,0x63,0x68,0x69,0x69,0x3a,0x0c,0x40,0x76,0x6f,0x6c,0x75,0x6d,0x65,0x69,0x55))
  TeleportPlayer(0,222,55,17,0,0)
  0()



EVENT   31
 PAGE   1
  250(bytes(0x04,0x08,0x6f,0x3a,0x0c,0x52,0x50,0x47,0x3a,0x3a,0x53,0x45,0x08,0x3a,0x0a,0x40,0x6e,0x61,0x6d,0x65,0x49,0x22,0x09,0x4d,0x6f,0x76,0x65,0x06,0x3a,0x06,0x45,0x54,0x3a,0x0b,0x40,0x70,0x69,0x74,0x63,0x68,0x69,0x69,0x3a,0x0c,0x40,0x76,0x6f,0x6c,0x75,0x6d,0x65,0x69,0x55))
  TeleportPlayer(0,222,56,17,0,0)
  0()



EVENT   32
 PAGE   1
  250(bytes(0x04,0x08,0x6f,0x3a,0x0c,0x52,0x50,0x47,0x3a,0x3a,0x53,0x45,0x08,0x3a,0x0a,0x40,0x6e,0x61,0x6d,0x65,0x49,0x22,0x09,0x4d,0x6f,0x76,0x65,0x06,0x3a,0x06,0x45,0x54,0x3a,0x0b,0x40,0x70,0x69,0x74,0x63,0x68,0x69,0x69,0x3a,0x0c,0x40,0x76,0x6f,0x6c,0x75,0x6d,0x65,0x69,0x55))
  TeleportPlayer(0,222,56,44,0,0)
  0()



EVENT   33
 PAGE   1
  250(bytes(0x04,0x08,0x6f,0x3a,0x0c,0x52,0x50,0x47,0x3a,0x3a,0x53,0x45,0x08,0x3a,0x0a,0x40,0x6e,0x61,0x6d,0x65,0x49,0x22,0x09,0x4d,0x6f,0x76,0x65,0x06,0x3a,0x06,0x45,0x54,0x3a,0x0b,0x40,0x70,0x69,0x74,0x63,0x68,0x69,0x69,0x3a,0x0c,0x40,0x76,0x6f,0x6c,0x75,0x6d,0x65,0x69,0x55))
  TeleportPlayer(0,222,73,44,0,0)
  0()



EVENT   34
 PAGE   1
  281(0)
  250(bytes(0x04,0x08,0x6f,0x3a,0x0c,0x52,0x50,0x47,0x3a,0x3a,0x53,0x45,0x08,0x3a,0x0a,0x40,0x6e,0x61,0x6d,0x65,0x49,0x22,0x09,0x4d,0x6f,0x76,0x65,0x06,0x3a,0x06,0x45,0x54,0x3a,0x0b,0x40,0x70,0x69,0x74,0x63,0x68,0x69,0x69,0x3a,0x0c,0x40,0x76,0x6f,0x6c,0x75,0x6d,0x65,0x69,0x55))
  TeleportPlayer(0,187,1,39,0,0)
  0()



EVENT   35
 PAGE   1
  ChangeSelfSwitch("A",0)
  If(0,4,0)
   ShowMessageFace("alice_fc6",0,0,2,1)
   ShowMessage("\\n<Alice>This is Remina from a time when it wasn't destroyed... It looks very similar to the townscapes we've seen inside the Tartarus Rifts.")
   If(0,6,0)
    ShowMessageFace("sonia_fc2",2,0,2,2)
    ShowMessage("\\n<Sonya>Then...does that mean we'll solve some mysteries if we search around this town?")
    0()
   Else()
    ShowMessageFace("ruka_fc1",0,0,2,3)
    ShowMessage("\\n<Luka>If we search around this town, we might solve some mysteries...")
    0()
   EndIf()
   ShowMessageFace("alice_fc5",0,0,2,4)
   ShowMessage("\\n<Alice>...No, that would be unlikely.\nWhat happened to Remina occurred about five-hundred years after this era.")
   ShowMessageFace("alice_fc5",0,0,2,5)
   ShowMessage("\\n<Alice>I doubt we'll discover anything from searching around in this era. Right now, we need to make sure we're prepared before we storm the Monster Lord's Castle.")
   0()
  EndIf()
  If(0,5,0)
   ShowMessageFace("iriasu_fc4",2,0,2,6)
   ShowMessage("\\n<Ilias>This is indeed Remina from five-hundred years ago... As expected, it looks very similar to the townscapes we've seen in the Tartarus Rifts.")
   If(0,6,0)
    ShowMessageFace("sonia_fc2",2,0,2,7)
    ShowMessage("\\n<Sonya>Then...does that mean we'll solve some mysteries if we search around this town?")
    0()
   Else()
    ShowMessageFace("ruka_fc1",0,0,2,8)
    ShowMessage("\\n<Luka>If we search around this town, we might solve some mysteries...")
    0()
   EndIf()
   ShowMessageFace("iriasu_fc4",2,0,2,9)
   ShowMessage("\\n<Ilias>No, it's highly unlikely we would discover anything useful. What happened to Remina occurred about five-hundred years later from this era.")
   ShowMessageFace("iriasu_fc4",2,0,2,10)
   ShowMessage("\\n<Ilias>The Great Disaster was thirty years ago, on the day I once destroyed Remina. After I disappeared, this town was swallowed by the chaos...")
   ShowMessageFace("ruka_fc1",0,0,2,11)
   ShowMessage("\\n<Luka>...Did you just say you destroyed Remina, Ilias?")
   ShowMessageFace("iriasu_fc4",1,0,2,12)
   ShowMessage("\\n<Ilias>You probably misheard me.")
   ShowMessageFace("iriasu_fc5",0,0,2,13)
   ShowMessage("\\n<Ilias>Stop asking foolish questions, we must make preparations! Have you forgetten we'll need to break into the Monster Lord's Castle soon?!")
   If(0,6,0)
    ShowMessageFace("sonia_fc4",0,0,2,14)
    ShowMessage("\\n<Sonya>Sheesh, she gets angry right when it's inconvenient for her...")
    0()
   Else()
    ShowMessageFace("ruka_fc1",0,0,2,15)
    ShowMessage("\\n<Luka>She just got angry all of a sudden...")
    0()
   EndIf()
   0()
  EndIf()
  EndEventProcessing()
  0()
 PAGE   2
  // condition: self-switch A is ON
  0()



EVENT   36
 PAGE   1
  ShowMessageFace("",0,0,2,1)
  ShowMessage("\\n<Guard>Welcome to Remina, a town where humans and monsters coexist! Please allow me to guide you around.")
  355("unlimited_choices(11, [\"Inn\",")
  655("\"Weapon/Armor/Blacksmith Shop\",")
  655("\"Accessory Shop\",\"Tool Shop\",\"Church\",")
  655("\"Magical Research Institute\",\"Remina Castle\",\"Nowhere\"])")
  If(1,11,0,0,0)
   TeleportPlayer(0,183,30,31,2,0)
   EndEventProcessing()
   0()
  EndIf()
  If(1,11,0,1,0)
   TeleportPlayer(0,187,7,38,2,0)
   EndEventProcessing()
   0()
  EndIf()
  If(1,11,0,2,0)
   TeleportPlayer(0,187,10,13,2,0)
   EndEventProcessing()
   0()
  EndIf()
  If(1,11,0,3,0)
   TeleportPlayer(0,187,16,49,2,0)
   EndEventProcessing()
   0()
  EndIf()
  If(1,11,0,4,0)
   TeleportPlayer(0,183,31,13,2,0)
   EndEventProcessing()
   0()
  EndIf()
  If(1,11,0,5,0)
   TeleportPlayer(0,183,7,13,2,0)
   EndEventProcessing()
   0()
  EndIf()
  If(1,11,0,6,0)
   TeleportPlayer(0,188,12,18,2,0)
   EndEventProcessing()
   0()
  EndIf()
  If(1,11,0,7,0)
   EndEventProcessing()
   0()
  EndIf()
  0()



EVENT   37
 PAGE   1
  ShowMessageFace("behemoth_fc1",0,0,2,1)
  ShowMessage("\\n<Behemoth>Ah, a hero...\nYou appear to possess a lot of talent.")
  0()



EVENT   38
 PAGE   1
  ShowMessageFace("",0,0,2,1)
  ShowMessage("\\n<Old Woman>The residential area is just through here.\nYou'd have to be pretty eccentric to want to live on the Monster Continent...")
  0()



EVENT   39
 PAGE   1
  ShowMessageFace("",0,0,2,1)
  ShowMessage("\\n<Town Girl>The commercial district is this way.\nPlease feel free to shop as much as you like.")
  0()



EVENT   40
 PAGE   1
  ShowMessageFace("",0,0,2,1)
  ShowMessage("\\n<Old Man>Magic science is for the foolish.\nYou're transgressing upon the providence of the Goddess.")
  355("actor_label_jump")
  EndEventProcessing()
  DefineLabel("41")
  ShowMessageFace("stein_fc2",0,0,2,2)
  ShowMessage("\\n<Promestein>What exactly is the providence of the Goddess?")
  EndEventProcessing()
  0()



EVENT   41
 PAGE   1
  ShowMessageFace("",0,0,2,1)
  ShowMessage("\\n<Priest>Stop your research! Just listen to the voice of the Goddess!")
  355("actor_label_jump")
  EndEventProcessing()
  DefineLabel("41")
  ShowMessageFace("stein_fc2",0,0,2,2)
  ShowMessage("\\n<Promestein>The Goddess doesn't say much of worth.")
  EndEventProcessing()
  0()



EVENT   42
 PAGE   1
  ShowMessageFace("",0,0,2,1)
  ShowMessage("\\n<Priest>Damned minions of the Monster Lord!\nThis building shall burn in the flames of judgment!")
  355("actor_label_jump")
  EndEventProcessing()
  DefineLabel("41")
  ShowMessageFace("stein_fc2",0,0,2,2)
  ShowMessage("\\n<Promestein>Arson is arson, no matter the reason.")
  EndEventProcessing()
  0()



EVENT   43
 PAGE   1
  ShowMessageFace("",0,0,2,1)
  ShowMessage("\\n<Priest>Stop your research, it violates the providence of the Goddess!")
  355("actor_label_jump")
  EndEventProcessing()
  DefineLabel("41")
  ShowMessageFace("stein_fc2",0,0,2,2)
  ShowMessage("\\n<Promestein>First of all, please define what this \"providence of the Goddess\" is.")
  EndEventProcessing()
  0()



EVENT   44
 PAGE   1
  ShowMessageFace("",0,0,2,1)
  ShowMessage("\\n<Youth>Science and technology deny faith and corrupts us.\nWhy can't you understand something so obvious...?")
  355("actor_label_jump")
  EndEventProcessing()
  DefineLabel("41")
  ShowMessageFace("stein_fc2",0,0,2,2)
  ShowMessage("\\n<Promestein>Science does not deal with faith.\nAre you just being arbitrarily hostile?")
  EndEventProcessing()
  0()



EVENT   45
 PAGE   1
  ShowMessageFace("",0,0,2,1)
  ShowMessage("\\n<Priest>Do they really believe that science can replace faith?\nThey are utterly foolish!")
  355("actor_label_jump")
  EndEventProcessing()
  DefineLabel("41")
  ShowMessageFace("stein_fc2",0,0,2,2)
  ShowMessage("\\n<Promestein>I've honestly never even thought about replacing religion.")
  EndEventProcessing()
  0()



EVENT   46
 PAGE   1
  ShowMessageFace("",0,0,2,1)
  ShowMessage("\\n<Priest>The Goddess' wrath shall descend upon you!")
  355("actor_label_jump")
  EndEventProcessing()
  DefineLabel("41")
  ShowMessageFace("stein_fc2",0,0,2,2)
  ShowMessage("\\n<Promestein>That would be the Goddess passing judgment, not you.")
  EndEventProcessing()
  0()



EVENT   47
 PAGE   1
  ShowMessageFace("",0,0,2,1)
  ShowMessage("\\n<Youth>Another anti-science protest...\nThey do the same thing day after day.")
  0()



EVENT   48
 PAGE   1
  ShowMessageFace("",0,0,2,1)
  ShowMessage("\\n<Middle-aged Woman>People like you will all go to hell!")
  355("actor_label_jump")
  EndEventProcessing()
  DefineLabel("41")
  ShowMessageFace("stein_fc2",0,0,2,2)
  ShowMessage("\\n<Promestein>There is no hell.")
  EndEventProcessing()
  0()



EVENT   49
 PAGE   1
  ShowMessageFace("",0,0,2,1)
  ShowMessage("\\n<Guard>It's not a problem if they're just staging a demonstration...\nThough there are some among them who resort to arson, so us guards are here just in case.")
  355("actor_label_jump")
  EndEventProcessing()
  DefineLabel("15")
  ShowMessageFace("salamander_fc1",2,0,2,2)
  ShowMessage("\\n<Salamander>Fire shouldn't be used for crime!")
  EndEventProcessing()
  0()



EVENT   50
 PAGE   1
  ShowMessageFace("",0,0,2,1)
  ShowMessage("\\n<Priest>Why are you defending these people?!\nYou are the Monster Lord's pawns by defying the Goddess!")
  ShowMessageFace("",0,0,2,2)
  ShowMessage("\\n<Guard>Just calm down!\nLet's not resort to violence...!")
  0()



EVENT   51
 PAGE   1
  ShowMessageFace("",0,0,2,1)
  ShowMessage("\\n<Priest>Why are you defending these people?!\nYou are the Monster Lord's pawns by defying the Goddess!")
  ShowMessageFace("",0,0,2,2)
  ShowMessage("\\n<Guard>Just calm down!\nLet's not resort to violence...!")
  0()



EVENT   52
 PAGE   1
  ShowMessageFace("alraune_fc1",1,0,2,1)
  ShowMessage("\\n<Alraune>Ever since the Monster Lord declared war on humans, relations between humans and monsters have worsened. Why can't we just get along...?")
  355("actor_label_jump")
  EndEventProcessing()
  DefineLabel("45")
  ShowMessageFace("alicetromeria_fc1",4,0,2,2)
  ShowMessage("\\n<Alicetroemeria>...Because that's no fun.")
  EndEventProcessing()
  0()



EVENT   53
 PAGE   1
  ShowMessageFace("",0,0,2,1)
  ShowMessage("\\n<Youth>Remina is the most technologically advanced town in the world. Various experiments are being conducted today at the Magic Research Institute.")
  ShowMessageFace("",0,0,2,2)
  ShowMessage("\\n<Youth>...Though there are a few people who aren't too happy about that.")
  355("actor_label_jump")
  EndEventProcessing()
  DefineLabel("41")
  ShowMessageFace("stein_fc2",0,0,2,3)
  ShowMessage("\\n<Promestein>Such people will always exist in any era.")
  EndEventProcessing()
  0()



EVENT   54
 PAGE   1
  ShowMessageFace("",0,0,2,1)
  ShowMessage("\\n<Man>Remina isn't just on the cutting-edge technologically, but socially as well. No other society has made more progress towards the coexistence of humans and monsters than this town.")
  ShowMessageFace("",0,0,2,2)
  ShowMessage("\\n<Man>The followers of Ilias, who abhor relationships between humans and monsters, won't accept it though. Those guys are nothing but cancer cells, spreading malice and prejudice throughout the world.")
  0()



EVENT   55
 PAGE   1
  ShowMessageFace("",0,0,2,1)
  ShowMessage("\\n<Old Man>Everyone in this town avoids the church.\nThey see it as a breeding ground for an annoying, narrow-minded bunch, so it's no surprise they don't approach it.")
  ShowMessageFace("",0,0,2,2)
  ShowMessage("\\n<Old Man>And the anti-science demonstrations from the church's side only distances them further from the general public. The anti-scientism only grows increasingly more radical as a reaction to losing popularity.")
  ShowMessageFace("",0,0,2,3)
  ShowMessage("\\n<Old Man>...It's a lamentable reaction.\nI just want to pray quietly to Ilias.")
  355("actor_label_jump")
  EndEventProcessing()
  DefineLabel("531")
  ShowMessageFace("saniria_fc2",0,0,2,4)
  ShowMessage("\\n<King of San Ilia>Such a situation may be waiting for us in our own world... Conflict must not not arise between science and religion.")
  EndEventProcessing()
  0()



EVENT   56
 PAGE   1
  ShowMessageFace("enenra_fc1",0,0,2,1)
  ShowMessage("\\n<Enenra>To be honest, I hope a hero defeats Black Alice soon. I can already see our relations with humans begining to crumble.")
  ShowMessageFace("enenra_fc1",0,0,2,2)
  ShowMessage("\\n<Enenra>We're still on good terms with each other in this town, but... I've heard our situation on the Sentora Continent is quite horrific.")
  355("actor_label_jump")
  EndEventProcessing()
  DefineLabel("45")
  ShowMessageFace("alicetromeria_fc1",4,0,2,3)
  ShowMessage("\\n<Alicetroemeria>...Isn't it fun?")
  EndEventProcessing()
  DefineLabel("538")
  ShowMessageFace("heinrich_fc1",7,0,2,4)
  ShowMessage("\\n<Heinrich>Just you wait.\nI will certainly defeat the Monster Lord.")
  EndEventProcessing()
  0()



EVENT   57
 PAGE   1
  ShowMessageFace("",0,0,2,1)
  ShowMessage("\\n<Gruff Man>There are two pubs in Remina, but...\nThis pub is for humans.")
  ShowMessageFace("",0,0,2,2)
  ShowMessage("\\n<Gruff Man>It's not exactly discrimination to have separate pubs.\nIt's totally okay for humans to go to the monster pub, and monsters to come to the human pub.")
  ShowMessageFace("",0,0,2,3)
  ShowMessage("\\n<Gruff Man>However, it's better for us humans to go to pub for humans. That way, we won't accidentally end up eating newts or caterpillars on the side.")
  355("actor_label_jump")
  EndEventProcessing()
  DefineLabel("520")
  ShowMessageFace("lazarus3_fc1",1,0,2,4)
  ShowMessage("\\n<Lazarus>I've got a refined taste for delicacies.")
  EndEventProcessing()
  DefineLabel("522")
  ShowMessageFace("merlin_fc1",0,0,2,5)
  ShowMessage("\\n<Merlin>I wouldn't be able to stomach that...\nI like adventures, but I do not enjoy adventures when it comes to food.")
  EndEventProcessing()
  0()



EVENT   58
 PAGE   1
  ShowMessageFace("",0,0,2,1)
  ShowMessage("\\n<Guard>Remina Castle is just beyond this point.")
  0()



EVENT   59
 PAGE   1
  ShowMessageFace("",0,0,2,1)
  ShowMessage("\\n<Guard>Have you come to seek an audience with King Remina?\nThen you may proceed ahead.")
  0()



EVENT   60
 PAGE   1
  ShowMessageFace("",0,0,2,1)
  ShowMessage("\\n<Young Girl>Mama, I want to go to the church!")
  ShowMessageFace("",0,0,2,2)
  ShowMessage("\\n<Young Mother>You shouldn't get too close to that place, or you might get attacked by somebody.")
  355("actor_label_jump")
  EndEventProcessing()
  DefineLabel("122")
  ShowMessageFace("sisterlamia_fc1",2,0,2,3)
  ShowMessage("\\n<Sofia>I can't believe violence is so prevalent in the church...")
  EndEventProcessing()
  0()



EVENT   61
 PAGE   1
  ShowMessageFace("",0,0,2,1)
  ShowMessage("\\n<Thug>Even though this place is so close to the Monster Lord's Castle, the Monster Lord's never attacked us. It's because there are so many monsters living here, that we're stronger than the armies of most other kingdoms...")
  ShowMessageFace("",0,0,2,2)
  ShowMessage("\\n<Thug>Who knows how long that'll last, though.\nI hope the hero gets rid of the Monster Lord soon.")
  0()



EVENT   62
 PAGE   1
  ShowMessageFace("",0,0,2,1)
  ShowMessage("\\n<Young Girl>Mama, I want to go to the church!")
  ShowMessageFace("",0,0,2,2)
  ShowMessage("\\n<Young Mother>You shouldn't get too close to that place, or you might get attacked by somebody.")
  355("actor_label_jump")
  EndEventProcessing()
  DefineLabel("122")
  ShowMessageFace("sisterlamia_fc1",2,0,2,3)
  ShowMessage("\\n<Sofia>I can't believe violence is so prevalent in the church...")
  EndEventProcessing()
  0()



EVENT   63
 PAGE   1
  ShowMessageFace("",0,0,2,1)
  ShowMessage("\\n<Middle-aged Man>King Remina is a very respectable man.\nHe generally leaves matters of politics to our parliament.")
  ShowMessageFace("",0,0,2,2)
  ShowMessage("\\n<Middle-aged Man>When all is said and done, does he even do anything...?\nBut I believe a wise man is one who doesn't hold back others from achieving success.")
  355("actor_label_jump")
  EndEventProcessing()
  DefineLabel("529")
  ShowMessageFace("sara_fc1",1,0,2,3)
  ShowMessage("\\n<Sara>In truth, that may be the ideal way for a king to rule.")
  EndEventProcessing()
  DefineLabel("535")
  ShowMessageFace("grangold_fc2",0,0,2,4)
  ShowMessage("\\n<King of Grangold>I get the impression he's just like me...\nOr not, I'm merely leaving all of the decision-making to my vassals.")
  EndEventProcessing()
  0()



EVENT   64
 PAGE   1
  ShowMessageFace("",0,0,2,1)
  ShowMessage("\\n<Youth>Ah, Princess Edina...\nShe has captured my heart...")
  0()



EVENT   65
 PAGE   1
  ShowMessageFace("",0,0,2,1)
  ShowMessage("\\n<Old Man>The Monster Lord's Castle is to the north of this town. However, you'll have to take a detour around the mountain range, so you'll want to head northeast.")
  0()



EVENT   66
 PAGE   1
  250(bytes(0x04,0x08,0x6f,0x3a,0x0c,0x52,0x50,0x47,0x3a,0x3a,0x53,0x45,0x08,0x3a,0x0a,0x40,0x6e,0x61,0x6d,0x65,0x49,0x22,0x0a,0x49,0x74,0x65,0x6d,0x31,0x06,0x3a,0x06,0x45,0x54,0x3a,0x0b,0x40,0x70,0x69,0x74,0x63,0x68,0x69,0x69,0x3a,0x0c,0x40,0x76,0x6f,0x6c,0x75,0x6d,0x65,0x69,0x55))
  ChangeSelfSwitch("A",0)
  ChangeInventory_Item(73,0,0,1)
  0()
 PAGE   2
  // condition: self-switch A is ON
  0()



EVENT   67
 PAGE   1
  250(bytes(0x04,0x08,0x6f,0x3a,0x0c,0x52,0x50,0x47,0x3a,0x3a,0x53,0x45,0x08,0x3a,0x0a,0x40,0x6e,0x61,0x6d,0x65,0x49,0x22,0x0a,0x49,0x74,0x65,0x6d,0x31,0x06,0x3a,0x06,0x45,0x54,0x3a,0x0b,0x40,0x70,0x69,0x74,0x63,0x68,0x69,0x69,0x3a,0x0c,0x40,0x76,0x6f,0x6c,0x75,0x6d,0x65,0x69,0x55))
  ChangeSelfSwitch("A",0)
  ChangeInventory_Item(61,0,0,1)
  0()
 PAGE   2
  // condition: self-switch A is ON
  0()



EVENT   68
 PAGE   1
  250(bytes(0x04,0x08,0x6f,0x3a,0x0c,0x52,0x50,0x47,0x3a,0x3a,0x53,0x45,0x08,0x3a,0x0a,0x40,0x6e,0x61,0x6d,0x65,0x49,0x22,0x0a,0x49,0x74,0x65,0x6d,0x31,0x06,0x3a,0x06,0x45,0x54,0x3a,0x0b,0x40,0x70,0x69,0x74,0x63,0x68,0x69,0x69,0x3a,0x0c,0x40,0x76,0x6f,0x6c,0x75,0x6d,0x65,0x69,0x55))
  ChangeSelfSwitch("A",0)
  ChangeInventory_Item(22,0,0,1)
  0()
 PAGE   2
  // condition: self-switch A is ON
  0()



EVENT   69
 PAGE   1
  250(bytes(0x04,0x08,0x6f,0x3a,0x0c,0x52,0x50,0x47,0x3a,0x3a,0x53,0x45,0x08,0x3a,0x0a,0x40,0x6e,0x61,0x6d,0x65,0x49,0x22,0x0a,0x49,0x74,0x65,0x6d,0x31,0x06,0x3a,0x06,0x45,0x54,0x3a,0x0b,0x40,0x70,0x69,0x74,0x63,0x68,0x69,0x69,0x3a,0x0c,0x40,0x76,0x6f,0x6c,0x75,0x6d,0x65,0x69,0x55))
  ChangeSelfSwitch("A",0)
  ChangeInventory_Item(25,0,0,1)
  0()
 PAGE   2
  // condition: self-switch A is ON
  0()



EVENT   70
 PAGE   1
  250(bytes(0x04,0x08,0x6f,0x3a,0x0c,0x52,0x50,0x47,0x3a,0x3a,0x53,0x45,0x08,0x3a,0x0a,0x40,0x6e,0x61,0x6d,0x65,0x49,0x22,0x0a,0x49,0x74,0x65,0x6d,0x31,0x06,0x3a,0x06,0x45,0x54,0x3a,0x0b,0x40,0x70,0x69,0x74,0x63,0x68,0x69,0x69,0x3a,0x0c,0x40,0x76,0x6f,0x6c,0x75,0x6d,0x65,0x69,0x55))
  ChangeSelfSwitch("A",0)
  ChangeInventory_Item(53,0,0,1)
  0()
 PAGE   2
  // condition: self-switch A is ON
  0()



EVENT   71
 PAGE   1
  ShowMessageFace("",0,0,2,1)
  ShowMessage("\\n<Traveling Hero>It's impossible to reflect or avoid skills and magic of the holy and dark elements. Be careful when opponents are using them against you.")
  ShowMessageFace("",0,0,2,2)
  ShowMessage("\\n<Traveling Hero>Conversely, you can gain the same advantages if you use these techniques yourself. They're very effective against opponents that use evasion and reflection often.")
  0()
