


EVENT   1
 PAGE   1
  0()



EVENT   2
 PAGE   1
  0()



EVENT   3
 PAGE   1
  0()



EVENT   4
 PAGE   1
  0()



EVENT   5
 PAGE   1
  ChangeSwitch(31,31,1)
  ChangeSwitch(2055,2055,1)
  314(0,0)
  222()
  Wait(30)
  250(bytes(0x04,0x08,0x6f,0x3a,0x0c,0x52,0x50,0x47,0x3a,0x3a,0x53,0x45,0x08,0x3a,0x0a,0x40,0x6e,0x61,0x6d,0x65,0x49,0x22,0x11,0x6d,0x6f,0x6e,0x5f,0x6b,0x61,0x72,0x61,0x62,0x75,0x72,0x69,0x06,0x3a,0x06,0x45,0x54,0x3a,0x0b,0x40,0x70,0x69,0x74,0x63,0x68,0x69,0x69,0x3a,0x0c,0x40,0x76,0x6f,0x6c,0x75,0x6d,0x65,0x69,0x69))
  ShowMessageFace("ruka_fc1",0,0,2,1)
  ShowMessage("\\n<Luka>There! Haa!")
  If(0,4,0)
   ShowMessageFace("alice_fc5",0,0,2,2)
   ShowMessage("\\n<Alice>I can't believe you wanted to train on the ship. Take a break sometimes, sheesh.")
   ShowMessageFace("ruka_fc1",0,0,2,3)
   ShowMessage("\\n<Luka>But we keep having to fight harder and harder monsters. I need to get stronger.")
   ShowMessageFace("alice_fc5",0,0,2,4)
   ShowMessage("\\n<Alice>Whatever, don't push yourself too hard. Here, let me teach you a useful skill.")
   ShowMessageFace("ruka_fc1",0,0,2,5)
   ShowMessage("\\n<Luka>Yes! Thank you!")
   ShowMessageFace("alice_fc5",0,0,2,6)
   ShowMessage("\\n<Alice>In that case, first...")
   221()
   Wait(60)
   222()
   250(bytes(0x04,0x08,0x6f,0x3a,0x0c,0x52,0x50,0x47,0x3a,0x3a,0x53,0x45,0x08,0x3a,0x0a,0x40,0x6e,0x61,0x6d,0x65,0x49,0x22,0x11,0x6d,0x6f,0x6e,0x5f,0x6b,0x61,0x72,0x61,0x62,0x75,0x72,0x69,0x06,0x3a,0x06,0x45,0x54,0x3a,0x0b,0x40,0x70,0x69,0x74,0x63,0x68,0x69,0x69,0x3a,0x0c,0x40,0x76,0x6f,0x6c,0x75,0x6d,0x65,0x69,0x69))
   205(8,bytes(0x04,0x08,0x6f,0x3a,0x13,0x52,0x50,0x47,0x3a,0x3a,0x4d,0x6f,0x76,0x65,0x52,0x6f,0x75,0x74,0x65,0x09,0x3a,0x0c,0x40,0x72,0x65,0x70,0x65,0x61,0x74,0x46,0x3a,0x0f,0x40,0x73,0x6b,0x69,0x70,0x70,0x61,0x62,0x6c,0x65,0x46,0x3a,0x0a,0x40,0x77,0x61,0x69,0x74,0x46,0x3a,0x0a,0x40,0x6c,0x69,0x73,0x74,0x5b,0x07,0x6f,0x3a,0x15,0x52,0x50,0x47,0x3a,0x3a,0x4d,0x6f,0x76,0x65,0x43,0x6f,0x6d,0x6d,0x61,0x6e,0x64,0x07,0x3a,0x0a,0x40,0x63,0x6f,0x64,0x65,0x69,0x13,0x3a,0x10,0x40,0x70,0x61,0x72,0x61,0x6d,0x65,0x74,0x65,0x72,0x73,0x5b,0x07,0x69,0x00,0x69,0x00,0x6f,0x3b,0x0a,0x07,0x3b,0x0b,0x69,0x00,0x3b,0x0c,0x5b,0x00))
   ShowMessageFace("ruka_fc1",0,0,2,7)
   ShowMessage("\\n<Luka>Leap high up and... swing!")
   ShowMessageFace("alice_fc5",0,0,2,8)
   ShowMessage("\\n<Alice>That's it, strike using the energy of your fall. This is known as Demon Skull Crusher.")
   318(0,1,0,1066)
   250(bytes(0x04,0x08,0x6f,0x3a,0x0c,0x52,0x50,0x47,0x3a,0x3a,0x53,0x45,0x08,0x3a,0x0a,0x40,0x6e,0x61,0x6d,0x65,0x49,0x22,0x0a,0x49,0x74,0x65,0x6d,0x31,0x06,0x3a,0x06,0x45,0x54,0x3a,0x0b,0x40,0x70,0x69,0x74,0x63,0x68,0x69,0x69,0x3a,0x0c,0x40,0x76,0x6f,0x6c,0x75,0x6d,0x65,0x69,0x55))
   ShowMessageFace("",0,0,2,9)
   ShowMessage("Luka learned \\I[836]\\C[1]Demon Skull Crusher\\C[0]!")
   ShowMessageFace("alice_fc5",0,0,2,10)
   ShowMessage("\\n<Alice>This skill was originally performed with a spear, which is why its power decreases slightly when used with a sword.")
   ShowMessageFace("alice_fc5",0,0,2,11)
   ShowMessage("\\n<Alice>Also, since it's a spear skill, it focuses more on speed than power. It shows its true value when you're equipped with a spear.")
   ShowMessageFace("ruka_fc1",0,0,2,12)
   ShowMessage("\\n<Luka>I see, a skill utilizing speed...\nThank you, Alice!")
   ShowMessageFace("",0,0,2,13)
   ShowMessage("The moment I thanked Alice...")
   250(bytes(0x04,0x08,0x6f,0x3a,0x0c,0x52,0x50,0x47,0x3a,0x3a,0x53,0x45,0x08,0x3a,0x0a,0x40,0x6e,0x61,0x6d,0x65,0x49,0x22,0x0e,0x6d,0x6f,0x6e,0x5f,0x77,0x69,0x6e,0x64,0x32,0x06,0x3a,0x06,0x45,0x54,0x3a,0x0b,0x40,0x70,0x69,0x74,0x63,0x68,0x69,0x69,0x3a,0x0c,0x40,0x76,0x6f,0x6c,0x75,0x6d,0x65,0x69,0x69))
   236(symbol"storm",9,60,true)
   ShowMessageFace("alice_fc5",2,0,2,14)
   ShowMessage("\\n<Alice>The wind is really picking up...\nIs this the storm they were talking about?")
   ShowMessageFace("ruka_fc1",0,0,2,15)
   ShowMessage("\\n<Luka>But the ship isn't shaking at all...")
   ShowMessageFace("",0,0,2,16)
   ShowMessage("\\ni[513] hangs on the bow of the ship, glowing faintly! Its mysterious magic seems to be protecting the ship.")
   ShowMessageFace("ruka_fc1",0,0,2,17)
   ShowMessage("\\n<Luka>All right! Thanks for leaving this behind, Captain Selene!")
   ShowMessageFace("alice_fc5",3,0,2,18)
   ShowMessage("\\n<Alice>Hmph, not bad for a bauble owned by a human. Yet...")
   0()
  EndIf()
  If(0,5,0)
   ShowMessageFace("iriasu_fc4",0,0,2,19)
   ShowMessage("\\n<Ilias>You surprise me with your dedication to training even aboard this ship. Nevertheless, proper rest is also crucial to a long journey.")
   ShowMessageFace("ruka_fc1",0,0,2,20)
   ShowMessage("\\n<Luka>But we keep having to fight harder and harder monsters. I need to get stronger.")
   ShowMessageFace("iriasu_fc4",0,0,2,21)
   ShowMessage("\\n<Ilias>Patience is a virtue, Luka.\nBut if you insist, how about I teach you a new skill?")
   ShowMessageFace("ruka_fc1",0,0,2,22)
   ShowMessage("\\n<Luka>A new skill? What kind of sword skill is it?!")
   ShowMessageFace("iriasu_fc4",0,0,2,23)
   ShowMessage("\\n<Ilias>No, I shall teach you a healing skill this time. As a hero, you need to fill more roles than a simple fighter.")
   221()
   Wait(60)
   222()
   250(bytes(0x04,0x08,0x6f,0x3a,0x0c,0x52,0x50,0x47,0x3a,0x3a,0x53,0x45,0x08,0x3a,0x0a,0x40,0x6e,0x61,0x6d,0x65,0x49,0x22,0x0b,0x53,0x61,0x69,0x6e,0x74,0x36,0x06,0x3a,0x06,0x45,0x54,0x3a,0x0b,0x40,0x70,0x69,0x74,0x63,0x68,0x69,0x69,0x3a,0x0c,0x40,0x76,0x6f,0x6c,0x75,0x6d,0x65,0x69,0x55))
   ShowMessageFace("ruka_fc1",0,0,2,24)
   ShowMessage("\\n<Luka>Raise the sword high and...!!")
   ShowMessageFace("iriasu_fc4",0,0,2,25)
   ShowMessage("\\n<Ilias>That is correct. Now unleash a healing wave from the sword. Oh, and do not forget to feel respect and gratitude towards me...")
   318(0,1,0,976)
   250(bytes(0x04,0x08,0x6f,0x3a,0x0c,0x52,0x50,0x47,0x3a,0x3a,0x53,0x45,0x08,0x3a,0x0a,0x40,0x6e,0x61,0x6d,0x65,0x49,0x22,0x0a,0x49,0x74,0x65,0x6d,0x31,0x06,0x3a,0x06,0x45,0x54,0x3a,0x0b,0x40,0x70,0x69,0x74,0x63,0x68,0x69,0x69,0x3a,0x0c,0x40,0x76,0x6f,0x6c,0x75,0x6d,0x65,0x69,0x55))
   ShowMessageFace("",0,0,2,26)
   ShowMessage("Luka learned \\I[463]\\C[1]Blade of Healing\\C[0]!")
   ShowMessageFace("iriasu_fc4",0,0,2,27)
   ShowMessage("\\n<Ilias>It consumes SP to recover one ally's HP. It allows you to heal without using MP, which can come in handy.")
   ShowMessageFace("ruka_fc1",0,0,2,28)
   ShowMessage("\\n<Luka>Thank you very much, Ilias!")
   ShowMessageFace("",0,0,2,29)
   ShowMessage("The moment I thanked Ilias...")
   250(bytes(0x04,0x08,0x6f,0x3a,0x0c,0x52,0x50,0x47,0x3a,0x3a,0x53,0x45,0x08,0x3a,0x0a,0x40,0x6e,0x61,0x6d,0x65,0x49,0x22,0x0e,0x6d,0x6f,0x6e,0x5f,0x77,0x69,0x6e,0x64,0x32,0x06,0x3a,0x06,0x45,0x54,0x3a,0x0b,0x40,0x70,0x69,0x74,0x63,0x68,0x69,0x69,0x3a,0x0c,0x40,0x76,0x6f,0x6c,0x75,0x6d,0x65,0x69,0x69))
   236(symbol"storm",9,60,true)
   ShowMessageFace("iriasu_fc4",2,0,2,30)
   ShowMessage("\\n<Ilias>The wind is really picking up...\nThis must be the storm they were talking about.")
   ShowMessageFace("ruka_fc1",0,0,2,31)
   ShowMessage("\\n<Luka>But the ship isn't shaking at all...")
   ShowMessageFace("",0,0,2,32)
   ShowMessage("\\ni[513] hangs on the bow of the ship, glowing faintly! Its mysterious magic seems to be protecting the ship.")
   ShowMessageFace("ruka_fc1",0,0,2,33)
   ShowMessage("\\n<Luka>All right! Thanks for leaving this behind, Captain Selene!")
   ShowMessageFace("iriasu_fc4",7,0,2,34)
   ShowMessage("\\n<Ilias>Not bad for an earthly item. Yet...")
   0()
  EndIf()
  ShowMessageFace("ruka_fc1",0,0,2,35)
  ShowMessage("\\n<Luka>Eh...?!")
  ShowMessageFace("",0,0,2,36)
  ShowMessage("Something approaches wreathed in the gust of wind...")
  241(bytes(0x04,0x08,0x6f,0x3a,0x0d,0x52,0x50,0x47,0x3a,0x3a,0x42,0x47,0x4d,0x08,0x3a,0x0a,0x40,0x6e,0x61,0x6d,0x65,0x49,0x22,0x0c,0x62,0x6f,0x73,0x73,0x30,0x2d,0x32,0x06,0x3a,0x06,0x45,0x54,0x3a,0x0c,0x40,0x76,0x6f,0x6c,0x75,0x6d,0x65,0x69,0x69,0x3a,0x0b,0x40,0x70,0x69,0x74,0x63,0x68,0x69,0x69))
  250(bytes(0x04,0x08,0x6f,0x3a,0x0c,0x52,0x50,0x47,0x3a,0x3a,0x53,0x45,0x08,0x3a,0x0a,0x40,0x6e,0x61,0x6d,0x65,0x49,0x22,0x0e,0x6d,0x6f,0x6e,0x5f,0x77,0x69,0x6e,0x64,0x31,0x06,0x3a,0x06,0x45,0x54,0x3a,0x0b,0x40,0x70,0x69,0x74,0x63,0x68,0x69,0x69,0x3a,0x0c,0x40,0x76,0x6f,0x6c,0x75,0x6d,0x65,0x69,0x69))
  236(symbol"none",9,30,false)
  ChangeSwitch(2055,2055,0)
  205(8,bytes(0x04,0x08,0x6f,0x3a,0x13,0x52,0x50,0x47,0x3a,0x3a,0x4d,0x6f,0x76,0x65,0x52,0x6f,0x75,0x74,0x65,0x09,0x3a,0x0c,0x40,0x72,0x65,0x70,0x65,0x61,0x74,0x46,0x3a,0x0f,0x40,0x73,0x6b,0x69,0x70,0x70,0x61,0x62,0x6c,0x65,0x46,0x3a,0x0a,0x40,0x77,0x61,0x69,0x74,0x46,0x3a,0x0a,0x40,0x6c,0x69,0x73,0x74,0x5b,0x07,0x6f,0x3a,0x15,0x52,0x50,0x47,0x3a,0x3a,0x4d,0x6f,0x76,0x65,0x43,0x6f,0x6d,0x6d,0x61,0x6e,0x64,0x07,0x3a,0x0a,0x40,0x63,0x6f,0x64,0x65,0x69,0x18,0x3a,0x10,0x40,0x70,0x61,0x72,0x61,0x6d,0x65,0x74,0x65,0x72,0x73,0x5b,0x00,0x6f,0x3b,0x0a,0x07,0x3b,0x0b,0x69,0x00,0x3b,0x0c,0x5b,0x00))
  205(9,bytes(0x04,0x08,0x6f,0x3a,0x13,0x52,0x50,0x47,0x3a,0x3a,0x4d,0x6f,0x76,0x65,0x52,0x6f,0x75,0x74,0x65,0x09,0x3a,0x0c,0x40,0x72,0x65,0x70,0x65,0x61,0x74,0x46,0x3a,0x0f,0x40,0x73,0x6b,0x69,0x70,0x70,0x61,0x62,0x6c,0x65,0x46,0x3a,0x0a,0x40,0x77,0x61,0x69,0x74,0x54,0x3a,0x0a,0x40,0x6c,0x69,0x73,0x74,0x5b,0x07,0x6f,0x3a,0x15,0x52,0x50,0x47,0x3a,0x3a,0x4d,0x6f,0x76,0x65,0x43,0x6f,0x6d,0x6d,0x61,0x6e,0x64,0x07,0x3a,0x0a,0x40,0x63,0x6f,0x64,0x65,0x69,0x18,0x3a,0x10,0x40,0x70,0x61,0x72,0x61,0x6d,0x65,0x74,0x65,0x72,0x73,0x5b,0x00,0x6f,0x3b,0x0a,0x07,0x3b,0x0b,0x69,0x00,0x3b,0x0c,0x5b,0x00))
  ShowSpeechBalloon(8,1,false)
  ShowSpeechBalloon(9,1,true)
  ShowMessageFace("ruka_fc1",0,0,2,37)
  ShowMessage("\\n<Luka>W-who is that!?")
  If(0,4,0)
   ShowMessageFace("alice_fc6",0,0,2,38)
   ShowMessage("\\n<Alice>Alma Elma... Eh, it's not her?!")
   PictureDisplay(5,"80_morrigan_st01b",0,0,0,0,100,100,0,0)
   PictureMove(5,null,0,0,0,0,100,100,255,0,30,true)
   ShowMessageFace("morrigan_fc1",0,0,2,39)
   ShowMessage("\\n<Morrigan>I'm Morrigan, a much, much stronger succubus than Alma Elma.")
   ShowMessageFace("alice_fc5",2,0,2,40)
   ShowMessage("\\n<Alice>Hmph, don't be an idiot. She's the Queen Succubus, the leader of all of you.")
   ShowMessageFace("morrigan_fc1",0,0,2,41)
   ShowMessage("\\n<Morrigan>So what if she's current generation's queen? She's just an imp compared to me!")
   ShowMessageFace("ruka_fc1",0,0,2,42)
   ShowMessage("\\n<Luka>What on earth are you...")
   ShowMessageFace("alice_fc5",2,0,2,43)
   ShowMessage("\\n<Alice>Don't let your guard down, Luka. She's wrong about being stronger than Alma Elma, but she's still quite powerful!")
   0()
  EndIf()
  If(0,5,0)
   ShowMessageFace("iriasu_fc4",7,0,2,44)
   ShowMessage("\\n<Ilias>It wasn't Alma Elma...?!\nWho the hell are you?!")
   PictureDisplay(5,"80_morrigan_st01b",0,0,0,0,100,100,0,0)
   PictureMove(5,null,0,0,0,0,100,100,255,0,30,true)
   ShowMessageFace("morrigan_fc1",0,0,2,45)
   ShowMessage("\\n<Morrigan>I'm Morrigan, a much, much stronger succubus than Alma Elma.")
   ShowMessageFace("iriasu_fc4",7,0,2,46)
   ShowMessage("\\n<Ilias>Morrigan! It can't be, Minagi's...\nNo, I definitely recognize that face from the Great Monster Wars.")
   ShowMessageFace("morrigan_fc1",1,0,2,47)
   ShowMessage("\\n<Morrigan>Oh? So you remember us?\nThe three sisters who turned half a troop of Powers-rank angels into dried fish?")
   ShowMessageFace("ruka_fc1",0,0,2,48)
   ShowMessage("\\n<Luka>Great Monster Wars? Who in the world...")
   ShowMessageFace("iriasu_fc4",7,0,2,49)
   ShowMessage("\\n<Ilias>Don't let your guard down, Luka! She's an extremely powerful succubus from the past!")
   0()
  EndIf()
  PictureDisplay(5,"80_morrigan_st02b",0,0,0,0,100,100,255,0)
  ShowMessageFace("morrigan_fc1",1,0,2,50)
  ShowMessage("\\n<Morrigan>Are you going to take me on?\nIt would be reeeeeeal bad if I killed you though...")
  ShowMessageFace("morrigan_fc1",1,0,2,51)
  ShowMessage("\\n<Morrigan>How about I just go super, super easy on you? I won't touch you with either my hands or feet!")
  If(4,382,0)
   ShowMessageFace("morrigan_fc1",1,0,2,52)
   ShowMessage("\\n<Morrigan’>Sup! You seem full of energy!")
   ShowMessageFace("morrigan_fc1",2,0,2,53)
   ShowMessage("\\n<Morrigan>Seriously? I'm on your side, too? The timeline must be really screwed up.")
   ShowMessageFace("morrigan_fc1",0,0,2,54)
   ShowMessage("\\n<Morrigan>Well, then...\nGuess I'll kill myself.")
   0()
  EndIf()
  ShowMessageFace("ruka_fc1",0,0,2,55)
  ShowMessage("\\n<Luka>Crap, here she comes!")
  SetBattleBGM(bytes(0x04,0x08,0x6f,0x3a,0x0d,0x52,0x50,0x47,0x3a,0x3a,0x42,0x47,0x4d,0x08,0x3a,0x0a,0x40,0x6e,0x61,0x6d,0x65,0x49,0x22,0x10,0x62,0x6f,0x73,0x73,0x5f,0x6c,0x69,0x6c,0x69,0x74,0x68,0x06,0x3a,0x06,0x45,0x54,0x3a,0x0c,0x40,0x76,0x6f,0x6c,0x75,0x6d,0x65,0x69,0x69,0x3a,0x0b,0x40,0x70,0x69,0x74,0x63,0x68,0x69,0x69))
  ChangeSwitch(22,22,0)
  Battle(0,126,false,false)
  ChangeSwitch(22,22,1)
  SetBattleBGM(bytes(0x04,0x08,0x6f,0x3a,0x0d,0x52,0x50,0x47,0x3a,0x3a,0x42,0x47,0x4d,0x08,0x3a,0x0a,0x40,0x6e,0x61,0x6d,0x65,0x49,0x22,0x0b,0x62,0x61,0x74,0x74,0x6c,0x65,0x06,0x3a,0x06,0x45,0x54,0x3a,0x0c,0x40,0x76,0x6f,0x6c,0x75,0x6d,0x65,0x69,0x69,0x3a,0x0b,0x40,0x70,0x69,0x74,0x63,0x68,0x69,0x69))
  ChangeVariable(1001,1001,0,0,13)
  ChangeVariable(1019,1019,0,0,6)
  PictureDisplay(5,"80_morrigan_st03b",0,0,0,0,100,100,255,0)
  241(bytes(0x04,0x08,0x6f,0x3a,0x0d,0x52,0x50,0x47,0x3a,0x3a,0x42,0x47,0x4d,0x08,0x3a,0x0a,0x40,0x6e,0x61,0x6d,0x65,0x49,0x22,0x0c,0x62,0x6f,0x73,0x73,0x30,0x2d,0x32,0x06,0x3a,0x06,0x45,0x54,0x3a,0x0c,0x40,0x76,0x6f,0x6c,0x75,0x6d,0x65,0x69,0x69,0x3a,0x0b,0x40,0x70,0x69,0x74,0x63,0x68,0x69,0x69))
  ShowMessageFace("morrigan_fc1",2,0,2,56)
  ShowMessage("\\n<Morrigan>Hmm, looks like I played around too much. It's about time I get serious and turn you into dried fish.")
  PictureDisplay(5,"80_morrigan_st01b",0,0,0,0,100,100,255,0)
  250(bytes(0x04,0x08,0x6f,0x3a,0x0c,0x52,0x50,0x47,0x3a,0x3a,0x53,0x45,0x08,0x3a,0x0a,0x40,0x6e,0x61,0x6d,0x65,0x49,0x22,0x0f,0x6d,0x6f,0x6e,0x5f,0x65,0x61,0x72,0x74,0x68,0x31,0x06,0x3a,0x06,0x45,0x54,0x3a,0x0b,0x40,0x70,0x69,0x74,0x63,0x68,0x69,0x69,0x3a,0x0c,0x40,0x76,0x6f,0x6c,0x75,0x6d,0x65,0x69,0x69))
  225(7,7,120,false)
  ShowMessageFace("morrigan_fc1",0,0,2,57)
  ShowMessage("\\n<Morrigan>This is all your fault, you know! I was going to let you go, but you stubbornly keep fighting!")
  ShowMessageFace("",0,0,2,58)
  ShowMessage("Morrigan releases a tremendous amount of magic!")
  ShowMessageFace("ruka_fc1",0,0,2,59)
  ShowMessage("\\n<Luka>No way, she wasn't serious at all earlier?!")
  If(0,4,0)
   ShowMessageFace("alice_fc6",0,0,2,60)
   ShowMessage("\\n<Alice>Her power is insane! She really wasn't kidding about being more powerful than the Four Heavenly Knights?!")
   0()
  EndIf()
  If(0,5,0)
   ShowMessageFace("iriasu_fc4",7,0,2,61)
   ShowMessage("\\n<Ilias>Gah, she really is the genuine Morrigan! I can't believe she's still as powerful now as she was during the Great Monster Wars!")
   0()
  EndIf()
  ShowMessageFace("morrigan_fc1",0,0,2,62)
  ShowMessage("\\n<Morrigan>Come on ladies and gentlemen, line up and I'll let you enjoy your last moments as I suck you dry! Who wants to be the first to taste heaven?!")
  ShowMessageFace("morrigan_fc1",0,0,2,63)
  ShowMessage("\\n<Morrigan>No one? Then let's start with the hero...")
  PictureDisplay(5,"80_morrigan_st03b",0,0,0,0,100,100,255,0)
  ShowMessageFace("morrigan_fc1",2,0,2,64)
  ShowMessage("\\n<Morrigan>......")
  241(bytes(0x04,0x08,0x6f,0x3a,0x0d,0x52,0x50,0x47,0x3a,0x3a,0x42,0x47,0x4d,0x08,0x3a,0x0a,0x40,0x6e,0x61,0x6d,0x65,0x49,0x22,0x0a,0x6b,0x69,0x6b,0x69,0x32,0x06,0x3a,0x06,0x45,0x54,0x3a,0x0c,0x40,0x76,0x6f,0x6c,0x75,0x6d,0x65,0x69,0x69,0x3a,0x0b,0x40,0x70,0x69,0x74,0x63,0x68,0x69,0x69))
  ShowMessageFace("morrigan_fc1",2,0,2,65)
  ShowMessage("\\n<Morrigan>What's with the wind? This isn't my doing this time...")
  ShowMessageFace("morrigan_fc1",2,0,2,66)
  ShowMessage("\\n<Morrigan>...From above?!")
  ShowMessageFace("ruka_fc1",0,0,2,67)
  ShowMessage("\\n<Luka>Something's descending toward us...\nIs that a banner!?")
  250(bytes(0x04,0x08,0x6f,0x3a,0x0c,0x52,0x50,0x47,0x3a,0x3a,0x53,0x45,0x08,0x3a,0x0a,0x40,0x6e,0x61,0x6d,0x65,0x49,0x22,0x0a,0x57,0x69,0x6e,0x64,0x31,0x06,0x3a,0x06,0x45,0x54,0x3a,0x0b,0x40,0x70,0x69,0x74,0x63,0x68,0x69,0x69,0x3a,0x0c,0x40,0x76,0x6f,0x6c,0x75,0x6d,0x65,0x69,0x55))
  ShowMessageFace("",0,0,2,68)
  ShowMessage("A huge banner unfurls over our heads as if to cover the entire sky...")
  PictureClear(5)
  PictureDisplay(1,"ct_shion2",0,0,0,0,100,100,0,0)
  PictureMove(1,null,0,0,0,0,100,100,255,0,30,true)
  If(0,4,0)
   ShowMessageFace("alice_fc6",0,0,2,69)
   ShowMessage("\\n<Alice>An awful painting of Ilias?! What the hell?!")
   0()
  EndIf()
  If(0,5,0)
   ShowMessageFace("iriasu_fc4",5,0,2,70)
   ShowMessage("\\n<Ilias>That's... a painting of me?! And it's awful!")
   0()
  EndIf()
  241(bytes(0x04,0x08,0x6f,0x3a,0x0d,0x52,0x50,0x47,0x3a,0x3a,0x42,0x47,0x4d,0x08,0x3a,0x0a,0x40,0x6e,0x61,0x6d,0x65,0x49,0x22,0x0f,0x62,0x6f,0x73,0x73,0x5f,0x61,0x6e,0x67,0x65,0x6c,0x06,0x3a,0x06,0x45,0x54,0x3a,0x0c,0x40,0x76,0x6f,0x6c,0x75,0x6d,0x65,0x69,0x69,0x3a,0x0b,0x40,0x70,0x69,0x74,0x63,0x68,0x69,0x69))
  PictureDisplay(1,"ct_shion1",0,0,0,0,100,100,255,0)
  ChangeSwitch(2056,2056,0)
  205(10,bytes(0x04,0x08,0x6f,0x3a,0x13,0x52,0x50,0x47,0x3a,0x3a,0x4d,0x6f,0x76,0x65,0x52,0x6f,0x75,0x74,0x65,0x09,0x3a,0x0c,0x40,0x72,0x65,0x70,0x65,0x61,0x74,0x46,0x3a,0x0f,0x40,0x73,0x6b,0x69,0x70,0x70,0x61,0x62,0x6c,0x65,0x46,0x3a,0x0a,0x40,0x77,0x61,0x69,0x74,0x54,0x3a,0x0a,0x40,0x6c,0x69,0x73,0x74,0x5b,0x07,0x6f,0x3a,0x15,0x52,0x50,0x47,0x3a,0x3a,0x4d,0x6f,0x76,0x65,0x43,0x6f,0x6d,0x6d,0x61,0x6e,0x64,0x07,0x3a,0x0a,0x40,0x63,0x6f,0x64,0x65,0x69,0x18,0x3a,0x10,0x40,0x70,0x61,0x72,0x61,0x6d,0x65,0x74,0x65,0x72,0x73,0x5b,0x00,0x6f,0x3b,0x0a,0x07,0x3b,0x0b,0x69,0x00,0x3b,0x0c,0x5b,0x00))
  ShowMessageFace("shion_fc1",0,0,2,71)
  ShowMessage("\\n<？？？>Found you, filthy succubus!")
  ShowMessageFace("shion_fc1",0,0,2,72)
  ShowMessage("\\n<？？？>Now, burn to ash!")
  ShowMessageFace("morrigan_fc1",2,0,2,73)
  ShowMessage("\\n<Morrigan>Seraph Zion?! Is she insane? She's really attacking me in this world?!")
  If(0,5,0)
   ShowMessageFace("iriasu_fc4",7,0,2,74)
   ShowMessage("\\n<Ilias>Seraph... Zion?! I don't know any angel named that!")
   0()
  EndIf()
  ShowMessageFace("shion_fc1",0,0,2,75)
  ShowMessage("\\n<Zion>BE GONE!")
  PictureClear(1)
  250(bytes(0x04,0x08,0x6f,0x3a,0x0c,0x52,0x50,0x47,0x3a,0x3a,0x53,0x45,0x08,0x3a,0x0a,0x40,0x6e,0x61,0x6d,0x65,0x49,0x22,0x0d,0x6d,0x6f,0x6e,0x5f,0x62,0x6f,0x6d,0x31,0x06,0x3a,0x06,0x45,0x54,0x3a,0x0b,0x40,0x70,0x69,0x74,0x63,0x68,0x69,0x69,0x3a,0x0c,0x40,0x76,0x6f,0x6c,0x75,0x6d,0x65,0x69,0x69))
  225(7,7,120,false)
  ShowMessageFace("",0,0,2,76)
  ShowMessage("Before we have time to register what's going on, the angel begins shooting bullets of light from her palm that rain down on the ship!")
  250(bytes(0x04,0x08,0x6f,0x3a,0x0c,0x52,0x50,0x47,0x3a,0x3a,0x53,0x45,0x08,0x3a,0x0a,0x40,0x6e,0x61,0x6d,0x65,0x49,0x22,0x0e,0x6d,0x6f,0x6e,0x5f,0x66,0x69,0x72,0x65,0x32,0x06,0x3a,0x06,0x45,0x54,0x3a,0x0b,0x40,0x70,0x69,0x74,0x63,0x68,0x69,0x69,0x3a,0x0c,0x40,0x76,0x6f,0x6c,0x75,0x6d,0x65,0x69,0x69))
  ChangeSwitch(2058,2058,0)
  ShowMessageFace("ruka_fc1",0,0,2,77)
  ShowMessage("\\n<Luka>Woaah! T-the ship!")
  ShowMessageFace("morrigan_fc1",2,0,2,78)
  ShowMessage("\\n<Morrigan>You lunatic of an angel! Do you even know what you're doing?!")
  ShowMessageFace("morrigan_fc1",2,0,2,79)
  ShowMessage("\\n<Morrigan>Killing even one of them will wreck the flow of time! We're only supposed to interfere indirectly!")
  ShowMessageFace("shion_fc1",0,0,2,80)
  ShowMessage("\\n<Zion>A mere succubus dares to lecture a great angel like meee?! I will not compromise when it comes to annihilating you and your sisters!")
  PictureClear(5)
  PictureClear(6)
  250(bytes(0x04,0x08,0x6f,0x3a,0x0c,0x52,0x50,0x47,0x3a,0x3a,0x53,0x45,0x08,0x3a,0x0a,0x40,0x6e,0x61,0x6d,0x65,0x49,0x22,0x0d,0x6d,0x6f,0x6e,0x5f,0x62,0x6f,0x6d,0x31,0x06,0x3a,0x06,0x45,0x54,0x3a,0x0b,0x40,0x70,0x69,0x74,0x63,0x68,0x69,0x69,0x3a,0x0c,0x40,0x76,0x6f,0x6c,0x75,0x6d,0x65,0x69,0x69))
  225(7,7,120,false)
  ShowMessageFace("",0,0,2,81)
  ShowMessage("The angel fires more bullets of light!")
  250(bytes(0x04,0x08,0x6f,0x3a,0x0c,0x52,0x50,0x47,0x3a,0x3a,0x53,0x45,0x08,0x3a,0x0a,0x40,0x6e,0x61,0x6d,0x65,0x49,0x22,0x0e,0x6d,0x6f,0x6e,0x5f,0x66,0x69,0x72,0x65,0x32,0x06,0x3a,0x06,0x45,0x54,0x3a,0x0b,0x40,0x70,0x69,0x74,0x63,0x68,0x69,0x69,0x3a,0x0c,0x40,0x76,0x6f,0x6c,0x75,0x6d,0x65,0x69,0x69))
  ChangeSwitch(2059,2059,0)
  250(bytes(0x04,0x08,0x6f,0x3a,0x0c,0x52,0x50,0x47,0x3a,0x3a,0x53,0x45,0x08,0x3a,0x0a,0x40,0x6e,0x61,0x6d,0x65,0x49,0x22,0x0e,0x6d,0x6f,0x6e,0x5f,0x77,0x69,0x6e,0x64,0x31,0x06,0x3a,0x06,0x45,0x54,0x3a,0x0b,0x40,0x70,0x69,0x74,0x63,0x68,0x69,0x69,0x3a,0x0c,0x40,0x76,0x6f,0x6c,0x75,0x6d,0x65,0x69,0x69))
  ChangeSwitch(31,31,0)
  205(10,bytes(0x04,0x08,0x6f,0x3a,0x13,0x52,0x50,0x47,0x3a,0x3a,0x4d,0x6f,0x76,0x65,0x52,0x6f,0x75,0x74,0x65,0x09,0x3a,0x0c,0x40,0x72,0x65,0x70,0x65,0x61,0x74,0x46,0x3a,0x0f,0x40,0x73,0x6b,0x69,0x70,0x70,0x61,0x62,0x6c,0x65,0x46,0x3a,0x0a,0x40,0x77,0x61,0x69,0x74,0x54,0x3a,0x0a,0x40,0x6c,0x69,0x73,0x74,0x5b,0x12,0x6f,0x3a,0x15,0x52,0x50,0x47,0x3a,0x3a,0x4d,0x6f,0x76,0x65,0x43,0x6f,0x6d,0x6d,0x61,0x6e,0x64,0x07,0x3a,0x0a,0x40,0x63,0x6f,0x64,0x65,0x69,0x2a,0x3a,0x10,0x40,0x70,0x61,0x72,0x61,0x6d,0x65,0x74,0x65,0x72,0x73,0x5b,0x00,0x6f,0x3b,0x0a,0x07,0x3b,0x0b,0x69,0x22,0x3b,0x0c,0x5b,0x06,0x69,0x0a,0x6f,0x3b,0x0a,0x07,0x3b,0x0b,0x69,0x23,0x3b,0x0c,0x5b,0x06,0x69,0x09,0x6f,0x3b,0x0a,0x07,0x3b,0x0b,0x69,0x09,0x3b,0x0c,0x5b,0x00,0x6f,0x3b,0x0a,0x07,0x3b,0x0b,0x69,0x09,0x3b,0x0c,0x5b,0x00,0x6f,0x3b,0x0a,0x07,0x3b,0x0b,0x69,0x09,0x3b,0x0c,0x5b,0x00,0x6f,0x3b,0x0a,0x07,0x3b,0x0b,0x69,0x09,0x3b,0x0c,0x5b,0x00,0x6f,0x3b,0x0a,0x07,0x3b,0x0b,0x69,0x09,0x3b,0x0c,0x5b,0x00,0x6f,0x3b,0x0a,0x07,0x3b,0x0b,0x69,0x09,0x3b,0x0c,0x5b,0x00,0x6f,0x3b,0x0a,0x07,0x3b,0x0b,0x69,0x16,0x3b,0x0c,0x5b,0x00,0x6f,0x3b,0x0a,0x07,0x3b,0x0b,0x69,0x22,0x3b,0x0c,0x5b,0x06,0x69,0x08,0x6f,0x3b,0x0a,0x07,0x3b,0x0b,0x69,0x23,0x3b,0x0c,0x5b,0x06,0x69,0x08,0x6f,0x3b,0x0a,0x07,0x3b,0x0b,0x69,0x00,0x3b,0x0c,0x5b,0x00))
  205(26,bytes(0x04,0x08,0x6f,0x3a,0x13,0x52,0x50,0x47,0x3a,0x3a,0x4d,0x6f,0x76,0x65,0x52,0x6f,0x75,0x74,0x65,0x09,0x3a,0x0c,0x40,0x72,0x65,0x70,0x65,0x61,0x74,0x46,0x3a,0x0f,0x40,0x73,0x6b,0x69,0x70,0x70,0x61,0x62,0x6c,0x65,0x46,0x3a,0x0a,0x40,0x77,0x61,0x69,0x74,0x54,0x3a,0x0a,0x40,0x6c,0x69,0x73,0x74,0x5b,0x07,0x6f,0x3a,0x15,0x52,0x50,0x47,0x3a,0x3a,0x4d,0x6f,0x76,0x65,0x43,0x6f,0x6d,0x6d,0x61,0x6e,0x64,0x07,0x3a,0x0a,0x40,0x63,0x6f,0x64,0x65,0x69,0x17,0x3a,0x10,0x40,0x70,0x61,0x72,0x61,0x6d,0x65,0x74,0x65,0x72,0x73,0x5b,0x00,0x6f,0x3b,0x0a,0x07,0x3b,0x0b,0x69,0x00,0x3b,0x0c,0x5b,0x00))
  ShowMessageFace("morrigan_fc1",2,0,2,82)
  ShowMessage("\\n<Morrigan>Don't underestimate me, you piece of shit angel! That's it, I'm getting this party started by ripping you apart first!")
  250(bytes(0x04,0x08,0x6f,0x3a,0x0c,0x52,0x50,0x47,0x3a,0x3a,0x53,0x45,0x08,0x3a,0x0a,0x40,0x6e,0x61,0x6d,0x65,0x49,0x22,0x0e,0x6d,0x6f,0x6e,0x5f,0x77,0x69,0x6e,0x64,0x32,0x06,0x3a,0x06,0x45,0x54,0x3a,0x0b,0x40,0x70,0x69,0x74,0x63,0x68,0x69,0x69,0x3a,0x0c,0x40,0x76,0x6f,0x6c,0x75,0x6d,0x65,0x69,0x69))
  236(symbol"storm",9,60,false)
  ShowMessageFace("",0,0,2,83)
  ShowMessage("Morrigan summons a fierce storm all around us!")
  ShowMessageFace("ruka_fc1",0,0,2,84)
  ShowMessage("\\n<Luka>Uwaahh!")
  205(9,bytes(0x04,0x08,0x6f,0x3a,0x13,0x52,0x50,0x47,0x3a,0x3a,0x4d,0x6f,0x76,0x65,0x52,0x6f,0x75,0x74,0x65,0x09,0x3a,0x0c,0x40,0x72,0x65,0x70,0x65,0x61,0x74,0x46,0x3a,0x0f,0x40,0x73,0x6b,0x69,0x70,0x70,0x61,0x62,0x6c,0x65,0x46,0x3a,0x0a,0x40,0x77,0x61,0x69,0x74,0x54,0x3a,0x0a,0x40,0x6c,0x69,0x73,0x74,0x5b,0x07,0x6f,0x3a,0x15,0x52,0x50,0x47,0x3a,0x3a,0x4d,0x6f,0x76,0x65,0x43,0x6f,0x6d,0x6d,0x61,0x6e,0x64,0x07,0x3a,0x0a,0x40,0x63,0x6f,0x64,0x65,0x69,0x17,0x3a,0x10,0x40,0x70,0x61,0x72,0x61,0x6d,0x65,0x74,0x65,0x72,0x73,0x5b,0x00,0x6f,0x3b,0x0a,0x07,0x3b,0x0b,0x69,0x00,0x3b,0x0c,0x5b,0x00))
  If(0,4,0)
   ShowMessageFace("alice_fc6",1,0,2,85)
   ShowMessage("\\n<Alice>At this rate the ship's gonna sink! Luka, we're jumping into the sea!")
   0()
  EndIf()
  If(0,5,0)
   ShowMessageFace("iriasu_fc4",7,0,2,86)
   ShowMessage("\\n<Ilias>At this rate the ship will sink! Luka, let's jump into the sea!")
   0()
  EndIf()
  205(8,bytes(0x04,0x08,0x6f,0x3a,0x13,0x52,0x50,0x47,0x3a,0x3a,0x4d,0x6f,0x76,0x65,0x52,0x6f,0x75,0x74,0x65,0x09,0x3a,0x0c,0x40,0x72,0x65,0x70,0x65,0x61,0x74,0x46,0x3a,0x0f,0x40,0x73,0x6b,0x69,0x70,0x70,0x61,0x62,0x6c,0x65,0x46,0x3a,0x0a,0x40,0x77,0x61,0x69,0x74,0x54,0x3a,0x0a,0x40,0x6c,0x69,0x73,0x74,0x5b,0x07,0x6f,0x3a,0x15,0x52,0x50,0x47,0x3a,0x3a,0x4d,0x6f,0x76,0x65,0x43,0x6f,0x6d,0x6d,0x61,0x6e,0x64,0x07,0x3a,0x0a,0x40,0x63,0x6f,0x64,0x65,0x69,0x16,0x3a,0x10,0x40,0x70,0x61,0x72,0x61,0x6d,0x65,0x74,0x65,0x72,0x73,0x5b,0x00,0x6f,0x3b,0x0a,0x07,0x3b,0x0b,0x69,0x00,0x3b,0x0c,0x5b,0x00))
  ShowMessageFace("ruka_fc1",0,0,2,87)
  ShowMessage("\\n<Luka>B-but, in this storm we'll...")
  If(0,4,0)
   ShowMessageFace("alice_fc6",1,0,2,88)
   ShowMessage("\\n<Alice>It's more dangerous to get sucked down with the ship! Just jump!")
   0()
  EndIf()
  If(0,5,0)
   ShowMessageFace("iriasu_fc4",7,0,2,89)
   ShowMessage("\\n<Ilias>When a ship of this size sinks, it will cause a giant whirlpool! We need to get away before we get caught up in it!")
   0()
  EndIf()
  ShowMessageFace("ruka_fc1",0,0,2,90)
  ShowMessage("\\n<Luka>Uwaahhhh...!!!")
  205(8,bytes(0x04,0x08,0x6f,0x3a,0x13,0x52,0x50,0x47,0x3a,0x3a,0x4d,0x6f,0x76,0x65,0x52,0x6f,0x75,0x74,0x65,0x09,0x3a,0x0c,0x40,0x72,0x65,0x70,0x65,0x61,0x74,0x46,0x3a,0x0f,0x40,0x73,0x6b,0x69,0x70,0x70,0x61,0x62,0x6c,0x65,0x46,0x3a,0x0a,0x40,0x77,0x61,0x69,0x74,0x46,0x3a,0x0a,0x40,0x6c,0x69,0x73,0x74,0x5b,0x0e,0x6f,0x3a,0x15,0x52,0x50,0x47,0x3a,0x3a,0x4d,0x6f,0x76,0x65,0x43,0x6f,0x6d,0x6d,0x61,0x6e,0x64,0x07,0x3a,0x0a,0x40,0x63,0x6f,0x64,0x65,0x69,0x2a,0x3a,0x10,0x40,0x70,0x61,0x72,0x61,0x6d,0x65,0x74,0x65,0x72,0x73,0x5b,0x00,0x6f,0x3b,0x0a,0x07,0x3b,0x0b,0x69,0x22,0x3b,0x0c,0x5b,0x06,0x69,0x0b,0x6f,0x3b,0x0a,0x07,0x3b,0x0b,0x69,0x23,0x3b,0x0c,0x5b,0x06,0x69,0x0a,0x6f,0x3b,0x0a,0x07,0x3b,0x0b,0x69,0x08,0x3b,0x0c,0x5b,0x00,0x6f,0x3b,0x0a,0x07,0x3b,0x0b,0x69,0x08,0x3b,0x0c,0x5b,0x00,0x6f,0x3b,0x0a,0x07,0x3b,0x0b,0x69,0x08,0x3b,0x0c,0x5b,0x00,0x6f,0x3b,0x0a,0x07,0x3b,0x0b,0x69,0x08,0x3b,0x0c,0x5b,0x00,0x6f,0x3b,0x0a,0x07,0x3b,0x0b,0x69,0x2c,0x3b,0x0c,0x5b,0x00,0x6f,0x3b,0x0a,0x07,0x3b,0x0b,0x69,0x00,0x3b,0x0c,0x5b,0x00))
  205(9,bytes(0x04,0x08,0x6f,0x3a,0x13,0x52,0x50,0x47,0x3a,0x3a,0x4d,0x6f,0x76,0x65,0x52,0x6f,0x75,0x74,0x65,0x09,0x3a,0x0c,0x40,0x72,0x65,0x70,0x65,0x61,0x74,0x46,0x3a,0x0f,0x40,0x73,0x6b,0x69,0x70,0x70,0x61,0x62,0x6c,0x65,0x46,0x3a,0x0a,0x40,0x77,0x61,0x69,0x74,0x54,0x3a,0x0a,0x40,0x6c,0x69,0x73,0x74,0x5b,0x0f,0x6f,0x3a,0x15,0x52,0x50,0x47,0x3a,0x3a,0x4d,0x6f,0x76,0x65,0x43,0x6f,0x6d,0x6d,0x61,0x6e,0x64,0x07,0x3a,0x0a,0x40,0x63,0x6f,0x64,0x65,0x69,0x2a,0x3a,0x10,0x40,0x70,0x61,0x72,0x61,0x6d,0x65,0x74,0x65,0x72,0x73,0x5b,0x00,0x6f,0x3b,0x0a,0x07,0x3b,0x0b,0x69,0x22,0x3b,0x0c,0x5b,0x06,0x69,0x0b,0x6f,0x3b,0x0a,0x07,0x3b,0x0b,0x69,0x23,0x3b,0x0c,0x5b,0x06,0x69,0x0a,0x6f,0x3b,0x0a,0x07,0x3b,0x0b,0x69,0x08,0x3b,0x0c,0x5b,0x00,0x6f,0x3b,0x0a,0x07,0x3b,0x0b,0x69,0x08,0x3b,0x0c,0x5b,0x00,0x6f,0x3b,0x0a,0x07,0x3b,0x0b,0x69,0x08,0x3b,0x0c,0x5b,0x00,0x6f,0x3b,0x0a,0x07,0x3b,0x0b,0x69,0x08,0x3b,0x0c,0x5b,0x00,0x6f,0x3b,0x0a,0x07,0x3b,0x0b,0x69,0x08,0x3b,0x0c,0x5b,0x00,0x6f,0x3b,0x0a,0x07,0x3b,0x0b,0x69,0x2c,0x3b,0x0c,0x5b,0x00,0x6f,0x3b,0x0a,0x07,0x3b,0x0b,0x69,0x00,0x3b,0x0c,0x5b,0x00))
  250(bytes(0x04,0x08,0x6f,0x3a,0x0c,0x52,0x50,0x47,0x3a,0x3a,0x53,0x45,0x08,0x3a,0x0a,0x40,0x6e,0x61,0x6d,0x65,0x49,0x22,0x0b,0x57,0x61,0x74,0x65,0x72,0x31,0x06,0x3a,0x06,0x45,0x54,0x3a,0x0b,0x40,0x70,0x69,0x74,0x63,0x68,0x69,0x69,0x3a,0x0c,0x40,0x76,0x6f,0x6c,0x75,0x6d,0x65,0x69,0x55))
  PictureDisplay(5,"iv_shion1",0,0,0,0,100,100,0,0)
  PictureMove(5,null,0,0,0,0,100,100,255,0,30,true)
  ShowMessageFace("shion_fc1",0,0,2,91)
  ShowMessage("\\n<Zion>I'll crush you, imp!")
  250(bytes(0x04,0x08,0x6f,0x3a,0x0c,0x52,0x50,0x47,0x3a,0x3a,0x53,0x45,0x08,0x3a,0x0a,0x40,0x6e,0x61,0x6d,0x65,0x49,0x22,0x0e,0x6d,0x6f,0x6e,0x5f,0x77,0x69,0x6e,0x64,0x32,0x06,0x3a,0x06,0x45,0x54,0x3a,0x0b,0x40,0x70,0x69,0x74,0x63,0x68,0x69,0x69,0x3a,0x0c,0x40,0x76,0x6f,0x6c,0x75,0x6d,0x65,0x69,0x69))
  ShowMessageFace("morrigan_fc1",1,0,2,92)
  ShowMessage("\\n<Morrigan>I'll slaughter you, psycho angel!\nWind! Gust and gale!")
  221()
  PictureClear(5)
  250(bytes(0x04,0x08,0x6f,0x3a,0x0c,0x52,0x50,0x47,0x3a,0x3a,0x53,0x45,0x08,0x3a,0x0a,0x40,0x6e,0x61,0x6d,0x65,0x49,0x22,0x0d,0x6d,0x6f,0x6e,0x5f,0x62,0x6f,0x6d,0x31,0x06,0x3a,0x06,0x45,0x54,0x3a,0x0b,0x40,0x70,0x69,0x74,0x63,0x68,0x69,0x69,0x3a,0x0c,0x40,0x76,0x6f,0x6c,0x75,0x6d,0x65,0x69,0x69))
  Wait(60)
  242(4)
  250(bytes(0x04,0x08,0x6f,0x3a,0x0c,0x52,0x50,0x47,0x3a,0x3a,0x53,0x45,0x08,0x3a,0x0a,0x40,0x6e,0x61,0x6d,0x65,0x49,0x22,0x0e,0x6d,0x6f,0x6e,0x5f,0x77,0x69,0x6e,0x64,0x32,0x06,0x3a,0x06,0x45,0x54,0x3a,0x0b,0x40,0x70,0x69,0x74,0x63,0x68,0x69,0x69,0x3a,0x0c,0x40,0x76,0x6f,0x6c,0x75,0x6d,0x65,0x69,0x69))
  Wait(60)
  250(bytes(0x04,0x08,0x6f,0x3a,0x0c,0x52,0x50,0x47,0x3a,0x3a,0x53,0x45,0x08,0x3a,0x0a,0x40,0x6e,0x61,0x6d,0x65,0x49,0x22,0x0e,0x6d,0x6f,0x6e,0x5f,0x66,0x69,0x72,0x65,0x32,0x06,0x3a,0x06,0x45,0x54,0x3a,0x0b,0x40,0x70,0x69,0x74,0x63,0x68,0x69,0x69,0x3a,0x0c,0x40,0x76,0x6f,0x6c,0x75,0x6d,0x65,0x69,0x69))
  Wait(300)
  ChangeSwitch(31,31,1)
  ChangeSwitch(100,100,0)
  ChangeSwitch(2060,2060,0)
  236(symbol"none",9,0,false)
  211(1)
  216(1)
  TeleportPlayer(0,142,15,53,2,2)
  222()
  0()



EVENT   6
 PAGE   1
  0()



EVENT   7
 PAGE   1
  0()



EVENT   8
 PAGE   1
  0()



EVENT   9
 PAGE   1
  // condition: switch 4 is ON
  0()
 PAGE   2
  // condition: switch 5 is ON
  0()




EVENT   10
 PAGE   1
  // condition: switch 2055 is ON
  0()
 PAGE   2
  // condition: switch 2055 is ON
  // condition: switch 31 is ON
  0()



EVENT   11
 PAGE   1
  // condition: switch 2058 is ON
  0()



EVENT   12
 PAGE   1
  // condition: switch 2058 is ON
  0()



EVENT   13
 PAGE   1
  // condition: switch 2058 is ON
  0()



EVENT   14
 PAGE   1
  // condition: switch 2058 is ON
  0()



EVENT   15
 PAGE   1
  // condition: switch 2058 is ON
  0()



EVENT   16
 PAGE   1
  // condition: switch 2058 is ON
  0()



EVENT   17
 PAGE   1
  // condition: switch 2059 is ON
  0()



EVENT   18
 PAGE   1
  // condition: switch 2059 is ON
  0()



EVENT   19
 PAGE   1
  // condition: switch 2059 is ON
  0()



EVENT   20
 PAGE   1
  // condition: switch 2059 is ON
  0()



EVENT   21
 PAGE   1
  // condition: switch 2059 is ON
  0()



EVENT   22
 PAGE   1
  // condition: switch 2059 is ON
  0()



EVENT   23
 PAGE   1
  // condition: switch 2059 is ON
  0()



EVENT   24
 PAGE   1
  // condition: switch 2059 is ON
  0()



EVENT   25
 PAGE   1
  // condition: switch 2059 is ON
  0()



EVENT   26
 PAGE   1
  // condition: switch 2056 is ON
  0()

