﻿
DisplayName "シダラ集落"



EVENT   1
 PAGE   1
  281(1)
  250(bytes(0x04,0x08,0x6f,0x3a,0x0c,0x52,0x50,0x47,0x3a,0x3a,0x53,0x45,0x08,0x3a,0x0a,0x40,0x6e,0x61,0x6d,0x65,0x49,0x22,0x09,0x4d,0x6f,0x76,0x65,0x06,0x3a,0x06,0x45,0x54,0x3a,0x0b,0x40,0x70,0x69,0x74,0x63,0x68,0x69,0x69,0x3a,0x0c,0x40,0x76,0x6f,0x6c,0x75,0x6d,0x65,0x69,0x55))
  TeleportPlayer(0,868,13,36,0,0)
  0()



EVENT   3
 PAGE   1
  281(1)
  250(bytes(0x04,0x08,0x6f,0x3a,0x0c,0x52,0x50,0x47,0x3a,0x3a,0x53,0x45,0x08,0x3a,0x0a,0x40,0x6e,0x61,0x6d,0x65,0x49,0x22,0x09,0x4d,0x6f,0x76,0x65,0x06,0x3a,0x06,0x45,0x54,0x3a,0x0b,0x40,0x70,0x69,0x74,0x63,0x68,0x69,0x69,0x3a,0x0c,0x40,0x76,0x6f,0x6c,0x75,0x6d,0x65,0x69,0x55))
  TeleportPlayer(0,868,17,14,0,0)
  If(1,1204,0,1,0)
   RunCommonEvent(535)
   0()
  EndIf()
  0()



EVENT   2
 PAGE   1
  281(1)
  250(bytes(0x04,0x08,0x6f,0x3a,0x0c,0x52,0x50,0x47,0x3a,0x3a,0x53,0x45,0x08,0x3a,0x0a,0x40,0x6e,0x61,0x6d,0x65,0x49,0x22,0x09,0x4d,0x6f,0x76,0x65,0x06,0x3a,0x06,0x45,0x54,0x3a,0x0b,0x40,0x70,0x69,0x74,0x63,0x68,0x69,0x69,0x3a,0x0c,0x40,0x76,0x6f,0x6c,0x75,0x6d,0x65,0x69,0x55))
  TeleportPlayer(0,868,34,33,0,0)
  0()



EVENT   4
 PAGE   1
  RunCommonEvent(508)
  0()



EVENT   5
 PAGE   1
  RunCommonEvent(508)
  0()



EVENT   6
 PAGE   1
  RunCommonEvent(508)
  0()



EVENT   7
 PAGE   1
  ChangeVariable(1204,1204,0,0,1)
  205(-1,bytes(0x04,0x08,0x6f,0x3a,0x13,0x52,0x50,0x47,0x3a,0x3a,0x4d,0x6f,0x76,0x65,0x52,0x6f,0x75,0x74,0x65,0x09,0x3a,0x0c,0x40,0x72,0x65,0x70,0x65,0x61,0x74,0x46,0x3a,0x0f,0x40,0x73,0x6b,0x69,0x70,0x70,0x61,0x62,0x6c,0x65,0x46,0x3a,0x0a,0x40,0x77,0x61,0x69,0x74,0x54,0x3a,0x0a,0x40,0x6c,0x69,0x73,0x74,0x5b,0x09,0x6f,0x3a,0x15,0x52,0x50,0x47,0x3a,0x3a,0x4d,0x6f,0x76,0x65,0x43,0x6f,0x6d,0x6d,0x61,0x6e,0x64,0x07,0x3a,0x0a,0x40,0x63,0x6f,0x64,0x65,0x69,0x09,0x3a,0x10,0x40,0x70,0x61,0x72,0x61,0x6d,0x65,0x74,0x65,0x72,0x73,0x5b,0x00,0x6f,0x3b,0x0a,0x07,0x3b,0x0b,0x69,0x09,0x3b,0x0c,0x5b,0x00,0x6f,0x3b,0x0a,0x07,0x3b,0x0b,0x69,0x09,0x3b,0x0c,0x5b,0x00,0x6f,0x3b,0x0a,0x07,0x3b,0x0b,0x69,0x00,0x3b,0x0c,0x5b,0x00))
  ShowMessageFace("rovissa_fc1",0,0,2,1)
  ShowMessage("\\n<Rovissa>")
  ShowMessage("ここが、シダラ集落ね。")
  ShowMessage("依頼主はどこかな……？")
  ShowMessageFace("lars_fc01",0,0,2,2)
  ShowMessage("\\n<Lars>")
  ShowMessage("……………………")
  ShowMessageFace("",0,0,2,3)
  ShowMessage("この世界に転移して、丸一日。")
  ShowMessage("右も左も分からない上、通貨まで異なる有様。")
  ShowMessageFace("",0,0,2,4)
  ShowMessage("この怪事の謎を調べるのも重要だが、")
  ShowMessage("食費や宿泊費にも困るのはそれ以上の急務。")
  ShowMessageFace("",0,0,2,5)
  ShowMessage("そういうわけで、この集落に討伐依頼を受けにやって来た。")
  ShowMessage("近隣の村が、謎の妖魔に襲われる事件が続出しているという――")
  ShowMessageFace("rovissa_fc1",0,0,2,6)
  ShowMessage("\\n<Rovissa>")
  ShowMessage("この依頼、多額の報酬も魅力だけど……")
  ShowMessage("ラルスの事だから、困ってる村人を放っておけないんだよね？")
  ShowMessageFace("lars_fc01",0,0,2,7)
  ShowMessage("\\n<Lars>")
  ShowMessage("……………………")
  ShowMessageFace("",0,0,2,8)
  ShowMessage("ラルスは、沈痛な表情で頷いていた。")
  ShowMessageFace("",0,0,2,9)
  ShowMessage("掲示板の依頼文を読む限り、この事件で相当の被害が出ている。")
  ShowMessage("妖魔は村々で住民達を犯し尽くし、被害者の大半は昏睡状態だ。")
  ShowMessageFace("",0,0,2,10)
  ShowMessage("いかに異世界であろうとも、看過する事はできない。")
  ShowMessage("それにこの事件は、なにか自分達と深く関わっている気がする――")
  ShowMessageFace("rovissa_fc1",0,0,2,11)
  ShowMessage("\\n<Rovissa>")
  ShowMessage("依頼主は、この集落の長老だったよね。")
  ShowMessage("どうせ、一番立派な家にいるんじゃない？")
  ShowMessageFace("rovissa_fc1",0,0,2,12)
  ShowMessage("\\n<Rovissa>")
  ShowMessage("あと、他の住人にも話を聞いてみる？")
  ShowMessage("私達、まだまだこの世界の事を知らないしね。")
  EndEventProcessing()
  0()
 PAGE   2
  // condition: variable 1204 >= 1
  0()



EVENT   8
 PAGE   1
  PictureDisplay(5,"80_nobissa_st01",0,0,0,0,100,100,0,0)
  PictureMove(5,null,0,0,0,0,100,100,255,0,30,true)
  ShowMessageFace("nobissa_fc1",0,0,2,1)
  ShowMessage("\\n<Novissa>")
  ShowMessage("……………………")
  ShowMessageFace("lars_fc01",0,0,2,2)
  ShowMessage("\\n<Lars>")
  ShowMessage("……………………")
  ShowMessageFace("",0,0,2,3)
  ShowMessage("この男、只者ではない雰囲気だ。")
  ShowMessage("かなりの猛者に違いない――")
  ShowMessageFace("nobissa_fc1",0,0,2,4)
  ShowMessage("\\n<Novissa>")
  ShowMessage("……………………")
  ShowMessageFace("rovissa_fc1",0,0,2,5)
  ShowMessage("\\n<Rovissa>")
  ShowMessage("えっ、人を捜してるの……？")
  ShowMessage("ターサ……ううん、聞いたことないわね。")
  ShowMessageFace("rovissa_fc1",0,0,2,6)
  ShowMessage("\\n<Rovissa>")
  ShowMessage("ところで私達、これから妖魔退治をするんだけど……")
  ShowMessage("あなたもかなり出来るよね？　一緒にやらない？")
  ShowMessageFace("nobissa_fc1",0,0,2,7)
  ShowMessage("\\n<Novissa>")
  ShowMessage("……………………")
  ShowMessageFace("rovissa_fc1",0,0,2,8)
  ShowMessage("\\n<Rovissa>")
  ShowMessage("そう、ターサって娘が心配なの……")
  ShowMessage("それじゃあ、仕方ないわね。")
  PictureClear(5)
  Wait(30)
  205(-1,bytes(0x04,0x08,0x6f,0x3a,0x13,0x52,0x50,0x47,0x3a,0x3a,0x4d,0x6f,0x76,0x65,0x52,0x6f,0x75,0x74,0x65,0x09,0x3a,0x0c,0x40,0x72,0x65,0x70,0x65,0x61,0x74,0x46,0x3a,0x0f,0x40,0x73,0x6b,0x69,0x70,0x70,0x61,0x62,0x6c,0x65,0x46,0x3a,0x0a,0x40,0x77,0x61,0x69,0x74,0x46,0x3a,0x0a,0x40,0x6c,0x69,0x73,0x74,0x5b,0x07,0x6f,0x3a,0x15,0x52,0x50,0x47,0x3a,0x3a,0x4d,0x6f,0x76,0x65,0x43,0x6f,0x6d,0x6d,0x61,0x6e,0x64,0x07,0x3a,0x0a,0x40,0x63,0x6f,0x64,0x65,0x69,0x15,0x3a,0x10,0x40,0x70,0x61,0x72,0x61,0x6d,0x65,0x74,0x65,0x72,0x73,0x5b,0x00,0x6f,0x3b,0x0a,0x07,0x3b,0x0b,0x69,0x00,0x3b,0x0c,0x5b,0x00))
  250(bytes(0x04,0x08,0x6f,0x3a,0x0c,0x52,0x50,0x47,0x3a,0x3a,0x53,0x45,0x08,0x3a,0x0a,0x40,0x6e,0x61,0x6d,0x65,0x49,0x22,0x10,0x6d,0x6f,0x6e,0x5f,0x61,0x73,0x69,0x6f,0x74,0x6f,0x32,0x06,0x3a,0x06,0x45,0x54,0x3a,0x0b,0x40,0x70,0x69,0x74,0x63,0x68,0x69,0x69,0x3a,0x0c,0x40,0x76,0x6f,0x6c,0x75,0x6d,0x65,0x69,0x69))
  205(0,bytes(0x04,0x08,0x6f,0x3a,0x13,0x52,0x50,0x47,0x3a,0x3a,0x4d,0x6f,0x76,0x65,0x52,0x6f,0x75,0x74,0x65,0x09,0x3a,0x0c,0x40,0x72,0x65,0x70,0x65,0x61,0x74,0x46,0x3a,0x0f,0x40,0x73,0x6b,0x69,0x70,0x70,0x61,0x62,0x6c,0x65,0x46,0x3a,0x0a,0x40,0x77,0x61,0x69,0x74,0x54,0x3a,0x0a,0x40,0x6c,0x69,0x73,0x74,0x5b,0x0b,0x6f,0x3a,0x15,0x52,0x50,0x47,0x3a,0x3a,0x4d,0x6f,0x76,0x65,0x43,0x6f,0x6d,0x6d,0x61,0x6e,0x64,0x07,0x3a,0x0a,0x40,0x63,0x6f,0x64,0x65,0x69,0x2a,0x3a,0x10,0x40,0x70,0x61,0x72,0x61,0x6d,0x65,0x74,0x65,0x72,0x73,0x5b,0x00,0x6f,0x3b,0x0a,0x07,0x3b,0x0b,0x69,0x06,0x3b,0x0c,0x5b,0x00,0x6f,0x3b,0x0a,0x07,0x3b,0x0b,0x69,0x06,0x3b,0x0c,0x5b,0x00,0x6f,0x3b,0x0a,0x07,0x3b,0x0b,0x69,0x06,0x3b,0x0c,0x5b,0x00,0x6f,0x3b,0x0a,0x07,0x3b,0x0b,0x69,0x06,0x3b,0x0c,0x5b,0x00,0x6f,0x3b,0x0a,0x07,0x3b,0x0b,0x69,0x00,0x3b,0x0c,0x5b,0x00))
  205(0,bytes(0x04,0x08,0x6f,0x3a,0x13,0x52,0x50,0x47,0x3a,0x3a,0x4d,0x6f,0x76,0x65,0x52,0x6f,0x75,0x74,0x65,0x09,0x3a,0x0c,0x40,0x72,0x65,0x70,0x65,0x61,0x74,0x46,0x3a,0x0f,0x40,0x73,0x6b,0x69,0x70,0x70,0x61,0x62,0x6c,0x65,0x46,0x3a,0x0a,0x40,0x77,0x61,0x69,0x74,0x46,0x3a,0x0a,0x40,0x6c,0x69,0x73,0x74,0x5b,0x0b,0x6f,0x3a,0x15,0x52,0x50,0x47,0x3a,0x3a,0x4d,0x6f,0x76,0x65,0x43,0x6f,0x6d,0x6d,0x61,0x6e,0x64,0x07,0x3a,0x0a,0x40,0x63,0x6f,0x64,0x65,0x69,0x06,0x3a,0x10,0x40,0x70,0x61,0x72,0x61,0x6d,0x65,0x74,0x65,0x72,0x73,0x5b,0x00,0x6f,0x3b,0x0a,0x07,0x3b,0x0b,0x69,0x06,0x3b,0x0c,0x5b,0x00,0x6f,0x3b,0x0a,0x07,0x3b,0x0b,0x69,0x06,0x3b,0x0c,0x5b,0x00,0x6f,0x3b,0x0a,0x07,0x3b,0x0b,0x69,0x06,0x3b,0x0c,0x5b,0x00,0x6f,0x3b,0x0a,0x07,0x3b,0x0b,0x69,0x20,0x3b,0x0c,0x5b,0x06,0x69,0x02,0x5a,0x0b,0x6f,0x3b,0x0a,0x07,0x3b,0x0b,0x69,0x00,0x3b,0x0c,0x5b,0x00))
  ShowMessageFace("",0,0,2,9)
  ShowMessage("ノビッサは、その場から立ち去った……")
  ShowMessageFace("rovissa_fc1",0,0,2,10)
  ShowMessage("\\n<Rovissa>")
  ShowMessage("あんなに必死に探し回るなんて……")
  ShowMessage("ターサって多分、あの人の恋人よね。")
  ShowMessageFace("rovissa_fc1",0,0,2,11)
  ShowMessage("\\n<Rovissa>")
  ShowMessage("もし、私とラルスが離ればなれになったら……")
  ShowMessage("あんな風に、捜し回ってくれる？")
  ShowChoices(strings("はい","いいえ"),0)
  IfPlayerPicksChoice(0,null)
   ShowMessageFace("rovissa_fc1",0,0,2,12)
   ShowMessage("\\n<Rovissa>")
   ShowMessage("ふふっ、そうよね……♪")
   0()
  IfPlayerPicksChoice(1,null)
   ShowMessageFace("rovissa_fc1",0,0,2,13)
   ShowMessage("\\n<Rovissa>")
   ShowMessage("……ふん、いいわよ！")
   ShowMessage("こっちから捜し出してあげるから！")
   0()
  404()
  EndEventProcessing()
  0()
 PAGE   2
  // condition: switch 2906 is ON
  0()



EVENT   9
 PAGE   1
  ShowMessageFace("",0,0,2,1)
  ShowMessage("\\n<村娘>")
  ShowMessage("最初に襲われたのは、ゴルド地域の小さな町。")
  ShowMessage("そこから、次々に小さな村が襲われていき――")
  ShowMessageFace("",0,0,2,2)
  ShowMessage("\\n<村娘>")
  ShowMessage("とうとう、魔の手はヤマタイ地方にまで至ったのです。")
  ShowMessage("この集落も、いつ妖魔達に襲われるか……")
  0()



EVENT   10
 PAGE   1
  ShowMessageFace("",0,0,2,1)
  ShowMessage("\\n<衛兵>")
  ShowMessage("この小さな集落に、兵はわずか数人。")
  ShowMessage("これでは外敵など、とうてい防ぎきれぬ……")
  0()



EVENT   11
 PAGE   1
  ShowMessageFace(binary"",0,0,2,1)
  ShowMessage("\\n<村人>")
  ShowMessage("こんな小さな集落に、よく来て下さった。")
  ShowMessage("話は、長から聞いてくれ。")
  0()



EVENT   12
 PAGE   1
  ShowMessageFace("",0,0,2,1)
  ShowMessage("\\n<牛>")
  ShowMessage("モ～。")
  ShowMessageFace("",0,0,2,2)
  ShowMessage("牛はまるまると太っている……")
  0()



EVENT   13
 PAGE   1
  ShowMessageFace("",0,0,2,1)
  ShowMessage("\\n<僧>")
  ShowMessage("例の妖魔に襲われた者達は、みな昏睡状態になるとか。")
  ShowMessage("命に別状はないものの、意識が戻らんらしい。")
  ShowMessageFace("",0,0,2,2)
  ShowMessage("\\n<僧>")
  ShowMessage("その連中は、なぜそんな事をするのか。")
  ShowMessage("ただの食事なのか、それとも……")
  0()



EVENT   14
 PAGE   1
  // condition: variable 1204 >= 2
  ChangeSelfSwitch("A",0)
  ShowMessageFace("rovissa_fc1",0,0,2,1)
  ShowMessage("\\n<Rovissa>")
  ShowMessage("あの変な退魔師も、イズモ村に向かったはずよね……")
  ShowMessage("手柄を奪われないように、先回りするわよ！")
  ShowMessageFace("lars_fc01",0,0,2,2)
  ShowMessage("\\n<Lars>")
  ShowMessage("……………………")
  ShowMessageFace("",0,0,2,3)
  ShowMessage("そもそも、地脈を辿るという着想は向こうの発案。")
  ShowMessage("むしろ、手柄を奪ったのはこちらのような気もするが――")
  ShowMessageFace("rovissa_fc1",0,0,2,4)
  ShowMessage("\\n<Rovissa>")
  ShowMessage("それにしても……なんで私、実体化状態なんだろ。")
  ShowMessage("やっぱり、この世界の作用かな？")
  ShowMessageFace("",0,0,2,5)
  ShowMessage("黒い渦に巻き込まれ、この世界に来てから――")
  ShowMessage("ルヴィッサは、召喚せずとも実体化状態となっているのだ。")
  ShowMessageFace("lars_fc01",0,0,2,6)
  ShowMessage("\\n<Lars>")
  ShowMessage("……………………")
  ShowMessageFace("rovissa_fc1",0,0,2,7)
  ShowMessage("\\n<Rovissa>")
  ShowMessage("たぶん、これは一時的なもの。")
  ShowMessage("私達の世界に戻れば、元に戻ると思う。")
  ShowMessageFace("rovissa_fc1",0,0,2,8)
  ShowMessage("\\n<Rovissa>")
  ShowMessage("でも、夢魔じゃない相手と戦うなんて……")
  ShowMessage("ラルス、剣を使うのは久しぶりじゃない？")
  ShowMessageFace("lars_fc01",0,0,2,9)
  ShowMessage("\\n<Lars>")
  ShowMessage("……………………")
  ShowMessageFace("",0,0,2,10)
  ShowMessage("かつて、魔王をも倒した剣技――")
  ShowMessage("この力で戦うのは、本当に久しぶりだ。")
  ShowMessageFace("",0,0,2,11)
  ShowMessage("村を潰して回るほどの妖魔、相当に強いはず。")
  ShowMessage("まして勝手の違う異世界、覚悟を決めて挑まなければ――")
  EndEventProcessing()
  0()
 PAGE   2
  // condition: self-switch A is ON
  0()



EVENT   15
 PAGE   1
  ShowMessageFace("",0,0,2,1)
  ShowMessage("\\n<村人>")
  ShowMessage("最近は、作物がすくすく育つのう。")
  ShowMessage("果実も多くなって、万々歳じゃわい。")
  ShowMessageFace("",0,0,2,2)
  ShowMessage("\\n<村人>")
  ShowMessage("足が四本や六本のニワトリも、いっぱい産まれておる。")
  ShowMessage("食うところがいっぱいあって、嬉しいのう。")
  ShowMessageFace("rovissa_fc1",0,0,2,3)
  ShowMessage("\\n<Rovissa>")
  ShowMessage("それ、喜んでていいの……？")
  0()



EVENT   16
 PAGE   1
  250(bytes(0x04,0x08,0x6f,0x3a,0x0c,0x52,0x50,0x47,0x3a,0x3a,0x53,0x45,0x08,0x3a,0x0a,0x40,0x6e,0x61,0x6d,0x65,0x49,0x22,0x0a,0x49,0x74,0x65,0x6d,0x31,0x06,0x3a,0x06,0x45,0x54,0x3a,0x0b,0x40,0x70,0x69,0x74,0x63,0x68,0x69,0x69,0x3a,0x0c,0x40,0x76,0x6f,0x6c,0x75,0x6d,0x65,0x69,0x55))
  ChangeSelfSwitch("A",0)
  ChangeInventory_Item(3,0,0,1)
  0()
 PAGE   2
  // condition: self-switch A is ON
  0()



EVENT   17
 PAGE   1
  250(bytes(0x04,0x08,0x6f,0x3a,0x0c,0x52,0x50,0x47,0x3a,0x3a,0x53,0x45,0x08,0x3a,0x0a,0x40,0x6e,0x61,0x6d,0x65,0x49,0x22,0x0a,0x49,0x74,0x65,0x6d,0x31,0x06,0x3a,0x06,0x45,0x54,0x3a,0x0b,0x40,0x70,0x69,0x74,0x63,0x68,0x69,0x69,0x3a,0x0c,0x40,0x76,0x6f,0x6c,0x75,0x6d,0x65,0x69,0x55))
  ChangeSelfSwitch("A",0)
  ChangeInventory_Item(5,0,0,1)
  0()
 PAGE   2
  // condition: self-switch A is ON
  0()



EVENT   18
 PAGE   1
  ShowMessageFace("slime_fc1",0,0,2,1)
  ShowMessage("\\n<スライム娘>")
  ShowMessage("ブーメラン♪　ブーメラン♪")
  ShowMessageFace("rovissa_fc1",0,0,2,2)
  ShowMessage("\\n<Rovissa>")
  ShowMessage("なんかぷるぷるした子が踊ってる！")
  ShowMessage("かわいい……♪")
  ShowMessageFace("lars_fc01",0,0,2,3)
  ShowMessage("\\n<Lars>")
  ShowMessage("……………………")
  ShowMessageFace("",0,0,2,4)
  ShowMessage("この世界にいる魔物は、自分達の知る夢魔とはまったくの別物。")
  ShowMessage("なので夢魔を拒絶するルヴィッサも、魔物は嫌いではないらしい。")
  0()
