﻿
DisplayName "迷宮への洞窟"



EVENT   1
 PAGE   1
  250(bytes(0x04,0x08,0x6f,0x3a,0x0c,0x52,0x50,0x47,0x3a,0x3a,0x53,0x45,0x08,0x3a,0x0a,0x40,0x6e,0x61,0x6d,0x65,0x49,0x22,0x09,0x4d,0x6f,0x76,0x65,0x06,0x3a,0x06,0x45,0x54,0x3a,0x0b,0x40,0x70,0x69,0x74,0x63,0x68,0x69,0x69,0x3a,0x0c,0x40,0x76,0x6f,0x6c,0x75,0x6d,0x65,0x69,0x55))
  TeleportPlayer(0,920,176,84,6,0)
  If(1,1203,0,7,0)
   ChangeVariable(1203,1203,0,0,8)
   ChangeSwitch(31,31,1)
   ChangeSwitch(32,32,1)
   ShowMessageFace("tarsa_fc1",0,0,2,1)
   ShowMessage("\\n<Tarsa>")
   ShowMessage("わぁっ！　お日様がまぶしい♪")
   ShowMessageFace("rest_fc1",0,0,2,2)
   ShowMessage("\\n<Lest>")
   ShowMessage("なんとか、洞窟を抜けたな。")
   ShowMessage("予想以上に長い道のりだった……")
   ShowMessageFace("",0,0,2,3)
   ShowMessage("さて、洞窟を出ればグランドノアが近いという話。")
   ShowMessage("確かに、西方に大きな城が見える。")
   ShowMessageFace("rest_fc1",0,0,2,4)
   ShowMessage("\\n<Lest>")
   ShowMessage("……あれだな。")
   ShowMessage("グランドノアまであと少しだ、行こう！")
   ShowMessageFace("tarsa_fc1",0,0,2,5)
   ShowMessage("\\n<Tarsa>")
   ShowMessage("異世界の都市って、どんな感じかしら？")
   ShowMessage("ちょっと楽しみかも……")
   EndEventProcessing()
   0()
  EndIf()
  0()



EVENT   2
 PAGE   1
  ChangeSwitch(31,31,1)
  250(bytes(0x04,0x08,0x6f,0x3a,0x0c,0x52,0x50,0x47,0x3a,0x3a,0x53,0x45,0x08,0x3a,0x0a,0x40,0x6e,0x61,0x6d,0x65,0x49,0x22,0x09,0x4d,0x6f,0x76,0x65,0x06,0x3a,0x06,0x45,0x54,0x3a,0x0b,0x40,0x70,0x69,0x74,0x63,0x68,0x69,0x69,0x3a,0x0c,0x40,0x76,0x6f,0x6c,0x75,0x6d,0x65,0x69,0x55))
  TeleportPlayer(0,866,6,13,2,0)
  0()



EVENT   3
 PAGE   1
  250(bytes(0x04,0x08,0x6f,0x3a,0x0c,0x52,0x50,0x47,0x3a,0x3a,0x53,0x45,0x08,0x3a,0x0a,0x40,0x6e,0x61,0x6d,0x65,0x49,0x22,0x0a,0x43,0x68,0x65,0x73,0x74,0x06,0x3a,0x06,0x45,0x54,0x3a,0x0b,0x40,0x70,0x69,0x74,0x63,0x68,0x69,0x69,0x3a,0x0c,0x40,0x76,0x6f,0x6c,0x75,0x6d,0x65,0x69,0x55))
  205(0,bytes(0x04,0x08,0x6f,0x3a,0x13,0x52,0x50,0x47,0x3a,0x3a,0x4d,0x6f,0x76,0x65,0x52,0x6f,0x75,0x74,0x65,0x09,0x3a,0x0c,0x40,0x72,0x65,0x70,0x65,0x61,0x74,0x46,0x3a,0x0f,0x40,0x73,0x6b,0x69,0x70,0x70,0x61,0x62,0x6c,0x65,0x46,0x3a,0x0a,0x40,0x77,0x61,0x69,0x74,0x54,0x3a,0x0a,0x40,0x6c,0x69,0x73,0x74,0x5b,0x0b,0x6f,0x3a,0x15,0x52,0x50,0x47,0x3a,0x3a,0x4d,0x6f,0x76,0x65,0x43,0x6f,0x6d,0x6d,0x61,0x6e,0x64,0x07,0x3a,0x0a,0x40,0x63,0x6f,0x64,0x65,0x69,0x29,0x3a,0x10,0x40,0x70,0x61,0x72,0x61,0x6d,0x65,0x74,0x65,0x72,0x73,0x5b,0x00,0x6f,0x3b,0x0a,0x07,0x3b,0x0b,0x69,0x16,0x3b,0x0c,0x5b,0x00,0x6f,0x3b,0x0a,0x07,0x3b,0x0b,0x69,0x14,0x3b,0x0c,0x5b,0x06,0x69,0x08,0x6f,0x3b,0x0a,0x07,0x3b,0x0b,0x69,0x17,0x3b,0x0c,0x5b,0x00,0x6f,0x3b,0x0a,0x07,0x3b,0x0b,0x69,0x14,0x3b,0x0c,0x5b,0x06,0x69,0x08,0x6f,0x3b,0x0a,0x07,0x3b,0x0b,0x69,0x00,0x3b,0x0c,0x5b,0x00))
  ChangeSelfSwitch("A",0)
  ChangeInventoryArmor(206,0,0,1,false)
  0()
 PAGE   2
  // condition: self-switch A is ON
  0()



EVENT   4
 PAGE   1
  250(bytes(0x04,0x08,0x6f,0x3a,0x0c,0x52,0x50,0x47,0x3a,0x3a,0x53,0x45,0x08,0x3a,0x0a,0x40,0x6e,0x61,0x6d,0x65,0x49,0x22,0x0a,0x43,0x68,0x65,0x73,0x74,0x06,0x3a,0x06,0x45,0x54,0x3a,0x0b,0x40,0x70,0x69,0x74,0x63,0x68,0x69,0x69,0x3a,0x0c,0x40,0x76,0x6f,0x6c,0x75,0x6d,0x65,0x69,0x55))
  205(0,bytes(0x04,0x08,0x6f,0x3a,0x13,0x52,0x50,0x47,0x3a,0x3a,0x4d,0x6f,0x76,0x65,0x52,0x6f,0x75,0x74,0x65,0x09,0x3a,0x0c,0x40,0x72,0x65,0x70,0x65,0x61,0x74,0x46,0x3a,0x0f,0x40,0x73,0x6b,0x69,0x70,0x70,0x61,0x62,0x6c,0x65,0x46,0x3a,0x0a,0x40,0x77,0x61,0x69,0x74,0x54,0x3a,0x0a,0x40,0x6c,0x69,0x73,0x74,0x5b,0x0b,0x6f,0x3a,0x15,0x52,0x50,0x47,0x3a,0x3a,0x4d,0x6f,0x76,0x65,0x43,0x6f,0x6d,0x6d,0x61,0x6e,0x64,0x07,0x3a,0x0a,0x40,0x63,0x6f,0x64,0x65,0x69,0x29,0x3a,0x10,0x40,0x70,0x61,0x72,0x61,0x6d,0x65,0x74,0x65,0x72,0x73,0x5b,0x00,0x6f,0x3b,0x0a,0x07,0x3b,0x0b,0x69,0x16,0x3b,0x0c,0x5b,0x00,0x6f,0x3b,0x0a,0x07,0x3b,0x0b,0x69,0x14,0x3b,0x0c,0x5b,0x06,0x69,0x08,0x6f,0x3b,0x0a,0x07,0x3b,0x0b,0x69,0x17,0x3b,0x0c,0x5b,0x00,0x6f,0x3b,0x0a,0x07,0x3b,0x0b,0x69,0x14,0x3b,0x0c,0x5b,0x06,0x69,0x08,0x6f,0x3b,0x0a,0x07,0x3b,0x0b,0x69,0x00,0x3b,0x0c,0x5b,0x00))
  ChangeSelfSwitch("A",0)
  ChangeInventoryArmor(71,0,0,1,false)
  0()
 PAGE   2
  // condition: self-switch A is ON
  0()



EVENT   5
 PAGE   1
  250(bytes(0x04,0x08,0x6f,0x3a,0x0c,0x52,0x50,0x47,0x3a,0x3a,0x53,0x45,0x08,0x3a,0x0a,0x40,0x6e,0x61,0x6d,0x65,0x49,0x22,0x0a,0x43,0x68,0x65,0x73,0x74,0x06,0x3a,0x06,0x45,0x54,0x3a,0x0b,0x40,0x70,0x69,0x74,0x63,0x68,0x69,0x69,0x3a,0x0c,0x40,0x76,0x6f,0x6c,0x75,0x6d,0x65,0x69,0x55))
  205(0,bytes(0x04,0x08,0x6f,0x3a,0x13,0x52,0x50,0x47,0x3a,0x3a,0x4d,0x6f,0x76,0x65,0x52,0x6f,0x75,0x74,0x65,0x09,0x3a,0x0c,0x40,0x72,0x65,0x70,0x65,0x61,0x74,0x46,0x3a,0x0f,0x40,0x73,0x6b,0x69,0x70,0x70,0x61,0x62,0x6c,0x65,0x46,0x3a,0x0a,0x40,0x77,0x61,0x69,0x74,0x54,0x3a,0x0a,0x40,0x6c,0x69,0x73,0x74,0x5b,0x0b,0x6f,0x3a,0x15,0x52,0x50,0x47,0x3a,0x3a,0x4d,0x6f,0x76,0x65,0x43,0x6f,0x6d,0x6d,0x61,0x6e,0x64,0x07,0x3a,0x0a,0x40,0x63,0x6f,0x64,0x65,0x69,0x29,0x3a,0x10,0x40,0x70,0x61,0x72,0x61,0x6d,0x65,0x74,0x65,0x72,0x73,0x5b,0x00,0x6f,0x3b,0x0a,0x07,0x3b,0x0b,0x69,0x16,0x3b,0x0c,0x5b,0x00,0x6f,0x3b,0x0a,0x07,0x3b,0x0b,0x69,0x14,0x3b,0x0c,0x5b,0x06,0x69,0x08,0x6f,0x3b,0x0a,0x07,0x3b,0x0b,0x69,0x17,0x3b,0x0c,0x5b,0x00,0x6f,0x3b,0x0a,0x07,0x3b,0x0b,0x69,0x14,0x3b,0x0c,0x5b,0x06,0x69,0x08,0x6f,0x3b,0x0a,0x07,0x3b,0x0b,0x69,0x00,0x3b,0x0c,0x5b,0x00))
  ChangeSelfSwitch("A",0)
  ChangeInventoryWeapon(91,0,0,1,false)
  0()
 PAGE   2
  // condition: self-switch A is ON
  0()



EVENT   6
 PAGE   1
  250(bytes(0x04,0x08,0x6f,0x3a,0x0c,0x52,0x50,0x47,0x3a,0x3a,0x53,0x45,0x08,0x3a,0x0a,0x40,0x6e,0x61,0x6d,0x65,0x49,0x22,0x0a,0x43,0x68,0x65,0x73,0x74,0x06,0x3a,0x06,0x45,0x54,0x3a,0x0b,0x40,0x70,0x69,0x74,0x63,0x68,0x69,0x69,0x3a,0x0c,0x40,0x76,0x6f,0x6c,0x75,0x6d,0x65,0x69,0x55))
  205(0,bytes(0x04,0x08,0x6f,0x3a,0x13,0x52,0x50,0x47,0x3a,0x3a,0x4d,0x6f,0x76,0x65,0x52,0x6f,0x75,0x74,0x65,0x09,0x3a,0x0c,0x40,0x72,0x65,0x70,0x65,0x61,0x74,0x46,0x3a,0x0f,0x40,0x73,0x6b,0x69,0x70,0x70,0x61,0x62,0x6c,0x65,0x46,0x3a,0x0a,0x40,0x77,0x61,0x69,0x74,0x54,0x3a,0x0a,0x40,0x6c,0x69,0x73,0x74,0x5b,0x0b,0x6f,0x3a,0x15,0x52,0x50,0x47,0x3a,0x3a,0x4d,0x6f,0x76,0x65,0x43,0x6f,0x6d,0x6d,0x61,0x6e,0x64,0x07,0x3a,0x0a,0x40,0x63,0x6f,0x64,0x65,0x69,0x29,0x3a,0x10,0x40,0x70,0x61,0x72,0x61,0x6d,0x65,0x74,0x65,0x72,0x73,0x5b,0x00,0x6f,0x3b,0x0a,0x07,0x3b,0x0b,0x69,0x16,0x3b,0x0c,0x5b,0x00,0x6f,0x3b,0x0a,0x07,0x3b,0x0b,0x69,0x14,0x3b,0x0c,0x5b,0x06,0x69,0x08,0x6f,0x3b,0x0a,0x07,0x3b,0x0b,0x69,0x17,0x3b,0x0c,0x5b,0x00,0x6f,0x3b,0x0a,0x07,0x3b,0x0b,0x69,0x14,0x3b,0x0c,0x5b,0x06,0x69,0x08,0x6f,0x3b,0x0a,0x07,0x3b,0x0b,0x69,0x00,0x3b,0x0c,0x5b,0x00))
  ChangeSelfSwitch("A",0)
  ChangeInventoryWeapon(732,0,0,1,false)
  0()
 PAGE   2
  // condition: self-switch A is ON
  0()



EVENT   7
 PAGE   1
  250(bytes(0x04,0x08,0x6f,0x3a,0x0c,0x52,0x50,0x47,0x3a,0x3a,0x53,0x45,0x08,0x3a,0x0a,0x40,0x6e,0x61,0x6d,0x65,0x49,0x22,0x0a,0x43,0x68,0x65,0x73,0x74,0x06,0x3a,0x06,0x45,0x54,0x3a,0x0b,0x40,0x70,0x69,0x74,0x63,0x68,0x69,0x69,0x3a,0x0c,0x40,0x76,0x6f,0x6c,0x75,0x6d,0x65,0x69,0x55))
  205(0,bytes(0x04,0x08,0x6f,0x3a,0x13,0x52,0x50,0x47,0x3a,0x3a,0x4d,0x6f,0x76,0x65,0x52,0x6f,0x75,0x74,0x65,0x09,0x3a,0x0c,0x40,0x72,0x65,0x70,0x65,0x61,0x74,0x46,0x3a,0x0f,0x40,0x73,0x6b,0x69,0x70,0x70,0x61,0x62,0x6c,0x65,0x46,0x3a,0x0a,0x40,0x77,0x61,0x69,0x74,0x54,0x3a,0x0a,0x40,0x6c,0x69,0x73,0x74,0x5b,0x0b,0x6f,0x3a,0x15,0x52,0x50,0x47,0x3a,0x3a,0x4d,0x6f,0x76,0x65,0x43,0x6f,0x6d,0x6d,0x61,0x6e,0x64,0x07,0x3a,0x0a,0x40,0x63,0x6f,0x64,0x65,0x69,0x29,0x3a,0x10,0x40,0x70,0x61,0x72,0x61,0x6d,0x65,0x74,0x65,0x72,0x73,0x5b,0x00,0x6f,0x3b,0x0a,0x07,0x3b,0x0b,0x69,0x16,0x3b,0x0c,0x5b,0x00,0x6f,0x3b,0x0a,0x07,0x3b,0x0b,0x69,0x14,0x3b,0x0c,0x5b,0x06,0x69,0x08,0x6f,0x3b,0x0a,0x07,0x3b,0x0b,0x69,0x17,0x3b,0x0c,0x5b,0x00,0x6f,0x3b,0x0a,0x07,0x3b,0x0b,0x69,0x14,0x3b,0x0c,0x5b,0x06,0x69,0x08,0x6f,0x3b,0x0a,0x07,0x3b,0x0b,0x69,0x00,0x3b,0x0c,0x5b,0x00))
  ChangeSelfSwitch("A",0)
  ChangeInventoryArmor(1584,0,0,1,false)
  0()
 PAGE   2
  // condition: self-switch A is ON
  0()



EVENT   8
 PAGE   1
  // condition: switch 31 is ON
  0()



EVENT   9
 PAGE   1
  0()
 PAGE   2
  // condition: variable 1203 >= 6
  0()



EVENT   11
 PAGE   1
  // condition: variable 1203 >= 4
  ShowMessageFace("rest_fc1",0,0,2,1)
  ShowMessage("\\n<Lest>")
  ShowMessage("これは……予想以上に広そうだな。")
  ShowMessageFace("tarsa_fc1",0,0,2,2)
  ShowMessage("\\n<Tarsa>")
  ShowMessage("でも、ここを抜ければ町なのよね。")
  ShowMessage("注意しながら、奥に――")
  Wait(30)
  241(bytes(0x04,0x08,0x6f,0x3a,0x0d,0x52,0x50,0x47,0x3a,0x3a,0x42,0x47,0x4d,0x08,0x3a,0x0a,0x40,0x6e,0x61,0x6d,0x65,0x49,0x22,0x0f,0x73,0x68,0x69,0x72,0x6f,0x75,0x73,0x61,0x67,0x69,0x06,0x3a,0x06,0x45,0x54,0x3a,0x0c,0x40,0x76,0x6f,0x6c,0x75,0x6d,0x65,0x69,0x69,0x3a,0x0b,0x40,0x70,0x69,0x74,0x63,0x68,0x69,0x69))
  ChangeSwitch(31,31,0)
  250(bytes(0x04,0x08,0x6f,0x3a,0x0c,0x52,0x50,0x47,0x3a,0x3a,0x53,0x45,0x08,0x3a,0x0a,0x40,0x6e,0x61,0x6d,0x65,0x49,0x22,0x10,0x6d,0x6f,0x6e,0x5f,0x74,0x61,0x6d,0x61,0x6d,0x6f,0x32,0x06,0x3a,0x06,0x45,0x54,0x3a,0x0b,0x40,0x70,0x69,0x74,0x63,0x68,0x69,0x69,0x3a,0x0c,0x40,0x76,0x6f,0x6c,0x75,0x6d,0x65,0x69,0x55))
  205(-1,bytes(0x04,0x08,0x6f,0x3a,0x13,0x52,0x50,0x47,0x3a,0x3a,0x4d,0x6f,0x76,0x65,0x52,0x6f,0x75,0x74,0x65,0x09,0x3a,0x0c,0x40,0x72,0x65,0x70,0x65,0x61,0x74,0x46,0x3a,0x0f,0x40,0x73,0x6b,0x69,0x70,0x70,0x61,0x62,0x6c,0x65,0x46,0x3a,0x0a,0x40,0x77,0x61,0x69,0x74,0x54,0x3a,0x0a,0x40,0x6c,0x69,0x73,0x74,0x5b,0x07,0x6f,0x3a,0x15,0x52,0x50,0x47,0x3a,0x3a,0x4d,0x6f,0x76,0x65,0x43,0x6f,0x6d,0x6d,0x61,0x6e,0x64,0x07,0x3a,0x0a,0x40,0x63,0x6f,0x64,0x65,0x69,0x15,0x3a,0x10,0x40,0x70,0x61,0x72,0x61,0x6d,0x65,0x74,0x65,0x72,0x73,0x5b,0x00,0x6f,0x3b,0x0a,0x07,0x3b,0x0b,0x69,0x00,0x3b,0x0c,0x5b,0x00))
  205(8,bytes(0x04,0x08,0x6f,0x3a,0x13,0x52,0x50,0x47,0x3a,0x3a,0x4d,0x6f,0x76,0x65,0x52,0x6f,0x75,0x74,0x65,0x09,0x3a,0x0c,0x40,0x72,0x65,0x70,0x65,0x61,0x74,0x46,0x3a,0x0f,0x40,0x73,0x6b,0x69,0x70,0x70,0x61,0x62,0x6c,0x65,0x46,0x3a,0x0a,0x40,0x77,0x61,0x69,0x74,0x54,0x3a,0x0a,0x40,0x6c,0x69,0x73,0x74,0x5b,0x07,0x6f,0x3a,0x15,0x52,0x50,0x47,0x3a,0x3a,0x4d,0x6f,0x76,0x65,0x43,0x6f,0x6d,0x6d,0x61,0x6e,0x64,0x07,0x3a,0x0a,0x40,0x63,0x6f,0x64,0x65,0x69,0x13,0x3a,0x10,0x40,0x70,0x61,0x72,0x61,0x6d,0x65,0x74,0x65,0x72,0x73,0x5b,0x07,0x69,0x00,0x69,0x00,0x6f,0x3b,0x0a,0x07,0x3b,0x0b,0x69,0x00,0x3b,0x0c,0x5b,0x00))
  Wait(30)
  PictureDisplay(5,"80_sirousagi_st01",0,0,0,0,100,100,0,0)
  PictureMove(5,null,0,0,0,0,100,100,255,0,60,true)
  ShowMessageFace("sirousagi_fc1",0,0,2,3)
  ShowMessage("\\n<White Rabbit>")
  ShowMessage("こんちは～♪")
  ShowMessageFace("rest_fc1",0,0,2,4)
  ShowMessage("\\n<Lest>")
  ShowMessage("わっ……！　なんだ！？")
  ShowMessageFace("tarsa_fc1",2,0,2,5)
  ShowMessage("\\n<Tarsa>")
  ShowMessage("う、ウサギさん……！？")
  ShowMessageFace("sirousagi_fc1",0,0,2,6)
  ShowMessage("\\n<White Rabbit>")
  ShowMessage("ボクは白兎、君達を導く者……")
  ShowMessage("……いい加減、同じ話を繰り返すのも疲れるよね。")
  ShowMessageFace("rest_fc1",0,0,2,7)
  ShowMessage("\\n<Lest>")
  ShowMessage("て、敵か……！？")
  ShowMessageFace("sirousagi_fc1",0,0,2,8)
  ShowMessage("\\n<White Rabbit>")
  ShowMessage("えっと、君の名前はなんだっけ……")
  ShowMessage("とにかく君は、選ばれし七人の勇者の一人なんだ。")
  ShowMessageFace("sirousagi_fc1",0,0,2,9)
  ShowMessage("\\n<White Rabbit>")
  ShowMessage("そういうわけで「夢の主」を倒して。")
  ShowMessage("他に勇者は6人いるから、力を合わせるんだよ。")
  ShowMessageFace("sirousagi_fc1",0,0,2,10)
  ShowMessage("\\n<White Rabbit>")
  ShowMessage("あと、「夢の主」には同盟者達がいるからね。")
  ShowMessage("色々な世界のタチ悪い連中が仲間だから、要注意！")
  ShowMessageFace("rest_fc1",0,0,2,11)
  ShowMessage("\\n<Lest>")
  ShowMessage("ゆ、夢の主？　勇者……？")
  ShowMessage("いったい、何を言っているんだ？")
  ShowMessageFace("sirousagi_fc1",0,0,2,12)
  ShowMessage("\\n<White Rabbit>")
  ShowMessage("気付いてるかもしれないけど、ここは異世界。")
  ShowMessage("「夢の主」を倒さないと、元の世界には戻れないよ。")
  ShowMessageFace("rest_fc1",0,0,2,13)
  ShowMessage("\\n<Lest>")
  ShowMessage("そいつを倒すために、僕達は呼び出されたっていうのか……？")
  ShowMessageFace("sirousagi_fc1",0,0,2,14)
  ShowMessage("\\n<White Rabbit>")
  ShowMessage("そう、手の甲に紋章があるよね？")
  ShowMessage("それが「コラボの証」、選ばれし勇者のしるし。")
  ShowMessageFace("tarsa_fc1",2,0,2,15)
  ShowMessage("\\n<Tarsa>")
  ShowMessage("じゃあ……私は？")
  ShowMessageFace("sirousagi_fc1",0,0,2,16)
  ShowMessage("\\n<White Rabbit>")
  ShowMessage("「コラボの証」はないし、同盟者にも見えないし……")
  ShowMessage("たまたま巻き込まれたんじゃない？")
  ShowMessageFace("tarsa_fc1",2,0,2,17)
  ShowMessage("\\n<Tarsa>")
  ShowMessage("たまたま、って……！")
  ShowMessageFace("sirousagi_fc1",0,0,2,18)
  ShowMessage("\\n<White Rabbit>")
  ShowMessage("側にいた人に、勇者の心当たりはない？")
  ShowMessage("なんか、すっごく腕が立つ人と一緒だったとか。")
  ShowMessageFace("tarsa_fc1",2,0,2,19)
  ShowMessage("\\n<Tarsa>")
  ShowMessage("もしかして……ノビッサ！？")
  ShowMessageFace("sirousagi_fc1",0,0,2,20)
  ShowMessage("\\n<White Rabbit>")
  ShowMessage("うん、多分そうだと思うよ。")
  ShowMessage("そのノビッサっていう人も、勇者の一人だね。")
  ShowMessageFace("sirousagi_fc1",0,0,2,21)
  ShowMessage("\\n<White Rabbit>")
  ShowMessage("君は運悪く、時空転移の時に側にいたから……")
  ShowMessage("ノビッサと一緒に、この世界に引き込まれたんだよ。")
  ShowMessageFace("tarsa_fc1",2,0,2,22)
  ShowMessage("\\n<Tarsa>")
  ShowMessage("でも、そのノビッサがどこにもいないんだけど……")
  ShowMessageFace("sirousagi_fc1",0,0,2,23)
  ShowMessage("\\n<White Rabbit>")
  ShowMessage("時空転移、けっこう座標がズレるからねぇ。")
  ShowMessage("この世界のどこかには、いると思うよ。")
  ShowMessageFace("tarsa_fc1",2,0,2,24)
  ShowMessage("\\n<Tarsa>")
  ShowMessage("そんな大雑把な……")
  ShowMessageFace("sirousagi_fc1",0,0,2,25)
  ShowMessage("\\n<White Rabbit>")
  ShowMessage("話は、以上！")
  ShowMessage("とにかく残り六人を集めて、夢の主を倒すこと！")
  ShowMessageFace("rest_fc1",0,0,2,26)
  ShowMessage("\\n<Lest>")
  ShowMessage("あっ、ちょっと――")
  ShowMessageFace("sirousagi_fc1",0,0,2,27)
  ShowMessage("\\n<White Rabbit>")
  ShowMessage("それじゃあね～♪")
  PictureClear(5)
  205(8,bytes(0x04,0x08,0x6f,0x3a,0x13,0x52,0x50,0x47,0x3a,0x3a,0x4d,0x6f,0x76,0x65,0x52,0x6f,0x75,0x74,0x65,0x09,0x3a,0x0c,0x40,0x72,0x65,0x70,0x65,0x61,0x74,0x46,0x3a,0x0f,0x40,0x73,0x6b,0x69,0x70,0x70,0x61,0x62,0x6c,0x65,0x46,0x3a,0x0a,0x40,0x77,0x61,0x69,0x74,0x54,0x3a,0x0a,0x40,0x6c,0x69,0x73,0x74,0x5b,0x0a,0x6f,0x3a,0x15,0x52,0x50,0x47,0x3a,0x3a,0x4d,0x6f,0x76,0x65,0x43,0x6f,0x6d,0x6d,0x61,0x6e,0x64,0x07,0x3a,0x0a,0x40,0x63,0x6f,0x64,0x65,0x69,0x16,0x3a,0x10,0x40,0x70,0x61,0x72,0x61,0x6d,0x65,0x74,0x65,0x72,0x73,0x5b,0x00,0x6f,0x3b,0x0a,0x07,0x3b,0x0b,0x69,0x18,0x3b,0x0c,0x5b,0x00,0x6f,0x3b,0x0a,0x07,0x3b,0x0b,0x69,0x17,0x3b,0x0c,0x5b,0x00,0x6f,0x3b,0x0a,0x07,0x3b,0x0b,0x69,0x15,0x3b,0x0c,0x5b,0x00,0x6f,0x3b,0x0a,0x07,0x3b,0x0b,0x69,0x00,0x3b,0x0c,0x5b,0x00))
  250(bytes(0x04,0x08,0x6f,0x3a,0x0c,0x52,0x50,0x47,0x3a,0x3a,0x53,0x45,0x08,0x3a,0x0a,0x40,0x6e,0x61,0x6d,0x65,0x49,0x22,0x10,0x6d,0x6f,0x6e,0x5f,0x74,0x61,0x6d,0x61,0x6d,0x6f,0x32,0x06,0x3a,0x06,0x45,0x54,0x3a,0x0b,0x40,0x70,0x69,0x74,0x63,0x68,0x69,0x69,0x3a,0x0c,0x40,0x76,0x6f,0x6c,0x75,0x6d,0x65,0x69,0x55))
  205(8,bytes(0x04,0x08,0x6f,0x3a,0x13,0x52,0x50,0x47,0x3a,0x3a,0x4d,0x6f,0x76,0x65,0x52,0x6f,0x75,0x74,0x65,0x09,0x3a,0x0c,0x40,0x72,0x65,0x70,0x65,0x61,0x74,0x46,0x3a,0x0f,0x40,0x73,0x6b,0x69,0x70,0x70,0x61,0x62,0x6c,0x65,0x46,0x3a,0x0a,0x40,0x77,0x61,0x69,0x74,0x54,0x3a,0x0a,0x40,0x6c,0x69,0x73,0x74,0x5b,0x07,0x6f,0x3a,0x15,0x52,0x50,0x47,0x3a,0x3a,0x4d,0x6f,0x76,0x65,0x43,0x6f,0x6d,0x6d,0x61,0x6e,0x64,0x07,0x3a,0x0a,0x40,0x63,0x6f,0x64,0x65,0x69,0x13,0x3a,0x10,0x40,0x70,0x61,0x72,0x61,0x6d,0x65,0x74,0x65,0x72,0x73,0x5b,0x07,0x69,0x00,0x69,0x00,0x6f,0x3b,0x0a,0x07,0x3b,0x0b,0x69,0x00,0x3b,0x0c,0x5b,0x00))
  ChangeSwitch(31,31,1)
  Wait(30)
  ShowMessageFace("",0,0,2,28)
  ShowMessage("言うだけ言って、白兎は姿を消してしまった。")
  ShowMessage("僕とターサは、ぼんやりと立ち尽くす――")
  241(bytes(0x04,0x08,0x6f,0x3a,0x0d,0x52,0x50,0x47,0x3a,0x3a,0x42,0x47,0x4d,0x08,0x3a,0x0a,0x40,0x6e,0x61,0x6d,0x65,0x49,0x22,0x0d,0x64,0x75,0x6e,0x67,0x65,0x6f,0x6e,0x31,0x06,0x3a,0x06,0x45,0x54,0x3a,0x0c,0x40,0x76,0x6f,0x6c,0x75,0x6d,0x65,0x69,0x69,0x3a,0x0b,0x40,0x70,0x69,0x74,0x63,0x68,0x69,0x69))
  ShowMessageFace("rest_fc1",0,0,2,29)
  ShowMessage("\\n<Lest>")
  ShowMessage("「夢の主」を倒せ、だって……？")
  ShowMessageFace("",0,0,2,30)
  ShowMessage("言うだけ言って、姿を消してしまった白兎。")
  ShowMessage("その言葉の真偽を、まず疑うべきだが――")
  ShowMessageFace("rest_fc1",0,0,2,31)
  ShowMessage("\\n<Lest>")
  ShowMessage("多分、嘘を吐いている感じじゃないな……")
  ShowMessage("騙すつもりなら、もっと丁寧に騙すだろうし。")
  ShowMessageFace("tarsa_fc1",2,0,2,32)
  ShowMessage("\\n<Tarsa>")
  ShowMessage("私も、そう思う……")
  ShowMessage("やたら焦ってたのが、かえって真実っぽいよね。")
  ShowMessageFace("rest_fc1",0,0,2,33)
  ShowMessage("\\n<Lest>")
  ShowMessage("僕達は、夢の主とやらを倒すために呼ばれた……")
  ShowMessage("そして、倒さなければ帰れないとなると……")
  ShowMessageFace("",0,0,2,34)
  ShowMessage("やはり、同じ境遇の残り六人と合流するのが先決だ。")
  ShowMessage("おそらく、向こうもこちらを捜しているだろう。")
  ShowMessageFace("rest_fc1",0,0,2,35)
  ShowMessage("\\n<Lest>")
  ShowMessage("……何にしろ、町か村に辿り着かないと。")
  ShowMessage("他の勇者達を捜すのは、それからだな。")
  ShowMessageFace("tarsa_fc1",0,0,2,36)
  ShowMessage("\\n<Tarsa>")
  ShowMessage("それにしても……レスト、すごいじゃない。")
  ShowMessage("選ばれし七人の勇者の一人だなんて……")
  ShowMessageFace("tarsa_fc1",0,0,2,37)
  ShowMessage("\\n<Tarsa>")
  ShowMessage("それに、ノビッサが選ばれたのも納得かな。")
  ShowMessage("私達の世界の中で、一番すごい人かもしれないし。")
  ShowMessageFace("rest_fc1",0,0,2,38)
  ShowMessage("\\n<Lest>")
  ShowMessage("そのノビッサが七人の勇者の一人なら……")
  ShowMessage("これから、会うことになるだろうね。")
  ShowMessageFace("",0,0,2,39)
  ShowMessage("ターサがここまで言うのだから、相当の猛者なのだろう。")
  ShowMessage("一緒に戦う仲間としては、心強い限りだ。")
  ShowMessageFace("tarsa_fc1",0,0,2,40)
  ShowMessage("\\n<Tarsa>")
  ShowMessage("ノビッサの方も、間違いなく私を捜してると思う。")
  ShowMessage("だから、きっとすぐに会えるはず……")
  ShowMessageFace("rest_fc1",0,0,2,41)
  ShowMessage("\\n<Lest>")
  ShowMessage("ああ、そのためにも町まで出よう。")
  ShowMessage("早くこの洞窟を抜けないとね。")
  PictureClear(5)
  ChangeVariable(1203,1203,0,0,5)
  EndEventProcessing()
  0()
 PAGE   2
  // condition: variable 1203 >= 5
  0()



EVENT   12
 PAGE   1
  // condition: variable 1203 >= 5
  205(-1,bytes(0x04,0x08,0x6f,0x3a,0x13,0x52,0x50,0x47,0x3a,0x3a,0x4d,0x6f,0x76,0x65,0x52,0x6f,0x75,0x74,0x65,0x09,0x3a,0x0c,0x40,0x72,0x65,0x70,0x65,0x61,0x74,0x46,0x3a,0x0f,0x40,0x73,0x6b,0x69,0x70,0x70,0x61,0x62,0x6c,0x65,0x46,0x3a,0x0a,0x40,0x77,0x61,0x69,0x74,0x54,0x3a,0x0a,0x40,0x6c,0x69,0x73,0x74,0x5b,0x07,0x6f,0x3a,0x15,0x52,0x50,0x47,0x3a,0x3a,0x4d,0x6f,0x76,0x65,0x43,0x6f,0x6d,0x6d,0x61,0x6e,0x64,0x07,0x3a,0x0a,0x40,0x63,0x6f,0x64,0x65,0x69,0x18,0x3a,0x10,0x40,0x70,0x61,0x72,0x61,0x6d,0x65,0x74,0x65,0x72,0x73,0x5b,0x00,0x6f,0x3b,0x0a,0x07,0x3b,0x0b,0x69,0x00,0x3b,0x0c,0x5b,0x00))
  RunCommonEvent(507)
  0()
 PAGE   2
  // condition: variable 1203 >= 6
  0()



EVENT   13
 PAGE   1
  RunCommonEvent(507)
  0()
 PAGE   2
  // condition: variable 1203 >= 6
  0()



EVENT   14
 PAGE   1
  RunCommonEvent(507)
  0()
 PAGE   2
  // condition: variable 1203 >= 6
  0()



EVENT   15
 PAGE   1
  // condition: switch 32 is ON
  0()



EVENT   16
 PAGE   1
  // condition: variable 1203 >= 6
  PictureDisplay(5,"80_d_fighter_st04",0,0,0,0,100,100,0,0)
  PictureMove(5,null,0,0,0,0,100,100,255,0,30,true)
  ShowMessageFace("d_fighter_fc1",3,0,2,1)
  ShowMessage("\\n<デビルファイター>")
  ShowMessage("あなた達が、異世界から来た勇者ね……")
  ShowMessage("ここは、通しはしないわ！")
  ShowMessageFace("rest_fc1",0,0,2,2)
  ShowMessage("\\n<Lest>")
  ShowMessage("僕達の事を知っている……？")
  ShowMessage("まさか、「夢の主」の手の者か！？")
  ShowMessageFace("",0,0,2,3)
  ShowMessage("白兎によれば、「夢の主」は諸悪の根源。")
  ShowMessage("その者を倒すために、僕達が異世界から呼ばれたという。")
  ShowMessageFace("d_fighter_fc1",3,0,2,4)
  ShowMessage("\\n<デビルファイター>")
  ShowMessage("「夢の主」の、同盟者……")
  ShowMessage("私達は、その方の差し向けた刺客よ。")
  ShowMessageFace("rest_fc1",0,0,2,5)
  ShowMessage("\\n<Lest>")
  ShowMessage("同盟者……そう言えば、白兎がそんな話をしてたな。")
  ShowMessage("しかもその格好、色仕掛けで来たか！")
  PictureDisplay(5,"80_d_fighter_st03",0,0,0,0,100,100,255,0)
  ShowMessageFace("d_fighter_fc1",2,0,2,6)
  ShowMessage("\\n<デビルファイター>")
  ShowMessage("いや、この格好は……")
  ShowMessage("代々伝わる、戦装束であって……")
  ShowMessageFace("rest_fc1",0,0,2,7)
  ShowMessage("\\n<Lest>")
  ShowMessage("あっ……そうなのか、ごめん……")
  ShowMessageFace("tarsa_fc1",1,0,2,8)
  ShowMessage("\\n<Tarsa>")
  ShowMessage("やっぱりレストって、純情なのね。")
  ShowMessage("うふふふっ……♪")
  PictureDisplay(5,"80_d_fighter_st04",0,0,0,0,100,100,255,0)
  ShowMessageFace("rest_fc1",0,0,2,9)
  ShowMessage("\\n<Lest>")
  ShowMessage("と、とにかく行くぞ！")
  ShowMessage("万能剣士の力、侮るな！")
  ShowMessageFace("d_fighter_fc1",3,0,2,10)
  ShowMessage("\\n<デビルファイター>")
  ShowMessage("いざ、勝負よ！！")
  PictureClear(5)
  Battle(0,1327,false,false)
  ChangeVariable(1203,1203,0,0,7)
  ShowMessageFace("rest_fc1",0,0,2,11)
  ShowMessage("\\n<Lest>")
  ShowMessage("刺客っていう割には、そこまで強くなかったな……")
  ShowMessageFace("tarsa_fc1",0,0,2,12)
  ShowMessage("\\n<Tarsa>")
  ShowMessage("レストが強すぎるだけなんじゃない？")
  ShowMessageFace("rest_fc1",0,0,2,13)
  ShowMessage("\\n<Lest>")
  ShowMessage("と、とにかく……ここから先は、注意して行こう。")
  ShowMessageFace("",0,0,2,14)
  ShowMessage("わざわざ刺客が送られてくるほどだ。")
  ShowMessage("僕達の存在は、同盟者にも知られている。")
  ShowMessageFace("",0,0,2,15)
  ShowMessage("ここは一刻も早く、グランドノア女王に謁見しなければ。")
  ShowMessage("おそらく、事態は風雲急で動いているはず――")
  314(0,0)
  EndEventProcessing()
  0()
 PAGE   2
  // condition: variable 1203 >= 7
  0()



EVENT   17
 PAGE   1
  ShowMessageFace("",0,0,2,1)
  ShowMessage("\\n<上級司祭>")
  ShowMessage("おや、転職をされますか……？")
  355("SceneManager.call(Scene_JobChange)")
  Wait(1)
  314(0,0)
  EndEventProcessing()
  0()



EVENT   18
 PAGE   1
  ChangeSelfSwitch("A",0)
  205(-1,bytes(0x04,0x08,0x6f,0x3a,0x13,0x52,0x50,0x47,0x3a,0x3a,0x4d,0x6f,0x76,0x65,0x52,0x6f,0x75,0x74,0x65,0x09,0x3a,0x0c,0x40,0x72,0x65,0x70,0x65,0x61,0x74,0x46,0x3a,0x0f,0x40,0x73,0x6b,0x69,0x70,0x70,0x61,0x62,0x6c,0x65,0x46,0x3a,0x0a,0x40,0x77,0x61,0x69,0x74,0x54,0x3a,0x0a,0x40,0x6c,0x69,0x73,0x74,0x5b,0x07,0x6f,0x3a,0x15,0x52,0x50,0x47,0x3a,0x3a,0x4d,0x6f,0x76,0x65,0x43,0x6f,0x6d,0x6d,0x61,0x6e,0x64,0x07,0x3a,0x0a,0x40,0x63,0x6f,0x64,0x65,0x69,0x16,0x3a,0x10,0x40,0x70,0x61,0x72,0x61,0x6d,0x65,0x74,0x65,0x72,0x73,0x5b,0x00,0x6f,0x3b,0x0a,0x07,0x3b,0x0b,0x69,0x00,0x3b,0x0c,0x5b,0x00))
  ShowMessageFace("",0,0,2,1)
  ShowMessage("\\n<上級司祭>")
  ShowMessage("おや、そこのお二方……")
  ShowMessage("見たところ、無職のようですな。")
  ShowMessageFace("rest_fc1",0,0,2,2)
  ShowMessage("\\n<Lest>")
  ShowMessage("無職って、人聞きの悪い事を……")
  ShowMessage("ちゃんと働いてるつもりだけどな。")
  ShowMessageFace("",0,0,2,3)
  ShowMessage("\\n<上級司祭>")
  ShowMessage("いえ、そういう事ではなく。")
  ShowMessage("あなた達は、どの冒険職にも就いていないようです。")
  ShowMessageFace("",0,0,2,4)
  ShowMessage("\\n<上級司祭>")
  ShowMessage("よろしければ、私が導きましょう。")
  ShowMessage("さあ、この書物に手を置くのです……")
  250(bytes(0x04,0x08,0x6f,0x3a,0x0c,0x52,0x50,0x47,0x3a,0x3a,0x53,0x45,0x08,0x3a,0x0a,0x40,0x6e,0x61,0x6d,0x65,0x49,0x22,0x0e,0x6d,0x6f,0x6e,0x5f,0x70,0x6f,0x77,0x65,0x72,0x06,0x3a,0x06,0x45,0x54,0x3a,0x0b,0x40,0x70,0x69,0x74,0x63,0x68,0x69,0x69,0x3a,0x0c,0x40,0x76,0x6f,0x6c,0x75,0x6d,0x65,0x69,0x69))
  ShowMessageFace("",0,0,2,5)
  ShowMessage("レストは、転職の書に触れた！")
  ShowMessage("これまでの経験が走査される――")
  249(bytes(0x04,0x08,0x6f,0x3a,0x0c,0x52,0x50,0x47,0x3a,0x3a,0x4d,0x45,0x08,0x3a,0x0a,0x40,0x6e,0x61,0x6d,0x65,0x49,0x22,0x11,0x6d,0x6f,0x6e,0x5f,0x66,0x61,0x6e,0x66,0x61,0x6c,0x65,0x33,0x06,0x3a,0x06,0x45,0x54,0x3a,0x0b,0x40,0x70,0x69,0x74,0x63,0x68,0x69,0x69,0x3a,0x0c,0x40,0x76,0x6f,0x6c,0x75,0x6d,0x65,0x69,0x69))
  ShowMessageFace("",0,0,2,6)
  ShowMessage("異世界の経験により、レストは職業「戦士」を習得した！")
  ShowMessage("異世界の経験により、レストは職業「剣士」を習得した！")
  249(bytes(0x04,0x08,0x6f,0x3a,0x0c,0x52,0x50,0x47,0x3a,0x3a,0x4d,0x45,0x08,0x3a,0x0a,0x40,0x6e,0x61,0x6d,0x65,0x49,0x22,0x11,0x6d,0x6f,0x6e,0x5f,0x66,0x61,0x6e,0x66,0x61,0x6c,0x65,0x33,0x06,0x3a,0x06,0x45,0x54,0x3a,0x0b,0x40,0x70,0x69,0x74,0x63,0x68,0x69,0x69,0x3a,0x0c,0x40,0x76,0x6f,0x6c,0x75,0x6d,0x65,0x69,0x69))
  ShowMessageFace("",0,0,2,7)
  ShowMessage("異世界の経験により、レストは職業「兵士」を習得した！")
  ShowMessage("異世界の経験により、レストは職業「王宮騎士」を習得した！")
  249(bytes(0x04,0x08,0x6f,0x3a,0x0c,0x52,0x50,0x47,0x3a,0x3a,0x4d,0x45,0x08,0x3a,0x0a,0x40,0x6e,0x61,0x6d,0x65,0x49,0x22,0x11,0x6d,0x6f,0x6e,0x5f,0x66,0x61,0x6e,0x66,0x61,0x6c,0x65,0x33,0x06,0x3a,0x06,0x45,0x54,0x3a,0x0b,0x40,0x70,0x69,0x74,0x63,0x68,0x69,0x69,0x3a,0x0c,0x40,0x76,0x6f,0x6c,0x75,0x6d,0x65,0x69,0x69))
  ShowMessageFace("",0,0,2,8)
  ShowMessage("異世界の経験により、レストは職業「見習い勇者」を習得した！")
  ShowMessage("異世界の経験により、レストは職業「勇者」を習得した！")
  ShowMessageFace("",0,0,2,9)
  ShowMessage("\\n<上級司祭>")
  ShowMessage("な、なんと……！？")
  ShowMessage("これだけの経験を積みながら、無職であったとは――")
  ShowMessageFace("rest_fc1",0,0,2,10)
  ShowMessage("\\n<Lest>")
  ShowMessage("色々な技が身についた感じがするな。")
  ShowMessage("これが冒険職なのか……")
  ShowMessageFace("tarsa_fc1",0,0,2,11)
  ShowMessage("\\n<Tarsa>")
  ShowMessage("私は、どうなんだろう……？")
  250(bytes(0x04,0x08,0x6f,0x3a,0x0c,0x52,0x50,0x47,0x3a,0x3a,0x53,0x45,0x08,0x3a,0x0a,0x40,0x6e,0x61,0x6d,0x65,0x49,0x22,0x0e,0x6d,0x6f,0x6e,0x5f,0x70,0x6f,0x77,0x65,0x72,0x06,0x3a,0x06,0x45,0x54,0x3a,0x0b,0x40,0x70,0x69,0x74,0x63,0x68,0x69,0x69,0x3a,0x0c,0x40,0x76,0x6f,0x6c,0x75,0x6d,0x65,0x69,0x69))
  ShowMessageFace("",0,0,2,12)
  ShowMessage("ターサは、転職の書に触れた！")
  ShowMessage("これまでの経験が走査される――")
  249(bytes(0x04,0x08,0x6f,0x3a,0x0c,0x52,0x50,0x47,0x3a,0x3a,0x4d,0x45,0x08,0x3a,0x0a,0x40,0x6e,0x61,0x6d,0x65,0x49,0x22,0x11,0x6d,0x6f,0x6e,0x5f,0x66,0x61,0x6e,0x66,0x61,0x6c,0x65,0x33,0x06,0x3a,0x06,0x45,0x54,0x3a,0x0b,0x40,0x70,0x69,0x74,0x63,0x68,0x69,0x69,0x3a,0x0c,0x40,0x76,0x6f,0x6c,0x75,0x6d,0x65,0x69,0x69))
  ShowMessageFace("",0,0,2,13)
  ShowMessage("異世界の経験により、ターサは職業「遊び人」をマスターした！")
  ShowMessage("異世界の経験により、ターサは職業「踊り子」をマスターした！")
  ShowMessageFace("",0,0,2,14)
  ShowMessage("\\n<上級司祭>")
  ShowMessage("あなたも、踊り子をマスターしていますね。")
  ShowMessage("こんな方々は、初めて見ました……")
  ShowMessageFace("tarsa_fc1",1,0,2,15)
  ShowMessage("\\n<Tarsa>")
  ShowMessage("元の世界じゃ、ダンサーだったからね♪")
  ShowMessageFace("rest_fc1",0,0,2,16)
  ShowMessage("\\n<Lest>")
  ShowMessage("……ありがとう、司祭さん。")
  ShowMessage("本当に助かりました。")
  ShowMessageFace("",0,0,2,17)
  ShowMessage("\\n<上級司祭>")
  ShowMessage("い、いえ……")
  ShowMessage("転職するなら、また声を掛けて下さい。")
  318(0,819,0,67)
  318(0,824,0,278)
  If(0,1927,1)
   355("set_class_level(819, 1, 10, false, false)")
   655("set_class_level(819, 2, 10, false, false)")
   655("set_class_level(819, 72, 10, false, false)")
   655("set_class_level(819, 73, 10, false, false)")
   655("set_class_level(819, 141, 10, false, false)")
   655("set_class_level(819, 142, 10, false, true)")
   655("set_class_level(819, 151, 10, false, false)")
   655("set_class_level(824, 92, 10, false, false)")
   655("set_class_level(824, 93, 10, false, true)")
   655("set_class_level(824, 151, 10, false, false)")
   314(0,0)
   0()
  Else()
   355("set_class_level(819, 1, 10, false, false)")
   655("set_class_level(819, 2, 10, false, false)")
   655("set_class_level(819, 72, 10, false, false)")
   655("set_class_level(819, 73, 10, false, false)")
   655("set_class_level(819, 141, 10, false, false)")
   655("set_class_level(819, 142, 10, false, false)")
   655("set_class_level(819, 151, 10, false, false)")
   655("set_class_level(824, 92, 10, false, false)")
   655("set_class_level(824, 93, 10, false, false)")
   655("set_class_level(824, 151, 10, false, false)")
   314(0,0)
   0()
  EndIf()
  0()
 PAGE   2
  // condition: self-switch A is ON
  0()



EVENT   19
 PAGE   1
  // condition: variable 1203 >= 6
  ShowMessageFace("",0,0,2,1)
  ShowMessage("この寝床なら、安全に休めそうだ。")
  ShowMessage("体を休めますか？")
  ShowChoices(strings("はい","いいえ"),2)
  IfPlayerPicksChoice(0,null)
   221()
   249(bytes(0x04,0x08,0x6f,0x3a,0x0c,0x52,0x50,0x47,0x3a,0x3a,0x4d,0x45,0x08,0x3a,0x0a,0x40,0x6e,0x61,0x6d,0x65,0x49,0x22,0x08,0x49,0x6e,0x6e,0x06,0x3a,0x06,0x45,0x54,0x3a,0x0b,0x40,0x70,0x69,0x74,0x63,0x68,0x69,0x69,0x3a,0x0c,0x40,0x76,0x6f,0x6c,0x75,0x6d,0x65,0x69,0x69))
   Wait(150)
   314(0,0)
   222()
   0()
  IfPlayerPicksChoice(1,null)
   0()
  404()
  0()
