﻿
DisplayName "白兎精神領域"



EVENT   1
 PAGE   1
  0()



EVENT   2
 PAGE   1
  // condition: switch 31 is ON
  0()



EVENT   3
 PAGE   1
  Wait(60)
  ShowMessageFace("dakki_fc1",0,0,2,1)
  ShowMessage("\\n<Daji>")
  ShowMessage("これは……なんと面妖な精神よ。")
  ShowMessage("中に潜れば潜るほどに、外に出て行くとは。")
  ShowMessageFace("",0,0,2,2)
  ShowMessage("集合意識に近いが、その中央には到達できない。")
  ShowMessage("この白兎、端末であって実存そのものではないのだ。")
  ShowMessageFace("dakki_fc1",0,0,2,3)
  ShowMessage("\\n<Daji>")
  ShowMessage("マクロの中にミクロがあり、ミクロの中にマクロがある。")
  ShowMessage("精神も肉体もループ構造とは、いかなる存在なのだ？")
  ShowMessageFace("dakki_fc1",0,0,2,4)
  ShowMessage("\\n<Daji>")
  ShowMessage("おまけに、個の記憶などほとんどないとは――")
  ShowMessage("この者、明らかに生物ではあるまい。")
  205(1,bytes(0x04,0x08,0x6f,0x3a,0x13,0x52,0x50,0x47,0x3a,0x3a,0x4d,0x6f,0x76,0x65,0x52,0x6f,0x75,0x74,0x65,0x09,0x3a,0x0c,0x40,0x72,0x65,0x70,0x65,0x61,0x74,0x46,0x3a,0x0f,0x40,0x73,0x6b,0x69,0x70,0x70,0x61,0x62,0x6c,0x65,0x46,0x3a,0x0a,0x40,0x77,0x61,0x69,0x74,0x54,0x3a,0x0a,0x40,0x6c,0x69,0x73,0x74,0x5b,0x08,0x6f,0x3a,0x15,0x52,0x50,0x47,0x3a,0x3a,0x4d,0x6f,0x76,0x65,0x43,0x6f,0x6d,0x6d,0x61,0x6e,0x64,0x07,0x3a,0x0a,0x40,0x63,0x6f,0x64,0x65,0x69,0x09,0x3a,0x10,0x40,0x70,0x61,0x72,0x61,0x6d,0x65,0x74,0x65,0x72,0x73,0x5b,0x00,0x6f,0x3b,0x0a,0x07,0x3b,0x0b,0x69,0x17,0x3b,0x0c,0x5b,0x00,0x6f,0x3b,0x0a,0x07,0x3b,0x0b,0x69,0x00,0x3b,0x0c,0x5b,0x00))
  ShowMessageFace("dakki_fc1",0,0,2,5)
  ShowMessage("\\n<Daji>")
  ShowMessage("ここのゲノム配列……書き換えられた形跡があるな。")
  ShowMessage("「何か」に上書きされたのか……？")
  ShowMessageFace("",0,0,2,6)
  ShowMessage("DNAの一部に、上書きされる前の情報断片が残っているが――")
  ShowMessage("該当箇所は少なく、判読は不可能だった。")
  ShowMessageFace("dakki_fc1",0,0,2,7)
  ShowMessage("\\n<Daji>")
  ShowMessage("こやつ、元は別の生物個体か？")
  ShowMessage("それが何らかの浸食で、白兎に書き換えられた……？")
  ShowMessageFace("",0,0,2,8)
  ShowMessage("その生物が、何なのかは分からない。")
  ShowMessage("だが、一つだけ確実な事があった。")
  ShowMessageFace("",0,0,2,9)
  ShowMessage("白兎の前身は、夢を見る。")
  ShowMessage("それゆえに、エストによって端末を乗っ取られたのだ――")
  ShowMessageFace("dakki_fc1",0,0,2,10)
  ShowMessage("\\n<Daji>")
  ShowMessage("ともかく……材料が足りんな。")
  ShowMessage("エミュレートは不完全、完全な変化も無理か。")
  ShowMessageFace("dakki_fc1",0,0,2,11)
  ShowMessage("\\n<Daji>")
  ShowMessage("白兎として活動してきた最近の記憶断片。")
  ShowMessage("表面上の口調や態度……再現できるのは、それが限界かのう。")
  ShowMessageFace("dakki_fc1",0,0,2,12)
  ShowMessage("\\n<Daji>")
  ShowMessage("しかし、もう少しだけ……")
  ShowMessage("この者――いや、この「法則」の根本に潜れぬものか――")
  242(2)
  Wait(30)
  ShowMessageFace("",0,0,2,13)
  ShowMessage("\\n<？？？>")
  ShowMessage("……それ以上は、無理だよ。")
  ShowMessage("所詮、それは端末に過ぎないからね……")
  205(1,bytes(0x04,0x08,0x6f,0x3a,0x13,0x52,0x50,0x47,0x3a,0x3a,0x4d,0x6f,0x76,0x65,0x52,0x6f,0x75,0x74,0x65,0x09,0x3a,0x0c,0x40,0x72,0x65,0x70,0x65,0x61,0x74,0x46,0x3a,0x0f,0x40,0x73,0x6b,0x69,0x70,0x70,0x61,0x62,0x6c,0x65,0x46,0x3a,0x0a,0x40,0x77,0x61,0x69,0x74,0x54,0x3a,0x0a,0x40,0x6c,0x69,0x73,0x74,0x5b,0x07,0x6f,0x3a,0x15,0x52,0x50,0x47,0x3a,0x3a,0x4d,0x6f,0x76,0x65,0x43,0x6f,0x6d,0x6d,0x61,0x6e,0x64,0x07,0x3a,0x0a,0x40,0x63,0x6f,0x64,0x65,0x69,0x18,0x3a,0x10,0x40,0x70,0x61,0x72,0x61,0x6d,0x65,0x74,0x65,0x72,0x73,0x5b,0x00,0x6f,0x3b,0x0a,0x07,0x3b,0x0b,0x69,0x00,0x3b,0x0c,0x5b,0x00))
  ShowMessageFace("dakki_fc1",0,0,2,14)
  ShowMessage("\\n<Daji>")
  ShowMessage("…………！？")
  ShowMessageFace("dakki_fc1",0,0,2,15)
  ShowMessage("\\n<Daji>")
  ShowMessage("この精神領域で接触して来ただと……？")
  Wait(30)
  212(2,542,false)
  Wait(60)
  ChangeSwitch(31,31,0)
  241(bytes(0x04,0x08,0x6f,0x3a,0x0d,0x52,0x50,0x47,0x3a,0x3a,0x42,0x47,0x4d,0x08,0x3a,0x0a,0x40,0x6e,0x61,0x6d,0x65,0x49,0x22,0x11,0x73,0x63,0x65,0x6e,0x65,0x5f,0x73,0x6f,0x6e,0x69,0x61,0x32,0x06,0x3a,0x06,0x45,0x54,0x3a,0x0c,0x40,0x76,0x6f,0x6c,0x75,0x6d,0x65,0x69,0x69,0x3a,0x0b,0x40,0x70,0x69,0x74,0x63,0x68,0x69,0x69))
  Wait(90)
  PictureDisplay(5,"80_apiro_ragos_st01",0,0,0,0,100,100,0,0)
  PictureMove(5,null,0,0,0,0,100,100,255,0,60,true)
  ShowMessageFace("apiro_ragos_fc1",0,0,2,16)
  ShowMessage("\\n<■■■・■■■>")
  ShowMessage("君は、異世界の存在だね。")
  ShowMessage("見たところ、管理者クラスかな……？")
  ShowMessageFace("dakki_fc1",0,0,2,17)
  ShowMessage("\\n<Daji>")
  ShowMessage("貴様、白兎――ではないな？")
  ShowMessageFace("",0,0,2,18)
  ShowMessage("威圧感のようなものは、いっさい感じない。")
  ShowMessage("存在感は希薄で胡乱、まるで虚像のようだ――")
  PictureDisplay(5,"80_apiro_ragos_st01b",0,0,0,0,100,100,255,0)
  ShowMessageFace("apiro_ragos_fc1",0,0,2,19)
  ShowMessage("\\n<■■■・■■■>")
  ShowMessage("僕は白兎じゃないさ……")
  ShowMessage("それに、まだ存在さえしていない。")
  ShowMessageFace("dakki_fc1",0,0,2,20)
  ShowMessage("\\n<Daji>")
  ShowMessage("これは、異な事を言う……")
  ShowMessage("存在していないなら、なぜここにいる？")
  ShowMessageFace("apiro_ragos_fc1",0,0,2,21)
  ShowMessage("\\n<■■■・■■■>")
  ShowMessage("君という観測者が来てくれたからさ。")
  ShowMessage("おかげで今、僕は存在として仮定義された。")
  ShowMessageFace("apiro_ragos_fc1",0,0,2,22)
  ShowMessage("\\n<アピロ・ラゴス>")
  ShowMessage("アピロ・ラゴス……それが定義された僕。")
  ShowMessage("display dialog \"Hello, world!\"")
  ShowMessageFace("dakki_fc1",0,0,2,23)
  ShowMessage("\\n<Daji>")
  ShowMessage("……ようこそ、世界へ。")
  ShowMessage("存在の能わなかった者よ。")
  ShowMessageFace("apiro_ragos_fc1",0,0,2,24)
  ShowMessage("\\n<アピロ・ラゴス>")
  ShowMessage("さて、君に伝言を頼みたいんだ。")
  ShowMessage("「第三の道を探せ」……ってね。")
  ShowMessageFace("apiro_ragos_fc1",0,0,2,25)
  ShowMessage("\\n<アピロ・ラゴス>")
  ShowMessage("混沌の父、そっちにいるでしょ？")
  ShowMessage("僕に繋がる歴史を作るよう、頼んでおいて。")
  ShowMessageFace("dakki_fc1",0,0,2,26)
  ShowMessage("\\n<Daji>")
  ShowMessage("ふむ……言伝程度なら、頼まれてやろう。")
  ShowMessage("だが、混沌の父とやらには心当たりなどないぞ。")
  ShowMessageFace("apiro_ragos_fc1",0,0,2,27)
  ShowMessage("\\n<アピロ・ラゴス>")
  ShowMessage("……なら、破壊者でも審判者でも良いさ。")
  ShowMessage("そっちで誰かに言えば、たぶん伝わるよ。")
  ShowMessageFace("apiro_ragos_fc1",0,0,2,28)
  ShowMessage("\\n<アピロ・ラゴス>")
  ShowMessage("そういうわけで、待っているよ。")
  ShowMessage("偏在する僕達に、道を繋げる未来をね――")
  ShowMessageFace("dakki_fc1",0,0,2,29)
  ShowMessage("\\n<Daji>")
  ShowMessage("僕……「達」？")
  ShowMessageFace(binary"",0,0,2,30)
  ShowMessage("その時、妲己は気付いた。")
  ShowMessage("アピロ・ラゴスだけではなく、ここには他にも――")
  250(bytes(0x04,0x08,0x6f,0x3a,0x0c,0x52,0x50,0x47,0x3a,0x3a,0x53,0x45,0x08,0x3a,0x0a,0x40,0x6e,0x61,0x6d,0x65,0x49,0x22,0x0e,0x50,0x61,0x72,0x61,0x6c,0x79,0x7a,0x65,0x32,0x06,0x3a,0x06,0x45,0x54,0x3a,0x0b,0x40,0x70,0x69,0x74,0x63,0x68,0x69,0x37,0x3a,0x0c,0x40,0x76,0x6f,0x6c,0x75,0x6d,0x65,0x69,0x55))
  PictureDisplay(6,"iv_chaos_shito1",0,0,0,0,100,100,0,0)
  PictureMove(6,null,0,0,0,0,100,100,255,0,60,true)
  ShowMessageFace("apiro_ragos_fc1",0,0,2,31)
  ShowMessage("\\n<アピロ・ラゴス>")
  ShowMessage("僕達……「混沌の使徒」は歴史の狭間で待っているのさ。")
  ShowMessage("■■■■の到来をね――")
  ShowMessageFace("apiro_ragos_fc1",0,0,2,32)
  ShowMessage("\\n<アピロ・ラゴス>")
  ShowMessage("ねぇ……おとうさん。")
  Wait(60)
  242(1)
  221()
  PictureClear(5)
  PictureClear(6)
  ChangeSwitch(31,31,1)
  Wait(60)
  281(1)
  TeleportPlayer(0,950,22,19,0,2)
  222()
  ShowMessageFace("dakki_fc1",0,0,2,33)
  ShowMessage("\\n<Daji>")
  ShowMessage("妾が見たものは、以上だ……")
  ShowMessage("今は仲間ゆえ、お主達に伝えておこう。")
  If(0,4,0)
   ShowMessageFace("alice_fc6",0,0,2,34)
   ShowMessage("\\n<Alice>")
   ShowMessage("アピロ・ラゴス、白兎に酷似した者――")
   ShowMessage("いったい何者なのだ？")
   0()
  EndIf()
  If(0,5,0)
   ShowMessageFace("iriasu_fc4",7,0,2,35)
   ShowMessage("\\n<Ilias>")
   ShowMessage("アピロ・ラゴス、白兎に酷似した者――")
   ShowMessage("いったい何者なのです？")
   0()
  EndIf()
  ShowMessageFace("ruka_fc1",0,0,2,36)
  ShowMessage("\\n<Luka>")
  ShowMessage("それに、混沌の使徒……")
  ShowMessageFace("",0,0,2,37)
  ShowMessage("そして、まるで理解できない伝言。")
  ShowMessage("自分達に繋がる未来とは、いったい――")
  ShowMessageFace("",0,0,2,38)
  ShowMessage("また、白兎が衰弱していたという話も気になる。")
  ShowMessage("世界のカオス化と、何か関連しているのか……？")
  ShowMessageFace("vinum_fc1",2,0,2,39)
  ShowMessage("\\n<Vinum>")
  ShowMessage("お主達……いや、この世界の抱えている危機。")
  ShowMessage("それを解決せぬ限り、元の世界には帰り難い……か。")
  If(0,4,0)
   ShowMessageFace("alice_fc5",0,0,2,40)
   ShowMessage("\\n<Alice>")
   ShowMessage("そういうわけで、皆には今後も協力してもらうぞ。")
   ShowMessage("お前達は厄介な存在だが、共に戦えるなら心強い。")
   0()
  EndIf()
  If(0,5,0)
   ShowMessageFace("iriasu_fc4",0,0,2,41)
   ShowMessage("\\n<Ilias>")
   ShowMessage("そういうわけで、皆には今後も協力してもらいましょう。")
   ShowMessage("貴方達は厄介な連中ですが、戦力として申し分ありません。")
   0()
  EndIf()
  ShowMessageFace("mistilteinn_fc1",0,0,2,42)
  ShowMessage("\\n<Mysteltainn>")
  ShowMessage("元の世界に戻るためらなら、力を貸しましょう。")
  ShowMessage("戦力に不足があるなら、呼びなさい。")
  ShowMessageFace("gilgoon_fc1",0,0,2,43)
  ShowMessage("\\n<Gilgone>")
  ShowMessage("不本意ではあるが……我が力も使うがいい。")
  ShowMessage("元の世界に帰るためなら、少しは働いてくれよう。")
  ShowMessageFace("est_fc1",1,0,2,44)
  ShowMessage("\\n<Est>")
  ShowMessage("ふふっ……まだまだ愉しめるのね。")
  ShowMessage("もっともっと、私に素敵な夢を見せて……♡")
  ShowMessageFace("daimeikai_fc1",1,0,2,45)
  ShowMessage("\\n<Daimyokai>")
  ShowMessage("なぁ……なんで俺がここにいるんだ？")
  ShowMessage("誰か聞けよ、無視かよ。")
  ShowMessageFace("ruka_fc1",0,0,2,46)
  ShowMessage("\\n<Luka>")
  ShowMessage("みんな……ありがとう！")
  ShowMessageFace("",0,0,2,47)
  ShowMessage("あくまで、元の世界に戻るためとはいえ――")
  ShowMessage("かつての敵達も、力を貸してくれるようだ。")
  If(0,4,0)
   ShowMessageFace("alice_fc5",2,0,2,48)
   ShowMessage("\\n<Alice>")
   ShowMessage("それでは、我々の戦いを続けよう！")
   ShowMessage("この世界に、平和を取り戻すのだ！")
   0()
  EndIf()
  If(0,5,0)
   ShowMessageFace("iriasu_fc4",7,0,2,49)
   ShowMessage("\\n<Ilias>")
   ShowMessage("それでは、我々の戦いを続けましょう！")
   ShowMessage("この世界に、平和を取り戻すのです！")
   0()
  EndIf()
  ShowMessageFace("",0,0,2,50)
  ShowMessage("まだまだ、僕達の戦いは終わってはいない。")
  ShowMessage("全ての世界に迫る危機を取り除くまでは――")
  Wait(30)
  221()
  Wait(120)
  ChangeSwitch(1928,1928,0)
  ChangeSwitch(100,100,1)
  211(1)
  TeleportPlayer(0,2,328,187,0,2)
  222()
  355("gain_medal(2121)")
  EndEventProcessing()
  0()
