﻿
DisplayName "魔城トゥーロマンサ 第4層"



EVENT   2
 PAGE   1
  250(bytes(0x04,0x08,0x6f,0x3a,0x0c,0x52,0x50,0x47,0x3a,0x3a,0x53,0x45,0x08,0x3a,0x0a,0x40,0x6e,0x61,0x6d,0x65,0x49,0x22,0x09,0x4d,0x6f,0x76,0x65,0x06,0x3a,0x06,0x45,0x54,0x3a,0x0b,0x40,0x70,0x69,0x74,0x63,0x68,0x69,0x69,0x3a,0x0c,0x40,0x76,0x6f,0x6c,0x75,0x6d,0x65,0x69,0x55))
  TeleportPlayer(0,924,37,61,0,0)
  0()



EVENT   4
 PAGE   1
  If(1,1228,0,4,2)
   ChangeVariable(1228,1228,0,0,5)
   0()
  EndIf()
  250(bytes(0x04,0x08,0x6f,0x3a,0x0c,0x52,0x50,0x47,0x3a,0x3a,0x53,0x45,0x08,0x3a,0x0a,0x40,0x6e,0x61,0x6d,0x65,0x49,0x22,0x09,0x4d,0x6f,0x76,0x65,0x06,0x3a,0x06,0x45,0x54,0x3a,0x0b,0x40,0x70,0x69,0x74,0x63,0x68,0x69,0x69,0x3a,0x0c,0x40,0x76,0x6f,0x6c,0x75,0x6d,0x65,0x69,0x55))
  TeleportPlayer(0,926,69,83,0,0)
  0()



EVENT   1
 PAGE   1
  250(bytes(0x04,0x08,0x6f,0x3a,0x0c,0x52,0x50,0x47,0x3a,0x3a,0x53,0x45,0x08,0x3a,0x0a,0x40,0x6e,0x61,0x6d,0x65,0x49,0x22,0x09,0x4d,0x6f,0x76,0x65,0x06,0x3a,0x06,0x45,0x54,0x3a,0x0b,0x40,0x70,0x69,0x74,0x63,0x68,0x69,0x69,0x3a,0x0c,0x40,0x76,0x6f,0x6c,0x75,0x6d,0x65,0x69,0x55))
  TeleportPlayer(0,924,37,61,0,0)
  0()



EVENT   3
 PAGE   1
  250(bytes(0x04,0x08,0x6f,0x3a,0x0c,0x52,0x50,0x47,0x3a,0x3a,0x53,0x45,0x08,0x3a,0x0a,0x40,0x6e,0x61,0x6d,0x65,0x49,0x22,0x09,0x4d,0x6f,0x76,0x65,0x06,0x3a,0x06,0x45,0x54,0x3a,0x0b,0x40,0x70,0x69,0x74,0x63,0x68,0x69,0x69,0x3a,0x0c,0x40,0x76,0x6f,0x6c,0x75,0x6d,0x65,0x69,0x55))
  TeleportPlayer(0,924,37,61,0,0)
  0()



EVENT   5
 PAGE   1
  // condition: variable 1216 >= 2
  If(1,1216,0,3,1)
   If(1,1216,0,4,2)
    241(bytes(0x04,0x08,0x6f,0x3a,0x0d,0x52,0x50,0x47,0x3a,0x3a,0x42,0x47,0x4d,0x08,0x3a,0x0a,0x40,0x6e,0x61,0x6d,0x65,0x49,0x22,0x0a,0x62,0x6f,0x73,0x73,0x30,0x06,0x3a,0x06,0x45,0x54,0x3a,0x0c,0x40,0x76,0x6f,0x6c,0x75,0x6d,0x65,0x69,0x69,0x3a,0x0b,0x40,0x70,0x69,0x74,0x63,0x68,0x69,0x69))
    PictureDisplay(5,"80_gilgoon_st01",0,0,0,0,100,100,0,0)
    PictureMove(5,null,0,0,0,0,100,100,255,0,30,true)
    ShowMessageFace("gilgoon_fc1",0,0,2,1)
    ShowMessage("\\n<Gilgone>")
    ShowMessage("ふん、何度来ても無駄だ！")
    250(bytes(0x04,0x08,0x6f,0x3a,0x0c,0x52,0x50,0x47,0x3a,0x3a,0x53,0x45,0x08,0x3a,0x0a,0x40,0x6e,0x61,0x6d,0x65,0x49,0x22,0x0e,0x6d,0x6f,0x6e,0x5f,0x62,0x72,0x65,0x61,0x6b,0x06,0x3a,0x06,0x45,0x54,0x3a,0x0b,0x40,0x70,0x69,0x74,0x63,0x68,0x69,0x69,0x3a,0x0c,0x40,0x76,0x6f,0x6c,0x75,0x6d,0x65,0x69,0x69))
    ShowMessageFace("",0,0,2,2)
    ShowMessage("ギルゴーンの前に「現の壁」が展開された！")
    ShowMessage("こちらの快楽攻撃はいっさい通じない……")
    PictureClear(5)
    205(0,bytes(0x04,0x08,0x6f,0x3a,0x13,0x52,0x50,0x47,0x3a,0x3a,0x4d,0x6f,0x76,0x65,0x52,0x6f,0x75,0x74,0x65,0x09,0x3a,0x0c,0x40,0x72,0x65,0x70,0x65,0x61,0x74,0x46,0x3a,0x0f,0x40,0x73,0x6b,0x69,0x70,0x70,0x61,0x62,0x6c,0x65,0x46,0x3a,0x0a,0x40,0x77,0x61,0x69,0x74,0x54,0x3a,0x0a,0x40,0x6c,0x69,0x73,0x74,0x5b,0x07,0x6f,0x3a,0x15,0x52,0x50,0x47,0x3a,0x3a,0x4d,0x6f,0x76,0x65,0x43,0x6f,0x6d,0x6d,0x61,0x6e,0x64,0x07,0x3a,0x0a,0x40,0x63,0x6f,0x64,0x65,0x69,0x18,0x3a,0x10,0x40,0x70,0x61,0x72,0x61,0x6d,0x65,0x74,0x65,0x72,0x73,0x5b,0x00,0x6f,0x3b,0x0a,0x07,0x3b,0x0b,0x69,0x00,0x3b,0x0c,0x5b,0x00))
    If(0,4,0)
     ShowMessageFace("alice_fc5",0,0,2,3)
     ShowMessage("\\n<Alice>")
     ShowMessage("奴の言う通り、ここは退くしかないな。")
     ShowMessage("何か、対策がなければ歯が立たん。")
     0()
    EndIf()
    If(0,5,0)
     ShowMessageFace("iriasu_fc4",2,0,2,4)
     ShowMessage("\\n<Ilias>")
     ShowMessage("口惜しいですが、ここは退くしかありません。")
     ShowMessage("あらためて、対策を立て直しましょう……")
     0()
    EndIf()
    ShowMessageFace("",0,0,2,5)
    ShowMessage("「現の壁」がある限り、ギルゴーンとはまともに戦えない。")
    ShowMessage("だが、この壁を壊せるほど強力な攻撃手段があれば――")
    ShowMessageFace("ruka_fc1",0,0,2,6)
    ShowMessage("\\n<Luka>")
    ShowMessage("……今は、満足な手がないな。")
    ShowMessage("この件は後回しにするしかないか。")
    ShowMessageFace("",0,0,2,7)
    ShowMessage("他の同盟者を追っているうちに、何か思い浮かぶかもしれない。")
    ShowMessage("今は、魔城の探索を続けよう――")
    241(bytes(0x04,0x08,0x6f,0x3a,0x0d,0x52,0x50,0x47,0x3a,0x3a,0x42,0x47,0x4d,0x08,0x3a,0x0a,0x40,0x6e,0x61,0x6d,0x65,0x49,0x22,0x08,0x63,0x62,0x31,0x06,0x3a,0x06,0x45,0x54,0x3a,0x0c,0x40,0x76,0x6f,0x6c,0x75,0x6d,0x65,0x69,0x69,0x3a,0x0b,0x40,0x70,0x69,0x74,0x63,0x68,0x69,0x69))
    EndEventProcessing()
    0()
   EndIf()
   0()
  EndIf()
  If(1,1216,0,5,0)
   241(bytes(0x04,0x08,0x6f,0x3a,0x0d,0x52,0x50,0x47,0x3a,0x3a,0x42,0x47,0x4d,0x08,0x3a,0x0a,0x40,0x6e,0x61,0x6d,0x65,0x49,0x22,0x0a,0x62,0x6f,0x73,0x73,0x30,0x06,0x3a,0x06,0x45,0x54,0x3a,0x0c,0x40,0x76,0x6f,0x6c,0x75,0x6d,0x65,0x69,0x69,0x3a,0x0b,0x40,0x70,0x69,0x74,0x63,0x68,0x69,0x69))
   PictureDisplay(5,"80_gilgoon_st01",0,0,0,0,100,100,0,0)
   PictureMove(5,null,0,0,0,0,100,100,255,0,30,true)
   ShowMessageFace("gilgoon_fc1",0,0,2,8)
   ShowMessage("\\n<Gilgone>")
   ShowMessage("ふん、何度来ても無駄だ！")
   250(bytes(0x04,0x08,0x6f,0x3a,0x0c,0x52,0x50,0x47,0x3a,0x3a,0x53,0x45,0x08,0x3a,0x0a,0x40,0x6e,0x61,0x6d,0x65,0x49,0x22,0x0e,0x6d,0x6f,0x6e,0x5f,0x62,0x72,0x65,0x61,0x6b,0x06,0x3a,0x06,0x45,0x54,0x3a,0x0b,0x40,0x70,0x69,0x74,0x63,0x68,0x69,0x69,0x3a,0x0c,0x40,0x76,0x6f,0x6c,0x75,0x6d,0x65,0x69,0x69))
   ShowMessageFace("",0,0,2,9)
   ShowMessage("ギルゴーンの前に「現の壁」が展開された！")
   Wait(30)
   241(bytes(0x04,0x08,0x6f,0x3a,0x0d,0x52,0x50,0x47,0x3a,0x3a,0x42,0x47,0x4d,0x08,0x3a,0x0a,0x40,0x6e,0x61,0x6d,0x65,0x49,0x22,0x0a,0x6b,0x69,0x6b,0x69,0x34,0x06,0x3a,0x06,0x45,0x54,0x3a,0x0c,0x40,0x76,0x6f,0x6c,0x75,0x6d,0x65,0x69,0x69,0x3a,0x0b,0x40,0x70,0x69,0x74,0x63,0x68,0x69,0x69))
   ShowMessageFace("rejeo_fc1",0,0,2,10)
   ShowMessage("\\n<Rigeo>")
   ShowMessage("ロウラット……お願い！")
   ShowMessageFace("lawrat_fc1",0,0,2,11)
   ShowMessage("\\n<Lauratt>")
   ShowMessage("…………！！")
   355("display_skill_name(\"シャイニングレイジ\")")
   212(5,1215,false)
   ShowMessageFace("",0,0,2,12)
   ShowMessage("ロウラットはシャイニングレイジを唱えた！")
   ShowMessage("闇を裁く閃光の鉄槌が、悪しき者どもを貫く！")
   250(bytes(0x04,0x08,0x6f,0x3a,0x0c,0x52,0x50,0x47,0x3a,0x3a,0x53,0x45,0x08,0x3a,0x0a,0x40,0x6e,0x61,0x6d,0x65,0x49,0x22,0x0e,0x6d,0x6f,0x6e,0x5f,0x62,0x72,0x65,0x61,0x6b,0x06,0x3a,0x06,0x45,0x54,0x3a,0x0b,0x40,0x70,0x69,0x74,0x63,0x68,0x69,0x69,0x3a,0x0c,0x40,0x76,0x6f,0x6c,0x75,0x6d,0x65,0x69,0x69))
   ShowMessageFace("",0,0,2,13)
   ShowMessage("「現の壁」に999999のダメージを与えた！")
   ShowMessage("「現の壁」を破壊した！")
   355("clear_skill_name")
   ShowMessageFace("gilgoon_fc1",0,0,2,14)
   ShowMessage("\\n<Gilgone>")
   ShowMessage("……は？")
   If(0,4,0)
    ShowMessageFace("alice_fc5",2,0,2,15)
    ShowMessage("\\n<Alice>")
    ShowMessage("これでもう、貴様を守る壁はなくなった！")
    ShowMessage("それでは、快楽に屈するがいい！")
    0()
   EndIf()
   If(0,5,0)
    ShowMessageFace("iriasu_fc4",7,0,2,16)
    ShowMessage("\\n<Ilias>")
    ShowMessage("これで、貴方を守る壁はなくなりましたね。")
    ShowMessage("さあ、快楽に屈してもらいましょう！")
    0()
   EndIf()
   ShowMessageFace("tarsa_fc2",1,0,2,17)
   ShowMessage("\\n<Tarsa>")
   ShowMessage("敏感も恍惚も良く効きそうね♪")
   ShowMessage("うふふっ、たっぷり感じさせてあげる……♡")
   ShowMessageFace("rejeo_fc1",0,0,2,18)
   ShowMessage("\\n<Rigeo>")
   ShowMessage("私も、手助けするわ。")
   ShowMessage("一応は夢魔、そういうのは得意だし……")
   ShowMessageFace("rovissa_fc1",0,0,2,19)
   ShowMessage("\\n<Rovissa>")
   ShowMessage("さあ、足腰立たなくなるまで責めるわよ！")
   PictureDisplay(5,"80_gilgoon_st02",0,0,0,0,100,100,255,0)
   ShowMessageFace("gilgoon_fc1",1,0,2,20)
   ShowMessage("\\n<Gilgone>")
   ShowMessage("ひっ……！")
   ShowMessage("やめろ、我に近寄るな――！！")
   PictureClear(5)
   SetBattleBGM(bytes(0x04,0x08,0x6f,0x3a,0x0d,0x52,0x50,0x47,0x3a,0x3a,0x42,0x47,0x4d,0x08,0x3a,0x0a,0x40,0x6e,0x61,0x6d,0x65,0x49,0x22,0x08,0x63,0x62,0x33,0x06,0x3a,0x06,0x45,0x54,0x3a,0x0c,0x40,0x76,0x6f,0x6c,0x75,0x6d,0x65,0x69,0x69,0x3a,0x0b,0x40,0x70,0x69,0x74,0x63,0x68,0x69,0x69))
   Battle(0,1422,false,false)
   SetBattleBGM(bytes(0x04,0x08,0x6f,0x3a,0x0d,0x52,0x50,0x47,0x3a,0x3a,0x42,0x47,0x4d,0x08,0x3a,0x0a,0x40,0x6e,0x61,0x6d,0x65,0x49,0x22,0x0b,0x62,0x61,0x74,0x74,0x6c,0x65,0x06,0x3a,0x06,0x45,0x54,0x3a,0x0c,0x40,0x76,0x6f,0x6c,0x75,0x6d,0x65,0x69,0x69,0x3a,0x0b,0x40,0x70,0x69,0x74,0x63,0x68,0x69,0x69))
   241(bytes(0x04,0x08,0x6f,0x3a,0x0d,0x52,0x50,0x47,0x3a,0x3a,0x42,0x47,0x4d,0x08,0x3a,0x0a,0x40,0x6e,0x61,0x6d,0x65,0x49,0x22,0x10,0x73,0x63,0x65,0x6e,0x65,0x5f,0x63,0x6f,0x6d,0x69,0x32,0x06,0x3a,0x06,0x45,0x54,0x3a,0x0c,0x40,0x76,0x6f,0x6c,0x75,0x6d,0x65,0x69,0x69,0x3a,0x0b,0x40,0x70,0x69,0x74,0x63,0x68,0x69,0x69))
   205(0,bytes(0x04,0x08,0x6f,0x3a,0x13,0x52,0x50,0x47,0x3a,0x3a,0x4d,0x6f,0x76,0x65,0x52,0x6f,0x75,0x74,0x65,0x09,0x3a,0x0c,0x40,0x72,0x65,0x70,0x65,0x61,0x74,0x46,0x3a,0x0f,0x40,0x73,0x6b,0x69,0x70,0x70,0x61,0x62,0x6c,0x65,0x46,0x3a,0x0a,0x40,0x77,0x61,0x69,0x74,0x54,0x3a,0x0a,0x40,0x6c,0x69,0x73,0x74,0x5b,0x08,0x6f,0x3a,0x15,0x52,0x50,0x47,0x3a,0x3a,0x4d,0x6f,0x76,0x65,0x43,0x6f,0x6d,0x6d,0x61,0x6e,0x64,0x07,0x3a,0x0a,0x40,0x63,0x6f,0x64,0x65,0x69,0x15,0x3a,0x10,0x40,0x70,0x61,0x72,0x61,0x6d,0x65,0x74,0x65,0x72,0x73,0x5b,0x00,0x6f,0x3b,0x0a,0x07,0x3b,0x0b,0x69,0x2e,0x3b,0x0c,0x5b,0x07,0x49,0x22,0x18,0x43,0x6f,0x6c,0x6c,0x61,0x62,0x6f,0x72,0x61,0x74,0x69,0x6f,0x6e,0x30,0x33,0x5f,0x63,0x69,0x70,0x06,0x3a,0x06,0x45,0x54,0x69,0x0b,0x6f,0x3b,0x0a,0x07,0x3b,0x0b,0x69,0x00,0x3b,0x0c,0x5b,0x00))
   314(0,0)
   ShowMessageFace("gilgoon_fc1",1,0,2,21)
   ShowMessage("\\n<Gilgone>")
   ShowMessage("こ、こんな目に遭うからぁ……")
   ShowMessage("ここから……出たくないのだ……")
   ShowMessageFace("gilgoon_fc1",1,0,2,22)
   ShowMessage("\\n<Gilgone>")
   ShowMessage("うっうっう……")
   ShowMessage("夢魔に開発され尽くした、この体が憎い……")
   ShowMessageFace("rovissa_fc1",0,0,2,23)
   ShowMessage("\\n<Rovissa>")
   ShowMessage("同じ、魔王の名を冠する者として……")
   ShowMessage("……ちょっと不憫かも。")
   If(0,4,0)
    ShowMessageFace("alice_fc5",1,0,2,24)
    ShowMessage("\\n<Alice>")
    ShowMessage("大人しく言うことを聞いていれば、")
    ShowMessage("このような痴態を晒さずとも済んだのだ。")
    0()
   EndIf()
   If(0,5,0)
    ShowMessageFace("iriasu_fc4",1,0,2,25)
    ShowMessage("\\n<Ilias>")
    ShowMessage("どれだけ口では抗っていても、体は正直ですね。")
    0()
   EndIf()
   PictureClear(5)
   205(0,bytes(0x04,0x08,0x6f,0x3a,0x13,0x52,0x50,0x47,0x3a,0x3a,0x4d,0x6f,0x76,0x65,0x52,0x6f,0x75,0x74,0x65,0x09,0x3a,0x0c,0x40,0x72,0x65,0x70,0x65,0x61,0x74,0x46,0x3a,0x0f,0x40,0x73,0x6b,0x69,0x70,0x70,0x61,0x62,0x6c,0x65,0x46,0x3a,0x0a,0x40,0x77,0x61,0x69,0x74,0x54,0x3a,0x0a,0x40,0x6c,0x69,0x73,0x74,0x5b,0x0a,0x6f,0x3a,0x15,0x52,0x50,0x47,0x3a,0x3a,0x4d,0x6f,0x76,0x65,0x43,0x6f,0x6d,0x6d,0x61,0x6e,0x64,0x07,0x3a,0x0a,0x40,0x63,0x6f,0x64,0x65,0x69,0x2a,0x3a,0x10,0x40,0x70,0x61,0x72,0x61,0x6d,0x65,0x74,0x65,0x72,0x73,0x5b,0x00,0x6f,0x3b,0x0a,0x07,0x3b,0x0b,0x69,0x28,0x3b,0x0c,0x5b,0x00,0x6f,0x3b,0x0a,0x07,0x3b,0x0b,0x69,0x0f,0x3b,0x0c,0x5b,0x00,0x6f,0x3b,0x0a,0x07,0x3b,0x0b,0x69,0x2c,0x3b,0x0c,0x5b,0x00,0x6f,0x3b,0x0a,0x07,0x3b,0x0b,0x69,0x00,0x3b,0x0c,0x5b,0x00))
   355("add_actor_ex(810)")
   249(bytes(0x04,0x08,0x6f,0x3a,0x0c,0x52,0x50,0x47,0x3a,0x3a,0x4d,0x45,0x08,0x3a,0x0a,0x40,0x6e,0x61,0x6d,0x65,0x49,0x22,0x0c,0x66,0x61,0x6e,0x66,0x61,0x6c,0x65,0x06,0x3a,0x06,0x45,0x54,0x3a,0x0b,0x40,0x70,0x69,0x74,0x63,0x68,0x69,0x69,0x3a,0x0c,0x40,0x76,0x6f,0x6c,0x75,0x6d,0x65,0x69,0x69))
   ShowMessageFace("",0,0,2,26)
   ShowMessage("ギルゴーンを強引に仲間にした！")
   ChangeVariable(1216,1216,0,0,6)
   Wait(60)
   ShowMessageFace("gilgoon_fc1",1,0,2,27)
   ShowMessage("\\n<Gilgone>")
   ShowMessage("ひぐっ……")
   ShowMessageFace("kazuya_fc4",7,0,2,28)
   ShowMessage("\\n<Kazuya>")
   ShowMessage("（とてもひどい事をしている気がする……）")
   ShowMessageFace("ruka_fc1",0,0,2,29)
   ShowMessage("\\n<Luka>")
   ShowMessage("とにかく、これでギルゴーンは確保できたね。")
   ShowMessage("この一件は解決……かな。")
   ShowMessageFace("tarsa_fc2",0,0,2,30)
   ShowMessage("\\n<Tarsa>")
   ShowMessage("うふふっ……この娘、可愛い……")
   ShowMessageFace("gilgoon_fc1",1,0,2,31)
   ShowMessage("\\n<Gilgone>")
   ShowMessage("く、くそぉっ……やめろぉぉ……")
   If(0,1830,0)
    ShowMessageFace("succubusm_fc1",0,0,2,32)
    ShowMessage("\\n<Mare>")
    ShowMessage("たっぷり可愛がってあげるわね……♡")
    0()
   EndIf()
   If(0,1829,0)
    ShowMessageFace("succubusq_fc1",0,0,2,33)
    ShowMessage("\\n<Lilin>")
    ShowMessage("ふふっ、こんなに感じちゃって……")
    0()
   EndIf()
   ShowMessageFace("gilgoon_fc1",1,0,2,34)
   ShowMessage("\\n<Gilgone>")
   ShowMessage("ひゃぁぁぁぁ……")
   ShowMessageFace("ruka_fc1",0,0,2,35)
   ShowMessage("\\n<Luka>")
   ShowMessage("……………………")
   ShowMessageFace("lawrat_fc1",0,0,2,36)
   ShowMessage("\\n<Lauratt>")
   ShowMessage("……………………")
   ShowMessageFace("rejeo_fc1",0,0,2,37)
   ShowMessage("\\n<Rigeo>")
   ShowMessage("……………………")
   If(1,1213,0,3,1)
    If(1,1214,0,9,1)
     If(1,1215,0,5,1)
      If(1,1216,0,6,1)
       If(1,1217,0,5,1)
        If(1,1218,0,3,1)
         ShowMessageFace("",0,0,2,38)
         ShowMessage("ともかく、これで世界をうろつく全ての同盟者を仲間にした。")
         ShowMessage("今度こそ本当に、あの一件が全て片付いたのだ――")
         242(1)
         221()
         Wait(60)
         211(0)
         TeleportPlayer(0,950,22,17,0,2)
         222()
         EndEventProcessing()
         0()
        EndIf()
        0()
       EndIf()
       0()
      EndIf()
      0()
     EndIf()
     0()
    EndIf()
    0()
   EndIf()
   ShowMessageFace("",0,0,2,39)
   ShowMessage("ともかく、これでこの一件は片付いた。")
   ShowMessage("他の同盟者達の行方を追うとしよう――")
   241(bytes(0x04,0x08,0x6f,0x3a,0x0d,0x52,0x50,0x47,0x3a,0x3a,0x42,0x47,0x4d,0x08,0x3a,0x0a,0x40,0x6e,0x61,0x6d,0x65,0x49,0x22,0x08,0x63,0x62,0x31,0x06,0x3a,0x06,0x45,0x54,0x3a,0x0c,0x40,0x76,0x6f,0x6c,0x75,0x6d,0x65,0x69,0x69,0x3a,0x0b,0x40,0x70,0x69,0x74,0x63,0x68,0x69,0x69))
   EndEventProcessing()
   0()
  EndIf()
  0()
 PAGE   2
  // condition: variable 1216 >= 6
  0()



EVENT   6
 PAGE   1
  // condition: variable 1216 >= 2
  ChangeVariable(1216,1216,0,0,3)
  241(bytes(0x04,0x08,0x6f,0x3a,0x0d,0x52,0x50,0x47,0x3a,0x3a,0x42,0x47,0x4d,0x08,0x3a,0x0a,0x40,0x6e,0x61,0x6d,0x65,0x49,0x22,0x0a,0x62,0x6f,0x73,0x73,0x30,0x06,0x3a,0x06,0x45,0x54,0x3a,0x0c,0x40,0x76,0x6f,0x6c,0x75,0x6d,0x65,0x69,0x69,0x3a,0x0b,0x40,0x70,0x69,0x74,0x63,0x68,0x69,0x69))
  205(-1,bytes(0x04,0x08,0x6f,0x3a,0x13,0x52,0x50,0x47,0x3a,0x3a,0x4d,0x6f,0x76,0x65,0x52,0x6f,0x75,0x74,0x65,0x09,0x3a,0x0c,0x40,0x72,0x65,0x70,0x65,0x61,0x74,0x46,0x3a,0x0f,0x40,0x73,0x6b,0x69,0x70,0x70,0x61,0x62,0x6c,0x65,0x46,0x3a,0x0a,0x40,0x77,0x61,0x69,0x74,0x54,0x3a,0x0a,0x40,0x6c,0x69,0x73,0x74,0x5b,0x09,0x6f,0x3a,0x15,0x52,0x50,0x47,0x3a,0x3a,0x4d,0x6f,0x76,0x65,0x43,0x6f,0x6d,0x6d,0x61,0x6e,0x64,0x07,0x3a,0x0a,0x40,0x63,0x6f,0x64,0x65,0x69,0x09,0x3a,0x10,0x40,0x70,0x61,0x72,0x61,0x6d,0x65,0x74,0x65,0x72,0x73,0x5b,0x00,0x6f,0x3b,0x0a,0x07,0x3b,0x0b,0x69,0x09,0x3b,0x0c,0x5b,0x00,0x6f,0x3b,0x0a,0x07,0x3b,0x0b,0x69,0x09,0x3b,0x0c,0x5b,0x00,0x6f,0x3b,0x0a,0x07,0x3b,0x0b,0x69,0x00,0x3b,0x0c,0x5b,0x00))
  205(5,bytes(0x04,0x08,0x6f,0x3a,0x13,0x52,0x50,0x47,0x3a,0x3a,0x4d,0x6f,0x76,0x65,0x52,0x6f,0x75,0x74,0x65,0x09,0x3a,0x0c,0x40,0x72,0x65,0x70,0x65,0x61,0x74,0x46,0x3a,0x0f,0x40,0x73,0x6b,0x69,0x70,0x70,0x61,0x62,0x6c,0x65,0x46,0x3a,0x0a,0x40,0x77,0x61,0x69,0x74,0x54,0x3a,0x0a,0x40,0x6c,0x69,0x73,0x74,0x5b,0x07,0x6f,0x3a,0x15,0x52,0x50,0x47,0x3a,0x3a,0x4d,0x6f,0x76,0x65,0x43,0x6f,0x6d,0x6d,0x61,0x6e,0x64,0x07,0x3a,0x0a,0x40,0x63,0x6f,0x64,0x65,0x69,0x15,0x3a,0x10,0x40,0x70,0x61,0x72,0x61,0x6d,0x65,0x74,0x65,0x72,0x73,0x5b,0x00,0x6f,0x3b,0x0a,0x07,0x3b,0x0b,0x69,0x00,0x3b,0x0c,0x5b,0x00))
  PictureDisplay(5,"80_gilgoon_st01",0,0,0,0,100,100,0,0)
  PictureMove(5,null,0,0,0,0,100,100,255,0,30,true)
  ShowMessageFace("gilgoon_fc1",0,0,2,1)
  ShowMessage("\\n<Gilgone>")
  ShowMessage("貴様らか……")
  ShowMessage("夢魔の件は解決した以上、もう我に用はないはずだろう。")
  If(0,4,0)
   ShowMessageFace("alice_fc5",2,0,2,2)
   ShowMessage("\\n<Alice>")
   ShowMessage("貴様ほどの者、いるだけで秩序を乱す。")
   ShowMessage("統治者ならば、それも分かろう？")
   0()
  EndIf()
  If(0,5,0)
   ShowMessageFace("iriasu_fc4",7,0,2,3)
   ShowMessage("\\n<Ilias>")
   ShowMessage("あなたほどの力の持ち主を、野放しには出来ません。")
   ShowMessage("存在するだけでも、秩序を乱す事になるのです。")
   0()
  EndIf()
  ShowMessageFace("gilgoon_fc1",0,0,2,4)
  ShowMessage("\\n<Gilgone>")
  ShowMessage("フン……何もせずとも、不穏の種になり得るか。")
  ShowMessage("だが、我はここから動くつもりはないぞ。")
  If(0,4,0)
   ShowMessageFace("alice_fc5",0,0,2,5)
   ShowMessage("\\n<Alice>")
   ShowMessage("元の世界に戻りたいという想いは同じだろう。")
   ShowMessage("我等と共にいれば、それが適いやすくなるぞ。")
   0()
  EndIf()
  If(0,5,0)
   ShowMessageFace("iriasu_fc4",7,0,2,6)
   ShowMessage("\\n<Ilias>")
   ShowMessage("元の世界に戻りたいという想いは同じはず。")
   ShowMessage("我々と共にいれば、そのための手段も見付けやすいでしょう。")
   0()
  EndIf()
  ShowMessageFace("gilgoon_fc1",0,0,2,7)
  ShowMessage("\\n<Gilgone>")
  ShowMessage("ええい、ここから動くつもりはないと言った！")
  ShowMessage("無理強いするならば、力をもって排除するぞ！")
  If(0,4,0)
   ShowMessageFace("alice_fc5",2,0,2,8)
   ShowMessage("\\n<Alice>")
   ShowMessage("くっ……なんて強情な奴だ！")
   ShowMessage("仕方ない、快楽に屈するがいい！")
   0()
  EndIf()
  If(0,5,0)
   ShowMessageFace("iriasu_fc4",7,0,2,9)
   ShowMessage("\\n<Ilias>")
   ShowMessage("まったく、なんと強情なのでしょう！")
   ShowMessage("ならば以前と同じく、快楽責めで堕とします！")
   0()
  EndIf()
  ShowMessageFace("gilgoon_fc1",0,0,2,10)
  ShowMessage("\\n<Gilgone>")
  ShowMessage("ふはははは！")
  ShowMessage("そう来るだろうと思って、対策は整えておいたぞ！")
  250(bytes(0x04,0x08,0x6f,0x3a,0x0c,0x52,0x50,0x47,0x3a,0x3a,0x53,0x45,0x08,0x3a,0x0a,0x40,0x6e,0x61,0x6d,0x65,0x49,0x22,0x0e,0x6d,0x6f,0x6e,0x5f,0x62,0x72,0x65,0x61,0x6b,0x06,0x3a,0x06,0x45,0x54,0x3a,0x0b,0x40,0x70,0x69,0x74,0x63,0x68,0x69,0x69,0x3a,0x0c,0x40,0x76,0x6f,0x6c,0x75,0x6d,0x65,0x69,0x69))
  ShowMessageFace("",0,0,2,11)
  ShowMessage("ギルゴーンの前に「現の壁」が展開された！")
  ShowMessageFace("rejeo_fc1",1,0,2,12)
  ShowMessage("\\n<Rigeo>")
  ShowMessage("この壁……夢世界を拒絶してる？")
  ShowMessageFace("gilgoon_fc1",0,0,2,13)
  ShowMessage("\\n<Gilgone>")
  ShowMessage("その通り……この壁は、夢世界の理を無視できる。")
  ShowMessage("いかなる快楽も、もはや我には通用せんのだ！")
  ShowMessageFace("tarsa_fc2",1,0,2,14)
  ShowMessage("\\n<Tarsa>")
  ShowMessage("本当……？")
  ShowMessage("それじゃあ、試してみようかな……？")
  ShowMessageFace("rejeo_fc1",0,0,2,15)
  ShowMessage("\\n<Rigeo>")
  ShowMessage("やってみるしかなさそうね……")
  221()
  250(bytes(0x04,0x08,0x6f,0x3a,0x0c,0x52,0x50,0x47,0x3a,0x3a,0x53,0x45,0x08,0x3a,0x0a,0x40,0x6e,0x61,0x6d,0x65,0x49,0x22,0x11,0x6d,0x6f,0x6e,0x5f,0x6b,0x61,0x72,0x61,0x62,0x75,0x72,0x69,0x06,0x3a,0x06,0x45,0x54,0x3a,0x0b,0x40,0x70,0x69,0x74,0x63,0x68,0x69,0x69,0x3a,0x0c,0x40,0x76,0x6f,0x6c,0x75,0x6d,0x65,0x69,0x69))
  ShowMessageFace("",0,0,2,16)
  ShowMessage("ターサやリジェオ達はギルゴーンに快楽攻撃を仕掛けた！")
  ShowMessage("しかし、全て遮断されてしまう――")
  222()
  ShowMessageFace("gilgoon_fc1",0,0,2,17)
  ShowMessage("\\n<Gilgone>")
  ShowMessage("はーっはっはっは！")
  ShowMessage("思い知ったか！")
  ShowMessageFace("tarsa_fc2",2,0,2,18)
  ShowMessage("\\n<Tarsa>")
  ShowMessage("本当に通じないなんて……")
  ShowMessageFace("rejeo_fc1",1,0,2,19)
  ShowMessage("\\n<Rigeo>")
  ShowMessage("……これじゃ、続けても無駄ね。")
  ShowMessageFace("gilgoon_fc1",0,0,2,20)
  ShowMessage("\\n<Gilgone>")
  ShowMessage("さあ、さっさと立ち去るが良い！")
  PictureClear(5)
  205(5,bytes(0x04,0x08,0x6f,0x3a,0x13,0x52,0x50,0x47,0x3a,0x3a,0x4d,0x6f,0x76,0x65,0x52,0x6f,0x75,0x74,0x65,0x09,0x3a,0x0c,0x40,0x72,0x65,0x70,0x65,0x61,0x74,0x46,0x3a,0x0f,0x40,0x73,0x6b,0x69,0x70,0x70,0x61,0x62,0x6c,0x65,0x46,0x3a,0x0a,0x40,0x77,0x61,0x69,0x74,0x54,0x3a,0x0a,0x40,0x6c,0x69,0x73,0x74,0x5b,0x07,0x6f,0x3a,0x15,0x52,0x50,0x47,0x3a,0x3a,0x4d,0x6f,0x76,0x65,0x43,0x6f,0x6d,0x6d,0x61,0x6e,0x64,0x07,0x3a,0x0a,0x40,0x63,0x6f,0x64,0x65,0x69,0x18,0x3a,0x10,0x40,0x70,0x61,0x72,0x61,0x6d,0x65,0x74,0x65,0x72,0x73,0x5b,0x00,0x6f,0x3b,0x0a,0x07,0x3b,0x0b,0x69,0x00,0x3b,0x0c,0x5b,0x00))
  If(0,4,0)
   ShowMessageFace("alice_fc5",0,0,2,21)
   ShowMessage("\\n<Alice>")
   ShowMessage("奴の言う通り、ここは退くしかないな。")
   ShowMessage("何か、対策がなければ歯が立たん。")
   0()
  EndIf()
  If(0,5,0)
   ShowMessageFace("iriasu_fc4",2,0,2,22)
   ShowMessage("\\n<Ilias>")
   ShowMessage("口惜しいですが、ここは退くしかありません。")
   ShowMessage("あらためて、対策を立て直しましょう……")
   0()
  EndIf()
  ShowMessageFace("",0,0,2,23)
  ShowMessage("「現の壁」がある限り、ギルゴーンとはまともに戦えない。")
  ShowMessage("だが、この壁を壊せるほど強力な攻撃手段があれば――")
  ShowMessageFace("ruka_fc1",0,0,2,24)
  ShowMessage("\\n<Luka>")
  ShowMessage("……今は、満足な手がないな。")
  ShowMessage("この件は後回しにするしかないか。")
  ShowMessageFace("",0,0,2,25)
  ShowMessage("他の同盟者を追っているうちに、何か思い浮かぶかもしれない。")
  ShowMessage("今は、魔城の探索を続けよう――")
  241(bytes(0x04,0x08,0x6f,0x3a,0x0d,0x52,0x50,0x47,0x3a,0x3a,0x42,0x47,0x4d,0x08,0x3a,0x0a,0x40,0x6e,0x61,0x6d,0x65,0x49,0x22,0x08,0x63,0x62,0x31,0x06,0x3a,0x06,0x45,0x54,0x3a,0x0c,0x40,0x76,0x6f,0x6c,0x75,0x6d,0x65,0x69,0x69,0x3a,0x0b,0x40,0x70,0x69,0x74,0x63,0x68,0x69,0x69))
  EndEventProcessing()
  0()
 PAGE   2
  // condition: variable 1216 >= 3
  0()



EVENT   7
 PAGE   1
  250(bytes(0x04,0x08,0x6f,0x3a,0x0c,0x52,0x50,0x47,0x3a,0x3a,0x53,0x45,0x08,0x3a,0x0a,0x40,0x6e,0x61,0x6d,0x65,0x49,0x22,0x09,0x4d,0x6f,0x76,0x65,0x06,0x3a,0x06,0x45,0x54,0x3a,0x0b,0x40,0x70,0x69,0x74,0x63,0x68,0x69,0x69,0x3a,0x0c,0x40,0x76,0x6f,0x6c,0x75,0x6d,0x65,0x69,0x55))
  TeleportPlayer(0,953,6,7,0,0)
  0()



EVENT   8
 PAGE   1
  ShowMessageFace("",0,0,2,1)
  ShowMessage("地面にメモが落ちている……")
  ShowMessageFace("",0,0,2,2)
  ShowMessage("「結博士の書き置き」")
  ShowMessageFace("",0,0,2,3)
  ShowMessage("やっほー(^○^)")
  ShowMessage("元気しとるか？　カズヤくん(^w^)")
  ShowMessageFace("",0,0,2,4)
  ShowMessage("躯の設計図の中に仕込んでた『安全装置』が")
  ShowMessage("起動したのを確認したから、これ送るで(；゜∀゜)")
  ShowMessageFace("",0,0,2,5)
  ShowMessage("正直、表示座標に向かって適当に転送したから")
  ShowMessage("どこに届くかは見当もつかんわ(/ー￣;)")
  ShowMessageFace("",0,0,2,6)
  ShowMessage("ま！　ラスボス敵地のど真ん中とかじゃ無い限りは")
  ShowMessage("カズヤ君ならすぐに見つけるやろ！(σ≧▽≦)σ")
  ShowMessageFace("",0,0,2,7)
  ShowMessage("他にも役に立ちそうなもん入れといたから")
  ShowMessage("有効に使ってな（＾◇＾）")
  ShowMessageFace("",0,0,2,8)
  ShowMessage("……………………")
  ShowMessageFace("",0,0,2,9)
  ShowMessage("p.s.")
  ShowMessage("ごめん＾＾；")
  0()



EVENT   9
 PAGE   1
  ChangeSelfSwitch("A",0)
  205(-1,bytes(0x04,0x08,0x6f,0x3a,0x13,0x52,0x50,0x47,0x3a,0x3a,0x4d,0x6f,0x76,0x65,0x52,0x6f,0x75,0x74,0x65,0x09,0x3a,0x0c,0x40,0x72,0x65,0x70,0x65,0x61,0x74,0x46,0x3a,0x0f,0x40,0x73,0x6b,0x69,0x70,0x70,0x61,0x62,0x6c,0x65,0x46,0x3a,0x0a,0x40,0x77,0x61,0x69,0x74,0x54,0x3a,0x0a,0x40,0x6c,0x69,0x73,0x74,0x5b,0x07,0x6f,0x3a,0x15,0x52,0x50,0x47,0x3a,0x3a,0x4d,0x6f,0x76,0x65,0x43,0x6f,0x6d,0x6d,0x61,0x6e,0x64,0x07,0x3a,0x0a,0x40,0x63,0x6f,0x64,0x65,0x69,0x18,0x3a,0x10,0x40,0x70,0x61,0x72,0x61,0x6d,0x65,0x74,0x65,0x72,0x73,0x5b,0x00,0x6f,0x3b,0x0a,0x07,0x3b,0x0b,0x69,0x00,0x3b,0x0c,0x5b,0x00))
  ShowMessageFace("",0,0,2,1)
  ShowMessage("地面にメモが落ちている……")
  If(0,4,0)
   ShowMessageFace("alice_fc5",0,0,2,2)
   ShowMessage("\\n<Alice>")
   ShowMessage("これは……")
   ShowMessage("どうやら、カズヤ宛のようだぞ。")
   0()
  EndIf()
  If(0,5,0)
   ShowMessageFace("iriasu_fc4",2,0,2,3)
   ShowMessage("\\n<Ilias>")
   ShowMessage("これは……")
   ShowMessage("どうやら、カズヤ宛のようですね。")
   0()
  EndIf()
  PictureDisplay(5,"80_kazuya_st01",0,0,0,0,100,100,0,0)
  PictureMove(5,null,0,0,0,0,100,100,255,0,30,true)
  ShowMessageFace("kazuya_fc2",3,0,2,4)
  ShowMessage("\\n<Kazuya>")
  ShowMessage("えっ……僕！？")
  ShowMessage("なんで、こんなところに僕あてのメモが……！？")
  ShowMessageFace("",0,0,2,5)
  ShowMessage("「結博士の書き置き」")
  ShowMessageFace("",0,0,2,6)
  ShowMessage("やっほー(^○^)")
  ShowMessage("元気しとるか？　カズヤくん(^w^)")
  ShowMessageFace("",0,0,2,7)
  ShowMessage("躯の設計図の中に仕込んでた『安全装置』が")
  ShowMessage("起動したのを確認したから、これ送るで(；゜∀゜)")
  ShowMessageFace("",0,0,2,8)
  ShowMessage("正直、表示座標に向かって適当に転送したから")
  ShowMessage("どこに届くかは見当もつかんわ(/ー￣;)")
  ShowMessageFace("",0,0,2,9)
  ShowMessage("ま！　ラスボス敵地のど真ん中とかじゃ無い限りは")
  ShowMessage("カズヤ君ならすぐに見つけるやろ！(σ≧▽≦)σ")
  ShowMessageFace("",0,0,2,10)
  ShowMessage("他にも役に立ちそうなもん入れといたから")
  ShowMessage("有効に使ってな（＾◇＾）")
  ShowMessageFace("",0,0,2,11)
  ShowMessage("……………………")
  ShowMessageFace("",0,0,2,12)
  ShowMessage("p.s.")
  ShowMessage("ごめん＾＾；")
  ShowMessageFace("kazuya_fc4",7,0,2,13)
  ShowMessage("\\n<Kazuya>")
  ShowMessage("結博士……")
  ShowMessage("設計図の件は、ぜったいゆるさんからな……")
  ShowMessageFace("kazuya_fc2",2,0,2,14)
  ShowMessage("\\n<Kazuya>")
  ShowMessage("っていうか、『役に立ちそうなもの』って……")
  ShowMessage("肝心のブツが、どこにも見当たらないんだけど。")
  ShowMessageFace("",0,0,2,15)
  ShowMessage("地面に、ただメモが落ちていただけ。")
  ShowMessage("送られたはずの物は、どこにも見当たらない――")
  If(0,4,0)
   ShowMessageFace("alice_fc5",0,0,2,16)
   ShowMessage("\\n<Alice>")
   ShowMessage("どうやら、転送の際に拡散したようだな。")
   ShowMessage("まあ、この魔城内のどこかにはあるだろう。")
   0()
  EndIf()
  If(0,5,0)
   ShowMessageFace("iriasu_fc4",2,0,2,17)
   ShowMessage("\\n<Ilias>")
   ShowMessage("どうやら、転送の際に拡散したようですね。")
   ShowMessage("まあ、この魔城内のどこかにあるはずです。")
   0()
  EndIf()
  ShowMessageFace("ruka_fc1",0,0,2,18)
  ShowMessage("\\n<Luka>")
  ShowMessage("念入りに探してみよう。")
  ShowMessage("役に立つものらしいからね……")
  ShowMessageFace("kazuya_fc4",7,0,2,19)
  ShowMessage("\\n<Kazuya>")
  ShowMessage("わざわざすまない……")
  ShowMessage("うちの博士が迷惑かけて。")
  ShowMessageFace("stein_fc2",0,0,2,20)
  ShowMessage("\\n<Promestein>")
  ShowMessage("まったく……困ったものですね。")
  If(0,4,0)
   ShowMessageFace("alice_fc5",5,0,2,21)
   ShowMessage("\\n<Alice>")
   ShowMessage("他人事のように言うな……")
   ShowMessage("貴様は完全に同類ではないか。")
   0()
  EndIf()
  If(0,5,0)
   ShowMessageFace("iriasu_fc4",2,0,2,22)
   ShowMessage("\\n<Ilias>")
   ShowMessage("なにを、まるで他人事のように……")
   ShowMessage("貴方も完全に同類ではないですか。")
   0()
  EndIf()
  PictureClear(5)
  ShowMessageFace("",0,0,2,23)
  ShowMessage("ともかく、躯の専用装備と「役に立つもの」が魔城内にあるらしい。")
  ShowMessage("城内を綿密に探索し、回収できれば戦闘の助けになるだろう。")
  0()
 PAGE   2
  // condition: self-switch A is ON
  0()



EVENT   10
 PAGE   1
  If(6,-1,8)
   205(0,bytes(0x04,0x08,0x6f,0x3a,0x13,0x52,0x50,0x47,0x3a,0x3a,0x4d,0x6f,0x76,0x65,0x52,0x6f,0x75,0x74,0x65,0x09,0x3a,0x0c,0x40,0x72,0x65,0x70,0x65,0x61,0x74,0x46,0x3a,0x0f,0x40,0x73,0x6b,0x69,0x70,0x70,0x61,0x62,0x6c,0x65,0x46,0x3a,0x0a,0x40,0x77,0x61,0x69,0x74,0x54,0x3a,0x0a,0x40,0x6c,0x69,0x73,0x74,0x5b,0x09,0x6f,0x3a,0x15,0x52,0x50,0x47,0x3a,0x3a,0x4d,0x6f,0x76,0x65,0x43,0x6f,0x6d,0x6d,0x61,0x6e,0x64,0x07,0x3a,0x0a,0x40,0x63,0x6f,0x64,0x65,0x69,0x31,0x3a,0x10,0x40,0x70,0x61,0x72,0x61,0x6d,0x65,0x74,0x65,0x72,0x73,0x5b,0x06,0x6f,0x3a,0x0c,0x52,0x50,0x47,0x3a,0x3a,0x53,0x45,0x08,0x3a,0x0a,0x40,0x6e,0x61,0x6d,0x65,0x49,0x22,0x10,0x68,0x61,0x6e,0x64,0x2d,0x64,0x72,0x75,0x6d,0x30,0x31,0x06,0x3a,0x06,0x45,0x54,0x3a,0x0b,0x40,0x70,0x69,0x74,0x63,0x68,0x69,0x69,0x3a,0x0c,0x40,0x76,0x6f,0x6c,0x75,0x6d,0x65,0x69,0x69,0x6f,0x3b,0x0a,0x07,0x3b,0x0b,0x69,0x2e,0x3b,0x0c,0x5b,0x07,0x49,0x22,0x0b,0x73,0x61,0x6e,0x6d,0x61,0x69,0x06,0x3b,0x0f,0x54,0x69,0x06,0x6f,0x3b,0x0a,0x07,0x3b,0x0b,0x69,0x13,0x3b,0x0c,0x5b,0x07,0x69,0x00,0x69,0x00,0x6f,0x3b,0x0a,0x07,0x3b,0x0b,0x69,0x00,0x3b,0x0c,0x5b,0x00))
   205(0,bytes(0x04,0x08,0x6f,0x3a,0x13,0x52,0x50,0x47,0x3a,0x3a,0x4d,0x6f,0x76,0x65,0x52,0x6f,0x75,0x74,0x65,0x09,0x3a,0x0c,0x40,0x72,0x65,0x70,0x65,0x61,0x74,0x46,0x3a,0x0f,0x40,0x73,0x6b,0x69,0x70,0x70,0x61,0x62,0x6c,0x65,0x46,0x3a,0x0a,0x40,0x77,0x61,0x69,0x74,0x46,0x3a,0x0a,0x40,0x6c,0x69,0x73,0x74,0x5b,0x0d,0x6f,0x3a,0x15,0x52,0x50,0x47,0x3a,0x3a,0x4d,0x6f,0x76,0x65,0x43,0x6f,0x6d,0x6d,0x61,0x6e,0x64,0x07,0x3a,0x0a,0x40,0x63,0x6f,0x64,0x65,0x69,0x31,0x3a,0x10,0x40,0x70,0x61,0x72,0x61,0x6d,0x65,0x74,0x65,0x72,0x73,0x5b,0x06,0x6f,0x3a,0x0c,0x52,0x50,0x47,0x3a,0x3a,0x53,0x45,0x08,0x3a,0x0a,0x40,0x6e,0x61,0x6d,0x65,0x49,0x22,0x09,0x53,0x61,0x6e,0x64,0x06,0x3a,0x06,0x45,0x54,0x3a,0x0b,0x40,0x70,0x69,0x74,0x63,0x68,0x69,0x01,0x96,0x3a,0x0c,0x40,0x76,0x6f,0x6c,0x75,0x6d,0x65,0x69,0x55,0x6f,0x3b,0x0a,0x07,0x3b,0x0b,0x69,0x29,0x3b,0x0c,0x5b,0x00,0x6f,0x3b,0x0a,0x07,0x3b,0x0b,0x69,0x2e,0x3b,0x0c,0x5b,0x07,0x49,0x22,0x0b,0x21,0x46,0x6c,0x61,0x6d,0x65,0x06,0x3b,0x0f,0x54,0x69,0x0c,0x6f,0x3b,0x0a,0x07,0x3b,0x0b,0x69,0x17,0x3b,0x0c,0x5b,0x00,0x6f,0x3b,0x0a,0x07,0x3b,0x0b,0x69,0x22,0x3b,0x0c,0x5b,0x06,0x69,0x0a,0x6f,0x3b,0x0a,0x07,0x3b,0x0b,0x69,0x26,0x3b,0x0c,0x5b,0x00,0x6f,0x3b,0x0a,0x07,0x3b,0x0b,0x69,0x14,0x3b,0x0c,0x5b,0x06,0x69,0x23,0x6f,0x3b,0x0a,0x07,0x3b,0x0b,0x69,0x00,0x3b,0x0c,0x5b,0x00))
   ShowMessageFace("youkosan_fc1",3,0,2,1)
   ShowMessage("\\n<妖狐>")
   ShowMessage("むぎゃっ！！\\^\\.\\.")
   ChangeSelfSwitch("A",0)
   EndEventProcessing()
   0()
  Else()
   ShowMessageFace("youkosan_fc2",0,0,2,2)
   ShowMessage("\\n<狐像>")
   ShowMessage("フフフ……。ウチは石像狐。")
   ShowMessage("「お尻」から話しかけない限り退かないのだ。")
   EndEventProcessing()
   0()
  EndIf()
  0()
 PAGE   2
  // condition: self-switch A is ON
  0()
 PAGE   3
  // condition: variable 1216 >= 2
  If(6,-1,8)
   205(0,bytes(0x04,0x08,0x6f,0x3a,0x13,0x52,0x50,0x47,0x3a,0x3a,0x4d,0x6f,0x76,0x65,0x52,0x6f,0x75,0x74,0x65,0x09,0x3a,0x0c,0x40,0x72,0x65,0x70,0x65,0x61,0x74,0x46,0x3a,0x0f,0x40,0x73,0x6b,0x69,0x70,0x70,0x61,0x62,0x6c,0x65,0x46,0x3a,0x0a,0x40,0x77,0x61,0x69,0x74,0x54,0x3a,0x0a,0x40,0x6c,0x69,0x73,0x74,0x5b,0x09,0x6f,0x3a,0x15,0x52,0x50,0x47,0x3a,0x3a,0x4d,0x6f,0x76,0x65,0x43,0x6f,0x6d,0x6d,0x61,0x6e,0x64,0x07,0x3a,0x0a,0x40,0x63,0x6f,0x64,0x65,0x69,0x31,0x3a,0x10,0x40,0x70,0x61,0x72,0x61,0x6d,0x65,0x74,0x65,0x72,0x73,0x5b,0x06,0x6f,0x3a,0x0c,0x52,0x50,0x47,0x3a,0x3a,0x53,0x45,0x08,0x3a,0x0a,0x40,0x6e,0x61,0x6d,0x65,0x49,0x22,0x10,0x68,0x61,0x6e,0x64,0x2d,0x64,0x72,0x75,0x6d,0x30,0x31,0x06,0x3a,0x06,0x45,0x54,0x3a,0x0b,0x40,0x70,0x69,0x74,0x63,0x68,0x69,0x69,0x3a,0x0c,0x40,0x76,0x6f,0x6c,0x75,0x6d,0x65,0x69,0x69,0x6f,0x3b,0x0a,0x07,0x3b,0x0b,0x69,0x2e,0x3b,0x0c,0x5b,0x07,0x49,0x22,0x0b,0x73,0x61,0x6e,0x6d,0x61,0x69,0x06,0x3b,0x0f,0x54,0x69,0x06,0x6f,0x3b,0x0a,0x07,0x3b,0x0b,0x69,0x13,0x3b,0x0c,0x5b,0x07,0x69,0x00,0x69,0x00,0x6f,0x3b,0x0a,0x07,0x3b,0x0b,0x69,0x00,0x3b,0x0c,0x5b,0x00))
   205(0,bytes(0x04,0x08,0x6f,0x3a,0x13,0x52,0x50,0x47,0x3a,0x3a,0x4d,0x6f,0x76,0x65,0x52,0x6f,0x75,0x74,0x65,0x09,0x3a,0x0c,0x40,0x72,0x65,0x70,0x65,0x61,0x74,0x46,0x3a,0x0f,0x40,0x73,0x6b,0x69,0x70,0x70,0x61,0x62,0x6c,0x65,0x46,0x3a,0x0a,0x40,0x77,0x61,0x69,0x74,0x46,0x3a,0x0a,0x40,0x6c,0x69,0x73,0x74,0x5b,0x0d,0x6f,0x3a,0x15,0x52,0x50,0x47,0x3a,0x3a,0x4d,0x6f,0x76,0x65,0x43,0x6f,0x6d,0x6d,0x61,0x6e,0x64,0x07,0x3a,0x0a,0x40,0x63,0x6f,0x64,0x65,0x69,0x31,0x3a,0x10,0x40,0x70,0x61,0x72,0x61,0x6d,0x65,0x74,0x65,0x72,0x73,0x5b,0x06,0x6f,0x3a,0x0c,0x52,0x50,0x47,0x3a,0x3a,0x53,0x45,0x08,0x3a,0x0a,0x40,0x6e,0x61,0x6d,0x65,0x49,0x22,0x09,0x53,0x61,0x6e,0x64,0x06,0x3a,0x06,0x45,0x54,0x3a,0x0b,0x40,0x70,0x69,0x74,0x63,0x68,0x69,0x01,0x96,0x3a,0x0c,0x40,0x76,0x6f,0x6c,0x75,0x6d,0x65,0x69,0x55,0x6f,0x3b,0x0a,0x07,0x3b,0x0b,0x69,0x29,0x3b,0x0c,0x5b,0x00,0x6f,0x3b,0x0a,0x07,0x3b,0x0b,0x69,0x2e,0x3b,0x0c,0x5b,0x07,0x49,0x22,0x0b,0x21,0x46,0x6c,0x61,0x6d,0x65,0x06,0x3b,0x0f,0x54,0x69,0x0c,0x6f,0x3b,0x0a,0x07,0x3b,0x0b,0x69,0x17,0x3b,0x0c,0x5b,0x00,0x6f,0x3b,0x0a,0x07,0x3b,0x0b,0x69,0x22,0x3b,0x0c,0x5b,0x06,0x69,0x0a,0x6f,0x3b,0x0a,0x07,0x3b,0x0b,0x69,0x26,0x3b,0x0c,0x5b,0x00,0x6f,0x3b,0x0a,0x07,0x3b,0x0b,0x69,0x14,0x3b,0x0c,0x5b,0x06,0x69,0x23,0x6f,0x3b,0x0a,0x07,0x3b,0x0b,0x69,0x00,0x3b,0x0c,0x5b,0x00))
   ShowMessageFace("youkosan_fc1",3,0,2,1)
   ShowMessage("\\n<妖狐>")
   ShowMessage("むぎゃっ！！\\^\\.\\.")
   ChangeSelfSwitch("B",0)
   EndEventProcessing()
   0()
  Else()
   If(2,"A",0)
    ShowMessageFace("ruka_fc1",0,0,2,2)
    ShowMessage("\\n<Luka>")
    ShowMessage("あれ？")
    ShowMessage("ここの狐像は追っ払ったはずなのに……")
    ShowMessageFace("youkosan_fc2",0,0,2,3)
    ShowMessage("\\n<狐像>")
    ShowMessage("ちょっと魔王様に頼まれてね。")
    ShowMessage("ここで門番してるんだよ。")
    EndEventProcessing()
    0()
   Else()
    ShowMessageFace("youkosan_fc2",0,0,2,4)
    ShowMessage("\\n<狐像>")
    ShowMessage("フフフ……。ウチは石像狐。")
    ShowMessage("「お尻」から話しかけない限り退かないのだ。")
    0()
   EndIf()
   EndEventProcessing()
   0()
  EndIf()
  0()
 PAGE   4
  // condition: self-switch B is ON
  0()



EVENT   11
 PAGE   1
  // condition: variable 1216 >= 2
  ShowMessageFace("hituzi_fc1",3,0,2,1)
  ShowMessage("\\n<ヒツジ娘>")
  ShowMessage("メェェ……メェェェェ……")
  ShowMessageFace("",0,0,2,2)
  ShowMessage("ヒツジ娘は悲しげに鳴いている……")
  ShowMessageFace("rejeo_fc1",0,0,2,3)
  ShowMessage("\\n<Rigeo>")
  ShowMessage("この子……どうしたの？")
  ShowMessageFace("gilgoon_fc1",0,0,2,4)
  ShowMessage("\\n<Gilgone>")
  ShowMessage("城がこの有様で、すっかり怯えきってしまってな。")
  ShowMessage("我の側を離れようとせん……")
  If(1,1216,0,6,1)
   ShowMessageFace("hituzi_fc1",3,0,2,5)
   ShowMessage("\\n<ヒツジ娘>")
   ShowMessage("メェェ……メェェェェ……")
   ShowMessageFace("gilgoon_fc1",0,0,2,6)
   ShowMessage("\\n<Gilgone>")
   ShowMessage("だが……我はここを出るぞ。")
   ShowMessage("お前はどうするのだ？")
   ShowMessageFace("hituzi_fc1",3,0,2,7)
   ShowMessage("\\n<ヒツジ娘>")
   ShowMessage("……………………")
   ShowMessageFace("hituzi_fc1",3,0,2,8)
   ShowMessage("\\n<ヒツジ娘>")
   ShowMessage("連れていってほしいのら……")
   ShowMessageFace("gilgoon_fc1",0,0,2,9)
   ShowMessage("\\n<Gilgone>")
   ShowMessage("いいだろう、許す。")
   ShowMessage("我と共に来るがいい！")
   205(0,bytes(0x04,0x08,0x6f,0x3a,0x13,0x52,0x50,0x47,0x3a,0x3a,0x4d,0x6f,0x76,0x65,0x52,0x6f,0x75,0x74,0x65,0x09,0x3a,0x0c,0x40,0x72,0x65,0x70,0x65,0x61,0x74,0x46,0x3a,0x0f,0x40,0x73,0x6b,0x69,0x70,0x70,0x61,0x62,0x6c,0x65,0x46,0x3a,0x0a,0x40,0x77,0x61,0x69,0x74,0x54,0x3a,0x0a,0x40,0x6c,0x69,0x73,0x74,0x5b,0x09,0x6f,0x3a,0x15,0x52,0x50,0x47,0x3a,0x3a,0x4d,0x6f,0x76,0x65,0x43,0x6f,0x6d,0x6d,0x61,0x6e,0x64,0x07,0x3a,0x0a,0x40,0x63,0x6f,0x64,0x65,0x69,0x2a,0x3a,0x10,0x40,0x70,0x61,0x72,0x61,0x6d,0x65,0x74,0x65,0x72,0x73,0x5b,0x00,0x6f,0x3b,0x0a,0x07,0x3b,0x0b,0x69,0x0f,0x3b,0x0c,0x5b,0x00,0x6f,0x3b,0x0a,0x07,0x3b,0x0b,0x69,0x2c,0x3b,0x0c,0x5b,0x00,0x6f,0x3b,0x0a,0x07,0x3b,0x0b,0x69,0x00,0x3b,0x0c,0x5b,0x00))
   250(bytes(0x04,0x08,0x6f,0x3a,0x0c,0x52,0x50,0x47,0x3a,0x3a,0x53,0x45,0x08,0x3a,0x0a,0x40,0x6e,0x61,0x6d,0x65,0x49,0x22,0x0a,0x49,0x74,0x65,0x6d,0x31,0x06,0x3a,0x06,0x45,0x54,0x3a,0x0b,0x40,0x70,0x69,0x74,0x63,0x68,0x69,0x69,0x3a,0x0c,0x40,0x76,0x6f,0x6c,0x75,0x6d,0x65,0x69,0x55))
   ChangeInventoryArmor(348,0,0,1,false)
   ShowMessageFace("sonia_fc3",2,0,2,10)
   ShowMessage("\\n<Sonya>")
   ShowMessage("アクセサリになっちゃった！？")
   If(0,4,0)
    ShowMessageFace("alice_fc5",0,0,2,11)
    ShowMessage("\\n<Alice>")
    ShowMessage("なんとも不思議なヒツジだったな……")
    ShowMessage("あれも、我々の世界のものではないのかもしれん。")
    0()
   EndIf()
   If(0,5,0)
    ShowMessageFace("iriasu_fc4",2,0,2,12)
    ShowMessage("\\n<Ilias>")
    ShowMessage("なんとも不思議なヒツジでしたね……")
    ShowMessage("あれも、私達の世界のものではないのかもしれません。")
    0()
   EndIf()
   ChangeSwitch(2958,2958,0)
   EndEventProcessing()
   0()
  Else()
   ShowMessageFace("rejeo_fc1",0,0,2,13)
   ShowMessage("\\n<Rigeo>")
   ShowMessage("そう……かわいそうね。")
   ShowMessageFace("hituzi_fc1",3,0,2,14)
   ShowMessage("\\n<ヒツジ娘>")
   ShowMessage("メェェ……メェェェェ……")
   ShowMessageFace("",0,0,2,15)
   ShowMessage("そっとしておいてあげよう……")
   0()
  EndIf()
  0()
 PAGE   2
  // condition: switch 2958 is ON
  0()



EVENT   12
 PAGE   1
  250(bytes(0x04,0x08,0x6f,0x3a,0x0c,0x52,0x50,0x47,0x3a,0x3a,0x53,0x45,0x08,0x3a,0x0a,0x40,0x6e,0x61,0x6d,0x65,0x49,0x22,0x0a,0x43,0x68,0x65,0x73,0x74,0x06,0x3a,0x06,0x45,0x54,0x3a,0x0b,0x40,0x70,0x69,0x74,0x63,0x68,0x69,0x69,0x3a,0x0c,0x40,0x76,0x6f,0x6c,0x75,0x6d,0x65,0x69,0x55))
  205(0,bytes(0x04,0x08,0x6f,0x3a,0x13,0x52,0x50,0x47,0x3a,0x3a,0x4d,0x6f,0x76,0x65,0x52,0x6f,0x75,0x74,0x65,0x09,0x3a,0x0c,0x40,0x72,0x65,0x70,0x65,0x61,0x74,0x46,0x3a,0x0f,0x40,0x73,0x6b,0x69,0x70,0x70,0x61,0x62,0x6c,0x65,0x46,0x3a,0x0a,0x40,0x77,0x61,0x69,0x74,0x54,0x3a,0x0a,0x40,0x6c,0x69,0x73,0x74,0x5b,0x0b,0x6f,0x3a,0x15,0x52,0x50,0x47,0x3a,0x3a,0x4d,0x6f,0x76,0x65,0x43,0x6f,0x6d,0x6d,0x61,0x6e,0x64,0x07,0x3a,0x0a,0x40,0x63,0x6f,0x64,0x65,0x69,0x29,0x3a,0x10,0x40,0x70,0x61,0x72,0x61,0x6d,0x65,0x74,0x65,0x72,0x73,0x5b,0x00,0x6f,0x3b,0x0a,0x07,0x3b,0x0b,0x69,0x16,0x3b,0x0c,0x5b,0x00,0x6f,0x3b,0x0a,0x07,0x3b,0x0b,0x69,0x14,0x3b,0x0c,0x5b,0x06,0x69,0x08,0x6f,0x3b,0x0a,0x07,0x3b,0x0b,0x69,0x17,0x3b,0x0c,0x5b,0x00,0x6f,0x3b,0x0a,0x07,0x3b,0x0b,0x69,0x14,0x3b,0x0c,0x5b,0x06,0x69,0x08,0x6f,0x3b,0x0a,0x07,0x3b,0x0b,0x69,0x00,0x3b,0x0c,0x5b,0x00))
  ChangeSwitch(2938,2938,0)
  ChangeInventoryWeapon(953,0,0,1,false)
  ShowMessageFace("mukuro_fc1",3,0,2,1)
  ShowMessage("\\n<Mukuro>")
  ShowMessage("これは、私のものだな。")
  ShowMessage("結博士が送ってくれたのか……")
  0()
 PAGE   2
  // condition: switch 2938 is ON
  0()



EVENT   13
 PAGE   1
  250(bytes(0x04,0x08,0x6f,0x3a,0x0c,0x52,0x50,0x47,0x3a,0x3a,0x53,0x45,0x08,0x3a,0x0a,0x40,0x6e,0x61,0x6d,0x65,0x49,0x22,0x0a,0x43,0x68,0x65,0x73,0x74,0x06,0x3a,0x06,0x45,0x54,0x3a,0x0b,0x40,0x70,0x69,0x74,0x63,0x68,0x69,0x69,0x3a,0x0c,0x40,0x76,0x6f,0x6c,0x75,0x6d,0x65,0x69,0x55))
  205(0,bytes(0x04,0x08,0x6f,0x3a,0x13,0x52,0x50,0x47,0x3a,0x3a,0x4d,0x6f,0x76,0x65,0x52,0x6f,0x75,0x74,0x65,0x09,0x3a,0x0c,0x40,0x72,0x65,0x70,0x65,0x61,0x74,0x46,0x3a,0x0f,0x40,0x73,0x6b,0x69,0x70,0x70,0x61,0x62,0x6c,0x65,0x46,0x3a,0x0a,0x40,0x77,0x61,0x69,0x74,0x54,0x3a,0x0a,0x40,0x6c,0x69,0x73,0x74,0x5b,0x0b,0x6f,0x3a,0x15,0x52,0x50,0x47,0x3a,0x3a,0x4d,0x6f,0x76,0x65,0x43,0x6f,0x6d,0x6d,0x61,0x6e,0x64,0x07,0x3a,0x0a,0x40,0x63,0x6f,0x64,0x65,0x69,0x29,0x3a,0x10,0x40,0x70,0x61,0x72,0x61,0x6d,0x65,0x74,0x65,0x72,0x73,0x5b,0x00,0x6f,0x3b,0x0a,0x07,0x3b,0x0b,0x69,0x16,0x3b,0x0c,0x5b,0x00,0x6f,0x3b,0x0a,0x07,0x3b,0x0b,0x69,0x14,0x3b,0x0c,0x5b,0x06,0x69,0x08,0x6f,0x3b,0x0a,0x07,0x3b,0x0b,0x69,0x17,0x3b,0x0c,0x5b,0x00,0x6f,0x3b,0x0a,0x07,0x3b,0x0b,0x69,0x14,0x3b,0x0c,0x5b,0x06,0x69,0x08,0x6f,0x3b,0x0a,0x07,0x3b,0x0b,0x69,0x00,0x3b,0x0c,0x5b,0x00))
  ChangeSwitch(2937,2937,0)
  ChangeInventoryArmor(337,0,0,1,false)
  ShowMessageFace("rovissa_fc1",0,0,2,1)
  ShowMessage("\\n<Rovissa>")
  ShowMessage("この護符……私達の世界に縁ある品ね。")
  ShowMessage("私に扱えそう。")
  0()
 PAGE   2
  // condition: switch 2937 is ON
  0()



EVENT   14
 PAGE   1
  250(bytes(0x04,0x08,0x6f,0x3a,0x0c,0x52,0x50,0x47,0x3a,0x3a,0x53,0x45,0x08,0x3a,0x0a,0x40,0x6e,0x61,0x6d,0x65,0x49,0x22,0x0a,0x43,0x68,0x65,0x73,0x74,0x06,0x3a,0x06,0x45,0x54,0x3a,0x0b,0x40,0x70,0x69,0x74,0x63,0x68,0x69,0x69,0x3a,0x0c,0x40,0x76,0x6f,0x6c,0x75,0x6d,0x65,0x69,0x55))
  205(0,bytes(0x04,0x08,0x6f,0x3a,0x13,0x52,0x50,0x47,0x3a,0x3a,0x4d,0x6f,0x76,0x65,0x52,0x6f,0x75,0x74,0x65,0x09,0x3a,0x0c,0x40,0x72,0x65,0x70,0x65,0x61,0x74,0x46,0x3a,0x0f,0x40,0x73,0x6b,0x69,0x70,0x70,0x61,0x62,0x6c,0x65,0x46,0x3a,0x0a,0x40,0x77,0x61,0x69,0x74,0x54,0x3a,0x0a,0x40,0x6c,0x69,0x73,0x74,0x5b,0x0b,0x6f,0x3a,0x15,0x52,0x50,0x47,0x3a,0x3a,0x4d,0x6f,0x76,0x65,0x43,0x6f,0x6d,0x6d,0x61,0x6e,0x64,0x07,0x3a,0x0a,0x40,0x63,0x6f,0x64,0x65,0x69,0x29,0x3a,0x10,0x40,0x70,0x61,0x72,0x61,0x6d,0x65,0x74,0x65,0x72,0x73,0x5b,0x00,0x6f,0x3b,0x0a,0x07,0x3b,0x0b,0x69,0x16,0x3b,0x0c,0x5b,0x00,0x6f,0x3b,0x0a,0x07,0x3b,0x0b,0x69,0x14,0x3b,0x0c,0x5b,0x06,0x69,0x08,0x6f,0x3b,0x0a,0x07,0x3b,0x0b,0x69,0x17,0x3b,0x0c,0x5b,0x00,0x6f,0x3b,0x0a,0x07,0x3b,0x0b,0x69,0x14,0x3b,0x0c,0x5b,0x06,0x69,0x08,0x6f,0x3b,0x0a,0x07,0x3b,0x0b,0x69,0x00,0x3b,0x0c,0x5b,0x00))
  ChangeSwitch(2939,2939,0)
  ChangeInventoryArmor(370,0,0,1,false)
  ShowMessageFace("tarsa_fc2",1,0,2,1)
  ShowMessage("\\n<Tarsa>")
  ShowMessage("このカードは、私達の世界のモノね。")
  ShowMessage("まるで、私のために用意されたみたい。")
  0()
 PAGE   2
  // condition: switch 2939 is ON
  0()



EVENT   15
 PAGE   1
  0()



EVENT   16
 PAGE   1
  0()



EVENT   17
 PAGE   1
  0()



EVENT   18
 PAGE   1
  0()



EVENT   19
 PAGE   1
  0()



EVENT   20
 PAGE   1
  0()



EVENT   21
 PAGE   1
  0()



EVENT   22
 PAGE   1
  0()



EVENT   23
 PAGE   1
  0()



EVENT   24
 PAGE   1
  0()



EVENT   25
 PAGE   1
  0()



EVENT   26
 PAGE   1
  0()



EVENT   27
 PAGE   1
  0()



EVENT   28
 PAGE   1
  0()



EVENT   29
 PAGE   1
  0()



EVENT   30
 PAGE   1
  0()



EVENT   31
 PAGE   1
  RunCommonEvent(499)
  0()



EVENT   32
 PAGE   1
  // condition: variable 1216 >= 2
  ChangeVariable(1229,1229,0,0,4)
  If(0,2937,0)
   ChangeVariable(1229,1229,2,0,1)
   0()
  EndIf()
  If(0,2938,0)
   ChangeVariable(1229,1229,2,0,1)
   0()
  EndIf()
  If(0,2939,0)
   ChangeVariable(1229,1229,2,0,1)
   0()
  EndIf()
  If(0,2915,0)
   ChangeVariable(1229,1229,2,0,1)
   0()
  EndIf()
  If(1,1229,0,0,0)
   ShowMessageFace("youkosan_fc1",0,0,2,1)
   ShowMessage("\\n<妖狐>")
   ShowMessage("このフロアの宝箱は、もう残ってないみたいだね。")
   ShowMessage("おめでと～♪")
   0()
  Else()
   ShowMessageFace("youkosan_fc1",0,0,2,2)
   ShowMessage("\\n<妖狐>")
   ShowMessage("このフロアの宝箱は、あと\\V[1229]個だね。")
   ShowMessage("がんばって探してみてよ！！")
   0()
  EndIf()
  If(1,1216,0,5,2)
   ShowMessageFace("youkosan_fc1",0,0,2,3)
   ShowMessage("\\n<妖狐>")
   ShowMessage("あとこのフロアには、魔王様が引きこもってるよ。")
   ShowMessage("ずっと何か研究してるみたいだね。")
   0()
  Else()
   If(0,2958,1)
    ShowMessageFace("youkosan_fc1",0,0,2,4)
    ShowMessage("\\n<妖狐>")
    ShowMessage("あとこのフロアには、ヘンな羊がいるよ。")
    ShowMessage("魔王様のいたところで、悲しげに鳴いてるんだ……")
    0()
   EndIf()
   0()
  EndIf()
  0()
